{
    "univ_id": "",
    "course_title": [
        {
            "url": "",
            "elements": [
                {
                    "elementType": "scrape_by_xpath",
                    "selectors": [
                        "//*[@class='field-item even']/h2"
                    ]
                }
            ]
        }
    ],
    "course_url": [
        {
            "url": "",
            "elements": [
                {
                    "elementType": "current_page_url",
                    "selectors": [
                        "nothing"
                    ]
                }
            ]
        }
    ],
    "page_url": "",
    "course_discipline": [
        {
            "url": "",
            "elements": [
                {
                    "elementType": "scrape_by_xpath",
                    "selectors": [
                        ""
                    ]
                }
            ]
        }
    ],
    "program_code": [
        {
            "url": "",
            "elements": [
                {
                    "elementType": "scrape_by_xpath",
                    "selectors": [
                        ""
                    ]
                }
            ]
        }
    ],
    "course_study_level": [
        {
            "url": "",
            "elements": [
                {
                    "elementType": "scrape_text_content",
                    "selectors": [
                        "//*[@class='content clearfix']/div/div[contains(text(),'Accreditation:')]/following::div[1]/div[1]/text()"
                    ]
                }
            ]
        }
    ],
    "course_campus_location": [
        {
            "url": "",
            "elements": [
                {
                    "elementType": "scrape_by_xpath",
                    "selectors": [
                        "//*[@class='content clearfix']/div/div[contains(text(),'Campus:')]/following::div[1]/div[1]"
                    ]
                }
            ]
        }
    ],
    "course_duration": "",
    "course_duration_full_time": [
        {
            "url": "",
            "elements": [
                {
                    "elementType": "scrape_by_xpath",
                    "selectors": [
                        "//*[@class='content clearfix']/div/div[contains(text(),'Length of Study:')]/following::div[1]/div[1]"
                    ]
                }
            ]
        }
    ],
    "ielts_req": [
        {
            "url": "",
            "elements": [
                {
                    "elementType": "scrape_by_xpath",
                    "selectors": [
                        ""
                    ]
                }
            ]
        }
    ],
    "course_toefl_ielts_score": [
        {
            "url": "",
            "elements": [
                {
                    "elementType": "div",
                    "selectors": [
                        ""
                    ]
                }
            ]
        }
    ],
    "course_intake": [
        {
            "url": "",
            "elements": [
                {
                    "elementType": "scrape_by_xpath",
                    "selectors": [
                        ""
                    ]
                }
            ]
        }
    ],
    "course_overview": [
        {
            "url": "",
            "elements": [
                {
                    "elementType": "scrape_by_xpath",
                    "selectors": [
                        "//*[@class='pull-quote']"
                    ]
                }
            ]
        }
    ],
    "course_career_outcome": [
        {
            "url": "",
            "elements": [
                {
                    "elementType": "scrape_by_xpath",
                    "selectors": [
                        ""
                    ]
                }
            ]
        }
    ],
    "course_tuition_fees_year": [
        {
            "url": "",
            "elements": [
                {
                    "elementType": "readfromfile",
                    "value": "./selectors/university_hard_coded_data.json",
                    "selectors": [
                        "course_tuition_fees_year"
                    ]
                }
            ]
        }
    ],
    "course_tuition_fee_duration_years": [
        {
            "url": "",
            "elements": [
                {
                    "elementType": "readfromfile",
                    "value": "./selectors/university_hard_coded_data.json",
                    "selectors": [
                        "course_tuition_fee_duration_years"
                    ]
                }
            ]
        }
    ],
    "course_tuition_fees_currency": [
        {
            "elements": [
                {
                    "elementType": "readfromfile",
                    "value": "./selectors/university_hard_coded_data.json",
                    "selectors": [
                        "course_tuition_fees_currency"
                    ]
                }
            ]
        }
    ],
    "course_admission_english_more_details": [
        {
            "url": "",
            "elements": [
                {
                    "elementType": "readfromfile",
                    "value": "./selectors/university_hard_coded_data.json",
                    "selectors": [
                        "course_admission_english_more_details"
                    ]
                }
            ]
        }
    ],
    "academic_requirements_url": [
        {
            "url": "",
            "elements": [
                {
                    "elementType": "readfromfile",
                    "value": "./selectors/university_hard_coded_data.json",
                    "selectors": [
                        "academic_requirements_url"
                    ]
                }
            ]
        }
    ],
    "entry_requirements_url": [
        {
            "url": "",
            "elements": [
                {
                    "elementType": "readfromfile",
                    "value": "./selectors/university_hard_coded_data.json",
                    "selectors": [
                        "entry_requirements_url"
                    ]
                }
            ]
        }
    ],
    "course_admission_academic_more_details": [
        {
            "url": "",
            "elements": [
                {
                    "elementType": "readfromfile",
                    "value": "./selectors/university_hard_coded_data.json",
                    "selectors": [
                        "academic_details_more"
                    ]
                }
            ]
        }
    ],
    "course_country": [
        {
            "elements": [
                {
                    "elementType": "readfromfile",
                    "value": "./selectors/university_hard_coded_data.json",
                    "selectors": [
                        "univ_country"
                    ]
                }
            ]
        }
    ],
    "course_tuition_fees_international_student": [
        {
            "url": "",
            "elements": [
                {
                    "elementType": "scrape_by_action",
                    "selectors": []
                }
            ]
        }
    ],
    "course_tuition_fees_international_student_more": [
        {
            "url": "",
            "elements": [
                {
                    "elementType": "scrape_by_xpath",
                    "selectors": [
                        ""
                    ]
                }
            ]
        }
    ],
    
    "course_academic_requirement": [
        {
            "url": "https://www.senecacollege.ca/international/apply/how-to-apply/admission-requirements/academic-requirements.html",
            "elements": [
                {
                    "elementType": "scrape_by_xpath",
                    "selectors": [
                        "//*[@id='content']/div/div[3]"
                    ]
                }
            ]
        }
    ],
    "course_outline": [
        {
            "url": "",
            "elements": [
                {
                    "elementType": "",               
                    "selectors": [
                    ]
                }
            ]
        }
    ],
    "course_outline_minor":[
        {
            "url": "",
            "elements": [
                {
                    "elementType": "",
                    "selectors": []
                }
            ]
        }
    ],
    "course_outline_moredetails":[
        {
            "url": "",
            "elements": [
                {
                    "elementType": "",
                    "selectors": []
                }
            ]
        }
    ],
    "application_fees":[
        {
            "url": "",
            "elements": [
                {
                    "elementType": "readfromfile",
                    "value": "./selectors/university_hard_coded_data.json",
                    "selectors": [
                        "application_fee"
                    ]
                }
            ]
        }
 
    ] 
}