{
      "univ_id": "sacredheartinternationalcollege",
      "course_title": " Certificate IV in Human Resources",
      "course_url": "https://shic.vic.edu.au/k-course/certificate-iv-human-resources/",
      "course_campus_location": [
            {
                  "name": "Bourke St",
                  "code": "097053G"
            }
      ],
      "course_study_mode": "On campus",
      "course_outline": {
            "majors": [],
            "minors": [],
            "more_details": "https://shic.vic.edu.au/k-course/certificate-iv-human-resources/"
      },
      "application_fee": "",
      "course_discipline": [
            "Human Resources"
      ],
      "program_code": "BSB41015",
      "course_study_level": "Certificate IV",
      "course_duration": "28 weeks",
      "course_duration_display": [
            {
                  "unit": "weeks",
                  "duration": "28",
                  "display": "Full-Time",
                  "filterduration": 0.536985860011622
            }
      ],
      "isfulltime": true,
      "isparttime": false,
      "course_admission_requirement": {
            "english": [
                  {
                        "name": "ielts academic",
                        "description": "If the student cannot provide a satisfactory IELTS score or equivalent, the student is advised to take College Placement test to check if he/she can satisfy the minimum English Requirement. If there are doubts about the student’s English language skills to cope in an academic environment, the student is advised to undertake an English (ELICOS) course at an approved provider for an appropriate duration until the client achieves an IELTS score of 5.5.",
                        "min": 0,
                        "require": 5.5,
                        "max": 9,
                        "R": 0,
                        "W": 0,
                        "S": 0,
                        "L": 0,
                        "O": 0
                  }
            ],
            "academic": [
                  ""
            ],
            "english_requirements_url": "",
            "academic_requirements_url": "",
            "entry_requirements_url": ""
      },
      "course_intake": {
            "intake": [
                  {
                        "name": "Bourke St",
                        "value": [
                              {
                                    "actualdate": "20-01-2020",
                                    "month": "January"
                              },
                              {
                                    "actualdate": "10-02-2020",
                                    "month": "February"
                              },
                              {
                                    "actualdate": "16-03-2020",
                                    "month": "March"
                              },
                              {
                                    "actualdate": "06-04-2020",
                                    "month": "April"
                              },
                              {
                                    "actualdate": "11-05-2020",
                                    "month": "May"
                              },
                              {
                                    "actualdate": "01-06-2020",
                                    "month": "June"
                              },
                              {
                                    "actualdate": "15-06-2020",
                                    "month": "June"
                              },
                              {
                                    "actualdate": "03-08-2020",
                                    "month": "August"
                              },
                              {
                                    "actualdate": "07-09-2020",
                                    "month": "September"
                              },
                              {
                                    "actualdate": "28-09-2020",
                                    "month": "September"
                              },
                              {
                                    "actualdate": "19-10-2020",
                                    "month": "October"
                              },
                              {
                                    "actualdate": "23-11-2020",
                                    "month": "November"
                              },
                              {
                                    "actualdate": "14-12-2020",
                                    "month": "December"
                              }
                        ]
                  }
            ],
            "more_details": "http://shic.vic.edu.au/intakes/"
      },
      "course_overview": "Your Name (required)\n",
      "course_career_outcome": "",
      "course_country": "Australia",
      "course_tuition_fee": {
            "fees": [
                  {
                        "name": "Bourke St",
                        "value": {
                              "international_student": {
                                    "amount": 5200,
                                    "duration": 28,
                                    "unit": "weeks",
                                    "description": "$5,200"
                              },
                              "fee_duration_years": "1",
                              "currency": "AUD"
                        }
                  }
            ]
      },
      "course_id": "certificateivinhumanresources"
}