{
      "univ_id": "sacredheartinternationalcollege",
      "course_title": " Certificate IV in Business",
      "course_url": "https://shic.vic.edu.au/k-course/certificate-iv-in-business/",
      "course_campus_location": [
            {
                  "name": "Bourke St",
                  "code": "095280A"
            }
      ],
      "course_study_mode": "On campus",
      "course_outline": {
            "majors": [],
            "minors": [],
            "more_details": "https://shic.vic.edu.au/k-course/certificate-iv-in-business/"
      },
      "application_fee": "",
      "course_discipline": [
            "Business"
      ],
      "program_code": "BSB40215",
      "course_study_level": "Certificate IV",
      "course_duration": "28 weeks",
      "course_duration_display": [
            {
                  "unit": "weeks",
                  "duration": "28",
                  "display": "Full-Time",
                  "filterduration": 0.536985860011622
            }
      ],
      "isfulltime": true,
      "isparttime": false,
      "course_admission_requirement": {
            "english": [
                  {
                        "name": "ielts academic",
                        "description": "",
                        "min": 0,
                        "require": 0,
                        "max": 9,
                        "R": 0,
                        "W": 0,
                        "S": 0,
                        "L": 0,
                        "O": 0
                  }
            ],
            "academic": [
                  ""
            ],
            "english_requirements_url": "",
            "academic_requirements_url": "",
            "entry_requirements_url": ""
      },
      "course_intake": {
            "intake": [
                  {
                        "name": "Bourke St",
                        "value": [
                              {
                                    "actualdate": "20-01-2020",
                                    "month": "January"
                              },
                              {
                                    "actualdate": "24-02-2020",
                                    "month": "February"
                              },
                              {
                                    "actualdate": "09-03-2020",
                                    "month": "March"
                              },
                              {
                                    "actualdate": "06-04-2020",
                                    "month": "April"
                              },
                              {
                                    "actualdate": "04-05-2020",
                                    "month": "May"
                              },
                              {
                                    "actualdate": "08-06-2020",
                                    "month": "June"
                              },
                              {
                                    "actualdate": "03-08-2020",
                                    "month": "August"
                              },
                              {
                                    "actualdate": "17-08-2020",
                                    "month": "August"
                              },
                              {
                                    "actualdate": "07-09-2020",
                                    "month": "September"
                              },
                              {
                                    "actualdate": "19-10-2020",
                                    "month": "October"
                              },
                              {
                                    "actualdate": "16-11-2020",
                                    "month": "November"
                              },
                              {
                                    "actualdate": "07-12-2020",
                                    "month": "December"
                              }
                        ]
                  }
            ],
            "more_details": "http://shic.vic.edu.au/intakes/"
      },
      "course_overview": "",
      "course_career_outcome": "",
      "course_country": "Australia",
      "course_tuition_fee": {
            "fees": [
                  {
                        "name": "Bourke St",
                        "value": {
                              "international_student": {
                                    "amount": 5200,
                                    "duration": 28,
                                    "unit": "weeks",
                                    "description": "$5,200"
                              },
                              "fee_duration_years": "1",
                              "currency": "AUD"
                        }
                  }
            ]
      },
      "course_id": "certificateivinbusiness"
}