[
    {
        "program_code": "11198",
        "cricos_code": "032749A",
        "course_name": "Graduate Certificate in Applied Finance",
        "course_fee": "$19,260"
    },
    {
        "program_code": "11255",
        "cricos_code": "032732K",
        "course_name": "Graduate Certificate in Applied Linguistics",
        "course_fee": "$16,200"
    },
    {
        "program_code": "40142",
        "cricos_code": "022956K",
        "course_name": "Graduate Certificate in Business Administration",
        "course_fee": "$19,260"
    },
    {
        "program_code": "11372",
        "cricos_code": "022956K",
        "course_name": "Graduate Certificate in Business Administration (in teach out)",
        "course_fee": "$19,260"
    },
    {
        "program_code": "12190",
        "cricos_code": "065593K",
        "course_name": "Graduate Certificate in Business Research (in teach out)",
        "course_fee": "$14,445"
    },
    {
        "program_code": "11684",
        "cricos_code": "095233G",
        "course_name": "Graduate Certificate in Clinical Epidemiology",
        "course_fee": "$17,460"
    },
    {
        "program_code": "40131",
        "cricos_code": "096165G",
        "course_name": "Graduate Certificate in Creative Industries",
        "course_fee": "$17,755"
    },
    {
        "program_code": "40019",
        "cricos_code": "090807D",
        "course_name": "Graduate Certificate in Disaster Risk Reduction",
        "course_fee": "$16,980"
    },
    {
        "program_code": "40139",
        "cricos_code": "096749E",
        "course_name": "Graduate Certificate in Education",
        "course_fee": "$16,200"
    },
    {
        "program_code": "40134",
        "cricos_code": "027432J",
        "course_name": "Graduate Certificate in Human Resource Management",
        "course_fee": "$19,260"
    },
    {
        "program_code": "11040",
        "cricos_code": "027432J",
        "course_name": "Graduate Certificate in Human Resource Management (in teach out)",
        "course_fee": "$19,260"
    },
    {
        "program_code": "12381",
        "cricos_code": "096443A",
        "course_name": "Graduate Certificate in Information Technology",
        "course_fee": "$19,315"
    },
    {
        "program_code": "40067",
        "cricos_code": "092845D",
        "course_name": "Graduate Certificate in Innovation Management and Entrepreneurship",
        "course_fee": "$19,495"
    },
    {
        "program_code": "40136",
        "cricos_code": "027423K",
        "course_name": "Graduate Certificate in Marketing",
        "course_fee": "$19,260"
    },
    {
        "program_code": "40026",
        "cricos_code": "089717E",
        "course_name": "Graduate Certificate in Pollution Impact Assessment",
        "course_fee": "$20,430"
    },
    {
        "program_code": "12187",
        "cricos_code": "065470K",
        "course_name": "Graduate Certificate in Professional Accounting",
        "course_fee": "$15,690"
    },
    {
        "program_code": "12376",
        "cricos_code": "084166E",
        "course_name": "Graduate Certificate in Social Change and Development",
        "course_fee": "$13,530"
    },
    {
        "program_code": "40047",
        "cricos_code": "082394J",
        "course_name": "Doctor of Medicine",
        "course_fee": "$70,920"
    },
    {
        "program_code": "40025",
        "cricos_code": "089718D",
        "course_name": "Graduate Diploma in Environmental Risk Assessment and Remediation",
        "course_fee": "$40,855"
    },
    {
        "program_code": "12334",
        "cricos_code": "079631E",
        "course_name": "Juris Doctor / Graduate Diploma in Legal Practice",
        "course_fee": "$31,785"
    },
    {
        "program_code": "12374",
        "cricos_code": "083518E",
        "course_name": "Master of Applied Finance",
        "course_fee": "$38,520"
    },
    {
        "program_code": "11256",
        "cricos_code": "032733J",
        "course_name": "Master of Applied Linguistics",
        "course_fee": "$32,400"
    },
    {
        "program_code": "12060",
        "cricos_code": "062019J",
        "course_name": "Master of Architecture",
        "course_fee": "$33,960"
    },
    {
        "program_code": "40098",
        "cricos_code": "096893G",
        "course_name": "Master of BioInnovation and Design",
        "course_fee": "$38,895"
    },
    {
        "program_code": "40137",
        "cricos_code": "083519D",
        "course_name": "Master of Business Administration",
        "course_fee": "$38,300"
    },
    {
        "program_code": "40160",
        "cricos_code": "096747G",
        "course_name": "Master of Business Administration (Global)",
        "course_fee": "$29,770"
    },
    {
        "program_code": "12379",
        "cricos_code": "083519D",
        "course_name": "Master of Business Administration (in teach out)",
        "course_fee": "$38,425"
    },
    {
        "program_code": "40145",
        "cricos_code": "084250J",
        "course_name": "Master of Business Administration / Master of Applied Finance",
        "course_fee": "$38,520"
    },
    {
        "program_code": "12397",
        "cricos_code": "084250J",
        "course_name": "Master of Business Administration / Master of Applied Finance (in teach out)",
        "course_fee": "$38,520"
    },
    {
        "program_code": "40146",
        "cricos_code": "084247D",
        "course_name": "Master of Business Administration / Master of Human Resource Management",
        "course_fee": "$38,145"
    },
    {
        "program_code": "12398",
        "cricos_code": "084247D",
        "course_name": "Master of Business Administration / Master of Human Resource Management (in tea",
        "course_fee": "$38,520"
    },
    {
        "program_code": "40147",
        "cricos_code": "084248C",
        "course_name": "Master of Business Administration / Master of International Business",
        "course_fee": "$38,520"
    },
    {
        "program_code": "12399",
        "cricos_code": "084248C",
        "course_name": "Master of Business Administration / Master of International Business (in teach out)",
        "course_fee": "$38,520"
    },
    {
        "program_code": "40148",
        "cricos_code": "084249B",
        "course_name": "Master of Business Administration / Master of Marketing",
        "course_fee": "$38,410 "
    },
    {
        "program_code": " 11695",
        "cricos_code": "059907C",
        "course_name": "Master of Business Administration / Master of Marketing (in teach out)",
        "course_fee": "$38,520"
    },
    {
        "program_code": "12400",
        "cricos_code": "084249B",
        "course_name": "Master of Business Administration / Master of Marketing (in teach out)",
        "course_fee": "$38,520"
    },
    {
        "program_code": "11685",
        "cricos_code": "095234G",
        "course_name": "Master of Clinical Epidemiology",
        "course_fee": "$34,890"
    },
    {
        "program_code": "40187",
        "cricos_code": "098562M",
        "course_name": "Master of Clinical Psychology",
        "course_fee": "$42,390"
    },
    {
        "program_code": "12380",
        "cricos_code": "050539F",
        "course_name": "Master of Clinical Psychology (in teach out)",
        "course_fee": "$42,390"
    },
    {
        "program_code": "40132",
        "cricos_code": "096166F",
        "course_name": "Master of Creative Industries",
        "course_fee": "$35,870"
    },
    {
        "program_code": "40115",
        "cricos_code": "095159B",
        "course_name": "Master of Disaster Resilience and Sustainable Development",
        "course_fee": "$34,790"
    },
    {
        "program_code": "40193",
        "cricos_code": "098481A",
        "course_name": "Master of Dispute Resolution",
        "course_fee": "$31,785"
    },
    {
        "program_code": "40138",
        "cricos_code": "096748F",
        "course_name": "Master of Education",
        "course_fee": "$33,090"
    },
    {
        "program_code": "10418",
        "cricos_code": "000627J",
        "course_name": "Master of Educational Studies (in teach out)",
        "course_fee": "$31,930"
    },
    {
        "program_code": "40012",
        "cricos_code": "000627J",
        "course_name": "Master of Educational Studies (in teach out)",
        "course_fee": "$32,315"
    },
    {
        "program_code": "11277",
        "cricos_code": "032388K",
        "course_name": "Master of Engineering Management",
        "course_fee": "$39,290"
    },
    {
        "program_code": "40024",
        "cricos_code": "089721J",
        "course_name": "Master of Environmental Risk Assessment and Remediation",
        "course_fee": "$40,855"
    },
    {
        "program_code": "40133",
        "cricos_code": "083520M",
        "course_name": "Master of Human Resource Management",
        "course_fee": "$37,945"
    },
    {
        "program_code": "12386",
        "cricos_code": "083520M",
        "course_name": "Master of Human Resource Management (in teach out)",
        "course_fee": "$38,520"
    },
    {
        "program_code": "40177",
        "cricos_code": "083517F",
        "course_name": "Master of Information Technology",
        "course_fee": "$38,340"
    },
    {
        "program_code": "12382",
        "cricos_code": "083517F",
        "course_name": "Master of Information Technology (in teach out)",
        "course_fee": "$38,815"
    },
    {
        "program_code": "40068",
        "cricos_code": "092846C",
        "course_name": "Master of Innovation Management and Entrepreneurship (in teach out)",
        "course_fee": "$38,720"
    },
    {
        "program_code": "12384",
        "cricos_code": "083521K",
        "course_name": "Master of International Business",
        "course_fee": "$38,520"
    },
    {
        "program_code": "12333",
        "cricos_code": "079533G",
        "course_name": "Master of Laws",
        "course_fee": "$31,785"
    },
    {
        "program_code": "40013",
        "cricos_code": "023082C",
        "course_name": "Master of Leadership and Management in Education",
        "course_fee": "$32,400"
    },
    {
        "program_code": "40135",
        "cricos_code": "083522J",
        "course_name": "Master of Marketing",
        "course_fee": "$38,420"
    },
    {
        "program_code": "12385",
        "cricos_code": "083522J",
        "course_name": "Master of Marketing (in teach out)",
        "course_fee": "$38,520"
    },
    {
        "program_code": "40143",
        "cricos_code": "098482M",
        "course_name": "Master of Midwifery Studies",
        "course_fee": "$37,360"
    },
    {
        "program_code": "40156",
        "cricos_code": "097897G",
        "course_name": "Master of Nursing",
        "course_fee": "$36,865"
    },
    {
        "program_code": "11702",
        "cricos_code": "059999E",
        "course_name": "Master of Professional Accounting",
        "course_fee": "$31,980"
    },
    {
        "program_code": "12403",
        "cricos_code": "065471J",
        "course_name": "Master of Professional Accounting (Advanced)",
        "course_fee": "$33,615"
    },
    {
        "program_code": "40164",
        "cricos_code": "096750A",
        "course_name": "Master of Professional Accounting / Master of Business Administration",
        "course_fee": "$34,110"
    },
    {
        "program_code": "40149",
        "cricos_code": "084357J",
        "course_name": "Master of Professional Accounting / Master of Business Administration (in teach out",
        "course_fee": "$36,775"
    },
    {
        "program_code": "12406",
        "cricos_code": "084357J",
        "course_name": "Master of Professional Accounting / Master of Business Administration (in teach out",
        "course_fee": "$34,780"
    },
    {
        "program_code": "40182",
        "cricos_code": "098282G",
        "course_name": "Master of Professional Engineering (Chemical)",
        "course_fee": "$39,790"
    },
    {
        "program_code": "40051",
        "cricos_code": "092854C",
        "course_name": "Master of Professional Engineering (Chemical) (in teach out)",
        "course_fee": "$40,000"
    },
    {
        "program_code": "40183",
        "cricos_code": "098283G",
        "course_name": "Master of Professional Engineering (Civil)",
        "course_fee": "$38,670"
    },
    {
        "program_code": "40049",
        "cricos_code": "092853D",
        "course_name": "Master of Professional Engineering (Civil) (in teach out)",
        "course_fee": "$38,600"
    },
    {
        "program_code": "40060",
        "cricos_code": "092857M",
        "course_name": "Master of Professional Engineering (Computer Systems)",
        "course_fee": "$39,845"
    },
    {
        "program_code": "40184",
        "cricos_code": "098284F",
        "course_name": "Master of Professional Engineering (Electrical and Electronic)",
        "course_fee": "$39,920"
    },
    {
        "program_code": "40065",
        "cricos_code": "092858K",
        "course_name": "Master of Professional Engineering (Electrical and Electronic) (in teach out)",
        "course_fee": "$40,000"
    },
    {
        "program_code": "40053",
        "cricos_code": "092855B",
        "course_name": "Master of Professional Engineering (Environmental)",
        "course_fee": "$38,500"
    },
    {
        "program_code": "40052",
        "cricos_code": "092850G",
        "course_name": "Master of Professional Engineering (Geospatial Engineering and Surveying)",
        "course_fee": "$39,000"
    },
    {
        "program_code": "40185",
        "cricos_code": "098285E",
        "course_name": "Master of Professional Engineering (Mechanical)",
        "course_fee": "$39,825"
    },
    {
        "program_code": "40062",
        "cricos_code": "092851F",
        "course_name": "Master of Professional Engineering (Mechanical) (in teach out)",
        "course_fee": "$40,000"
    },
    {
        "program_code": "40063",
        "cricos_code": "092852E",
        "course_name": "Master of Professional Engineering (Mechatronics)",
        "course_fee": "$40,000"
    },
    {
        "program_code": "40186",
        "cricos_code": "098286D",
        "course_name": "Master of Professional Engineering (Software)",
        "course_fee": "$39,460"
    },
    {
        "program_code": "40117",
        "cricos_code": "098563K",
        "course_name": "Master of Professional Psychology",
        "course_fee": "$42,390"
    },
    {
        "program_code": "11716",
        "cricos_code": "064408B",
        "course_name": "Master of Public Health",
        "course_fee": "$33,725"
    },
    {
        "program_code": "40015",
        "cricos_code": "088342F",
        "course_name": "Master of Social Change and Development",
        "course_fee": "$29,755"
    },
    {
        "program_code": "40123",
        "cricos_code": "096167E",
        "course_name": "Master of Special and Inclusive Education",
        "course_fee": "$32,400"
    },
    {
        "program_code": "11715",
        "cricos_code": "064600B",
        "course_name": "Master of Teaching (in teach out)",
        "course_fee": "$32,400"
    },
    {
        "program_code": "11714",
        "cricos_code": "064598B",
        "course_name": "Master of Teaching (in teach out)",
        "course_fee": "$32,400"
    },
    {
        "program_code": "11125",
        "cricos_code": "039721A",
        "course_name": "Doctor of Philosophy (Aboriginal Health Studies)",
        "course_fee": "$40,770"
    },
    {
        "program_code": "11159",
        "cricos_code": "045938M",
        "course_name": "Doctor of Philosophy (Aboriginal Studies)",
        "course_fee": "$30,345"
    },
    {
        "program_code": "11032",
        "cricos_code": "032761E",
        "course_name": "Doctor of Philosophy (Accounting and Finance)",
        "course_fee": "$30,345"
    },
    {
        "program_code": "11126",
        "cricos_code": "039722M",
        "course_name": "Doctor of Philosophy (Anatomical Pathology)",
        "course_fee": "$40,770"
    },
    {
        "program_code": "11132",
        "cricos_code": "039723K",
        "course_name": "Doctor of Philosophy (Anatomy)",
        "course_fee": "$40,770"
    },
    {
        "program_code": "10184",
        "cricos_code": "006951D",
        "course_name": "Doctor of Philosophy (Architecture)",
        "course_fee": "$36,745"
    },
    {
        "program_code": "11134",
        "cricos_code": "039724J",
        "course_name": "Doctor of Philosophy (Behavioural Science) (In teach out)",
        "course_fee": "$40,770"
    },
    {
        "program_code": "10061",
        "cricos_code": "000851A",
        "course_name": "Doctor of Philosophy (Biological Sciences)",
        "course_fee": "$40,770"
    },
    {
        "program_code": "10853",
        "cricos_code": "012982B",
        "course_name": "Doctor of Philosophy (Building)",
        "course_fee": "$36,745"
    },
    {
        "program_code": "10380",
        "cricos_code": "000822F",
        "course_name": "Doctor of Philosophy (Chemical Engineering)",
        "course_fee": "$40,770"
    },
    {
        "program_code": "10095",
        "cricos_code": "000847G",
        "course_name": "Doctor of Philosophy (Chemistry)",
        "course_fee": "$40,770"
    },
    {
        "program_code": "11028",
        "cricos_code": "002444M",
        "course_name": "Doctor of Philosophy (Civil Engineering)",
        "course_fee": "$40,770"
    },
    {
        "program_code": "10450",
        "cricos_code": "000880G",
        "course_name": "Doctor of Philosophy (Classics)",
        "course_fee": "$30,345"
    },
    {
        "program_code": "12433",
        "cricos_code": "096511E",
        "course_name": "Doctor of Philosophy (Clinical Epidemiology and Medical Statistics)",
        "course_fee": "$32,625"
    },
    {
        "program_code": "11139",
        "cricos_code": "039726G",
        "course_name": "Doctor of Philosophy (Clinical Pharmacology)",
        "course_fee": "$40,770"
    },
    {
        "program_code": "11539",
        "cricos_code": "053412G",
        "course_name": "Doctor of Philosophy (Clinical Psychology)",
        "course_fee": "$40,770"
    },
    {
        "program_code": "10729",
        "cricos_code": "027438C",
        "course_name": "Doctor of Philosophy (Communications and Media Arts)",
        "course_fee": "$36,745"
    },
    {
        "program_code": "11135",
        "cricos_code": "032397J",
        "course_name": "Doctor of Philosophy (Community Medicine and Clinical Epidemiology) (In teach",
        "course_fee": "$32,625"
    },
    {
        "program_code": "11459",
        "cricos_code": "045946M",
        "course_name": "Doctor of Philosophy (Computer Engineering)",
        "course_fee": "$40,770"
    },
    {
        "program_code": "11029",
        "cricos_code": "012986J",
        "course_name": "Doctor of Philosophy (Computer Science)",
        "course_fee": "$36,745"
    },
    {
        "program_code": "11677",
        "cricos_code": "056223M",
        "course_name": "Doctor of Philosophy (Cultural Studies)",
        "course_fee": "$30,345"
    },
    {
        "program_code": "10728",
        "cricos_code": "039943J",
        "course_name": "Doctor of Philosophy (Design)",
        "course_fee": "$36,745"
    },
    {
        "program_code": "11760",
        "cricos_code": "094556G",
        "course_name": "Doctor of Philosophy (Disaster Management)",
        "course_fee": "$36,745"
    },
    {
        "program_code": "10050",
        "cricos_code": "000868C",
        "course_name": "Doctor of Philosophy (Drama)",
        "course_fee": "$30,345"
    },
    {
        "program_code": "11762",
        "cricos_code": "095157D",
        "course_name": "Doctor of Philosophy (Earth Sciences)",
        "course_fee": "$40,770"
    },
    {
        "program_code": "10494",
        "cricos_code": "000865F",
        "course_name": "Doctor of Philosophy (Economics)",
        "course_fee": "$30,345"
    },
    {
        "program_code": "10367",
        "cricos_code": "000869B",
        "course_name": "Doctor of Philosophy (Education)",
        "course_fee": "$30,345"
    },
    {
        "program_code": "10332",
        "cricos_code": "000821G",
        "course_name": "Doctor of Philosophy (Electrical Engineering)",
        "course_fee": "$40,770"
    },
    {
        "program_code": "11719",
        "cricos_code": "069584A",
        "course_name": "Doctor of Philosophy (Engineering)",
        "course_fee": "$40,770"
    },
    {
        "program_code": "10426",
        "cricos_code": "000879M",
        "course_name": "Doctor of Philosophy (English)",
        "course_fee": "$30,345"
    },
    {
        "program_code": "11144",
        "cricos_code": "039727F",
        "course_name": "Doctor of Philosophy (Environmental and Occupational Health)",
        "course_fee": "$36,745"
    },
    {
        "program_code": "11468",
        "cricos_code": "045937A",
        "course_name": "Doctor of Philosophy (Environmental Engineering)",
        "course_fee": "$40,770"
    },
    {
        "program_code": "11751",
        "cricos_code": "087760G",
        "course_name": "Doctor of Philosophy (Environmental Remediation)",
        "course_fee": "$40,770"
    },
    {
        "program_code": "10319",
        "cricos_code": "045948J",
        "course_name": "Doctor of Philosophy (Environmental Science)",
        "course_fee": "$40,770"
    },
    {
        "program_code": "11721",
        "cricos_code": "070422J",
        "course_name": "Doctor of Philosophy (Exercise and Sport Science)",
        "course_fee": "$30,345"
    },
    {
        "program_code": "11590",
        "cricos_code": "057006A",
        "course_name": "Doctor of Philosophy (Experimental Pharmacology)",
        "course_fee": "$40,770"
    },
    {
        "program_code": "11750",
        "cricos_code": "087967C",
        "course_name": "Doctor of Philosophy (Family Studies)",
        "course_fee": "$36,745"
    },
    {
        "program_code": "10727",
        "cricos_code": "016817E",
        "course_name": "Doctor of Philosophy (Fine Art)",
        "course_fee": "$30,345"
    },
    {
        "program_code": "10955",
        "cricos_code": "023093M",
        "course_name": "Doctor of Philosophy (Food Science)",
        "course_fee": "$40,770"
    },
    {
        "program_code": "11214",
        "cricos_code": "037762G",
        "course_name": "Doctor of Philosophy (Gender and Health)",
        "course_fee": "$32,625"
    },
    {
        "program_code": "11136",
        "cricos_code": "039728E",
        "course_name": "Doctor of Philosophy (General Practice)",
        "course_fee": "$40,770"
    },
    {
        "program_code": "10439",
        "cricos_code": "000830F",
        "course_name": "Doctor of Philosophy (Geology)",
        "course_fee": "$40,770"
    },
    {
        "program_code": "12435",
        "cricos_code": "096522B",
        "course_name": "Doctor of Philosophy (Gerontology and Geriatrics)",
        "course_fee": "$32,625"
    },
    {
        "program_code": "12437",
        "cricos_code": "096514B",
        "course_name": "Doctor of Philosophy (Health Economics)",
        "course_fee": "$32,625"
    },
    {
        "program_code": "10041",
        "cricos_code": "000878A",
        "course_name": "Doctor of Philosophy (History)",
        "course_fee": "$30,345"
    },
    {
        "program_code": "11030",
        "cricos_code": "045947K",
        "course_name": "Doctor of Philosophy (Human Geography)",
        "course_fee": "$39,545"
    },
    {
        "program_code": "11140",
        "cricos_code": "039729D",
        "course_name": "Doctor of Philosophy (Human Physiology)",
        "course_fee": "$40,770"
    },
    {
        "program_code": "11128",
        "cricos_code": "039731K",
        "course_name": "Doctor of Philosophy (Immunology and Microbiology)",
        "course_fee": "$40,770"
    },
    {
        "program_code": "11185",
        "cricos_code": "045949G",
        "course_name": "Doctor of Philosophy (Information Systems)",
        "course_fee": "$36,745"
    },
    {
        "program_code": "11524",
        "cricos_code": "053411J",
        "course_name": "Doctor of Philosophy (Information Technology)",
        "course_fee": "$40,770"
    },
    {
        "program_code": "10147",
        "cricos_code": "000856G",
        "course_name": "Doctor of Philosophy (Law)",
        "course_fee": "$30,345"
    },
    {
        "program_code": "10852",
        "cricos_code": "027435F",
        "course_name": "Doctor of Philosophy (Leisure and Tourism)",
        "course_fee": "$30,345"
    },
    {
        "program_code": "10114",
        "cricos_code": "000866E",
        "course_name": "Doctor of Philosophy (Linguistics)",
        "course_fee": "$30,345"
    },
    {
        "program_code": "11742",
        "cricos_code": "082759G",
        "course_name": "Doctor of Philosophy (Magnetic Resonance in Medicine)",
        "course_fee": "$40,770"
    },
    {
        "program_code": "10389",
        "cricos_code": "002429K",
        "course_name": "Doctor of Philosophy (Management)",
        "course_fee": "$30,345"
    },
    {
        "program_code": "11478",
        "cricos_code": "039732J",
        "course_name": "Doctor of Philosophy (Marine Science)",
        "course_fee": "$40,770"
    },
    {
        "program_code": "10033",
        "cricos_code": "002476C",
        "course_name": "Doctor of Philosophy (Mathematics)",
        "course_fee": "$32,625"
    },
    {
        "program_code": "10209",
        "cricos_code": "000817C",
        "course_name": "Doctor of Philosophy (Mechanical Engineering)",
        "course_fee": "$40,770"
    },
    {
        "program_code": "11133",
        "cricos_code": "039733G",
        "course_name": "Doctor of Philosophy (Medical Biochemistry)",
        "course_fee": "$40,770 "
    },
    {
        "program_code": " 12439",
        "cricos_code": "096520D",
        "course_name": "Doctor of Philosophy (Medical Education)",
        "course_fee": "$32,625"
    },
    {
        "program_code": "11129",
        "cricos_code": "039734G",
        "course_name": "Doctor of Philosophy (Medical Genetics)",
        "course_fee": "$40,770"
    },
    {
        "program_code": "11130",
        "cricos_code": "039735F",
        "course_name": "Doctor of Philosophy (Medical Radiation Science)",
        "course_fee": "$36,745"
    },
    {
        "program_code": "11137",
        "cricos_code": "000774J",
        "course_name": "Doctor of Philosophy (Medicine)",
        "course_fee": "$40,770"
    },
    {
        "program_code": "11593",
        "cricos_code": "056225J",
        "course_name": "Doctor of Philosophy (Midwifery)",
        "course_fee": "$36,745"
    },
    {
        "program_code": "10333",
        "cricos_code": "027434G",
        "course_name": "Doctor of Philosophy (Modern Languages)",
        "course_fee": "$30,345"
    },
    {
        "program_code": "10938",
        "cricos_code": "023091B",
        "course_name": "Doctor of Philosophy (Music)",
        "course_fee": "$36,745"
    },
    {
        "program_code": "11735",
        "cricos_code": "075307E",
        "course_name": "Doctor of Philosophy (Natural History Illustration)",
        "course_fee": "$36,745"
    },
    {
        "program_code": "10939",
        "cricos_code": "027433G",
        "course_name": "Doctor of Philosophy (Nursing)",
        "course_fee": "$36,745"
    },
    {
        "program_code": "11131",
        "cricos_code": "032819C",
        "course_name": "Doctor of Philosophy (Nutrition and Dietetics)",
        "course_fee": "$36,745"
    },
    {
        "program_code": "11754",
        "cricos_code": "089914G",
        "course_name": "Doctor of Philosophy (Nutritional Biochemistry)",
        "course_fee": "$40,770"
    },
    {
        "program_code": "11127",
        "cricos_code": "031198B",
        "course_name": "Doctor of Philosophy (Occupational Therapy)",
        "course_fee": "$36,745"
    },
    {
        "program_code": "11591",
        "cricos_code": "056224K",
        "course_name": "Doctor of Philosophy (Oral Health)",
        "course_fee": "$40,770"
    },
    {
        "program_code": "12441",
        "cricos_code": "096517K",
        "course_name": "Doctor of Philosophy (Paediatrics and Child Health)",
        "course_fee": "$40,770"
    },
    {
        "program_code": "11138",
        "cricos_code": "039736E",
        "course_name": "Doctor of Philosophy (Paediatrics) (In teach out)",
        "course_fee": "$40,770"
    },
    {
        "program_code": "11592",
        "cricos_code": "057005B",
        "course_name": "Doctor of Philosophy (Pharmacy)",
        "course_fee": "$40,770"
    },
    {
        "program_code": "10191",
        "cricos_code": "000877B",
        "course_name": "Doctor of Philosophy (Philosophy)",
        "course_fee": "$30,345"
    },
    {
        "program_code": "11031",
        "cricos_code": "000855G",
        "course_name": "Doctor of Philosophy (Physical Geography)",
        "course_fee": "$40,770"
    },
    {
        "program_code": "10299",
        "cricos_code": "000829K",
        "course_name": "Doctor of Philosophy (Physics)",
        "course_fee": "$40,770"
    },
    {
        "program_code": "11463",
        "cricos_code": "045953A",
        "course_name": "Doctor of Philosophy (Physiotherapy)",
        "course_fee": "$36,745"
    },
    {
        "program_code": "11733",
        "cricos_code": "074728C",
        "course_name": "Doctor of Philosophy (Podiatry)",
        "course_fee": "$39,545"
    },
    {
        "program_code": "11482",
        "cricos_code": "045950D",
        "course_name": "Doctor of Philosophy (Politics)",
        "course_fee": "$30,345"
    },
    {
        "program_code": "11141",
        "cricos_code": "039737D",
        "course_name": "Doctor of Philosophy (Psychiatry)",
        "course_fee": "$40,770"
    },
    {
        "program_code": "10216",
        "cricos_code": "000828M",
        "course_name": "Doctor of Philosophy (Psychology - Science)",
        "course_fee": "$40,770"
    },
    {
        "program_code": "12443",
        "cricos_code": "096518J",
        "course_name": "Doctor of Philosophy (Public Health and Behavioural Sciences)",
        "course_fee": "$32,625"
    },
    {
        "program_code": "11693",
        "cricos_code": "064801D",
        "course_name": "Doctor of Philosophy (Religious Studies)",
        "course_fee": "$30,345"
    },
    {
        "program_code": "11142",
        "cricos_code": "039738C",
        "course_name": "Doctor of Philosophy (Reproductive Medicine)",
        "course_fee": "$40,770"
    },
    {
        "program_code": "11727",
        "cricos_code": "073058M",
        "course_name": "Doctor of Philosophy (Social Inclusion)",
        "course_fee": "$30,345"
    },
    {
        "program_code": "10738",
        "cricos_code": "013441A",
        "course_name": "Doctor of Philosophy (Social Work)",
        "course_fee": "$32,625"
    },
    {
        "program_code": "11151",
        "cricos_code": "000867D",
        "course_name": "Doctor of Philosophy (Sociology and Anthropology)",
        "course_fee": "$30,345"
    },
    {
        "program_code": "11474",
        "cricos_code": "045944B",
        "course_name": "Doctor of Philosophy (Software Engineering)",
        "course_fee": "$40,770"
    },
    {
        "program_code": "11472",
        "cricos_code": "045951C",
        "course_name": "Doctor of Philosophy (Speech Pathology)",
        "course_fee": "$36,745"
    },
    {
        "program_code": "10284",
        "cricos_code": "000854J",
        "course_name": "Doctor of Philosophy (Statistics)",
        "course_fee": "$32,625"
    },
    {
        "program_code": "11143",
        "cricos_code": "039739B",
        "course_name": "Doctor of Philosophy (Surgical Science)",
        "course_fee": "$40,770"
    },
    {
        "program_code": "11462",
        "cricos_code": "045935C",
        "course_name": "Doctor of Philosophy (Surveying)",
        "course_fee": "$40,770"
    },
    {
        "program_code": "11480",
        "cricos_code": "039740J",
        "course_name": "Doctor of Philosophy (Sustainable Resource Management)",
        "course_fee": "$39,545"
    },
    {
        "program_code": "11724",
        "cricos_code": "071230J",
        "course_name": "Doctor of Philosophy (Theology)",
        "course_fee": "$30,345"
    },
    {
        "program_code": "12445",
        "cricos_code": "096521C",
        "course_name": "Doctor of Philosophy (Trauma Sciences)",
        "course_fee": "$40,770"
    },
    {
        "program_code": "11644",
        "cricos_code": "039981C",
        "course_name": "Master of Philosophy (Aboriginal Health)",
        "course_fee": "$40,770"
    },
    {
        "program_code": "11617",
        "cricos_code": "045911M",
        "course_name": "Master of Philosophy (Aboriginal Studies)",
        "course_fee": "$30,345"
    },
    {
        "program_code": "11601",
        "cricos_code": "032758M",
        "course_name": "Master of Philosophy (Accounting and Finance)",
        "course_fee": "$30,345"
    },
    {
        "program_code": "11641",
        "cricos_code": "039982B",
        "course_name": "Master of Philosophy (Anatomical Pathology)",
        "course_fee": "$40,770"
    },
    {
        "program_code": "11629",
        "cricos_code": "039983A",
        "course_name": "Master of Philosophy (Anatomy)",
        "course_fee": "$40,770"
    },
    {
        "program_code": "11618",
        "cricos_code": "006950E",
        "course_name": "Master of Philosophy (Architecture)",
        "course_fee": "$36,745"
    },
    {
        "program_code": "11643",
        "cricos_code": "039984M",
        "course_name": "Master of Philosophy (Behavioural Science) (In teach out)",
        "course_fee": "$40,770"
    },
    {
        "program_code": "11661",
        "cricos_code": "032825E",
        "course_name": "Master of Philosophy (Biological Science)",
        "course_fee": "$40,770"
    },
    {
        "program_code": "11619",
        "cricos_code": "012981C",
        "course_name": "Master of Philosophy (Building)",
        "course_fee": "$36,745"
    },
    {
        "program_code": "11626",
        "cricos_code": "032791K",
        "course_name": "Master of Philosophy (Chemical Engineering)",
        "course_fee": "$40,770"
    },
    {
        "program_code": "11662",
        "cricos_code": "032826D",
        "course_name": "Master of Philosophy (Chemistry)",
        "course_fee": "$40,770"
    },
    {
        "program_code": "11624",
        "cricos_code": "032792J",
        "course_name": "Master of Philosophy (Civil Engineering)",
        "course_fee": "$40,770"
    },
    {
        "program_code": "11607",
        "cricos_code": "032734G",
        "course_name": "Master of Philosophy (Classics)",
        "course_fee": "$30,345"
    },
    {
        "program_code": "12432",
        "cricos_code": "096510F",
        "course_name": "Master of Philosophy (Clinical Epidemiology and Medical Statistics)",
        "course_fee": "$32,625"
    },
    {
        "program_code": "11645",
        "cricos_code": "039940A",
        "course_name": "Master of Philosophy (Clinical Pharmacology)",
        "course_fee": "$40,770"
    },
    {
        "program_code": "11657",
        "cricos_code": "032735G",
        "course_name": "Master of Philosophy (Communication and Media Arts)",
        "course_fee": "$36,745"
    },
    {
        "program_code": "11647",
        "cricos_code": "032398G",
        "course_name": "Master of Philosophy (Community Medicine and Clinical Epidemiology) (In teach",
        "course_fee": "$32,625"
    },
    {
        "program_code": "11621",
        "cricos_code": "045922G",
        "course_name": "Master of Philosophy (Computer Engineering)",
        "course_fee": "$40,770"
    },
    {
        "program_code": "11620",
        "cricos_code": "000896K",
        "course_name": "Master of Philosophy (Computer Science)",
        "course_fee": "$36,745"
    },
    {
        "program_code": "11678",
        "cricos_code": "056983D",
        "course_name": "Master of Philosophy (Cultural Studies)",
        "course_fee": "$30,345"
    },
    {
        "program_code": "11658",
        "cricos_code": "032731M",
        "course_name": "Master of Philosophy (Design)",
        "course_fee": "$36,745"
    },
    {
        "program_code": "11759",
        "cricos_code": "094555J",
        "course_name": "Master of Philosophy (Disaster Management)",
        "course_fee": "$36,745"
    },
    {
        "program_code": "11603",
        "cricos_code": "032736F",
        "course_name": "Master of Philosophy (Drama)",
        "course_fee": "$30,345"
    },
    {
        "program_code": "11761",
        "cricos_code": "095158C",
        "course_name": "Master of Philosophy (Earth Sciences)",
        "course_fee": "$40,770"
    },
    {
        "program_code": "11598",
        "cricos_code": "015708G",
        "course_name": "Master of Philosophy (Economics)",
        "course_fee": "$30,345"
    },
    {
        "program_code": "11606",
        "cricos_code": "000909K",
        "course_name": "Master of Philosophy (Education)",
        "course_fee": "$30,345 "
    },
    {
        "program_code": " 11622",
        "cricos_code": "032793G",
        "course_name": "Master of Philosophy (Electrical Engineering)",
        "course_fee": "$40,770"
    },
    {
        "program_code": "11608",
        "cricos_code": "032737E",
        "course_name": "Master of Philosophy (English)",
        "course_fee": "$30,345"
    },
    {
        "program_code": "11637",
        "cricos_code": "039985K",
        "course_name": "Master of Philosophy (Environmental and Occupational Health)",
        "course_fee": "$36,745"
    },
    {
        "program_code": "11625",
        "cricos_code": "045925E",
        "course_name": "Master of Philosophy (Environmental Engineering)",
        "course_fee": "$40,770"
    },
    {
        "program_code": "11752",
        "cricos_code": "087761F",
        "course_name": "Master of Philosophy (Environmental Remediation)",
        "course_fee": "$40,770"
    },
    {
        "program_code": "11663",
        "cricos_code": "045910A",
        "course_name": "Master of Philosophy (Environmental Science)",
        "course_fee": "$40,770"
    },
    {
        "program_code": "11720",
        "cricos_code": "070421K",
        "course_name": "Master of Philosophy (Exercise and Sports Science)",
        "course_fee": "$30,345"
    },
    {
        "program_code": "11630",
        "cricos_code": "057004C",
        "course_name": "Master of Philosophy (Experimental Pharmacology)",
        "course_fee": "$40,770"
    },
    {
        "program_code": "11749",
        "cricos_code": "087966D",
        "course_name": "Master of Philosophy (Family Studies)",
        "course_fee": "$36,745"
    },
    {
        "program_code": "11605",
        "cricos_code": "023083B",
        "course_name": "Master of Philosophy (Fine Art)",
        "course_fee": "$30,345"
    },
    {
        "program_code": "11664",
        "cricos_code": "032853A",
        "course_name": "Master of Philosophy (Food Science)",
        "course_fee": "$40,770"
    },
    {
        "program_code": "11646",
        "cricos_code": "039986J",
        "course_name": "Master of Philosophy (General Practice)",
        "course_fee": "$40,770"
    },
    {
        "program_code": "11665",
        "cricos_code": "032829A",
        "course_name": "Master of Philosophy (Geology)",
        "course_fee": "$40,770"
    },
    {
        "program_code": "12434",
        "cricos_code": "096512D",
        "course_name": "Master of Philosophy (Gerontology and Geriatrics)",
        "course_fee": "$32,625"
    },
    {
        "program_code": "12436",
        "cricos_code": "096513C",
        "course_name": "Master of Philosophy (Health Economics)",
        "course_fee": "$32,625"
    },
    {
        "program_code": "11609",
        "cricos_code": "033236G",
        "course_name": "Master of Philosophy (History)",
        "course_fee": "$30,345"
    },
    {
        "program_code": "11666",
        "cricos_code": "045913J",
        "course_name": "Master of Philosophy (Human Geography)",
        "course_fee": "$39,545"
    },
    {
        "program_code": "11631",
        "cricos_code": "039987G",
        "course_name": "Master of Philosophy (Human Physiology)",
        "course_fee": "$40,770"
    },
    {
        "program_code": "11632",
        "cricos_code": "039988G",
        "course_name": "Master of Philosophy (Immunology and Microbiology)",
        "course_fee": "$40,770"
    },
    {
        "program_code": "11659",
        "cricos_code": "045032J",
        "course_name": "Master of Philosophy (Information Systems)",
        "course_fee": "$36,745"
    },
    {
        "program_code": "11660",
        "cricos_code": "053410K",
        "course_name": "Master of Philosophy (Information Technology)",
        "course_fee": "$40,770"
    },
    {
        "program_code": "11600",
        "cricos_code": "011014C",
        "course_name": "Master of Philosophy (Law)",
        "course_fee": "$30,345"
    },
    {
        "program_code": "11599",
        "cricos_code": "032739C",
        "course_name": "Master of Philosophy (Leisure and Tourism)",
        "course_fee": "$30,345"
    },
    {
        "program_code": "11611",
        "cricos_code": "032740K",
        "course_name": "Master of Philosophy (Linguistics)",
        "course_fee": "$30,345"
    },
    {
        "program_code": "11741",
        "cricos_code": "082760C",
        "course_name": "Master of Philosophy (Magnetic Resonance in Medicine)",
        "course_fee": "$40,770"
    },
    {
        "program_code": "11602",
        "cricos_code": "032759K",
        "course_name": "Master of Philosophy (Management)",
        "course_fee": "$30,345"
    },
    {
        "program_code": "11667",
        "cricos_code": "039719F",
        "course_name": "Master of Philosophy (Marine Science)",
        "course_fee": "$40,770"
    },
    {
        "program_code": "11671",
        "cricos_code": "032828B",
        "course_name": "Master of Philosophy (Mathematics)",
        "course_fee": "$32,625"
    },
    {
        "program_code": "11627",
        "cricos_code": "032794G",
        "course_name": "Master of Philosophy (Mechanical Engineering)",
        "course_fee": "$40,770"
    },
    {
        "program_code": "11633",
        "cricos_code": "039991A",
        "course_name": "Master of Philosophy (Medical Biochemistry)",
        "course_fee": "$40,770"
    },
    {
        "program_code": "12438",
        "cricos_code": "096515A",
        "course_name": "Master of Philosophy (Medical Education)",
        "course_fee": "$32,625"
    },
    {
        "program_code": "11634",
        "cricos_code": "039993K",
        "course_name": "Master of Philosophy (Medical Genetics)",
        "course_fee": "$40,770"
    },
    {
        "program_code": "11670",
        "cricos_code": "032823G",
        "course_name": "Master of Philosophy (Medical Physics)",
        "course_fee": "$40,770"
    },
    {
        "program_code": "11638",
        "cricos_code": "039998E",
        "course_name": "Master of Philosophy (Medical Radiation Science)",
        "course_fee": "$36,745"
    },
    {
        "program_code": "11648",
        "cricos_code": "039999D",
        "course_name": "Master of Philosophy (Medicine)",
        "course_fee": "$40,770"
    },
    {
        "program_code": "11612",
        "cricos_code": "032741J",
        "course_name": "Master of Philosophy (Modern Language)",
        "course_fee": "$30,345"
    },
    {
        "program_code": "11604",
        "cricos_code": "027418G",
        "course_name": "Master of Philosophy (Music)",
        "course_fee": "$36,745"
    },
    {
        "program_code": "11734",
        "cricos_code": "075308D",
        "course_name": "Master of Philosophy (Natural History Illustration)",
        "course_fee": "$36,745"
    },
    {
        "program_code": "11653",
        "cricos_code": "045882M",
        "course_name": "Master of Philosophy (Nursing)",
        "course_fee": "$36,745"
    },
    {
        "program_code": "11639",
        "cricos_code": "040000B",
        "course_name": "Master of Philosophy (Nutrition and Dietetics)",
        "course_fee": "$36,745"
    },
    {
        "program_code": "11753",
        "cricos_code": "088916F",
        "course_name": "Master of Philosophy (Nutritional Biochemistry)",
        "course_fee": "$40,770"
    },
    {
        "program_code": "11640",
        "cricos_code": "039942K",
        "course_name": "Master of Philosophy (Occupational Therapy)",
        "course_fee": "$36,745"
    },
    {
        "program_code": "11635",
        "cricos_code": "056984C",
        "course_name": "Master of Philosophy (Oral Health)",
        "course_fee": "$40,770"
    },
    {
        "program_code": "12440",
        "cricos_code": "096516M",
        "course_name": "Master of Philosophy (Paediatrics and Child Health)",
        "course_fee": "$40,770"
    },
    {
        "program_code": "11649",
        "cricos_code": "040001A",
        "course_name": "Master of Philosophy (Paediatrics) (In teach out)",
        "course_fee": "$40,770"
    },
    {
        "program_code": "11642",
        "cricos_code": "057003D",
        "course_name": "Master of Philosophy (Pharmacy)",
        "course_fee": "$40,770"
    },
    {
        "program_code": "11613",
        "cricos_code": "032743G",
        "course_name": "Master of Philosophy (Philosophy)",
        "course_fee": "$30,345"
    },
    {
        "program_code": "11668",
        "cricos_code": "032827C",
        "course_name": "Master of Philosophy (Physical Geography)",
        "course_fee": "$40,770"
    },
    {
        "program_code": "11672",
        "cricos_code": "032830G",
        "course_name": "Master of Philosophy (Physics)",
        "course_fee": "$40,770"
    },
    {
        "program_code": "11636",
        "cricos_code": "045921J",
        "course_name": "Master of Philosophy (Physiotherapy)",
        "course_fee": "$36,745"
    },
    {
        "program_code": "11732",
        "cricos_code": "074729B",
        "course_name": "Master of Philosophy (Podiatry)",
        "course_fee": "$39,545"
    },
    {
        "program_code": "11597",
        "cricos_code": "045926D",
        "course_name": "Master of Philosophy (Politics)",
        "course_fee": "$30,345"
    },
    {
        "program_code": "11650",
        "cricos_code": "040002M",
        "course_name": "Master of Philosophy (Psychiatry)",
        "course_fee": "$40,770"
    },
    {
        "program_code": "11656",
        "cricos_code": "032831G",
        "course_name": "Master of Philosophy (Psychology)",
        "course_fee": "$40,770"
    },
    {
        "program_code": "12442",
        "cricos_code": "096523A",
        "course_name": "Master of Philosophy (Public Health and Behavioural Sciences)",
        "course_fee": "$32,625"
    },
    {
        "program_code": "11694",
        "cricos_code": "064802C",
        "course_name": "Master of Philosophy (Religious)",
        "course_fee": "$30,345"
    },
    {
        "program_code": "11651",
        "cricos_code": "040003K",
        "course_name": "Master of Philosophy (Reproductive Medicine)",
        "course_fee": "$40,770"
    },
    {
        "program_code": "11726",
        "cricos_code": "073057A",
        "course_name": "Master of Philosophy (Social Inclusion)",
        "course_fee": "$30,345"
    },
    {
        "program_code": "11616",
        "cricos_code": "011015B",
        "course_name": "Master of Philosophy (Social Work)",
        "course_fee": "$32,625"
    },
    {
        "program_code": "11614",
        "cricos_code": "032744F",
        "course_name": "Master of Philosophy (Sociology and Anthropology)",
        "course_fee": "$30,345"
    },
    {
        "program_code": "11623",
        "cricos_code": "045923G",
        "course_name": "Master of Philosophy (Software Engineering)",
        "course_fee": "$40,770"
    },
    {
        "program_code": "11615",
        "cricos_code": "045927C",
        "course_name": "Master of Philosophy (Speech Pathology)",
        "course_fee": "$36,745"
    },
    {
        "program_code": "11673",
        "cricos_code": "032760F",
        "course_name": "Master of Philosophy (Statistics)",
        "course_fee": "$32,625"
    },
    {
        "program_code": "11652",
        "cricos_code": "040004J",
        "course_name": "Master of Philosophy (Surgical Science)",
        "course_fee": "$40,770 "
    },
    {
        "program_code": " 11628",
        "cricos_code": "013963G",
        "course_name": "Master of Philosophy (Surveying)",
        "course_fee": "$40,770"
    },
    {
        "program_code": "11669",
        "cricos_code": "039720B",
        "course_name": "Master of Philosophy (Sustainable Resource Management)",
        "course_fee": "$39,545"
    },
    {
        "program_code": "11723",
        "cricos_code": "071231G",
        "course_name": "Master of Philosophy (Theology)",
        "course_fee": "$30,345"
    },
    {
        "program_code": "12444",
        "cricos_code": "096519G",
        "course_name": "Master of Philosophy (Trauma Sciences)",
        "course_fee": "$40,770 "
    },
    {
        "program_code": "40028",
        "cricos_code": "094558F",
        "course_name": "Associate Degree in Health",
        "course_fee": "$36"
    },
    {
        "program_code": "40167",
        "cricos_code": "099294G",
        "course_name": "Associate Degree in Science",
        "course_fee": "$37"
    },
    {
        "program_code": "12242",
        "cricos_code": "072854B",
        "course_name": "Bachelor Aboriginal Professional Practice (in teach out)",
        "course_fee": "$28"
    },
    {
        "program_code": "12343",
        "cricos_code": " ",
        "course_name": "Bachelor Aboriginal Professional Practice / Bachelor Laws (Honours) (in teach out)",
        "course_fee": "$29"
    },
    {
        "program_code": "11435",
        "cricos_code": "061935C",
        "course_name": "Bachelor Aboriginal Studies (Honours)",
        "course_fee": "$27"
    },
    {
        "program_code": "40096",
        "cricos_code": "001602K",
        "course_name": "Bachelor Arts",
        "course_fee": "$28"
    },
    {
        "program_code": "10435",
        "cricos_code": "001602K",
        "course_name": "Bachelor Arts (in teach out)",
        "course_fee": "$28"
    },
    {
        "program_code": "40209",
        "cricos_code": " ",
        "course_name": "Bachelor Arts (Honours)",
        "course_fee": "$28"
    },
    {
        "program_code": "10214",
        "cricos_code": "000760D",
        "course_name": "Bachelor Arts (Honours) (in teach out)",
        "course_fee": "$29"
    },
    {
        "program_code": "40124",
        "cricos_code": "095148E",
        "course_name": "Bachelor Arts / Bachelor Innovation & Entrepreneurship",
        "course_fee": "$28"
    },
    {
        "program_code": "40150",
        "cricos_code": "023104B",
        "course_name": "Bachelor Arts / Bachelor Laws (Honours)",
        "course_fee": "$30"
    },
    {
        "program_code": "12340",
        "cricos_code": "023104B",
        "course_name": "Bachelor Arts / Bachelor Laws (Honours) (in teach out)",
        "course_fee": "$30"
    },
    {
        "program_code": "10779",
        "cricos_code": "023104B",
        "course_name": "Bachelor Arts / Bachelor Laws (in teach out)",
        "course_fee": "$30"
    },
    {
        "program_code": "40168",
        "cricos_code": "098540F",
        "course_name": "Bachelor Arts / Bachelor Science",
        "course_fee": "$32"
    },
    {
        "program_code": "40097",
        "cricos_code": "023110D",
        "course_name": "Bachelor Biomedical Science",
        "course_fee": "$37"
    },
    {
        "program_code": "10986",
        "cricos_code": "023110D",
        "course_name": "Bachelor Biomedical Science (in teach out)",
        "course_fee": "$38"
    },
    {
        "program_code": "10988",
        "cricos_code": "039702D",
        "course_name": "Bachelor Biomedical Science (Honours)",
        "course_fee": "$38"
    },
    {
        "program_code": "10981",
        "cricos_code": "059879B",
        "course_name": "Bachelor Biotechnology",
        "course_fee": "$38"
    },
    {
        "program_code": "10982",
        "cricos_code": "064596D",
        "course_name": "Bachelor Biotechnology (Honours)",
        "course_fee": "$38"
    },
    {
        "program_code": "40027",
        "cricos_code": "001133A",
        "course_name": "Bachelor Business",
        "course_fee": "$29"
    },
    {
        "program_code": "10039",
        "cricos_code": "001133A",
        "course_name": "Bachelor Business (in teach out)",
        "course_fee": "$30"
    },
    {
        "program_code": "11060",
        "cricos_code": "030569K",
        "course_name": "Bachelor Business (Honours)",
        "course_fee": "$30"
    },
    {
        "program_code": "40035",
        "cricos_code": "029749E",
        "course_name": "Bachelor Business / Bachelor Commerce",
        "course_fee": "$30"
    },
    {
        "program_code": "11065",
        "cricos_code": "029749E",
        "course_name": "Bachelor Business / Bachelor Commerce (in teach out)",
        "course_fee": "$30"
    },
    {
        "program_code": "40016",
        "cricos_code": "088921J",
        "course_name": "Bachelor Business / Bachelor Innovation & Entrepreneurship",
        "course_fee": "$29"
    },
    {
        "program_code": "12344",
        "cricos_code": "032796E",
        "course_name": "Bachelor Business / Bachelor Laws (Honours)",
        "course_fee": "$30"
    },
    {
        "program_code": "40036",
        "cricos_code": "032796E",
        "course_name": "Bachelor Business / Bachelor Laws (Honours)",
        "course_fee": "$29"
    },
    {
        "program_code": "40210",
        "cricos_code": "0100479",
        "course_name": "Bachelor Coastal and Marine Science",
        "course_fee": "$35"
    },
    {
        "program_code": "40029",
        "cricos_code": "001603J",
        "course_name": "Bachelor Commerce",
        "course_fee": "$29"
    },
    {
        "program_code": "10446",
        "cricos_code": "001603J",
        "course_name": "Bachelor Commerce (in teach out)",
        "course_fee": "$29"
    },
    {
        "program_code": "40017",
        "cricos_code": "088922G",
        "course_name": "Bachelor Commerce / Bachelor Innovation & Entrepreneurship",
        "course_fee": "$29"
    },
    {
        "program_code": "40037",
        "cricos_code": "023103C",
        "course_name": "Bachelor Commerce / Bachelor Laws (Honours)",
        "course_fee": "$30"
    },
    {
        "program_code": "12345",
        "cricos_code": "023103C",
        "course_name": "Bachelor Commerce / Bachelor Laws (Honours)(in teach out)",
        "course_fee": "$30"
    },
    {
        "program_code": "11496",
        "cricos_code": "000326M",
        "course_name": "Bachelor Communication",
        "course_fee": "$33"
    },
    {
        "program_code": "11584",
        "cricos_code": "027449M",
        "course_name": "Bachelor Communication (Honours)",
        "course_fee": "$35"
    },
    {
        "program_code": "12342",
        "cricos_code": "038697D",
        "course_name": "Bachelor Communication / Bachelor Laws (Honours)",
        "course_fee": "$31"
    },
    {
        "program_code": "11503",
        "cricos_code": "038697D",
        "course_name": "Bachelor Communication / Bachelor Laws (in teach out)",
        "course_fee": "$31"
    },
    {
        "program_code": "40103",
        "cricos_code": "001604G",
        "course_name": "Bachelor Computer Science",
        "course_fee": "$34"
    },
    {
        "program_code": "10177",
        "cricos_code": "001604G",
        "course_name": "Bachelor Computer Science (in teach out)",
        "course_fee": "$34"
    },
    {
        "program_code": "10043",
        "cricos_code": "000758J",
        "course_name": "Bachelor Computer Science (Honours)",
        "course_fee": "$32"
    },
    {
        "program_code": "12331",
        "cricos_code": "003693G",
        "course_name": "Bachelor Construction Management (Building) (Honours)",
        "course_fee": "$30"
    },
    {
        "program_code": "40041",
        "cricos_code": "092847B",
        "course_name": "Bachelor Creative Industries",
        "course_fee": "$33"
    },
    {
        "program_code": "40125",
        "cricos_code": "095235F",
        "course_name": "Bachelor Creative Industries / Bachelor Innovation & Entrepreneurship",
        "course_fee": "$31"
    },
    {
        "program_code": "10028",
        "cricos_code": "001600A",
        "course_name": "Bachelor Design (Architecture)",
        "course_fee": "$30"
    },
    {
        "program_code": "11368",
        "cricos_code": "031290F",
        "course_name": "Bachelor Development Studies",
        "course_fee": "$30"
    },
    {
        "program_code": "11547",
        "cricos_code": "050541A",
        "course_name": "Bachelor Development Studies (Honours)",
        "course_fee": "$36"
    },
    {
        "program_code": "40101",
        "cricos_code": "095145G",
        "course_name": "Bachelor Development Studies / Bachelor Business",
        "course_fee": "$30"
    },
    {
        "program_code": "40130",
        "cricos_code": "095146G",
        "course_name": "Bachelor Development Studies / Bachelor Laws (Honours)",
        "course_fee": "$31"
    },
    {
        "program_code": "40095",
        "cricos_code": "095143K",
        "course_name": "Bachelor Development Studies / Bachelor Social Science",
        "course_fee": "$30"
    },
    {
        "program_code": "40105",
        "cricos_code": "095151K",
        "course_name": "Bachelor Education (Early Childhood and Primary)",
        "course_fee": "$32"
    },
    {
        "program_code": "40109",
        "cricos_code": "095152J",
        "course_name": "Bachelor Education (Early Childhood and Primary) (Honours)",
        "course_fee": "$32"
    },
    {
        "program_code": "40106",
        "cricos_code": "095153G",
        "course_name": "Bachelor Education (Primary)",
        "course_fee": "$32"
    },
    {
        "program_code": "40110",
        "cricos_code": "095154G",
        "course_name": "Bachelor Education (Primary) (Honours)",
        "course_fee": "$32"
    },
    {
        "program_code": "40107",
        "cricos_code": "095155F",
        "course_name": "Bachelor Education (Secondary)",
        "course_fee": "$32"
    },
    {
        "program_code": "40108",
        "cricos_code": "095156E",
        "course_name": "Bachelor Education (Secondary) (Honours)",
        "course_fee": "$32"
    },
    {
        "program_code": "10063",
        "cricos_code": "018788M",
        "course_name": "Bachelor Engineering (in teach out)",
        "course_fee": "$36"
    },
    {
        "program_code": "40055",
        "cricos_code": "018788M",
        "course_name": "Bachelor Engineering Chemical (Honours)",
        "course_fee": "$36"
    },
    {
        "program_code": "12284",
        "cricos_code": "018788M",
        "course_name": "Bachelor Engineering Chemical (Honours) (in teach out)",
        "course_fee": "$36"
    },
    {
        "program_code": "40078",
        "cricos_code": "093505E",
        "course_name": "Bachelor Engineering Chemical (Honours) / Bachelor Business",
        "course_fee": "$34"
    },
    {
        "program_code": "40079",
        "cricos_code": "088924F",
        "course_name": "Bachelor Engineering Chemical (Honours) / Bachelor Mathematics",
        "course_fee": "$35"
    },
    {
        "program_code": "12286",
        "cricos_code": "088924F",
        "course_name": "Bachelor Engineering Chemical (Honours) / Bachelor Mathematics (in teach out)",
        "course_fee": "$37"
    },
    {
        "program_code": "40080",
        "cricos_code": " ",
        "course_name": "Bachelor Engineering Chemical (Honours) / Bachelor Science (in teach out)",
        "course_fee": "$36"
    },
    {
        "program_code": "12287",
        "cricos_code": "088925E",
        "course_name": "Bachelor Engineering Chemical (Honours) / Bachelor Science (in teach out)",
        "course_fee": "$35"
    },
    {
        "program_code": "12288",
        "cricos_code": "018786B",
        "course_name": "Bachelor Engineering Civil (Honours) (in teach out)",
        "course_fee": "$36"
    },
    {
        "program_code": "40082",
        "cricos_code": "093506D",
        "course_name": "Bachelor Engineering Civil (Honours) / Bachelor Business",
        "course_fee": "$34"
    },
    {
        "program_code": "40083",
        "cricos_code": "088926D",
        "course_name": "Bachelor Engineering Civil (Honours) / Bachelor Engineering Environmental (Honours)",
        "course_fee": "$37"
    },
    {
        "program_code": "12290",
        "cricos_code": "088926D",
        "course_name": "Bachelor Engineering Civil (Honours) / Bachelor Engineering Environmental (Honours) (in teach out)",
        "course_fee": "$36"
    },
    {
        "program_code": "12282",
        "cricos_code": "088923G",
        "course_name": "Bachelor Engineering Civil (Honours) / Bachelor Engineering Surveying (Honours) (in teach out)",
        "course_fee": "$35"
    },
    {
        "program_code": "40084",
        "cricos_code": "088938M",
        "course_name": "Bachelor Engineering Civil (Honours) / Bachelor Mathematics",
        "course_fee": "$35"
    },
    {
        "program_code": "40005",
        "cricos_code": "088938M",
        "course_name": "Bachelor Engineering Civil (Honours) / Bachelor Mathematics (in teach out)",
        "course_fee": "$36"
    },
    {
        "program_code": "40085",
        "cricos_code": "088923G",
        "course_name": "Bachelor Engineering Civil (Honours) / Bachelor Surveying (Honours)",
        "course_fee": "$36"
    },
    {
        "program_code": "12291",
        "cricos_code": "001607E",
        "course_name": "Bachelor Engineering Computer (Honours) (in teach out)",
        "course_fee": "$36"
    },
    {
        "program_code": "12292",
        "cricos_code": "088927C",
        "course_name": "Bachelor Engineering Computer (Honours) / Bachelor Computer Science (in teach out)",
        "course_fee": "$36"
    },
    {
        "program_code": "40059",
        "cricos_code": "092848A",
        "course_name": "Bachelor Engineering Computer Systems (Honours)",
        "course_fee": "$36"
    },
    {
        "program_code": "40089",
        "cricos_code": "093511G",
        "course_name": "Bachelor Engineering Computer Systems (Honours) / Bachelor Business",
        "course_fee": "$34"
    },
    {
        "program_code": "40088",
        "cricos_code": "088927C",
        "course_name": "Bachelor Engineering Computer Systems (Honours) / Bachelor Computer Science",
        "course_fee": "$35"
    },
    {
        "program_code": "40087",
        "cricos_code": "088928B",
        "course_name": "Bachelor Engineering Computer Systems (Honours) / Bachelor Mathematics",
        "course_fee": "$35"
    },
    {
        "program_code": "40086",
        "cricos_code": " ",
        "course_name": "Bachelor Engineering Computer Systems (Honours) / Bachelor Science (in teach out)",
        "course_fee": "$36"
    },
    {
        "program_code": "12294",
        "cricos_code": "088929A",
        "course_name": "Bachelor Engineering Computer Systems (Honours) / Bachelor Science (in teach out)",
        "course_fee": "$36"
    },
    {
        "program_code": "40072",
        "cricos_code": "093507C",
        "course_name": "Bachelor Engineering Electrical & Electronic (Honours) / Bachelor Business",
        "course_fee": "$33"
    },
    {
        "program_code": "40073",
        "cricos_code": "093503G",
        "course_name": "Bachelor Engineering Electrical & Electronic (Honours) / Bachelor Engineering Computer Systems (Honours)",
        "course_fee": "$36"
    },
    {
        "program_code": "40070",
        "cricos_code": "088931G",
        "course_name": "Bachelor Engineering Electrical & Electronic (Honours) / Bachelor Mathematics",
        "course_fee": "$35"
    },
    {
        "program_code": "40071",
        "cricos_code": " ",
        "course_name": "Bachelor Engineering Electrical & Electronic (Honours) / Bachelor Science (in teach out)",
        "course_fee": "$36"
    },
    {
        "program_code": "12295",
        "cricos_code": "018787A",
        "course_name": "Bachelor Engineering Electrical (Honours) (in teach out)",
        "course_fee": "$36"
    },
    {
        "program_code": "12297",
        "cricos_code": "088931G",
        "course_name": "Bachelor Engineering Electrical (Honours) / Bachelor Mathematics (in teach out)",
        "course_fee": "$35"
    },
    {
        "program_code": "40066",
        "cricos_code": "092849M",
        "course_name": "Bachelor Engineering Electrical and Electronic (Honours)",
        "course_fee": "$36"
    },
    {
        "program_code": "40057",
        "cricos_code": "011012E",
        "course_name": "Bachelor Engineering Environmental (Honours)",
        "course_fee": "$37"
    },
    {
        "program_code": "12298",
        "cricos_code": "011012E",
        "course_name": "Bachelor Engineering Environmental (Honours) (in teach out)",
        "course_fee": "$37"
    },
    {
        "program_code": "40090",
        "cricos_code": "088933E",
        "course_name": "Bachelor Engineering Environmental (Honours) / Bachelor Science (in teach out)",
        "course_fee": "$35"
    },
    {
        "program_code": "12299",
        "cricos_code": "088933E",
        "course_name": "Bachelor Engineering Environmental (Honours) / Bachelor Science (in teach out)",
        "course_fee": "$37"
    },
    {
        "program_code": "40061",
        "cricos_code": "018795A",
        "course_name": "Bachelor Engineering Mechanical (Honours)",
        "course_fee": "$36"
    },
    {
        "program_code": "12300",
        "cricos_code": "018795A",
        "course_name": "Bachelor Engineering Mechanical (Honours) (in teach out)",
        "course_fee": "$36"
    },
    {
        "program_code": "40093",
        "cricos_code": "093508B",
        "course_name": "Bachelor Engineering Mechanical (Honours) / Bachelor Business",
        "course_fee": "$34"
    },
    {
        "program_code": "40094",
        "cricos_code": "088934D",
        "course_name": "Bachelor Engineering Mechanical (Honours) / Bachelor Engineering Mechatronics (Honours)",
        "course_fee": "$36"
    },
    {
        "program_code": "12302",
        "cricos_code": "088934D",
        "course_name": "Bachelor Engineering Mechanical (Honours) / Bachelor Engineering Mechatronics (Honours) (in teach out)",
        "course_fee": "$36"
    },
    {
        "program_code": "40092",
        "cricos_code": "088937A",
        "course_name": "Bachelor Engineering Mechanical (Honours) / Bachelor Mathematics",
        "course_fee": "$35"
    },
    {
        "program_code": "40004",
        "cricos_code": "088937A",
        "course_name": "Bachelor Engineering Mechanical (Honours) / Bachelor Mathematics (in teach out)",
        "course_fee": "$35"
    },
    {
        "program_code": "40091",
        "cricos_code": "088935C",
        "course_name": "Bachelor Engineering Mechanical (Honours) / Bachelor Science (in teach out)",
        "course_fee": "$37"
    },
    {
        "program_code": "40064",
        "cricos_code": "032765A",
        "course_name": "Bachelor Engineering Mechatronics (Honours)",
        "course_fee": "$36"
    },
    {
        "program_code": "12304",
        "cricos_code": "032765A",
        "course_name": "Bachelor Engineering Mechatronics (Honours) (in teach out)",
        "course_fee": "$36"
    },
    {
        "program_code": "40074",
        "cricos_code": "093509A",
        "course_name": "Bachelor Engineering Mechatronics (Honours) / Bachelor Business",
        "course_fee": "$34"
    },
    {
        "program_code": "40075",
        "cricos_code": "093504F",
        "course_name": "Bachelor Engineering Mechatronics (Honours) / Bachelor Engineering Electrical and Electronic (Honours)",
        "course_fee": "$36"
    },
    {
        "program_code": "40081",
        "cricos_code": "088936B",
        "course_name": "Bachelor Engineering Mechatronics (Honours) / Bachelor Mathematics",
        "course_fee": "$35"
    },
    {
        "program_code": "40003",
        "cricos_code": "088936B",
        "course_name": "Bachelor Engineering Mechatronics (Honours) / Bachelor Mathematics (in teach out)",
        "course_fee": "$35"
    },
    {
        "program_code": "40076",
        "cricos_code": "093513E",
        "course_name": "Bachelor Engineering Mechatronics (Honours) / Bachelor Science",
        "course_fee": "$36"
    },
    {
        "program_code": "40126",
        "cricos_code": "096509K",
        "course_name": "Bachelor Engineering Medical (Honours)",
        "course_fee": "$37"
    },
    {
        "program_code": "40173",
        "cricos_code": "099293G",
        "course_name": "Bachelor Engineering Renewable Energy (Honours)",
        "course_fee": "$36"
    },
    {
        "program_code": "12305",
        "cricos_code": "021335C",
        "course_name": "Bachelor Engineering Software (Honours) (in teach out)",
        "course_fee": "$35"
    },
    {
        "program_code": "12281",
        "cricos_code": "077826K",
        "course_name": "Bachelor Engineering Surveying (Honours) (in teach out)",
        "course_fee": "$36"
    },
    {
        "program_code": "12306",
        "cricos_code": "032766M",
        "course_name": "Bachelor Engineering Telecommunications (Honours) (in teach out)",
        "course_fee": "$36"
    },
    {
        "program_code": "11587",
        "cricos_code": "059877D",
        "course_name": "Bachelor Environmental Science and Management",
        "course_fee": "$37"
    },
    {
        "program_code": "11706",
        "cricos_code": "061922G",
        "course_name": "Bachelor Environmental Science and Management (Honours)",
        "course_fee": "$38"
    },
    {
        "program_code": "40172",
        "cricos_code": "098483K",
        "course_name": "Bachelor Environmental Science and Management / Bachelor Business",
        "course_fee": "$33"
    },
    {
        "program_code": "11705",
        "cricos_code": "062429B",
        "course_name": "Bachelor Exercise and Sport Science",
        "course_fee": "$34"
    },
    {
        "program_code": "12230",
        "cricos_code": "070062F",
        "course_name": "Bachelor Exercise and Sport Science (Honours)",
        "course_fee": "$32"
    },
    {
        "program_code": "11194",
        "cricos_code": "030185D",
        "course_name": "Bachelor Fine Art (Honours)",
        "course_fee": "$31"
    },
    {
        "program_code": "11193",
        "cricos_code": "030184E",
        "course_name": "Bachelor Fine Art (in teach out)",
        "course_fee": "$31"
    },
    {
        "program_code": "11680",
        "cricos_code": "055918K",
        "course_name": "Bachelor Food Science and Human Nutrition",
        "course_fee": "$38"
    },
    {
        "program_code": "12243",
        "cricos_code": "073274C",
        "course_name": "Bachelor Food Science and Human Nutrition (Honours)",
        "course_fee": "$38"
    },
    {
        "program_code": "40102",
        "cricos_code": "095144J",
        "course_name": "Bachelor Food Science and Human Nutrition / Bachelor Business",
        "course_fee": "$34"
    },
    {
        "program_code": "40188",
        "cricos_code": "098485G",
        "course_name": "Bachelor Global Indigenous Studies / Bachelor Laws (Honours)",
        "course_fee": "$29"
    },
    {
        "program_code": "40122",
        "cricos_code": "098484J",
        "course_name": "Bachelor Global Indigenous Studies",
        "course_fee": "$28"
    },
    {
        "program_code": "11691",
        "cricos_code": "095697J",
        "course_name": "Bachelor Health Science (Honours)",
        "course_fee": "$34"
    },
    {
        "program_code": "11497",
        "cricos_code": "044439E",
        "course_name": "Bachelor Information Technology",
        "course_fee": "$34"
    },
    {
        "program_code": "11679",
        "cricos_code": "055919J",
        "course_name": "Bachelor Information Technology (Honours)",
        "course_fee": "$32"
    },
    {
        "program_code": "12238",
        "cricos_code": "072216K",
        "course_name": "Bachelor Information Technology / Bachelor Business",
        "course_fee": "$31"
    },
    {
        "program_code": "40007",
        "cricos_code": "095147F",
        "course_name": "Bachelor Innovation and Entrepreneurship",
        "course_fee": "$29"
    },
    {
        "program_code": "40129",
        "cricos_code": "095147F",
        "course_name": "Bachelor Innovation and Entrepreneurship / Bachelor Laws (Honours)",
        "course_fee": "$29"
    },
    {
        "program_code": "12348",
        "cricos_code": "027443F",
        "course_name": "Bachelor Laws (Honours)",
        "course_fee": "$30"
    },
    {
        "program_code": "12347",
        "cricos_code": "032798C",
        "course_name": "Bachelor Laws (Honours) / Diploma of Legal Practice",
        "course_fee": "$30"
    },
    {
        "program_code": "10806",
        "cricos_code": "027443F",
        "course_name": "Bachelor Laws (in teach out)",
        "course_fee": "$30"
    },
    {
        "program_code": "10237",
        "cricos_code": "001608D",
        "course_name": "Bachelor Mathematics",
        "course_fee": "$32"
    },
    {
        "program_code": "40212",
        "cricos_code": "0100472",
        "course_name": "Bachelor Mathematics (Advanced)",
        "course_fee": "$34"
    },
    {
        "program_code": "10159",
        "cricos_code": "000628G",
        "course_name": "Bachelor Mathematics (Honours)",
        "course_fee": "$32"
    },
    {
        "program_code": "10253",
        "cricos_code": "090805F",
        "course_name": "Bachelor Mathematics / Bachelor Computer Science",
        "course_fee": "$34"
    },
    {
        "program_code": "40170",
        "cricos_code": "098541E",
        "course_name": "Bachelor Mathematics / Bachelor Science",
        "course_fee": "$35"
    },
    {
        "program_code": "10092",
        "cricos_code": "091467M",
        "course_name": "Bachelor Mathematics / Bachelor Science (in teach out)",
        "course_fee": "$33"
    },
    {
        "program_code": "40002",
        "cricos_code": "088060E",
        "course_name": "Bachelor Medical Radiation Science (Honours) (Diagnostic Radiography)",
        "course_fee": "$34"
    },
    {
        "program_code": "40011",
        "cricos_code": "088061D",
        "course_name": "Bachelor Medical Radiation Science (Honours) (Nuclear Medicine)",
        "course_fee": "$34"
    },
    {
        "program_code": "40010",
        "cricos_code": "088062C",
        "course_name": "Bachelor Medical Radiation Science (Honours) (Radiation Therapy)",
        "course_fee": "$34"
    },
    {
        "program_code": "11017",
        "cricos_code": "032801B",
        "course_name": "Bachelor Medical Radiation Science (in teach out)",
        "course_fee": "$34"
    },
    {
        "program_code": "11019",
        "cricos_code": "032802A",
        "course_name": "Bachelor Medical Radiation Science (in teach out)",
        "course_fee": "$34"
    },
    {
        "program_code": "40046",
        "cricos_code": "082394J",
        "course_name": "Bachelor Medical Science",
        "course_fee": "$70"
    },
    {
        "program_code": "12389",
        "cricos_code": "085254G",
        "course_name": "Bachelor Medical Science (Honours)",
        "course_fee": "$63"
    },
    {
        "program_code": "10379",
        "cricos_code": "000757K",
        "course_name": "Bachelor Medicine (in teach out)",
        "course_fee": "$63"
    },
    {
        "program_code": "40206",
        "cricos_code": "0100758",
        "course_name": "Bachelor Music",
        "course_fee": "$34"
    },
    {
        "program_code": "10809",
        "cricos_code": "030186C",
        "course_name": "Bachelor Music (Honours)",
        "course_fee": "$34"
    },
    {
        "program_code": "40045",
        "cricos_code": "002546E",
        "course_name": "Bachelor Music (in teach out)",
        "course_fee": "$34"
    },
    {
        "program_code": "10646",
        "cricos_code": "002546E",
        "course_name": "Bachelor Music (in teach out)",
        "course_fee": "$34"
    },
    {
        "program_code": "40207",
        "cricos_code": "0100762",
        "course_name": "Bachelor Music / Bachelor Arts",
        "course_fee": "$32"
    },
    {
        "program_code": "40120",
        "cricos_code": "027441G",
        "course_name": "Bachelor Music / Bachelor Arts (in teach out)",
        "course_fee": "$34"
    },
    {
        "program_code": "40048",
        "cricos_code": "027441G",
        "course_name": "Bachelor Music / Bachelor Arts (in teach out)",
        "course_fee": "$34"
    },
    {
        "program_code": "10910",
        "cricos_code": "027441G",
        "course_name": "Bachelor Music / Bachelor Arts (in teach out)",
        "course_fee": "$34"
    },
    {
        "program_code": "11532",
        "cricos_code": "065377G",
        "course_name": "Bachelor Natural History Illustration (Honours) (in teach out]",
        "course_fee": "$34"
    },
    {
        "program_code": "11498",
        "cricos_code": "059878C",
        "course_name": "Bachelor Natural History Illustration (in teach out)",
        "course_fee": "$34"
    },
    {
        "program_code": "11725",
        "cricos_code": "072609D",
        "course_name": "Bachelor Nursing",
        "course_fee": "$34"
    },
    {
        "program_code": "10954",
        "cricos_code": "095696K",
        "course_name": "Bachelor Nursing (Honours)",
        "course_fee": "$34"
    },
    {
        "program_code": "12339",
        "cricos_code": "001131C",
        "course_name": "Bachelor Nutrition and Dietetics (Honours)",
        "course_fee": "$35"
    },
    {
        "program_code": "12338",
        "cricos_code": "001132B",
        "course_name": "Bachelor Occupational Therapy (Honours)",
        "course_fee": "$34"
    },
    {
        "program_code": "12390",
        "cricos_code": "084069F",
        "course_name": "Bachelor Oral Health Therapy",
        "course_fee": "$38"
    },
    {
        "program_code": "12328",
        "cricos_code": "079931D",
        "course_name": "Bachelor Pharmacy (Honours)",
        "course_fee": "$38"
    },
    {
        "program_code": "12337",
        "cricos_code": "039298M",
        "course_name": "Bachelor Physiotherapy (Honours)",
        "course_fee": "$36"
    },
    {
        "program_code": "11692",
        "cricos_code": "058964B",
        "course_name": "Bachelor Podiatry",
        "course_fee": "$36"
    },
    {
        "program_code": "11698",
        "cricos_code": "062430J",
        "course_name": "Bachelor Psychological Science",
        "course_fee": "$38"
    },
    {
        "program_code": "40099",
        "cricos_code": "095149D",
        "course_name": "Bachelor Psychological Science",
        "course_fee": "$38"
    },
    {
        "program_code": "40100",
        "cricos_code": "095150M",
        "course_name": "Bachelor Psychological Science (Honours)",
        "course_fee": "$39"
    },
    {
        "program_code": "12362",
        "cricos_code": "039305F",
        "course_name": "Bachelor Psychology (Honours) (in teach out)",
        "course_fee": "$39"
    },
    {
        "program_code": "11394",
        "cricos_code": "039305F",
        "course_name": "Bachelor Psychology (in teach out)",
        "course_fee": "$38"
    },
    {
        "program_code": "40192",
        "cricos_code": "100480",
        "course_name": "Bachelor Public and Community Health",
        "course_fee": "$31"
    },
    {
        "program_code": "40165",
        "cricos_code": "098539K",
        "course_name": "Bachelor Science",
        "course_fee": "$37"
    },
    {
        "program_code": "40166",
        "cricos_code": "0100473",
        "course_name": "Bachelor Science (Advanced)",
        "course_fee": "$35"
    },
    {
        "program_code": "10496",
        "cricos_code": "000738B",
        "course_name": "Bachelor Science (Honours)",
        "course_fee": "$38"
    },
    {
        "program_code": "10323",
        "cricos_code": "001609C",
        "course_name": "Bachelor Science (in teach out)",
        "course_fee": "$37"
    },
    {
        "program_code": "40171",
        "cricos_code": "098542D",
        "course_name": "Bachelor Science / Bachelor Innovation and Entrepreneurship",
        "course_fee": "$31"
    },
    {
        "program_code": "40189",
        "cricos_code": "098543C",
        "course_name": "Bachelor Science / Bachelor Laws (Honours)",
        "course_fee": "$32"
    },
    {
        "program_code": "12346",
        "cricos_code": "023101E",
        "course_name": "Bachelor Science / Bachelor Laws (Honours) (in teach out)",
        "course_fee": "$30"
    },
    {
        "program_code": "10716",
        "cricos_code": "014637C",
        "course_name": "Bachelor Social Science",
        "course_fee": "$28"
    },
    {
        "program_code": "10726",
        "cricos_code": "014638B",
        "course_name": "Bachelor Social Science (Honours)",
        "course_fee": "$29"
    },
    {
        "program_code": "11387",
        "cricos_code": "043947D",
        "course_name": "Bachelor Social Science / Bachelor Laws (in teach out)",
        "course_fee": "$29"
    },
    {
        "program_code": "12341",
        "cricos_code": "043947D",
        "course_name": "Bachelor Social Science / Bachelor Laws (Honours)",
        "course_fee": "$29"
    },
    {
        "program_code": "12317",
        "cricos_code": "027437D",
        "course_name": "Bachelor Social Work (Honours)",
        "course_fee": "$31"
    },
    {
        "program_code": "40056",
        "cricos_code": "021335C",
        "course_name": "Bachelor Software Engineering (Honours)",
        "course_fee": "$35"
    },
    {
        "program_code": "12318",
        "cricos_code": "029748F",
        "course_name": "Bachelor Speech Pathology (Honours)",
        "course_fee": "$36"
    },
    {
        "program_code": "40058",
        "cricos_code": "077826K",
        "course_name": "Bachelor Surveying (Honours)",
        "course_fee": "$36"
    },
    {
        "program_code": "40077",
        "cricos_code": "093510G",
        "course_name": "Bachelor Surveying (Honours) / Bachelor Business",
        "course_fee": "$34"
    },
    {
        "program_code": "12366",
        "cricos_code": "084156G",
        "course_name": "Bachelor Teaching (Early Childhood and Primary) (Honours) (in teach out)",
        "course_fee": "$32"
    },
    {
        "program_code": "12369",
        "cricos_code": "084157F",
        "course_name": "Bachelor Teaching (Fine Art) (Honours) (in teach out)",
        "course_fee": "$31"
    },
    {
        "program_code": "12370",
        "cricos_code": "084158E",
        "course_name": "Bachelor Teaching (Health and Physical Education) (Honours) (in teach out)",
        "course_fee": "$32"
    },
    {
        "program_code": "12368",
        "cricos_code": "084159D",
        "course_name": "Bachelor Teaching (Humanities) (Honours) (in teach out)",
        "course_fee": "$30"
    },
    {
        "program_code": "12371",
        "cricos_code": "084160M",
        "course_name": "Bachelor Teaching (Mathematics) (Honours) (in teach out)",
        "course_fee": "$32"
    },
    {
        "program_code": "12367",
        "cricos_code": "084161K",
        "course_name": "Bachelor Teaching (Primary) (Honours) (in teach out)",
        "course_fee": "$32"
    },
    {
        "program_code": "12215",
        "cricos_code": " ",
        "course_name": "Bachelor Teaching (Primary) / Bachelor of Arts (in teach out)",
        "course_fee": "$31"
    },
    {
        "program_code": "12372",
        "cricos_code": "084162J",
        "course_name": "Bachelor Teaching (Science) (Honours) (in teach out)",
        "course_fee": "$34"
    },
    {
        "program_code": "12373",
        "cricos_code": "084163G",
        "course_name": "Bachelor Teaching (Technology) (Honours) (in teach out)",
        "course_fee": "$33"
    },
    {
        "program_code": "40006",
        "cricos_code": "088615G",
        "course_name": "Bachelor Technology (Renewable Energy Systems)",
        "course_fee": "$36"
    },
    {
        "program_code": "40208",
        "cricos_code": "0100759",
        "course_name": "Bachelor Visual Communication Design",
        "course_fee": "$34"
    },
    {
        "program_code": "11253",
        "cricos_code": "059024E",
        "course_name": "Bachelor Visual Communication Design (in teach out)",
        "course_fee": "$34"
    },
    {
        "program_code": "11254",
        "cricos_code": "032730A",
        "course_name": "Bachelor Visual Communication Design (Honours)",
        "course_fee": "$34"
    }
]