{
    "univ_id": "engineeringinstituteoftechnology",
    "course_title": "Bachelor Of Science (Civil And Structural Engineering)",
    "course_study_mode": "On campus",
    "course_discipline": [
        "Engineering"
    ],
    "program_code": "BCSOC",
    "course_outline": {
        "majors": [],
        "minors": [],
        "more_details": "https://www.eit.edu.au/cms/courses/civil-engineering/bachelors-degree/on-campus-bachelor-of-science-civil-and-structural-engineering"
    },
    "application_fee": "100",
    "course_admission_requirement": {
        "english": [
            {
                "name": "ielts academic",
                "description": "A specified level of achievement in a recognised English language test such as: IELTS  at a score of at least 6.0 (with no individual band score less than 5.5); or  (or equivalent) as outlined in the EIT Admissions Policy",
                "R": 5.5,
                "W": 5.5,
                "S": 5.5,
                "L": 5.5,
                "O": 6,
                "min": 0,
                "require": 6,
                "max": 9
            }
        ],
        "academic": [
            "Entry Requirements\n\nEntry is available to applicants who hold:\n\nA Year 12 Australian Senior Certificate of Education (or equivalent for International Students), completed within the past 2 years, with the following level of achievement in Maths:\nWA – WACE scaled score of 50.0 or more.\nACT – a scaled mark of 125 or more\nNSW – performance Band 2 or above\nQLD – a level of Sound Achievement (S) or above\nSA/NT – a grade of C- or higher or a Subject achievement score of 10 or more\nTAS – an award of Satisfactory Achievement or above\nVIC – a study score of 25 or above\n\nApplicants who have completed Yr 12 (or equivalent for International Students) more than 2 years ago will also need to show relevant work experience in the field of study applied for; OR\n\nA relevant (to the sub-discipline) Engineering AQF Diploma, Advanced Diploma, Associate Degree (or higher) with successful completion of all Maths units/modules; OR\nAn overseas qualification equivalent to Point 2 above from a structured program of learning that leads to the full or partial achievement of an officially accredited qualification undertaken at a tertiary institution such as a university, government technical college, or government recognized private college (EIT assesses overseas qualifications using Australian Government guidelines to determine their comparability to qualifications); OR\nInternational Baccalaureate (IB) Completion with a minimum score of 24 including English and Maths completion; OR\nFoundation studies or bridging course completion in a relevant discipline with completion of Mathematics and English. e.g. Engineering enabling course; AND\nSatisfactory English language proficiency at an English pass level in an Australian Senior Certificate of Education (or equivalent for International Students); OR\nA specified level of achievement in a recognised English language test such as: IELTS  at a score of at least 6.0 (with no individual band score less than 5.5); or  (or equivalent) as outlined in the EIT Admissions Policy\n\nNote: All applications will be assessed on a case-by-case basis.\n\nInternational students who wish to study on-campus in Australia will need to have a valid international student visa.\n\nAll documents submitted as part of your application must be certified."
        ],
        "english_requirements_url": "https://www.eit.edu.au/policies/Admissions_Policy.HE.pdf",
        "entry_requirements_url": "https://www.eit.edu.au/cms/international-students",
        "academic_requirements_url": "https://www.eit.edu.au/cms/international-students"
    },
    "course_study_level": "Bachelor Degree",
    "course_url": "https://www.eit.edu.au/cms/courses/civil-engineering/bachelors-degree/on-campus-bachelor-of-science-civil-and-structural-engineering",
    "course_campus_location": [
        {
            "name": "Perth",
            "code": "095812M"
        }
    ],
    "course_duration": "3 years",
    "course_duration_display": [
        {
            "unit": "years",
            "duration": "3",
            "display": "Full-Time",
            "filterduration": 3
        }
    ],
    "isfulltime": true,
    "isparttime": false,
    "course_intake": {
        "intake": [
            {
                "name": "Perth",
                "value": [
                    {
                        "actualdate": "13th July 2020",
                        "month": "July",
                        "filterdate": "2020-07-13"
                    }
                ]
            }
        ],
        "more_details": [
            "https://www.eit.edu.au/cms/schedule"
        ]
    },
    "course_overview": "Engineering cannot be underestimated: the wellbeing of the world is largely dependent on the work of engineers.Isaac Asimov, a famous science fiction author, professor of biochemistry and robotics devotee said: “Science can amuse and fascinate us all, but it is engineering that changes the world.”Engineering touches everything and is responsible for our progress through the ages; it is, for example, fundamental to all forms of transportation, to power generation, communication technologies and biomedicine. Engineers also contribute to solving the complex challenges in the world today, including pollution, hunger and disease.It is a prestigious career to pursue, with the highest average starting salary of any undergraduate major. Because it is a respected profession the world over engineers can also consider working abroad.Civil and structural engineering is one of the oldest forms of engineering which involves the design, construction, and maintenance of the built environment. Engineers in this field are responsible for ensuring that the infrastructure around us gets developed, is safe, meets our needs and improves our quality of life. This includes buildings, bridges, railways, tunnels, water distribution and waste management networks. As a civil engineer you could be involved in sustainable urban development, environmental protection, conservation of energy and water resources, or even geotechnical, hydraulic or transport engineering. You could even specialize in fields such as earthquake and blast-resistant technologies.With this qualification you will have acquired the essential knowledge which underpins both this and other fields of engineering. More importantly, you will have become a civil and structural engineering technologist.",
    "course_career_outcome": [
        "Civil and structural planning, design and development",
        "Building contracts, sales, commissioning and consultation",
        "Building control and surveying",
        "Site management",
        "Water and waste management",
        "Civil and structural operations and maintenance",
        "Civil and structural project management and business development"
    ],
    "course_country": "Australia",
    "course_tuition_fee": {
        "fees": [
            {
                "name": "Perth",
                "value": {
                    "international_student": {
                        "amount": 22750,
                        "duration": 1,
                        "unit": "Year",
                        "description": "22,750"
                    },
                    "fee_duration_years": "1",
                    "currency": "AUD"
                }
            }
        ]
    },
    "course_id": "bachelorofscience(civilandstructuralengineering)"
}