{
    "univ_id": "queenslanduniversityoftechnology",
    "course_title": "Bachelor Of Pharmacy( Honours)",
    "course_discipline": [
        "Health and community"
    ],
    "course_study_level": "Undergraduates",
    "course_url": "https://www.qut.edu.au/courses/bachelor-of-pharmacy-honours",
    "course_campus_location": [
        {
            "name": "Gardens Point",
            "code": "089126F"
        }
    ],
    "course_study_mode": "On campus",
    "course_intake": {
        "intake": [
            {
                "name": "Gardens Point",
                "value": [
                    {
                        "actualdate": "February",
                        "month": "February",
                        "filterdate": "2020-02-01"
                    }
                ]
            }
        ],
        "more_details": "https://www.qut.edu.au/about/key-dates-and-academic-calendar/academic-calendar/2020-academic-calendar"
    },
    "course_duration_display": [
        {
            "unit": "years",
            "duration": "4",
            "display": "Full-Time",
            "filterduration": 4
        }
    ],
    "isfulltime": true,
    "isparttime": false,
    "course_duration": "4 years full-time",
    "course_overview": "Complete more than 500 hours of professional placement in hospital, community and other pharmacy environments. Study a patient-centred approach with focus on priority health areas such as musculoskeletal, cardiovascular, and mental health conditions. Honours component develops skills for leadership and provides competitive advantage in career.",
    "course_career_outcome": [
        "Community Pharmacist",
        "Hospital Pharmacist",
        "Pharmaceutical Research Scientist"
    ],
    "program_code": "CS47",
    "course_admission_requirement": {
        "english": [
            {
                "name": "ielts academic",
                "description": "Overall score: 7 Listening: 6.5; Reading: 6.5;Writing: 6.5;Speaking: 6.5",
                "min": 0,
                "require": 7,
                "max": 9,
                "R": 6.5,
                "W": 6.5,
                "S": 6.5,
                "L": 6.5,
                "O": 7
            },
            {
                "name": "toefl ibt",
                "description": "Overall score: 98 Listening: 20; Reading: 20;Writing: 24;Speaking: 20",
                "min": 0,
                "require": 98,
                "max": 120,
                "R": 20,
                "W": 24,
                "S": 20,
                "L": 20,
                "O": 98
            },
            {
                "name": "pte academic",
                "description": "Overall score: 65 Listening: 58; Reading: 58;Writing: 58;Speaking: 58",
                "min": 0,
                "require": 65,
                "max": 90,
                "R": 58,
                "W": 58,
                "S": 58,
                "L": 58,
                "O": 65
            },
            {
                "name": "cae",
                "description": "Overall score: 185 Listening: 176; Reading: 176;Writing: 176;Speaking: 176",
                "min": 80,
                "require": 185,
                "max": 230,
                "R": 176,
                "W": 176,
                "S": 176,
                "L": 176,
                "O": 185
            }
        ],
        "academic": [
            "You must have a completed recognised qualification in respective discipline with a minimum average point scale (or equivalent). For detailed academic requirement"
        ],
        "entry_requirements_url": "https://www.qut.edu.au/study/applying/international-applying-for-degrees",
        "academic_requirements_url": "https://www.qut.edu.au/courses/bachelor-of-pharmacy-honours",
        "english_requirements_url": "https://www.qut.edu.au/study/applying/international-applying-for-degrees"
    },
    "course_tuition_fee": {
        "fees": [
            {
                "name": "Gardens Point",
                "value": {
                    "international_student": {
                        "amount": 38000,
                        "duration": 1,
                        "unit": "Year",
                        "description": "$38,000"
                    }
                }
            }
        ]
    },
    "course_country": "Australia",
    "course_outline": {
        "minors": [],
        "majors": [],
        "more_details": ""
    },
    "application_fee": "100",
    "course_id": "bachelorofpharmacy(honours)"
}