{
    "univ_id": "queenslanduniversityoftechnology",
    "course_title": "Bachelor Of Mathematics( Statistics)",
    "course_discipline": [
        "Science, technology, engineering and mathematics"
    ],
    "course_study_level": "Undergraduates",
    "course_url": "https://www.qut.edu.au/courses/bachelor-of-mathematics-statistics",
    "course_campus_location": [
        {
            "name": "Gardens Point",
            "code": "049433D"
        }
    ],
    "course_study_mode": "On campus",
    "course_intake": {
        "intake": [
            {
                "name": "Gardens Point",
                "value": [
                    {
                        "actualdate": "February",
                        "month": "February",
                        "filterdate": "2020-02-01"
                    }
                ]
            }
        ],
        "more_details": "https://www.qut.edu.au/about/key-dates-and-academic-calendar/academic-calendar/2020-academic-calendar"
    },
    "course_duration_display": [
        {
            "unit": "years",
            "duration": "3",
            "display": "Full-Time",
            "filterduration": 3
        }
    ],
    "isfulltime": true,
    "isparttime": false,
    "course_duration": "3 years full-time",
    "course_overview": "Develop analytical and problem-solving skills for use in a vast array of roles and settings to gain insights into many real-world problems of significant importance. Work closely with academics who are world leaders in research with strong industry ties, ensuring relevant and high-quality learning experiences. Be provided with the methodology for analysing data using emperical, theoretical and computational tools. Discover complex statistical techniques, and develop a fundamental and thorough understanding of statistics and statistical methodologies for use in real-world scenarios in industry, government and/or research.",
    "course_career_outcome": [
        "Biostatistician",
        "Data Communications Specialist",
        "Database Manager",
        "Quantitative Analyst",
        "Research officer",
        "Risk Manager",
        "Statistician"
    ],
    "program_code": "MS01",
    "course_admission_requirement": {
        "english": [
            {
                "name": "ielts academic",
                "description": "Overall score: 6.5 Listening: 6; Reading: 6;Writing: 6;Speaking: 6",
                "min": 0,
                "require": 6.5,
                "max": 9,
                "R": 6,
                "W": 6,
                "S": 6,
                "L": 6,
                "O": 6.5
            },
            {
                "name": "toefl ibt",
                "description": "Overall score: 79 Listening: 16; Reading: 16;Writing: 21;Speaking: 18",
                "min": 0,
                "require": 79,
                "max": 120,
                "R": 16,
                "W": 21,
                "S": 18,
                "L": 16,
                "O": 79
            },
            {
                "name": "pte academic",
                "description": "Overall score: 58 Listening: 50; Reading: 50;Writing: 50;Speaking: 50",
                "min": 0,
                "require": 58,
                "max": 90,
                "R": 50,
                "W": 50,
                "S": 50,
                "L": 50,
                "O": 58
            },
            {
                "name": "cae",
                "description": "Overall score: 176 Listening: 169; Reading: 169;Writing: 169;Speaking: 169",
                "min": 80,
                "require": 176,
                "max": 230,
                "R": 169,
                "W": 169,
                "S": 169,
                "L": 169,
                "O": 176
            }
        ],
        "academic": [
            "You must have a completed recognised qualification in respective discipline with a minimum average point scale (or equivalent). For detailed academic requirement"
        ],
        "entry_requirements_url": "https://www.qut.edu.au/study/applying/international-applying-for-degrees",
        "academic_requirements_url": "https://www.qut.edu.au/courses/bachelor-of-mathematics-statistics",
        "english_requirements_url": "https://www.qut.edu.au/study/applying/international-applying-for-degrees"
    },
    "course_tuition_fee": {
        "fees": [
            {
                "name": "Gardens Point",
                "value": {
                    "international_student": {
                        "amount": 34100,
                        "duration": 1,
                        "unit": "Year",
                        "description": "$34,100 "
                    }
                }
            }
        ]
    },
    "course_country": "Australia",
    "course_outline": {
        "minors": [],
        "majors": [],
        "more_details": ""
    },
    "application_fee": "100",
    "course_id": "bachelorofmathematics(statistics)"
}