{
    "univ_id": "queenslanduniversityoftechnology",
    "course_title": "Bachelor Of Games And Interactive Environments( Animation)",
    "course_discipline": [
        "Science, technology, engineering and mathematics"
    ],
    "course_study_level": "Undergraduates",
    "course_url": "https://www.qut.edu.au/courses/bachelor-of-games-and-interactive-environments-animation",
    "course_campus_location": [
        {
            "name": "Gardens Point",
            "code": "092648J"
        }
    ],
    "course_study_mode": "On campus",
    "course_intake": {
        "intake": [
            {
                "name": "Gardens Point",
                "value": [
                    {
                        "actualdate": "February",
                        "month": "February",
                        "filterdate": "2020-02-01"
                    }
                ]
            }
        ],
        "more_details": "https://www.qut.edu.au/about/key-dates-and-academic-calendar/academic-calendar/2020-academic-calendar"
    },
    "course_duration_display": [
        {
            "unit": "years",
            "duration": "3",
            "display": "Full-Time",
            "filterduration": 3
        }
    ],
    "isfulltime": true,
    "isparttime": false,
    "course_duration": "3 years full-time",
    "course_overview": "This major provides you with important animation skills as well as the core principles, concepts and history of animation. You learn and apply current and emerging techniques within the animation industry including motion graphics, 3D modelling and animation, real-time 3D and character animation. Through practice-based projects you will be given the opportunity to refine your skills and expand your knowledge of the animation industry. Cover both the technical and creative aspects of games development. Be prepared for a career in games design, animator, special effects developer, or mobile entertainment developer. QUT's Bachelor of Games and Interactive Environments degree is the most successful degree of its kind in Queensland, with strong connections to local games industries, as well as other industry partners in game-based technology. Be a part of Queensland’s leading video game industry, responsible for titles such asHellboy, Fruit Ninja, the children's game Viva Pinata Party Animals and Star Wars: The Force Unleashed.",
    "course_career_outcome": [
        "Animator",
        "Computer Game Programmer",
        "Computer Games Developer",
        "Computer Systems Engineer",
        "Computer-aided designer",
        "Digital Content Designer",
        "Digital Content Producer",
        "Games Developer",
        "Multimedia Designer",
        "Programmer",
        "Software Engineer",
        "Sound Designer",
        "Web Designer"
    ],
    "program_code": "IN05",
    "course_admission_requirement": {
        "english": [
            {
                "name": "ielts academic",
                "description": "Overall score: 6.5 Listening: 6; Reading: 6;Writing: 6;Speaking: 6",
                "min": 0,
                "require": 6.5,
                "max": 9,
                "R": 6,
                "W": 6,
                "S": 6,
                "L": 6,
                "O": 6.5
            },
            {
                "name": "toefl ibt",
                "description": "Overall score: 79 Listening: 16; Reading: 16;Writing: 21;Speaking: 18",
                "min": 0,
                "require": 79,
                "max": 120,
                "R": 16,
                "W": 21,
                "S": 18,
                "L": 16,
                "O": 79
            },
            {
                "name": "pte academic",
                "description": "Overall score: 58 Listening: 50; Reading: 50;Writing: 50;Speaking: 50",
                "min": 0,
                "require": 58,
                "max": 90,
                "R": 50,
                "W": 50,
                "S": 50,
                "L": 50,
                "O": 58
            },
            {
                "name": "cae",
                "description": "Overall score: 176 Listening: 169; Reading: 169;Writing: 169;Speaking: 169",
                "min": 80,
                "require": 176,
                "max": 230,
                "R": 169,
                "W": 169,
                "S": 169,
                "L": 169,
                "O": 176
            }
        ],
        "academic": [
            "You must have a completed recognised qualification in respective discipline with a minimum average point scale (or equivalent). For detailed academic requirement"
        ],
        "entry_requirements_url": "https://www.qut.edu.au/study/applying/international-applying-for-degrees",
        "academic_requirements_url": "https://www.qut.edu.au/courses/bachelor-of-games-and-interactive-environments-animation",
        "english_requirements_url": "https://www.qut.edu.au/study/applying/international-applying-for-degrees"
    },
    "course_tuition_fee": {
        "fees": [
            {
                "name": "Gardens Point",
                "value": {
                    "international_student": {
                        "amount": 36700,
                        "duration": 1,
                        "unit": "Year",
                        "description": "$36,700"
                    }
                }
            }
        ]
    },
    "course_country": "Australia",
    "course_outline": {
        "minors": [],
        "majors": [],
        "more_details": ""
    },
    "application_fee": "100",
    "course_id": "bachelorofgamesandinteractiveenvironments(animation)"
}