{
    "univ_id": "queenslanduniversityoftechnology",
    "course_title": "Master Of Psychology( Educational And Developmental)",
    "course_discipline": [
        "Health and community"
    ],
    "course_study_level": "Postgraduates",
    "course_url": "https://www.qut.edu.au/courses/master-of-psychology-educational-and-developmental",
    "course_campus_location": [
        {
            "name": "Kelvin Grove",
            "code": "053489J"
        }
    ],
    "course_study_mode": "On campus",
    "course_intake": {
        "intake": [
            {
                "name": "Kelvin Grove",
                "value": [
                    {
                        "actualdate": "February",
                        "month": "February",
                        "filterdate": "2020-02-01"
                    }
                ]
            }
        ],
        "more_details": "https://www.qut.edu.au/about/key-dates-and-academic-calendar/academic-calendar/2020-academic-calendar"
    },
    "course_duration_display": [
        {
            "unit": "years",
            "duration": "2",
            "display": "Full-Time",
            "filterduration": 2
        }
    ],
    "isfulltime": true,
    "isparttime": false,
    "course_duration": "2 years full-time",
    "course_overview": "Specialise in assessment, diagnosis and intervention in the area of educational and developmental issues. Graduates eligible for full registration as a psychologist in Australia, and membership of the Australian Psychological Society. Gain practical experience in QUT's Psychology and Counselling Clinic and external placements in school, mental health, or community settings.",
    "course_career_outcome": [
        "Counsellor",
        "Developmental Psychologist",
        "Psychologist",
        "School Counsellor",
        "School Psychologist"
    ],
    "program_code": "PY19",
    "course_admission_requirement": {
        "english": [
            {
                "name": "ielts academic",
                "description": "Overall score: 7.5 Listening: 7; Reading: 7;Writing: 7;Speaking: 7",
                "min": 0,
                "require": 7.5,
                "max": 9,
                "R": 7,
                "W": 7,
                "S": 7,
                "L": 7,
                "O": 7.5
            },
            {
                "name": "toefl ibt",
                "description": "Overall score: 105 Listening: 24; Reading: 24;Writing: 27;Speaking: 23",
                "min": 0,
                "require": 105,
                "max": 120,
                "R": 24,
                "W": 27,
                "S": 23,
                "L": 24,
                "O": 105
            },
            {
                "name": "pte academic",
                "description": "Overall score: 73 Listening: 65; Reading: 65;Writing: 65;Speaking: 65",
                "min": 0,
                "require": 73,
                "max": 90,
                "R": 65,
                "W": 65,
                "S": 65,
                "L": 65,
                "O": 73
            },
            {
                "name": "cae",
                "description": "Overall score: 191 Listening: 185; Reading: 185;Writing: 185;Speaking: 185",
                "min": 80,
                "require": 191,
                "max": 230,
                "R": 185,
                "W": 185,
                "S": 185,
                "L": 185,
                "O": 191
            }
        ],
        "academic": [
            "You must have a completed recognised qualification in respective discipline with a minimum average point scale (or equivalent). For detailed academic requirement"
        ],
        "entry_requirements_url": "https://www.qut.edu.au/study/applying/international-applying-for-degrees",
        "academic_requirements_url": "https://www.qut.edu.au/courses/master-of-psychology-educational-and-developmental",
        "english_requirements_url": "https://www.qut.edu.au/study/applying/international-applying-for-degrees"
    },
    "course_tuition_fee": {
        "fees": [
            {
                "name": "Kelvin Grove",
                "value": {
                    "international_student": {
                        "amount": 31600,
                        "duration": 1,
                        "unit": "Year",
                        "description": "$31,600"
                    }
                }
            }
        ]
    },
    "course_country": "Australia",
    "course_outline": {
        "minors": [],
        "majors": [],
        "more_details": ""
    },
    "application_fee": "100",
    "course_id": "masterofpsychology(educationalanddevelopmental)"
}