{
      "univ_id": "danfordcollege",
      "course_outline": {
            "majors": [],
            "minors": [],
            "more_details": "https://www.danford.edu.au/program/leadership-management-programs/"
      },
      "application_fee": "",
      "course_title": "Advanced Diploma Of Leadership And Management",
      "course_url": "https://www.danford.edu.au/program/leadership-management-programs/",
      "course_study_mode": "On campus",
      "course_campus_location": [
            {
                  "name": "Melbourne",
                  "code": "089018K"
            }
      ],
      "course_discipline": [
            "LEADERSHIP AND MANAGEMENT"
      ],
      "program_code": "BSB61015",
      "course_study_level": "Advanced Diploma",
      "course_duration": "52 weeks (include 12 weeks holiday)",
      "course_duration_display": [
            {
                  "unit": "weeks",
                  "duration": "52",
                  "display": "Full-Time",
                  "filterduration": 0.9972594543072979
            }
      ],
      "isfulltime": true,
      "isparttime": false,
      "course_admission_requirement": {
            "english": [
                  {
                        "name": "ielts academic",
                        "description": ": For most Graduate Diploma courses students are required to have a minimum IELTS (International English Language Testing Service) score of 6.0 overall with no band/sub score under 5.5 or equivalent English language tests as per accepted by the Department of Immigration.",
                        "min": 0,
                        "require": 6,
                        "max": 9,
                        "R": 0,
                        "W": 0,
                        "S": 0,
                        "L": 0,
                        "O": 0
                  }
            ],
            "academic": [],
            "entry_requirements_url": "https://www.danford.edu.au/apply/entry-requirements/",
            "english_requirements_url": "https://www.danford.edu.au/apply/entry-requirements/",
            "academic_requirements_url": "https://www.danford.edu.au/apply/entry-requirements/"
      },
      "course_intake": {
            "intake": [
                  {
                        "name": "Melbourne",
                        "value": [
                              {
                                    "actualdate": "13-01-2020",
                                    "month": "January"
                              },
                              {
                                    "actualdate": "10-02-2020",
                                    "month": "February"
                              },
                              {
                                    "actualdate": "30-03-2020",
                                    "month": "March"
                              },
                              {
                                    "actualdate": "27-04-2020",
                                    "month": "April"
                              },
                              {
                                    "actualdate": "25-05-2020",
                                    "month": "May"
                              },
                              {
                                    "actualdate": "22-06-2020",
                                    "month": "June"
                              },
                              {
                                    "actualdate": "13-07-2020",
                                    "month": "July"
                              },
                              {
                                    "actualdate": "10-08-2020",
                                    "month": "August"
                              },
                              {
                                    "actualdate": "21-09-2020",
                                    "month": "September"
                              },
                              {
                                    "actualdate": "12-10-2020",
                                    "month": "October"
                              },
                              {
                                    "actualdate": "23-11-2020",
                                    "month": "November"
                              }
                        ]
                  }
            ],
            "more_details": "https://www.danford.edu.au/apply/fees-and-intakes/"
      },
      "course_overview": "The Certificate IV in Leadership and Management gives you the skills to take the first line of management across all organisations and industries. You will learn to communicate effectively, lead team and workplace relationships, and implement plans. The Diploma of Leadership and Management helps you develop the skills to manage the work of others and add value to or review management practices. You will learn to manage operational plans and lead and manage individual and team relationships in the workplace. Students will already have considerable experience in their industry, and will combine this informed perspective of specific work requirements with their managerial approaches. This qualification is designed for people with senior responsibilities who want to develop their leadership and management skillset to an advanced level.",
      "course_career_outcome": [],
      "course_country": "Australia",
      "course_tuition_fee": {
            "fees": [
                  {
                        "name": "Melbourne",
                        "value": {
                              "international_student": {
                                    "amount": 9000,
                                    "duration": 52,
                                    "unit": "weeks",
                                    "description": "$9,000"
                              },
                              "fee_duration_years": "1",
                              "currency": "AUD"
                        }
                  }
            ]
      },
      "course_id": "advanceddiplomaofleadershipandmanagement"
}