{
    "univ_id": "edithcowanuniversity",
    "course_title": "Bachelor Of Education (primary)",
    "program_code": "Y41",
    "course_discipline": [
        "TEACHER EDUCATION"
    ],
    "course_study_level": "Undergraduate",
    "course_url": "https://www.ecu.edu.au/degrees/courses/bachelor-of-education-primary",
    "course_intake": {
        "intake": [
            {
                "name": "South West",
                "value": [
                    {
                        "actualdate": "24 Feb,2020",
                        "month": "February"
                    }
                ]
            },
            {
                "name": "Mount Lawley",
                "value": [
                    {
                        "actualdate": "24 Feb,2020",
                        "month": "February"
                    }
                ]
            },
            {
                "name": "Joondalup",
                "value": [
                    {
                        "actualdate": "24 Feb,2020",
                        "month": "February"
                    }
                ]
            }
        ],
        "more_details": "https://intranet.ecu.edu.au/__data/assets/pdf_file/0010/651970/2020-Academic-Calendar.pdf"
    },
    "course_campus_location": [
        {
            "name": "South West",
            "code": "074169G"
        },
        {
            "name": "Mount Lawley",
            "code": "074169G"
        },
        {
            "name": "Joondalup",
            "code": "074169G"
        }
    ],
    "course_study_mode": "On campus",
    "course_duration": "4 years full-time",
    "course_duration_display": [
        {
            "unit": "years",
            "duration": "4",
            "display": "Full-Time",
            "filterduration": 4
        }
    ],
    "isfulltime": true,
    "isparttime": false,
    "course_overview": "This nationally accredited course is dedicated to producing future teachers ready to enter the primary education teaching profession. A key feature of this course is the range and number of professional practice experiences offered to Pre-Service Teachers, ensuring they can make the essential connection between theory and practice, while building both professional and generic employability skills in real teaching environments. Partnerships between ECU and over 1,000 schools and early learning centres allow for Pre-Service Teachers to gain experience in diverse settings, including public, private, metropolitan, regional, rural or remote schools, working with children from diverse economic, social, ethnic and educational backgrounds. Final year Pre-Service Teachers can apply for a place in the internship program in a school. Pre-Service Teachers also have the opportunity to complete a formal specialisation in their Primary Education qualification. This enables you to obtain a deeper and broader level knowledge and understanding in a particular Learning Area at the graduate level. Units are also available in the degree that enable students to complete accreditation requirements to teach in Catholic schools.",
    "course_career_outcome": [
        "Primary School Teacher"
    ],
    "course_admission_requirement": {
        "english": [
            {
                "name": "ielts academic",
                "description": "International  students must attain an IELTS Academic with an average level of 7.5 or more, across the four components of listening, speaking, reading and writing; no score below level 7.0 in any of these components; and, a score of 8.0 or more in the components of speaking and listening.  Internationally schooled applicants may also be required to meet this requirement. International  students must attain an IELTS Academic with an average level of 7.5 or more, across the four components of listening, speaking, reading and writing; no score below level 7.0 in any of these components; and, a score of 8.0 or more in the components of speaking and listening.  Internationally schooled applicants may also be required to meet this requirement.",
                "min": 0,
                "require": 7.5,
                "max": 9,
                "R": 0,
                "W": 0,
                "S": 0,
                "L": 0,
                "O": 0
            },
            {
                "name": "toefl ibt",
                "description": "Minimum score of 70, with no individual score less than 17",
                "min": 0,
                "require": 70,
                "max": 120,
                "R": 0,
                "W": 0,
                "S": 0,
                "L": 0,
                "O": 0
            },
            {
                "name": "toefl pbt",
                "description": "Minimum score of 550, including Test of Written English of 5 or better",
                "min": 310,
                "require": 550,
                "max": 677,
                "R": 0,
                "W": 0,
                "S": 0,
                "L": 0,
                "O": 0
            },
            {
                "name": "pte academic",
                "description": "PTE Academic 52, with no scores less than 50 for courses with a current requirement of Academic IELTS 6.0",
                "min": 0,
                "require": 52,
                "max": 90,
                "R": 0,
                "W": 0,
                "S": 0,
                "L": 0,
                "O": 0
            }
        ],
        "academic": [
            "The following course-specific admission requirements are mandatory and must be satisfied by all applicants. These requirements are in addition to or supersede the minimum requirements outlined within the Academic admission requirements band section below.\n\nAll applicants are required to satisfy non-academic criteria, in addition to satisfying academic entry criteria. Applicants' non-academic capabilities will be assessed based on completion of a Non-Academic Requirements for Teacher Entry (NARTE) online questionnaire.\n\nAll applicants must meet the academic admission requirements for this course. The indicative or guaranteed ATAR is as published (where applicable) or academic admission requirements may be satisfied through completion of one of the following:\n\nAQF Cert IV;\nSuccessfully completed 0.25 EFTSL of study at bachelor level or higher at an Australian higher education provider (or equivalent);\nSpecial Tertiary Admissions Test;*\nUniversity Preparation Course;*\nIndigenous University Orientation Course;*\nAboriginal Student Intake Test; or*\nExperience Based Entry Scheme.*\n\n* Further information can be found on the Study course entry page.\n\nFor international students, requirements include your secondary school results."
        ],
        "entry_requirements_url": "https://www.ecu.edu.au/future-students/course-entry",
        "english_requirements_url": "https://www.ecu.edu.au/future-students/course-entry/english-competency",
        "academic_requirements_url": ""
    },
    "course_country": "Australia",
    "course_tuition_fee": {
        "fees": [
            {
                "name": "South West",
                "value": {
                    "international_student": {
                        "amount": 30750,
                        "duration": "1",
                        "unit": "year",
                        "description": "AUD $30,750"
                    },
                    "fee_duration_years": "1",
                    "currency": "AUD"
                }
            },
            {
                "name": "Mount Lawley",
                "value": {
                    "international_student": {
                        "amount": 30750,
                        "duration": "1",
                        "unit": "year",
                        "description": "AUD $30,750"
                    },
                    "fee_duration_years": "1",
                    "currency": "AUD"
                }
            },
            {
                "name": "Joondalup",
                "value": {
                    "international_student": {
                        "amount": 30750,
                        "duration": "1",
                        "unit": "year",
                        "description": "AUD $30,750"
                    },
                    "fee_duration_years": "1",
                    "currency": "AUD"
                }
            }
        ]
    },
    "course_outline": {
        "minors": [],
        "majors": [],
        "more_details": ""
    },
    "application_fees": "75",
    "course_id": "bachelorofeducation(primary)"
}