{
    "univ_id": "edithcowanuniversity",
    "course_title": "Bachelor Of Science (nursing Studies)",
    "program_code": "Y61",
    "course_discipline": [
        "NURSING & MIDWIFERY"
    ],
    "course_study_level": "Undergraduate",
    "course_url": "https://www.ecu.edu.au/degrees/courses/bachelor-of-science-nursing-studies",
    "course_intake": {
        "intake": [
            {
                "name": "South West",
                "value": [
                    {
                        "actualdate": "24 Feb,2020",
                        "month": "February"
                    },
                    {
                        "actualdate": "27 Jul,2020",
                        "month": "July"
                    }
                ]
            },
            {
                "name": "Joondalup",
                "value": [
                    {
                        "actualdate": "24 Feb,2020",
                        "month": "February"
                    },
                    {
                        "actualdate": "27 Jul,2020",
                        "month": "July"
                    }
                ]
            }
        ],
        "more_details": "https://intranet.ecu.edu.au/__data/assets/pdf_file/0010/651970/2020-Academic-Calendar.pdf"
    },
    "course_campus_location": [
        {
            "name": "South West",
            "code": "083404D"
        },
        {
            "name": "Joondalup",
            "code": "083404D"
        }
    ],
    "course_study_mode": "On campus",
    "course_duration": "3 years full-time or part-time equivalent",
    "course_duration_display": [
        {
            "unit": "years",
            "duration": "3",
            "display": "Full-Time",
            "filterduration": 3
        },
        {
            "unit": "years",
            "duration": "6",
            "display": "Part-Time",
            "filterduration": 6
        }
    ],
    "isfulltime": true,
    "isparttime": true,
    "course_overview": "Provides Registered Nurses with an opportunity to obtain an Australian degree if they hold a Diploma level qualification in their country of origin. The course is not professionally-accredited and therefore does not lead to registration with the Nurses and Midwives Board of Australia.",
    "course_career_outcome": [
        "Nurse"
    ],
    "course_admission_requirement": {
        "english": [
            {
                "name": "ielts academic",
                "description": "IELTS Academic Overall band minimum score of 6.0 (no individual band less than 6.0); English competency requirements may be satisfied through completion of one of the following:",
                "min": 0,
                "require": 6,
                "max": 9,
                "R": 0,
                "W": 0,
                "S": 0,
                "L": 0,
                "O": 0
            },
            {
                "name": "toefl ibt",
                "description": "Minimum score of 70, with no individual score less than 17",
                "min": 0,
                "require": 70,
                "max": 120,
                "R": 0,
                "W": 0,
                "S": 0,
                "L": 0,
                "O": 0
            },
            {
                "name": "toefl pbt",
                "description": "Minimum score of 550, including Test of Written English of 5 or better",
                "min": 310,
                "require": 550,
                "max": 677,
                "R": 0,
                "W": 0,
                "S": 0,
                "L": 0,
                "O": 0
            },
            {
                "name": "pte academic",
                "description": "PTE Academic 52, with no scores less than 50 for courses with a current requirement of Academic IELTS 6.0",
                "min": 0,
                "require": 52,
                "max": 90,
                "R": 0,
                "W": 0,
                "S": 0,
                "L": 0,
                "O": 0
            }
        ],
        "academic": [
            "The following course-specific admission requirements are mandatory and must be satisfied by all applicants. These requirements are in addition to or supersede the minimum requirements outlined within the Academic admission requirements band section below.\n\nAll applicants are required to be Registered Nurses in their country of origin.\n\nAll applicants must meet the academic admission requirements for this course. The indicative or guaranteed ATAR is as published (where applicable) or academic admission requirements may be satisfied through completion of one of the following:\n\nAQF Cert IV;\nSuccessfully completed 0.25 EFTSL of study at bachelor level or higher at an Australian higher education provider (or equivalent);\nSpecial Tertiary Admissions Test;*\nUniversity Preparation Course;*\nIndigenous University Orientation Course;*\nAboriginal Student Intake Test; or*\nExperience Based Entry Scheme.*\n\n* Further information can be found on the Study course entry page.\n\nFor international students, requirements include your secondary school results."
        ],
        "entry_requirements_url": "https://www.ecu.edu.au/future-students/course-entry",
        "english_requirements_url": "https://www.ecu.edu.au/future-students/course-entry/english-competency",
        "academic_requirements_url": ""
    },
    "course_country": "Australia",
    "course_tuition_fee": {
        "fees": [
            {
                "name": "South West",
                "value": {
                    "international_student": {
                        "amount": 33850,
                        "duration": "1",
                        "unit": "year",
                        "description": "AUD $33,850"
                    },
                    "fee_duration_years": "1",
                    "currency": "AUD"
                }
            },
            {
                "name": "Joondalup",
                "value": {
                    "international_student": {
                        "amount": 33850,
                        "duration": "1",
                        "unit": "year",
                        "description": "AUD $33,850"
                    },
                    "fee_duration_years": "1",
                    "currency": "AUD"
                }
            }
        ]
    },
    "course_outline": {
        "minors": [],
        "majors": [],
        "more_details": ""
    },
    "application_fees": "75",
    "course_id": "bachelorofscience(nursingstudies)"
}