{
    "univ_id": "",
    "course_title": [
        {
            "url": "",
            "elements": [
                {
                    "elementType": "div",
                    "selectors": [
                        "#wrapper > div > div.template--main.template--product-page > div > div.section.component.component--page-banner.component--fullscreen > div > div > div > div > div > div.component.component--title > h1"
                    ]
                }
            ]
        }
    ],
    "page_url": "",
    "course_discipline": "",
    "course_study_level": [
        {
            "url": "",
            "elements": [
                {
                    "elementType": "scrape_by_xpath",
                    "selectors": [
                        "//*[@id='wrapper']/div/div[3]/div/div[1]/div/div/div/div/div/div[2]/h1/preceding::div[1]/span[1]"
                    ]
                }
            ]
        }
    ],
    "course_url": "",
    "course_duration": "",
    "course_duration_full_time": [
        {
            "url": "",
            "elements": [
                {
                    "elementType": "scrape_by_xpath",
                    "selectors": [
                        "//div[contains(text(),'FULL TIME')]/following-sibling::span"
                    ]
                }
            ]
        }
    ],
    "course_duration_part_time": [
        {
            "url": "",
            "elements": [
                {
                    "elementType": "scrape_by_xpath",
                    "selectors": [
                        "//div[contains(text(),'PART TIME')]/following-sibling::span"
                    ]
                }
            ]
        }
    ],
    "course_toefl_ielts_score": [
        {
            "url": "",
            "elements": [
                {}
            ]
        }
    ],
    "course_campus_location": [
        {
            "url": "",
            "elements": [
                {
                    "elementType": "wait",
                    "selectors": [
                        "nothing require!"
                    ]
                },
                {
                    "elementType": "scrape_by_xpath",
                    "selectors": [
                        "//*[@class='tile-carousel js-tile-carousel activated slick-initialized slick-slider active']/div/div/div[contains(@class,'tile-carousel__item')]/a/div/div/h3[not(contains(text(),'Online'))]",
                        "//*[@class='tile-carousel js-tile-carousel active']/div/a/div/div/h3[not(contains(text(),'Online'))]"
                    ]
                }
            ]
        }
    ],
    "course_intake": [
        {
            "url": "",
            "elements": [
                {
                    "elementType": "scrape_by_xpath",
                    "selectors": [
                        "//*[@id='wrapper']/div/div/div/div/div/div/div/div/div/div/div/div/div/div[2]/div/span[contains(text(),'2020') or contains(text(),'2021') or contains(text(),'2018')]"
                    ]
                }
            ]
        }
    ],
    "course_tuition_fees_year": [
        {
            "url": "",
            "elements": [
                {
                    "elementType": "readfromfile",
                    "value": "./selectors/university_hard_coded_data.json",
                    "selectors": [
                        "course_tuition_fees_year"
                    ]
                }
            ]
        }
    ],
    "course_tuition_fee_duration_years": [
        {
            "url": "",
            "elements": [
                {
                    "elementType": "readfromfile",
                    "value": "./selectors/university_hard_coded_data.json",
                    "selectors": [
                        "course_tuition_fee_duration_years"
                    ]
                }
            ]
        }
    ],
    "course_tuition_fees_currency": [
        {
            "elements": [
                {
                    "elementType": "readfromfile",
                    "value": "./selectors/university_hard_coded_data.json",
                    "selectors": [
                        "course_tuition_fees_currency"
                    ]
                }
            ]
        }
    ],
    "academic_requirements_url": [
        {
            "url": "",
            "elements": [
                {
                    "elementType": "readfromfile",
                    "value": "./selectors/university_hard_coded_data.json",
                    "selectors": [
                        "academic_requirements_url"
                    ]
                }
            ]
        }
    ],
    "english_requirements_url": [
        {
            "url": "",
            "elements": [
                {
                    "elementType": "readfromfile",
                    "value": "./selectors/university_hard_coded_data.json",
                    "selectors": [
                        "english_requirements_url"
                    ]
                }
            ]
        }
    ],
    "entry_requirements_url": [
        {
            "url": "",
            "elements": [
                {
                    "elementType": "readfromfile",
                    "value": "./selectors/university_hard_coded_data.json",
                    "selectors": [
                        "entry_requirements_url"
                    ]
                }
            ]
        }
    ],
    "course_country": [
        {
            "elements": [
                {
                    "elementType": "readfromfile",
                    "value": "./selectors/university_hard_coded_data.json",
                    "selectors": [
                        "univ_country"
                    ]
                }
            ]
        }
    ],
    "course_career_outcome": [
        {
            "url": "",
            "elements": [
                {
                    "elementType": "scrape_by_xpath",
                    "selectors": [
                        "//h2[contains(text(),'Your career') and @class='title__text secondary js-title']/../following-sibling::div/ul/li"
                    ]
                }
            ]
        }
    ],
    "course_overview": [
        {
            "url": "",
            "elements": [
                {
                    "elementType": "scrape_by_xpath",
                    "selectors": [
                        "//div[@class='col-lg-5']/div[@class='tile-carousel-side']/div[@class='component component--wysiwyg']/p"
                    ]
                }
            ]
        }
    ],
    "course_tuition_fees_international_student": [
        {
            "url": "",
            "elements": [
                {
                    "elementType": "select_option_by_text",
                    "selectors": [
                        {
                            "sel": "",
                            "opt": [
                                "//*//select/option[contains(text(),'International student') or contains(text(),'International Student')]"
                            ]
                        }
                    ]
                },
                {
                    "elementType": "scrape_by_xpath",
                    "selectors": [
                        "//*/div[@class='tabs__pane js-tabs__pane tab--active']/p[contains(.,'Fee')][1]"
                    ]
                }
            ]
        }
    ],
    "course_outline":[
        {
            "url":"",
            "elements":[ 
                {
                    "elementType": "scrape_by_xpath",
                    "selectors": [
                       "//*[@class='tabs__dropdown']/select/option[not(contains(text(),'Domestic Student')) and not(contains(text(),'International Student')) and not(contains(.,'You can choose from'))]"
                        
                           
                    ]
                }

               
            ]
        }
    ],
    "course_outline_minor":[
        {
            "url": "",
            "elements": [
                {
                    "elementType": "",
                    "selectors": []
                }
            ]
        }
    ],
    "course_outline_moredetails":[
        {
            "url": "",
            "elements": [
                {
                    "elementType": "",
                    "selectors": []
                }
            ]
        }
    ],
    "course_study_mode": [
        {
            "url": "",
            "elements": [
                {
                    "elementType": "scrape_by_xpath",
                    "selectors": [
                        "//*[contains(text(),'Fees and delivery')]/ancestor-or-self::div/following-sibling::div//div[@class='tabs__content']//div[not(@class='tabs__pane js-tabs__pane tab--active')]//*[contains(text(),'Delivery:')]/ancestor-or-self::p"
                    ]
                }
            ]
        }
    ],
    "course_cricos_code": [
        {
            "url": "",
            "elements": [
                {
                    "elementType": "scrape_by_xpath",
                    "selectors": [
                        "(//dl/dt[contains(text(),'CRICOS')]/following-sibling::dd)[1]"
                    ]
                }
            ]
        }
    ],
    "course_academic_requirement": [
        {
            "url": "",
            "elements": [
                {
                    "elementType": "scrape_by_action",
                    "selectors": [
                        {
                            "action": "ANCHOR_CLICK",
                            "isxpath": true,
                            "selector": "//*[contains(text(),'Course structure')]/../../../div[contains(.,'our handbook')]//a"
                        }
                    ]
                },
                {
                    "elementType": "scrape_outline_diff",
                    "selectors": [
                        {
                            "action": "WAIT",
                            "istime": true,
                            "time": 3000
                        }
                    ]
                },
                {
                    "elementType": "scrape_by_xpath",
                    "selectors": [
                        "//span[contains(text(),'Admission') and @class='MBN']/parent::p/following-sibling::p[contains(.,'Assumed knowledge')] | //span[contains(text(),'Admission') and @class='MBN']/parent::p/following-sibling::p[contains(.,'Recommended studies')]"
                    ]
                }
            ]
        }
    ],
    "program_code": [
        {
            "url": "",
            "elements": [
                {
                    "elementType": "scrape_by_xpath",
                    "selectors": [
                        "//span[contains(text(),'Western Sydney University Course Code: ')]/ancestor-or-self::p"
                    ]
                }
            ]
        }
    ],
   
    
    "application_fees":[
        {
            "url": "",
            "elements": [
                {
                    "elementType": "readfromfile",
                    "value": "./selectors/university_hard_coded_data.json",
                    "selectors": [
                        "application_fee"
                    ]
                }
            ]
        }  
    ]
}