{
    "univ_id": "",
    "univ_url": "https://jti.edu.au/",
    "page_url": "https://jti.edu.au/",
    "univ_name": "",
    "univ_country": [
        {
            "url": "",
            "elements": [
                {
                    "elementType": "readfromfile",
                    "value": "./selectors/university_hard_coded_data.json",
                    "selectors": [
                        "univ_country"
                    ]
                }
            ]
        }
    ],
    "univ_about": [
        {
            "url": "https://jti.edu.au/who-we-are-new/",
            "elements": [
                {
                    "elementType": "scrape_by_xpath",
                    "selectors": [
                        "//*[@id='el-057071f9']/p[1]",
                        "//*[@id='el-057071f9']/p[2]"
                    ]
                }
            ]
        }
    ],
    "univ_logo": [
        {
            "url": "",
            "elements": [
                {
                    "elementType": "readfromfile",
                    "value": "./selectors/university_hard_coded_data.json",
                    "selectors": [
                        "univ_logo"
                    ]
                }
            ]
        }
    ],
    "univ_accomodation": [
        {
            "url": "",
            "elements": [
                {
                    "elementType": "readfromfile",
                    "value": "./selectors/university_hard_coded_data.json",
                    "selectors": [
                        "univ_accomodation"
                    ]
                }
            ]
        }
    ],
    "university_type": [
        {
            "url": "",
            "elements": [
                {
                    "elementType": "readfromfile",
                    "value": "./selectors/university_hard_coded_data.json",
                    "selectors": [
                        "university_type"
                    ]
                }
            ]
        }
    ],
    "univ_rankings": [
        {
            "url": "",
            "elements": [
                {
                    "elementType": "readfromfile",
                    "value": "./selectors/university_hard_coded_data.json",
                    "selectors": [
                        "univ_rankings"
                    ]
                }
            ]
        }
    ],
    "univ_scholarship": [
        {
            "url": "",
            "elements": [
                {
                    "elementType": "div",
                    "selectors": [
                        "#content_container_98646 > p:nth-child(1) > strong"
                    ]
                }
            ]
        }
    ],
    "category": [
        {
            "url": "",
            "elements": [
                {
                    "elementType": "readfromfile",
                    "value": "./selectors/university_hard_coded_data.json",
                    "selectors": [
                        "category"
                    ]
                }
            ]
        }
    ],
    "facebook_page_name": [
        {
            "url": "",
            "elements": [
                {
                    "elementType": "readfromfile",
                    "value": "./selectors/university_hard_coded_data.json",
                    "selectors": [
                        "facebook_page_name"
                    ]
                }
            ]
        }
    ],
    "twitter_page_name": [
        {
            "url": "",
            "elements": [
                {
                    "elementType": "readfromfile",
                    "value": "./selectors/university_hard_coded_data.json",
                    "selectors": [
                        "twitter_page_name"
                    ]
                }
            ]
        }
    ],
    "youtube_page_name": [
        {
            "url": "",
            "elements": [
                {
                    "elementType": "readfromfile",
                    "value": "./selectors/university_hard_coded_data.json",
                    "selectors": [
                        "youtube_page_name"
                    ]
                }
            ]
        }
    ],
    "abbreviation": [
        {
            "url": "",
            "elements": [
                {
                    "elementType": "readfromfile",
                    "value": "./selectors/university_hard_coded_data.json",
                    "selectors": [
                        "abbreviation"
                    ]
                }
            ]
        }
    ],
    "application_fee": [
        {
            "url": "",
            "elements": [
                {
                    "elementType": "readfromfile",
                    "value": "./selectors/university_hard_coded_data.json",
                    "selectors": [
                        "application_fee"
                    ]
                }
            ]
        }
    ],
    "placement_url": [
        {
            "url": "",
            "elements": [
                {
                    "elementType": "readfromfile",
                    "value": "./selectors/university_hard_coded_data.json",
                    "selectors": [
                        "placement_url"
                    ]
                }
            ]
        }
    ],
    "apply_url": [
        {
            "url": "",
            "elements": [
                {
                    "elementType": "readfromfile",
                    "value": "./selectors/university_hard_coded_data.json",
                    "selectors": [
                        "apply_url"
                    ]
                }
            ]
        }
    ],
    "contactInformation": [
        {
            "url": "",
            "elements": [
                {
                    "elementType": "readfromfile",
                    "value": "./selectors/university_hard_coded_data.json",
                    "selectors": [
                        "contactInformation"
                    ]
                }
            ]
        }
    ],
    "brochure_path": [
        {
            "url": "",
            "elements": [
                {
                    "elementType": "readfromfile",
                    "value": "./selectors/university_hard_coded_data.json",
                    "selectors": [
                        "brochure_path"
                    ]
                }
            ]
        }
    ]
}