[
      {
            "href": "http://nmc.vic.edu.au/aur40116-certificate-iv-in-automotive-management/",
            "innerText": "Certificate III in Light Vehicle Mechanical Technology",
            "cricos": "089451D"
      },
      {
            "href": "http://nmc.vic.edu.au/aur50116-diploma-of-automotive-management/",
            "innerText": "Diploma of Automotive Management",
            "cricos": "089451D"
      },
      {
            "href": "http://nmc.vic.edu.au/bsb40212-certificate-iv-in-business/",
            "innerText": "Certificate IV in Business",
            "cricos": "089451D"
      },
      {
            "href": "http://nmc.vic.edu.au/bsb51915-diploma-of-leadership-and-management/",
            "innerText": "Diploma of leadership and management",
            "cricos": "089451D"
      }
]