{
      "univ_id": "northmelbournecollege",
      "course_title": "Diploma Of Automotivemanagement",
      "course_url": "http://nmc.vic.edu.au/aur50116-diploma-of-automotive-management/",
      "program_code": "",
      "course_study_level": "Diploma",
      "course_discipline": [
            "Management and Commerce"
      ],
      "course_study_mode": "On campus",
      "course_campus_location": [
            {
                  "name": "Melbourne",
                  "code": "091639A"
            }
      ],
      "course_outline": {
            "majors": [],
            "minors": [],
            "more_details": "http://nmc.vic.edu.au/aur50116-diploma-of-automotive-management/"
      },
      "application_fee": "",
      "course_duration": "This course will be delivered over 52 weeks including Holidays and breaks and includes ",
      "course_duration_display": [
            {
                  "unit": "weeks",
                  "duration": "52",
                  "display": "Full-Time",
                  "filterduration": 0.9972594543072979
            }
      ],
      "isfulltime": true,
      "isparttime": false,
      "course_admission_requirement": {
            "english": [
                  {
                        "name": "ielts academic",
                        "description": "IELTSAn IELTS level of 5.5 is required for International students entering into this program. (To find out about IELTS, visit www.ielts.org (Only for Overseas Students)",
                        "min": 0,
                        "require": 5.5,
                        "max": 9,
                        "R": 0,
                        "W": 0,
                        "S": 0,
                        "L": 0,
                        "O": 0
                  }
            ],
            "academic": [],
            "entry_requirements_url": "",
            "english_requirements_url": "",
            "academic_requirements_url": ""
      },
      "course_intake": {
            "intake": [
                  {
                        "name": "Melbourne",
                        "value": [
                              {
                                    "actualdate": "anytime",
                                    "month": ""
                              }
                        ]
                  }
            ],
            "more_details": ""
      },
      "course_overview": "This qualification covers the skills and knowledge required to undertake leadership and management roles within the automotive industry. It is suitable for entry into senior management roles in all sectors of the automotive industry.",
      "course_career_outcome": [
            "business manager\nautomotive directorship\ndealer principal\noperations manager\nsales manager\narea manager\nmarketing manager\nretail manager\nparts manager\npurchasing manager\nautomotive service manager\nautomotive aftermarket manager\nautomotive retail sales manager\nautomotive warehouse manager\nautomotive repair manager"
      ],
      "course_country": "Australia",
      "course_tuition_fee": {
            "fees": [
                  {
                        "name": "Melbourne",
                        "value": {
                              "international_student": {
                                    "amount": 10000,
                                    "duration": 1,
                                    "unit": "Year",
                                    "description": "$AU 10,000"
                              },
                              "fee_duration_years": "1",
                              "currency": "AUD"
                        }
                  }
            ]
      },
      "course_id": "diplomaofautomotivemanagement"
}