{
    "univ_id": "deakinuniversity",
    "course_url": "https://www.deakin.edu.au/course/graduate-diploma-professional-accounting-international",
    "course_title": "Graduate Diploma of Professional Accounting",
    "course_campus_location": [
        {
            "name": "Melbourne Burwood Campus",
            "city": "",
            "state": "",
            "country": "",
            "iscurrent": true
        }
    ],
    "course_study_mode": [
        "On campus"
    ],
    "course_discipline": [
        "Business",
        "Humanities, social sciences and languages"
    ],
    "course_study_level": "Postgraduate",
    "course_cricos_code": [
        {
            "location": "Melbourne Burwood Campus",
            "code": "073434C",
            "iscurrent": true
        }
    ],
    "program_code": "M696",
    "course_duration": [
        {
            "duration_full_time": "1 year full time or part time equivalent\n"
        }
    ],
    "course_duration_display": [
        {
            "unit": "year",
            "duration": "1",
            "display": "Full-Time",
            "filterduration": 1
        },
        {
            "unit": "year",
            "duration": "2",
            "display": "Part-Time",
            "filterduration": 2
        }
    ],
    "isfulltime": true,
    "isparttime": true,
    "course_intake": {
        "intake": [
            {
                "name": "Melbourne Burwood Campus",
                "value": [
                    {
                        "actualdate": "March",
                        "month": "March",
                        "intake": "Autumn",
                        "filterdate": "2020-03-31"
                    },
                    {
                        "actualdate": "July",
                        "month": "July",
                        "intake": "Winter",
                        "filterdate": "2020-07-31"
                    },
                    {
                        "actualdate": "November",
                        "month": "November",
                        "intake": "Spring",
                        "filterdate": "2020-11-30"
                    }
                ],
                "iscurrent": true
            }
        ],
        "more_details": "https://www.deakin.edu.au/course/graduate-diploma-professional-accounting-international"
    },
    "course_overview": "Expand your skills and knowledge of the finance and business field by enrolling in a postgrad Graduate Diploma in Professional Accounting course.",
    "course_career_outcome": [
        "As an accounting graduate you may find employment in major international accounting firms, investment banks and virtually every area of business and government."
    ],
    "course_country": "Australia",
    "course_admission_requirement": {
        "english": [
            {
                "name": "ielts academic",
                "description": "IELTS overall score of 6.5 (with no band score less than 6) or equivalent",
                "min": 0,
                "require": 6.5,
                "max": 9,
                "R": 0,
                "W": 0,
                "S": 0,
                "L": 0,
                "O": 0
            }
        ],
        "academic": [
            "a Bachelor's degree (AQF Level 7), major or other qualification (at a higher AQF level) in a related discipline, Weighted Average Mark (WAM) of 60% OR",
            "a Bachelor's degree in any discipline with a minimum WAM of 60, PLUS two years relevant work experience OR",
            "successful completion of the Masters Qualifying Program (MQP) (with a minimum overall average of 60 in the discipline units)"
        ],
        "entry_requirements_url": "",
        "english_requirements_url": "https://www.deakin.edu.au/international-students/getting-into-deakin/entry-requirements/english-language-requirements",
        "academic_requirements_url": "https://www.deakin.edu.au/international-students/study-abroad-and-exchange/academic-information"
    },
    "course_tuition_fee": {
        "fees": [
            {
                "name": "Melbourne Burwood Campus",
                "value": {
                    "international_student": [
                        {
                            "amount": 38400,
                            "duration": 1,
                            "unit": "Year",
                            "isfulltime": false,
                            "description": "$38,400 for 1 yr full-time AUD\nLearn more about fees and your options for paying.",
                            "type": ""
                        }
                    ],
                    "fee_duration_years": "1",
                    "currency": "AUD",
                    "international_student_all_fees": []
                },
                "iscurrent": true
            }
        ]
    },
    "course_id": "graduatediplomaofprofessionalaccounting",
    "basecourseid": "graduatediplomaofprofessionalaccounting"
}