{
    "univ_id": "deakinuniversity",
    "course_url": "https://www.deakin.edu.au/course/graduate-certificate-professional-accounting-and-law-international",
    "course_title": "Graduate Certificate Of Professional Accounting And Law",
    "course_outline": {
        "majors": [],
        "minors": [],
        "more_details": "https://www.deakin.edu.au/course/graduate-certificate-professional-accounting-and-law-international"
    },
    "application_fee": "55",
    "course_admission_requirement": {
        "english": [
            {
                "name": "ielts academic",
                "description": "IELTS overall score of 6.5 (with no band score less than 6) or equivalent",
                "R": 6,
                "W": 6,
                "S": 6,
                "L": 6,
                "O": 6.5,
                "min": 0,
                "require": 6.5,
                "max": 9
            }
        ],
        "academic": [
            "Bachelor degree or higher, or",
            "two years of relevant work experience, or",
            "evidence of academic capability judged to be equivalent"
        ],
        "entry_requirements_url": "",
        "english_requirements_url": "https://www.deakin.edu.au/international-students/getting-into-deakin/entry-requirements/english-language-requirements",
        "academic_requirements_url": "https://www.deakin.edu.au/international-students/study-abroad-and-exchange/academic-information"
    },
    "course_campus_location": [
        {
            "name": "Burwood",
            "code": "099103G"
        }
    ],
    "course_study_mode": "On Campus",
    "course_discipline": [
        "Business",
        "Humanities, social sciences and languages",
        "Law"
    ],
    "course_study_level": "Postgraduate",
    "program_code": "M549",
    "course_duration_display": [],
    "course_duration": "",
    "isfulltime": false,
    "isparttime": false,
    "course_intake": {
        "intake": [
            {
                "name": "Burwood",
                "value": [
                    {
                        "actualdate": "9 March, 2020",
                        "month": "March",
                        "filterdate": "2020-03-09"
                    }
                ]
            }
        ],
        "more_details": "https://www.deakin.edu.au/courses/key-dates"
    },
    "course_overview": "Deakin’s Graduate Certificate of Professional Accounting and Law is designed for graduates who need specialist legal knowledge in their roles (regulatory, compliance or risk management positions), and who wish to combine this knowledge with an accounting qualification.",
    "course_career_outcome": [
        "Graduates of this course would typically seek employment in areas of accounting such as financial accounting, auditing, taxation, management accounting, public sector accounting, forensic accounting or commercial law. However accountants can choose to work in a range of different environments depending on their own skills and preferences. They can choose to work in large firms, small public practices, industry, government, law firms, management consultancies, banking and financial services, not-for-profit organisations (NPOs) or educational organisations. Many also set up their own businesses."
    ],
    "course_country": "Australia",
    "course_tuition_fee": {
        "fees": [
            {
                "name": "Burwood",
                "value": {
                    "international_student": {
                        "amount": 19200,
                        "duration": 1,
                        "unit": "Year",
                        "description": "$19,200 AUD"
                    },
                    "fee_duration_years": "1",
                    "currency": "AUD"
                }
            }
        ]
    },
    "course_id": "graduatecertificateofprofessionalaccountingandlaw"
}