{
    "univ_id": "deakinuniversity",
    "course_url": "https://www.deakin.edu.au/course/bachelor-film-television-and-animation-international",
    "course_title": "Bachelor Of Film, Television And Animation",
    "course_outline": {
        "majors": [],
        "minors": [],
        "more_details": "https://www.deakin.edu.au/course/bachelor-film-television-and-animation-international"
    },
    "application_fee": "55",
    "course_admission_requirement": {
        "english": [
            {
                "name": "ielts academic",
                "description": "IELTS overall score of 6 (with no band score less than 6) or equivalent",
                "R": 6,
                "W": 6,
                "S": 6,
                "L": 6,
                "O": 6,
                "min": 0,
                "require": 6,
                "max": 9
            }
        ],
        "academic": [
            "Entry for applicants with recent secondary education (previous three years) will be based on their performance in a Senior Secondary Certificate of Education, with pre-requisite units 3 and 4; a study score of at least 25 in English EAL (English as an additional language) or 20 in English other than EAL.",
            "Entry for applicants with previous Tertiary, VET, life or work experience will be based on one their performance in:",
            "a Certificate IV in a related discipline OR",
            "a Diploma in any discipline or 50% completion of a Diploma in a related discipline OR",
            "successful completion of relevant study at an accredited higher education institution equivalent to at least two Deakin University units OR",
            "other evidence of academic capability judged to be equivalent including relevant work or life experience"
        ],
        "entry_requirements_url": "",
        "english_requirements_url": "https://www.deakin.edu.au/international-students/getting-into-deakin/entry-requirements/english-language-requirements",
        "academic_requirements_url": "https://www.deakin.edu.au/international-students/study-abroad-and-exchange/academic-information"
    },
    "course_campus_location": [
        {
            "name": "Burwood",
            "code": "095258K"
        }
    ],
    "course_study_mode": "On Campus",
    "course_discipline": [
        "Humanities, social sciences and languages",
        "Media, communications and creative arts"
    ],
    "course_study_level": "Undergraduate",
    "program_code": "A351",
    "course_duration": "3 years full time",
    "course_duration_display": [
        {
            "unit": "years",
            "duration": "3",
            "display": "Full-Time",
            "filterduration": 3
        }
    ],
    "isfulltime": true,
    "isparttime": false,
    "course_intake": {
        "intake": [
            {
                "name": "Burwood",
                "value": [
                    {
                        "actualdate": "9 March, 2020",
                        "month": "March",
                        "filterdate": "2020-03-09"
                    },
                    {
                        "actualdate": "13 July, 2020",
                        "month": "July",
                        "filterdate": "2020-07-13"
                    },
                    {
                        "actualdate": "9 November, 2020",
                        "month": "November",
                        "filterdate": "2020-11-09"
                    }
                ]
            }
        ],
        "more_details": "https://www.deakin.edu.au/courses/key-dates"
    },
    "course_overview": "Take a great story and learn to shape it for film, TV or animation. From documentary and short narrative fiction, to more experimental productions, the Bachelor of Film, Television and Animation allows you to develop your own specialist skill set within the dynamic fields of screen production and screen culture.",
    "course_career_outcome": [
        "As a film, television and animation graduate, you may find employment in fictional and factual production for cinema and television and in the corporate, educational, music video and advertising sectors.",
        "animators",
        "audiovisual technicians",
        "camera operators",
        "documentary producers",
        "film and television producers or directors",
        "journalists",
        "film or television editors",
        "lighting designers",
        "presenters",
        "production managers",
        "scriptwriters",
        "sound engineers",
        "television program coordinators."
    ],
    "course_country": "Australia",
    "course_tuition_fee": {
        "fees": [
            {
                "name": "Burwood",
                "value": {
                    "international_student": {
                        "amount": 32200,
                        "duration": 1,
                        "unit": "Year",
                        "description": "$32,200 for 1 yr full-time AUD"
                    },
                    "fee_duration_years": "1",
                    "currency": "AUD"
                }
            }
        ]
    },
    "course_id": "bacheloroffilm,televisionandanimation"
}