{
    "univ_id": "deakinuniversity",
    "course_url": "https://www.deakin.edu.au/course/graduate-diploma-commerce-international",
    "course_title": "Graduate Diploma Of Commerce",
    "course_outline": {
        "majors": [],
        "minors": [],
        "more_details": "https://www.deakin.edu.au/course/graduate-diploma-commerce-international"
    },
    "application_fee": "55",
    "course_admission_requirement": {
        "english": [
            {
                "name": "ielts academic",
                "description": "IELTS overall score of 6.5 (with no band score less than 6) or equivalent",
                "R": 6,
                "W": 6,
                "S": 6,
                "L": 6,
                "O": 6.5,
                "min": 0,
                "require": 6.5,
                "max": 9
            }
        ],
        "academic": [
            "Deakin University offers admission to postgraduate courses through a number of Admission categories. To be eligible for admission to this program, applicants must meet the ",
            " must meet the minimum ",
            "Please note that meeting the minimum admission requirements does not guarantee selection, which is based on merit, likelihood of success and availability of places in the course.",
            "For more information on the Admission Criteria and Selection (Higher Education Courses) Policy visit the ",
            "*Note: relevant professional experience that demonstrates comprehensive knowledge of business or other related field",
            "Please note that English language requirements exist for entry to this course and you will be required to meet the English language level requirement that is applicable in the year of your commencement of studies.",
            "It is the students’ responsibility to ensure that she/he has the required IELTS score to register with any external accredited courses. ("
        ],
        "entry_requirements_url": "",
        "english_requirements_url": "https://www.deakin.edu.au/international-students/getting-into-deakin/entry-requirements/english-language-requirements",
        "academic_requirements_url": "https://www.deakin.edu.au/international-students/study-abroad-and-exchange/academic-information"
    },
    "course_campus_location": [
        {
            "name": "Burwood",
            "code": "062715G"
        }
    ],
    "course_study_mode": "On Campus",
    "course_discipline": [
        "Business",
        "Humanities, social sciences and languages"
    ],
    "course_study_level": "Postgraduate",
    "program_code": "M616",
    "course_duration": "1 year full-time or part-time equivalent",
    "course_duration_display": [
        {
            "unit": "year",
            "duration": "1",
            "display": "Full-Time",
            "filterduration": 1
        },
        {
            "unit": "year",
            "duration": "2",
            "display": "Part-Time",
            "filterduration": 2
        }
    ],
    "isfulltime": true,
    "isparttime": true,
    "course_intake": {
        "intake": [
            {
                "name": "Burwood",
                "value": [
                    {
                        "actualdate": "9 March, 2020",
                        "month": "March",
                        "filterdate": "2020-03-09"
                    }
                ]
            }
        ],
        "more_details": "https://www.deakin.edu.au/courses/key-dates"
    },
    "course_overview": "Gain real-world business expertise that you can apply to a range of careers or to the management of your own business. Deakin’s Graduate Diploma of Commerce will give you a foundation in commerce and business theories with opportunities to put them into practice through hands-on industry experience.",
    "course_career_outcome": [],
    "course_country": "Australia",
    "course_tuition_fee": {
        "fees": [
            {
                "name": "Burwood",
                "value": {
                    "international_student": {
                        "amount": 38400,
                        "duration": 1,
                        "unit": "Year",
                        "description": "$38,400 for 1 yr full-time AUD"
                    },
                    "fee_duration_years": "1",
                    "currency": "AUD"
                }
            }
        ]
    },
    "course_id": "graduatediplomaofcommerce"
}