{
    "univ_id": "deakinuniversity",
    "course_url": "https://www.deakin.edu.au/course/master-communication-international",
    "course_title": "Master Of Communication",
    "course_outline": {
        "majors": [],
        "minors": [],
        "more_details": "https://www.deakin.edu.au/course/master-communication-international"
    },
    "application_fee": "55",
    "course_admission_requirement": {
        "english": [
            {
                "name": "ielts academic",
                "description": "IELTS overall score of 6.5 (with no band score less than 6) or equivalent",
                "R": 6,
                "W": 6,
                "S": 6,
                "L": 6,
                "O": 6.5,
                "min": 0,
                "require": 6.5,
                "max": 9
            }
        ],
        "academic": [
            "a Bachelor degree or other qualification at a higher AQF level in any discipline",
            "other evidence of academic capability judged to be equivalent"
        ],
        "entry_requirements_url": "",
        "english_requirements_url": "https://www.deakin.edu.au/international-students/getting-into-deakin/entry-requirements/english-language-requirements",
        "academic_requirements_url": "https://www.deakin.edu.au/international-students/study-abroad-and-exchange/academic-information"
    },
    "course_campus_location": [
        {
            "name": "Burwood",
            "code": "084000E"
        }
    ],
    "course_study_mode": "On Campus",
    "course_discipline": [
        "Business",
        "Design",
        "Humanities, social sciences and languages",
        "Media, communications and creative arts"
    ],
    "course_study_level": "Postgraduate",
    "program_code": "A743",
    "course_duration": "2 years full-time or part-time equivalent",
    "course_duration_display": [
        {
            "unit": "years",
            "duration": "2",
            "display": "Full-Time",
            "filterduration": 2
        },
        {
            "unit": "years",
            "duration": "4",
            "display": "Part-Time",
            "filterduration": 4
        }
    ],
    "isfulltime": true,
    "isparttime": true,
    "course_intake": {
        "intake": [
            {
                "name": "Burwood",
                "value": [
                    {
                        "actualdate": "9 March, 2020",
                        "month": "March",
                        "filterdate": "2020-03-09"
                    },
                    {
                        "actualdate": "13 July, 2020",
                        "month": "July",
                        "filterdate": "2020-07-13"
                    },
                    {
                        "actualdate": "9 November, 2020",
                        "month": "November",
                        "filterdate": "2020-11-09"
                    }
                ]
            }
        ],
        "more_details": "https://www.deakin.edu.au/courses/key-dates"
    },
    "course_overview": "The Master of Communication empowers you to confidently and creatively develop strategic communications that shape opinion.",
    "course_career_outcome": [
        "The diverse skill-set you’ll develop throughout your Master of Communication can take you just about anywhere, from media agencies and newsrooms, to publications and government organisations. You may even choose to be a consultant, or freelance from your favourite place in the world."
    ],
    "course_country": "Australia",
    "course_tuition_fee": {
        "fees": [
            {
                "name": "Burwood",
                "value": {
                    "international_student": {
                        "amount": 31400,
                        "duration": 1,
                        "unit": "Year",
                        "description": "$31,400 for 1 yr full-time AUD"
                    },
                    "fee_duration_years": "1",
                    "currency": "AUD"
                }
            }
        ]
    },
    "course_id": "masterofcommunication"
}