{
    "univ_id": "deakinuniversity",
    "course_url": "https://www.deakin.edu.au/course/master-psychology-organisational-international",
    "course_title": "Master Of Psychology (Organisational)",
    "course_outline": {
        "majors": [],
        "minors": [],
        "more_details": "https://www.deakin.edu.au/course/master-psychology-organisational-international"
    },
    "application_fee": "55",
    "course_admission_requirement": {
        "english": [
            {
                "name": "ielts academic",
                "description": "Overall IELTS score of 7 with no band less than 7.0",
                "R": 7,
                "W": 7,
                "S": 7,
                "L": 7,
                "O": 7,
                "min": 0,
                "require": 7,
                "max": 9
            }
        ],
        "academic": [
            "Deakin University offers admission to postgraduate courses through a number of Admission categories. To be eligible for admission to this program, applicants must meet the ",
            " must meet the minimum ",
            "For more information on the Admission Criteria and Selection (Higher Education Courses) Policy visit the ",
            "The minimum requirements are successful completion of a three-year undergraduate degree, or equivalent, from an approved university or other educational institution or successful completion of other equivalent qualifications gained by examination, or approved professional or industrial experience.",
            "The prerequisite for entry to the course is the completion of a four-year sequence of study in an accredited psychology program which meets national registration requirements and eligibility for Associate Membership of the APS, or equivalent. The four-year sequence may be either an honours program or the combination of a three-year undergraduate degree including a psychology major and an approved postgraduate program. International applicants will need to have their qualifications assessed by APAC to determine if the applicants qualifications are comparable to an Australian Psychology Accreditation Council (APAC) sequence of study in psychology. Further information regarding international qualification assessment can be found at ",
            "Entry will be competitive, based on academic results, referees' reports, relevant work experience, personal statement and interview before a panel of school selection staff. It would normally be expected that applicants will have achieved a minimum honours grade of H2A or equivalent. Relevant professional experience will be a factor in selection.",
            "Applicants should provide certified copies of academic transcripts from all previous tertiary studies undertaken, resume and personal statement.",
            "Applicants must ask ",
            "Please refer to the Psychology applications section of the "
        ],
        "entry_requirements_url": "",
        "english_requirements_url": "https://www.deakin.edu.au/international-students/getting-into-deakin/entry-requirements/english-language-requirements",
        "academic_requirements_url": "https://www.deakin.edu.au/international-students/study-abroad-and-exchange/academic-information"
    },
    "course_campus_location": [
        {
            "name": "Burwood",
            "code": "088717B"
        }
    ],
    "course_study_mode": "On Campus",
    "course_discipline": [
        "Business",
        "Health sciences and allied health",
        "Humanities, social sciences and languages",
        "Psychology"
    ],
    "course_study_level": "Postgraduate",
    "program_code": "H752",
    "course_duration": "2 years full-time or part-time equivalent",
    "course_duration_display": [
        {
            "unit": "years",
            "duration": "2",
            "display": "Full-Time",
            "filterduration": 2
        },
        {
            "unit": "years",
            "duration": "4",
            "display": "Part-Time",
            "filterduration": 4
        }
    ],
    "isfulltime": true,
    "isparttime": true,
    "course_intake": {
        "intake": [
            {
                "name": "Burwood",
                "value": [
                    {
                        "actualdate": "9 March, 2020",
                        "month": "March",
                        "filterdate": "2020-03-09"
                    }
                ]
            }
        ],
        "more_details": "https://www.deakin.edu.au/courses/key-dates"
    },
    "course_overview": "Work with organisations, teams and individual employees to improve their performance and increase effectiveness and productivity in the workplace.",
    "course_career_outcome": [
        "Organisational psychology is a growth area in psychology. Organisations have come to appreciate the contribution that organisational psychologists can make in areas such as personnel selection, employee motivation, teamwork, employee engagement, communication skills, stress management, employee evaluation, job satisfaction, efficiency and productivity. As a registered and accredited organisational psychologist, you may find employment in one of the many organisations or industries employing psychologists with this kind of specialisation."
    ],
    "course_country": "Australia",
    "course_tuition_fee": {
        "fees": [
            {
                "name": "Burwood",
                "value": {
                    "international_student": {
                        "amount": 35200,
                        "duration": 1,
                        "unit": "Year",
                        "description": "$35,200 for 1 yr full-time AUD"
                    },
                    "fee_duration_years": "1",
                    "currency": "AUD"
                }
            }
        ]
    },
    "course_id": "masterofpsychology(organisational)"
}