{
    "univ_id": "deakinuniversity",
    "course_url": "https://www.deakin.edu.au/course/international-master-business-administration-international",
    "course_title": "Master Of Business Administration (International)",
    "course_outline": {
        "majors": [],
        "minors": [],
        "more_details": "https://www.deakin.edu.au/course/international-master-business-administration-international"
    },
    "application_fee": "55",
    "course_admission_requirement": {
        "english": [
            {
                "name": "ielts academic",
                "description": "IELTS overall score of 6.5 (with no band score less than 6) or equivalent",
                "R": 6,
                "W": 6,
                "S": 6,
                "L": 6,
                "O": 6.5,
                "min": 0,
                "require": 6.5,
                "max": 9
            }
        ],
        "academic": [
            "Deakin University offers admission to postgraduate courses through a number of Admission categories. To be eligible for admission to this program, applicants must meet the ",
            " must meet the minimum ",
            "Please note that meeting the minimum admission requirements does not guarantee selection, which is based on merit, likelihood of success and availability of places in the course.",
            "For more information on the Admission Criteria and Selection (Higher Education Courses) Policy visit the ",
            "Admission is based on:",
            "Admission is based on:",
            "Admission is based on:",
            "Please note that English language requirements exist for entry to this course and you will be required to meet the English language level requirement that is applicable in the year of your commencement of studies.",
            "It is the students’ responsibility to ensure that she/he has the required IELTS score to register with any external accredited courses. (",
            " "
        ],
        "entry_requirements_url": "",
        "english_requirements_url": "https://www.deakin.edu.au/international-students/getting-into-deakin/entry-requirements/english-language-requirements",
        "academic_requirements_url": "https://www.deakin.edu.au/international-students/study-abroad-and-exchange/academic-information"
    },
    "course_campus_location": [
        {
            "name": "Burwood",
            "code": "056889B"
        }
    ],
    "course_study_mode": "On Campus",
    "course_discipline": [
        "Business",
        "Humanities, social sciences and languages",
        "Information technology"
    ],
    "course_study_level": "Postgraduate",
    "program_code": "M751",
    "course_duration": "2 years full-time or part-time equivalent",
    "course_duration_display": [
        {
            "unit": "years",
            "duration": "2",
            "display": "Full-Time",
            "filterduration": 2
        },
        {
            "unit": "years",
            "duration": "4",
            "display": "Part-Time",
            "filterduration": 4
        }
    ],
    "isfulltime": true,
    "isparttime": true,
    "course_intake": {
        "intake": [
            {
                "name": "Burwood",
                "value": [
                    {
                        "actualdate": "9 March, 2020",
                        "month": "March",
                        "filterdate": "2020-03-09"
                    },
                    {
                        "actualdate": "13 July, 2020",
                        "month": "July",
                        "filterdate": "2020-07-13"
                    },
                    {
                        "actualdate": "9 November, 2020",
                        "month": "November",
                        "filterdate": "2020-11-09"
                    }
                ]
            }
        ],
        "more_details": "https://www.deakin.edu.au/courses/key-dates"
    },
    "course_overview": "Learn how to manage and lead an organisation in an international context with one of Australia's premier business education programs.",
    "course_career_outcome": [
        "Deakin’s Master of Business Administration (International) has a range of specialisations to help you progress your career in all areas of business from administration to business strategy. As a graduate you may find employment in areas such as management consultancy, financial planning, corporate governance, human resource management, marketing and a range of other areas."
    ],
    "course_country": "Australia",
    "course_tuition_fee": {
        "fees": [
            {
                "name": "Burwood",
                "value": {
                    "international_student": {
                        "amount": 39800,
                        "duration": 1,
                        "unit": "Year",
                        "description": "$39,800 for 1 yr full-time AUD"
                    },
                    "fee_duration_years": "1",
                    "currency": "AUD"
                }
            }
        ]
    },
    "course_id": "masterofbusinessadministration(international)"
}