{
    "univ_id": "deakinuniversity",
    "course_url": "https://www.deakin.edu.au/course/master-business-administration-international",
    "course_title": "Master Of Business Administration",
    "course_outline": {
        "majors": [],
        "minors": [],
        "more_details": "https://www.deakin.edu.au/course/master-business-administration-international"
    },
    "application_fee": "55",
    "course_admission_requirement": {
        "english": [
            {
                "name": "ielts academic",
                "description": "IELTS overall score of 6.5 (with no band score less than 6) or equivalent",
                "R": 6,
                "W": 6,
                "S": 6,
                "L": 6,
                "O": 6.5,
                "min": 0,
                "require": 6.5,
                "max": 9
            }
        ],
        "academic": [
            "current CV",
            "current contact details of two referees who can be contacted concerning your work experience",
            "a one page brief outlining why you believe that your work experience would be valued by your MBA peers"
        ],
        "entry_requirements_url": "",
        "english_requirements_url": "https://www.deakin.edu.au/international-students/getting-into-deakin/entry-requirements/english-language-requirements",
        "academic_requirements_url": "https://www.deakin.edu.au/international-students/study-abroad-and-exchange/academic-information"
    },
    "course_campus_location": [
        {
            "name": "Burwood",
            "code": "035037J"
        }
    ],
    "course_study_mode": "On Campus",
    "course_discipline": [
        "Business",
        "Environment",
        "Health sciences and allied health",
        "Humanities, social sciences and languages"
    ],
    "course_study_level": "Postgraduate",
    "program_code": "M701",
    "course_duration": "1.5 years full time",
    "course_duration_display": [
        {
            "unit": "years",
            "duration": "1.5",
            "display": "Full-Time",
            "filterduration": 1.5
        }
    ],
    "isfulltime": true,
    "isparttime": false,
    "course_intake": {
        "intake": [
            {
                "name": "Burwood",
                "value": [
                    {
                        "actualdate": "9 March, 2020",
                        "month": "March",
                        "filterdate": "2020-03-09"
                    },
                    {
                        "actualdate": "13 July, 2020",
                        "month": "July",
                        "filterdate": "2020-07-13"
                    },
                    {
                        "actualdate": "9 November, 2020",
                        "month": "November",
                        "filterdate": "2020-11-09"
                    }
                ]
            }
        ],
        "more_details": "https://www.deakin.edu.au/courses/key-dates"
    },
    "course_overview": "Deakin's distinctive Master of Business Administration (MBA) course is one of Australia's premier business education programs.",
    "course_career_outcome": [
        "Deakin’s Master of Business Administration has a wide range of specialisations to help you progress your career in all areas of business from administration to business strategy. As a graduate you may find employment in areas such as consulting, strategy and planning, human resource management, marketing and a range of other areas."
    ],
    "course_country": "Australia",
    "course_tuition_fee": {
        "fees": [
            {
                "name": "Burwood",
                "value": {
                    "international_student": {
                        "amount": 42200,
                        "duration": 1,
                        "unit": "Year",
                        "description": "$42,200 for 1 yr full-time AUD"
                    },
                    "fee_duration_years": "1",
                    "currency": "AUD"
                }
            }
        ]
    },
    "course_id": "masterofbusinessadministration"
}