{
    "univ_id": "deakinuniversity",
    "course_url": "https://www.deakin.edu.au/course/graduate-certificate-writing-and-literature-international",
    "course_title": "Graduate Certificate Of Writing And Literature",
    "course_outline": {
        "majors": [],
        "minors": [],
        "more_details": "https://www.deakin.edu.au/course/graduate-certificate-writing-and-literature-international"
    },
    "application_fee": "55",
    "course_admission_requirement": {
        "english": [
            {
                "name": "ielts academic",
                "description": "IELTS overall score of 6.5 (with no band score less than 6) or equivalent",
                "R": 6,
                "W": 6,
                "S": 6,
                "L": 6,
                "O": 6.5,
                "min": 0,
                "require": 6.5,
                "max": 9
            }
        ],
        "academic": [
            "a Bachelor degree in any discipline OR",
            "At least two years of relevant work experience (or part-time equivalent)"
        ],
        "entry_requirements_url": "",
        "english_requirements_url": "https://www.deakin.edu.au/international-students/getting-into-deakin/entry-requirements/english-language-requirements",
        "academic_requirements_url": "https://www.deakin.edu.au/international-students/study-abroad-and-exchange/academic-information"
    },
    "course_campus_location": [
        {
            "name": "Burwood",
            "code": "083987J"
        }
    ],
    "course_study_mode": "On Campus",
    "course_discipline": [
        "Humanities, social sciences and languages",
        "Media, communications and creative arts"
    ],
    "course_study_level": "Postgraduate",
    "program_code": "A535",
    "course_duration": "This course is 0.5 years full-time duration or equivalent. Please see the Pathways section below for more information.",
    "course_duration_display": [
        {
            "unit": "years",
            "duration": "0.5",
            "display": "Full-Time",
            "filterduration": 0.5
        }
    ],
    "isfulltime": true,
    "isparttime": false,
    "course_intake": {
        "intake": [
            {
                "name": "Burwood",
                "value": [
                    {
                        "actualdate": "9 March, 2020",
                        "month": "March",
                        "filterdate": "2020-03-09"
                    }
                ]
            }
        ],
        "more_details": "https://www.deakin.edu.au/courses/key-dates"
    },
    "course_overview": "Turn your love for reading and writing into a successful career with the Graduate Certificate of Writing and Literature. Get an introduction to the craft and conventions of creative writing, professional writing and publishing, and use this course as a stepping stone into the",
    "course_career_outcome": [
        "The courses are designed for professionals working in fields requiring high-level analytical and writing skills, such as teaching, the public service and fields related to the publishing industry where flexibility and multi-skilling enhance employment opportunities."
    ],
    "course_country": "Australia",
    "course_tuition_fee": {
        "fees": [
            {
                "name": "Burwood",
                "value": {
                    "international_student": {
                        "amount": 15700,
                        "duration": 1,
                        "unit": "Year",
                        "description": "$15,700 AUD"
                    },
                    "fee_duration_years": "1",
                    "currency": "AUD"
                }
            }
        ]
    },
    "course_id": "graduatecertificateofwritingandliterature"
}