{
    "univ_id": "deakinuniversity",
    "course_url": "https://www.deakin.edu.au/course/graduate-certificate-business-administration-international",
    "course_title": "Graduate Certificate Of Business Administration",
    "course_outline": {
        "majors": [],
        "minors": [],
        "more_details": "https://www.deakin.edu.au/course/graduate-certificate-business-administration-international"
    },
    "application_fee": "55",
    "course_admission_requirement": {
        "english": [
            {
                "name": "ielts academic",
                "description": "IELTS overall score of 6.5 (with no band score less than 6) or equivalent",
                "R": 6,
                "W": 6,
                "S": 6,
                "L": 6,
                "O": 6.5,
                "min": 0,
                "require": 6.5,
                "max": 9
            }
        ],
        "academic": [
            "Bachelor degree in any discipline and three years relevant work experience,* or",
            "five years relevant work experience*.",
            "current CV,",
            "current contact details of two referees who can be contacted concerning your work experience,",
            "a one page brief outlining why you believe that your work experience would be valued by your MBA peers."
        ],
        "entry_requirements_url": "",
        "english_requirements_url": "https://www.deakin.edu.au/international-students/getting-into-deakin/entry-requirements/english-language-requirements",
        "academic_requirements_url": "https://www.deakin.edu.au/international-students/study-abroad-and-exchange/academic-information"
    },
    "course_campus_location": [
        {
            "name": "Burwood",
            "code": "020031E"
        }
    ],
    "course_study_mode": "On Campus",
    "course_discipline": [
        "Business",
        "Humanities, social sciences and languages"
    ],
    "course_study_level": "Postgraduate",
    "program_code": "M501",
    "course_duration": "1 trimester full time or part time equivalent",
    "course_duration_display": [
        {
            "unit": "trimester",
            "duration": "1",
            "display": "Full-Time",
            "filterduration": 1
        },
        {
            "unit": "trimester",
            "duration": "2",
            "display": "Part-Time",
            "filterduration": 2
        }
    ],
    "isfulltime": true,
    "isparttime": true,
    "course_intake": {
        "intake": [
            {
                "name": "Burwood",
                "value": [
                    {
                        "actualdate": "9 March, 2020",
                        "month": "March",
                        "filterdate": "2020-03-09"
                    },
                    {
                        "actualdate": "13 July, 2020",
                        "month": "July",
                        "filterdate": "2020-07-13"
                    }
                ]
            }
        ],
        "more_details": "https://www.deakin.edu.au/courses/key-dates"
    },
    "course_overview": "Deakin's postgrad course, the Graduate Certificate of Business Administration, focuses your studies on organisational management and leadership. The Graduate Certificate of Business Administration covers topics relating to organisational management, teaches you how to be a more effective business leader and expands your career options. On successful completion of this course, students may enrol in the Graduate Diploma of Business Administration, Master of Business Administration (MBA), and combined MBA courses.",
    "course_career_outcome": [
        "Deakin’s Graduate Certificate of Business Administration will help you progress your career in all areas of business from administration to business strategy. As a graduate you may find employment in areas such as financial planning, corporate governance, human resource management, marketing and a range of other areas"
    ],
    "course_country": "Australia",
    "course_tuition_fee": {
        "fees": [
            {
                "name": "Burwood",
                "value": {
                    "international_student": {
                        "amount": 21100,
                        "duration": 1,
                        "unit": "Year",
                        "description": "$21,100 AUD"
                    },
                    "fee_duration_years": "1",
                    "currency": "AUD"
                }
            }
        ]
    },
    "course_id": "graduatecertificateofbusinessadministration"
}