{
    "univ_id": "deakinuniversity",
    "course_url": "https://www.deakin.edu.au/course/graduate-diploma-business-administration-international",
    "course_title": "Graduate Diploma Of Business Administration",
    "course_outline": {
        "majors": [],
        "minors": [],
        "more_details": "https://www.deakin.edu.au/course/graduate-diploma-business-administration-international"
    },
    "application_fee": "55",
    "course_admission_requirement": {
        "english": [
            {
                "name": "ielts academic",
                "description": "IELTS overall score of 6.5 (with no band score less than 6) or equivalent",
                "R": 6,
                "W": 6,
                "S": 6,
                "L": 6,
                "O": 6.5,
                "min": 0,
                "require": 6.5,
                "max": 9
            }
        ],
        "academic": [
            "a Bachelor's degree in any discipline and three years relevant work experience*, or",
            "successful completion of a Masters Qualifying Program (MQP) and three years professional/managerial work experience*, or",
            "Graduate Certificate in a related discipline and five years professional/managerial work experience*",
            "current CV",
            "current contact details of two referees who can be contacted concerning your work experience",
            "a one page brief outlining why you believe that your work experience would be valued by your MBA peers"
        ],
        "entry_requirements_url": "",
        "english_requirements_url": "https://www.deakin.edu.au/international-students/getting-into-deakin/entry-requirements/english-language-requirements",
        "academic_requirements_url": "https://www.deakin.edu.au/international-students/study-abroad-and-exchange/academic-information"
    },
    "course_campus_location": [
        {
            "name": "Burwood",
            "code": "035038G"
        }
    ],
    "course_study_mode": "On Campus",
    "course_discipline": [
        "Business",
        "Humanities, social sciences and languages"
    ],
    "course_study_level": "Postgraduate",
    "program_code": "M601",
    "course_duration": "1 year full time",
    "course_duration_display": [
        {
            "unit": "year",
            "duration": "1",
            "display": "Full-Time",
            "filterduration": 1
        }
    ],
    "isfulltime": true,
    "isparttime": false,
    "course_intake": {
        "intake": [
            {
                "name": "Burwood",
                "value": [
                    {
                        "actualdate": "9 March, 2020",
                        "month": "March",
                        "filterdate": "2020-03-09"
                    },
                    {
                        "actualdate": "13 July, 2020",
                        "month": "July",
                        "filterdate": "2020-07-13"
                    }
                ]
            }
        ],
        "more_details": "https://www.deakin.edu.au/courses/key-dates"
    },
    "course_overview": "Enhance your undergraduate degree with versatile business expertise. Deakin’s Graduate Diploma of Business Administration is designed to provide you with a global business perspective, broadening your career options and paving the way to take on our Master of Business Administration (MBA) – ranked in the top 15 online MBAs globally.",
    "course_career_outcome": [],
    "course_country": "Australia",
    "course_tuition_fee": {
        "fees": [
            {
                "name": "Burwood",
                "value": {
                    "international_student": {
                        "amount": 42200,
                        "duration": 1,
                        "unit": "Year",
                        "description": "$42,200 for 1 yr full-time AUD"
                    },
                    "fee_duration_years": "1",
                    "currency": "AUD"
                }
            }
        ]
    },
    "course_id": "graduatediplomaofbusinessadministration"
}