{
    "univ_id": "deakinuniversity",
    "course_url": "https://www.deakin.edu.au/course/bachelor-design-architecture-international",
    "course_title": "Bachelor Of Design (Architecture)",
    "course_outline": {
        "majors": [],
        "minors": [],
        "more_details": "https://www.deakin.edu.au/course/bachelor-design-architecture-international"
    },
    "application_fee": "55",
    "course_admission_requirement": {
        "english": [
            {
                "name": "ielts academic",
                "description": "Overall IELTS score of 6.0 with no band less than 6.0 (or equivalent).",
                "R": 6,
                "W": 6,
                "S": 6,
                "L": 6,
                "O": 6,
                "min": 0,
                "require": 6,
                "max": 9
            }
        ],
        "academic": [
            "Entry for applicants with recent secondary education (previous three years) will be based on their performance in a Senior Secondary Certificate of Education, with pre-requisite units 3 and 4; a study score of at least 25 in English EAL (English as an additional language) or 20 in English other than EAL. Applicants will be selected in accordance with the published Australian Tertiary Admission Rank (ATAR) for that year.",
            "Entry for applicants with previous Tertiary, VET, life or work experience will be based on their performance in:",
            "a Certificate IV in a related discipline OR",
            "a Diploma in any discipline or 50% completion of a Diploma in a related discipline OR",
            "successful completion of relevant study at an accredited higher education institution equivalent to at least two Deakin University units OR",
            "other evidence of academic capability judged to be equivalent for example relevant work or life experience"
        ],
        "entry_requirements_url": "",
        "english_requirements_url": "https://www.deakin.edu.au/international-students/getting-into-deakin/entry-requirements/english-language-requirements",
        "academic_requirements_url": "https://www.deakin.edu.au/international-students/study-abroad-and-exchange/academic-information"
    },
    "course_campus_location": [
        {
            "name": "Geelong Waterfront",
            "code": "001835D"
        }
    ],
    "course_study_mode": "On Campus",
    "course_discipline": [
        "Architecture and construction management",
        "Design",
        "Humanities, social sciences and languages"
    ],
    "course_study_level": "Undergraduate",
    "program_code": "S342",
    "course_duration": "3 years full-time or part-time equivalent",
    "course_duration_display": [
        {
            "unit": "years",
            "duration": "3",
            "display": "Full-Time",
            "filterduration": 3
        },
        {
            "unit": "years",
            "duration": "6",
            "display": "Part-Time",
            "filterduration": 6
        }
    ],
    "isfulltime": true,
    "isparttime": true,
    "course_intake": {
        "intake": [
            {
                "name": "Geelong Waterfront",
                "value": [
                    {
                        "actualdate": "9 March, 2020",
                        "month": "March",
                        "filterdate": "2020-03-09"
                    },
                    {
                        "actualdate": "13 July, 2020",
                        "month": "July",
                        "filterdate": "2020-07-13"
                    }
                ]
            }
        ],
        "more_details": "https://www.deakin.edu.au/courses/key-dates"
    },
    "course_overview": "Understand the built environment, ecosystem and community to create meaningful and sustainable designs for everything from houses to skyscrapers – anywhere in the world.",
    "course_career_outcome": [
        "Deakin architecture graduates work across the globe, from the UK, Berlin and Oslo to China, Dubai and the US. Our graduates have pursued the following roles:",
        "3D architectural modeller",
        "architectural consultant or designer",
        "building designer",
        "building project manager",
        "design coordinator",
        "quantity surveyor",
        "structural drafter."
    ],
    "course_country": "Australia",
    "course_tuition_fee": {
        "fees": [
            {
                "name": "Geelong Waterfront",
                "value": {
                    "international_student": {
                        "amount": 32000,
                        "duration": 1,
                        "unit": "Year",
                        "description": "$32,000 for 1 yr full-time AUD"
                    },
                    "fee_duration_years": "1",
                    "currency": "AUD"
                }
            }
        ]
    },
    "course_id": "bachelorofdesign(architecture)"
}