{
      "univ_id": "theimperialcollegeofaustralia",
      "course_title": "Certificate IV in Commercial Cookery",
      "course_admission_requirement": {
            "english": [
                  {
                        "name": "ielts academic",
                        "description": "Overall band score of 5.5",
                        "min": 0,
                        "require": 5.5,
                        "max": 9,
                        "R": 0,
                        "W": 0,
                        "S": 0,
                        "L": 0,
                        "O": 0
                  },
                  {
                        "name": "pte academic",
                        "description": "42",
                        "min": 0,
                        "require": 42,
                        "max": 90,
                        "R": 0,
                        "W": 0,
                        "S": 0,
                        "L": 0,
                        "O": 0
                  },
                  {
                        "name": "ibt",
                        "description": "46",
                        "min": 0,
                        "require": 46,
                        "max": 120,
                        "R": 0,
                        "W": 0,
                        "S": 0,
                        "L": 0,
                        "O": 0
                  }
            ],
            "academic": [
                  "For international students Imperial has a requirement that all students must be over 18 years of age at the commencement of course. In relation to this qualification it would be quite unexpected for any student local or international to be under 18 years of age.,All international students should be able to meet the English requirements as required under the assessment level and country of passport of the student by Department of Home Affairs.  Further information available on www.homeaffairs.gov.au"
            ],
            "english_requirements_url": "http://www.imperial.edu.au/international-students/admission-process/",
            "academic_requirements_url": "http://www.imperial.edu.au/international-students/admission-process/",
            "entry_requirements_url": "http://www.imperial.edu.au/international-students/admission-process/"
      },
      "course_url": "http://www.imperial.edu.au/courses/sit40516-certificate-iv-in-commercial-cookery/",
      "course_outline": {
            "majors": [],
            "minors": [],
            "more_details": "http://www.imperial.edu.au/courses/sit40516-certificate-iv-in-commercial-cookery/"
      },
      "application_fee": "",
      "course_discipline": [
            "Hospitality Management"
      ],
      "program_code": "SIT40516",
      "course_study_level": "Certificate IV",
      "course_study_mode": "On campus",
      "course_campus_location": [
            {
                  "name": "Abbotsford",
                  "code": "096449F"
            }
      ],
      "course_duration": "76 week",
      "course_duration_display": [
            {
                  "unit": "week",
                  "duration": "76",
                  "display": "Full-Time",
                  "filterduration": 1.4575330486029738
            }
      ],
      "isfulltime": true,
      "isparttime": false,
      "course_intake": {
            "intake": [
                  {
                        "name": "Abbotsford",
                        "value": [
                              {
                                    "actualdate": "3rd February 2020",
                                    "month": "February"
                              },
                              {
                                    "actualdate": "2nd March 2020",
                                    "month": "March"
                              },
                              {
                                    "actualdate": "6th April 2020",
                                    "month": "April"
                              },
                              {
                                    "actualdate": "4th May 2020",
                                    "month": "May"
                              },
                              {
                                    "actualdate": "1st June 2020",
                                    "month": "June"
                              },
                              {
                                    "actualdate": "6th July 2020",
                                    "month": "July"
                              },
                              {
                                    "actualdate": "3rd August 2020",
                                    "month": "August"
                              },
                              {
                                    "actualdate": "7th September 2020",
                                    "month": "September"
                              },
                              {
                                    "actualdate": "5th October 2020",
                                    "month": "October"
                              },
                              {
                                    "actualdate": "2nd November 2020",
                                    "month": "November"
                              }
                        ]
                  }
            ],
            "more_details": "http://www.imperial.edu.au/international-students/intake-dates/"
      },
      "course_overview": "This qualification reflects the role of commercial cooks who have a supervisory or team leading role in the kitchen. They operate independently or with limited guidance from others and use discretion to solve non-routine problems.",
      "course_career_outcome": [],
      "course_country": "Australia",
      "course_tuition_fee": {
            "fees": [
                  {
                        "name": "Abbotsford",
                        "value": {
                              "international_student": {
                                    "amount": 15500,
                                    "duration": 76,
                                    "unit": "week",
                                    "description": "$15,500 (excluding OSHC)"
                              },
                              "fee_duration_years": "1",
                              "currency": "AUD"
                        }
                  }
            ]
      },
      "course_id": "certificateivincommercialcookery"
}