{
    "univ_id": "southerncrosseducationinstitute",
    "course_title": "Advanced Diploma Of Community Sector Management",
    "course_url": "https://www.scei.edu.au/courses/chc62015-advanced-diploma-of-community-sector-management/",
    "course_overview": "This qualification reflects the role of workers who are middle managers or managers across a range of community sector organisations. These people work independently and report to executive management, directors or boards of management. They undertake a range of functions requiring the application of knowledge and skills to achieve results in line with the organisation’s goals and strategic directions.",
    "course_discipline": ["COMMUNITY SERVICES"],
    "program_code": "CHC62015",
    "course_study_level": "Advanced Diploma",
    "course_campus_location": [{
            "name": "Melbourne",
            "code": "090595M"
        }, {
            "name": "Adelaide",
            "code": "090595M"
        }
    ],
    "course_study_mode": "On campus",
    "course_outline": {
        "majors": [],
        "minors": [],
        "more_details": ""
    },
    "course_duration": "Full time,66 Weeks",
    "course_duration_display": [{
            "unit": "weeks",
            "duration": "66",
            "display": "Full-Time",
            "filterduration": 1.2657523843131089
        }
    ],
    "isfulltime": true,
    "isparttime": false,
    "course_tuition_fee": {
        "fees": [{
                "name": "Melbourne",
                "value": {
                    "international_student": {
                        "amount": 10000,
                        "duration": 66,
                        "unit": "weeks",
                        "description": "$10,000.00"
                    },
                    "fee_duration_years": "1",
                    "currency": "AUD"
                }
            }, {
                "name": "Adelaide",
                "value": {
                    "international_student": {
                        "amount": 10000,
                        "duration": 66,
                        "unit": "weeks",
                        "description": "$10,000.00"
                    },
                    "fee_duration_years": "1",
                    "currency": "AUD"
                }
            }
        ]
    },
    "course_admission_requirement": {
        "english": [{
                "name": "ielts academic",
                "description": "IELTS Academics with 5.5 band",
                "min": 0,
                "require": 5.5,
                "max": 9,
                "R": 5.5,
                "W": 5.5,
                "S": 5.5,
                "L": 5.5,
                "O": 5.5
            }
        ],
        "academic": [],
        "english_requirements_url": "",
        "academic_requirements_url": "",
        "entry_requirements_url": ""
    },
    "course_career_outcome": [],
    "course_intake": {
        "intake": [{
                "name": "Melbourne",
                "value": [{
                        "actualdate": "August",
                        "month": "August"
                    }, {
                        "actualdate": "September",
                        "month": "September"
                    }, {
                        "actualdate": "October",
                        "month": "October"
                    }
                ]
            }, {
                "name": "Adelaide",
                "value": [{
                        "actualdate": "August",
                        "month": "August"
                    }, {
                        "actualdate": "September",
                        "month": "September"
                    }, {
                        "actualdate": "October",
                        "month": "October"
                    }
                ]
            }
        ],
        "more_details": ""
    },
    "course_country": "Australia",
    "application_fee": "",
    "course_id": "advanceddiplomaofcommunitysectormanagement"
}
