{
    "univ_id": "",
    "course_url": "",
    "course_title": [
        {
            "url": "",
            "elements": [
                {
                    "elementType": "div",
                    "selectors": [
                        "#content > main > section.main-content > header > div.title-block"
                    ]
                }
            ]
        }
    ],
    "course_cricos_code": [
        {
            "url": "",
            "elements": [
                {
                    "elementType": "div_at_index",
                    "selectors": [
                        "#content > main > section.main-content > div.course-detail-summary > div.row > div > p"
                    ],
                    "value": "2"
                },
                {
                    "elementType": "div",
                    "selectors": [
                        "#content > main > section.main-content > div > div.row > div:nth-child(2) > div:nth-child(5) > p"
                    ]
                }
            ]
        }
    ],
    "course_campus_location": [
        {
            "url": "",
            "elements": [
                {
                    "elementType": "div",
                    "selectors": [
                        "#content > main > section.main-content > div > div.course-meta > span.course-location"
                    ]
                }
            ]
        }
    ]
}