{
    "univ_id": "",
    "univ_url": "https://www.griffith.edu.au/",
    "page_url": "https://www.griffith.edu.au/study",
    "univ_name": "",
    "univ_country": [
        {
            "url": "",
            "elements": [
                {
                    "elementType": "readfromfile",
                    "value": "./selectors/university_hard_coded_data.json",
                    "selectors": [
                        "univ_country"
                    ]
                }
            ]
        }
    ],
    "univ_about": [
        {
            "url": "https://www.griffith.edu.au/about-griffith",
            "elements": [
                {
                    "elementType": "div",
                    "selectors": [
                        "body > main > div:nth-child(2) > div > div > div.gu8.t-gu12"
                    ]
                }
            ]
        }
    ],
    "univ_logo": [
        {
            "url": "",
            "elements": [
                {
                    "elementType": "readfromfile",
                    "value": "./selectors/university_hard_coded_data.json",
                    "selectors": [
                        "univ_logo"
                    ]
                }
            ]
        }
    ],
   
    "university_type": [
        {
            "url": "",
            "elements": [
                {
                    "elementType": "readfromfile",
                    "value": "./selectors/university_hard_coded_data.json",
                    "selectors": [
                        "university_type"
                    ]
                }
            ]
        }
    ],
    "abbreviation":[
        {
            "url": "",
            "elements":[
                {
                    "elementType":"readfromfile",
                    "value": "./selectors/university_hard_coded_data.json",
                    "selectors":[
                        "abbreviation"
                    ]
                }
            ]
        }
    ],
    "univ_accomodation": [
        {
            "url": "",
            "elements": [
                {
                    "elementType": "readfromfile",
                    "value": "./selectors/university_hard_coded_data.json",
                    "selectors": [
                        "univ_accomodation"
                    ]
                }
            ]
        }
    ],
    "univ_rankings": [
        {
            "url": "",
            "elements": [
                {
                    "elementType": "readfromfile",
                    "value": "./selectors/university_hard_coded_data.json",
                    "selectors": [
                        "univ_rankings"
                    ]
                }
            ]
        }
    ],
    
    "apply_url": [
        {
            "url":"",
            "elements" : [
                {
                    "elementType":"readfromfile",
                    "value": "./selectors/university_hard_coded_data.json",
                    "selectors":[
                        "apply_url"
                    ]
                }
            ]
        }

    ],
    "placement_url": [
        {
            "url":"",
            "elements" :[
                {
                    "elementType":"readfromfile",
                    "value": "./selectors/university_hard_coded_data.json",
                    "selectors":[
                        "placement_url"
                    ]
                }
            ]
        }
    ],
    "brochure_path": [
        {
            "url":"",
            "elements" :[
                {
                    "elementType":"readfromfile",
                    "value":"./selectors/university_hard_coded_data.json",
                    "selectors":[
                        "brochure_path"
                    ]
                }
            ]
        }
    ],
    "application_fee":[
        {
            "url":"",
            "elements" :[
                {
                    "elementType":"readfromfile",
                    "value":"./selectors/university_hard_coded_data.json",
                    "selectors":[
                        "Application_fee"
                    ]
                }
            ]
            
        }
    ],
    "facebook_page_name" : [
        {
            "url": "",
            "elements" :[
                {
                    "elementType":"readfromfile",
                    "value":"./selectors/university_hard_coded_data.json",
                    "selectors":[
                        "facebook_page_name"
                    ]
                }
            ]
        }
    ],
    "twitter_page_name" : [
        {
            "url": "",
            "elements" :[
                {
                    "elementType":"readfromfile",
                    "value":"./selectors/university_hard_coded_data.json",
                    "selectors":[
                        "twitter_page_name"
                    ]
                }
            ]
        }
    ],
    "youtube_page_name" : [
        {
            "url": "",
            "elements" :[
                {
                    "elementType":"readfromfile",
                    "value":"./selectors/university_hard_coded_data.json",
                    "selectors":[
                        "youtube_page_name"
                    ]
                }
            ]
        }
    ],
    
    "contactInformation" : [
        {
            "url" :"",
            "elements" :[
                {
                    "elementType":"readfromfile",
                    "value":"./selectors/university_hard_coded_data.json",
                    "selectors":[
                        "contactInformation"
                    ]
                }
            ]
        }
    ]
   
}