{
    "univ_id": "thegordon",
    "course_title": "Certificate Iii In Commercial Cookery",
    "course_campus_location": [
        {
            "name": "Geelong",
            "code": "094946E"
        }
    ],
    "course_study_mode": "On campus",
    "course_discipline": [
        "Cookery – The Gordon Culinary School"
    ],
    "program_code": "SIT30816",
    "course_study_level": "Certificate III",
    "course_url": "https://www.thegordon.edu.au/courses/all-courses/SIT30816-Certificate-III-in-Commercial-Cookery?i=1",
    "course_duration": "1 year",
    "course_duration_display": [
        {
            "unit": "year",
            "duration": "1",
            "display": "Full-Time",
            "filterduration": 1
        }
    ],
    "isfulltime": true,
    "isparttime": false,
    "course_admission_requirement": {
        "english": [
            {
                "name": "ielts academic",
                "description": "IELTS Academic overall score of 5.5 with no band below 5.0 (or equivalent); or completion of Australian Year 12; or a qualification undertaken in Australia at Certificate IV or higher and completed within the past 5 years; or university studies in Australia of at least 2 years duration.",
                "min": 0,
                "require": 5.5,
                "max": 9,
                "R": 5,
                "W": 5,
                "S": 5,
                "L": 5,
                "O": 5.5
            },
            {
                "name": "toefl ibt",
                "description": "46-59",
                "min": 0,
                "require": 46,
                "max": 120,
                "R": 4,
                "W": 14,
                "S": 14,
                "L": 4,
                "O": 46
            },
            {
                "name": "pte academic",
                "description": "43-50",
                "min": 0,
                "require": 43,
                "max": 90,
                "R": 35,
                "W": 35,
                "S": 35,
                "L": 35,
                "O": 43
            },
            {
                "name": "cae",
                "description": "47-51",
                "min": 80,
                "require": 47,
                "max": 230,
                "R": 0,
                "W": 0,
                "S": 0,
                "L": 0,
                "O": 47
            }
        ],
        "academic": [
            "Successful completion of Australian Year 10 or equivalent"
        ],
        "entry_requirements_url": "https://www.thegordon.edu.au/international/future-international/international-entry-requirements",
        "english_requirements_url": "https://www.thegordon.edu.au/international/future-international/international-entry-requirements/el-equivalency",
        "academic_requirements_url": "https://www.thegordon.edu.au/international/future-international/international-entry-requirements"
    },
    "course_intake": {
        "intake": [
            {
                "name": "Geelong",
                "value": [
                    {
                        "actualdate": "February",
                        "month": "February",
                        "filterdate": "2020-02-01"
                    }
                ]
            }
        ],
        "more_details": "https://www.thegordon.edu.au/international/future-international/orientation_keydates"
    },
    "course_overview": "If you love food, creative cooking and working in a team then becoming a qualified cook or chef could be the career for you. You will be taught by some of the best in the business in our specialist training kitchens with state-of-the-art equipment.",
    "course_career_outcome": [
        "Qualified cook/chef Head chef Kitchen attendant Catering team assistant"
    ],
    "course_country": "Australia",
    "course_tuition_fee": {
        "fees": [
            {
                "name": "Geelong",
                "value": {
                    "fee_duration_years": "1",
                    "currency": "AUD",
                    "international_student": {
                        "amount": 13208,
                        "duration": 1,
                        "unit": "Year",
                        "description": "AUD $13,208"
                    }
                }
            }
        ]
    },
    "course_outline": {
        "minors": [],
        "majors": [],
        "more_details": ""
    },
    "application_fee": "",
    "course_id": "certificateiiiincommercialcookery"
}