[
    {
        "Course_Name": "FNS40217 Certificate IV in Accounting and Bookkeeping",
        "Course_code": "097579K",
        "Application_Fee": "",
        "Material_Fee": "",
        "Tuition_Fee": ""
    },
    {
        "Course_Name": "FNS50217 Diploma of Accounting",
        "Course_code": "097580F",
        "Application_Fee": "",
        "Material_Fee": "",
        "Tuition_Fee": ""
    },
    {
        "Course_Name": "FNS60217 ADVANCED DIPLOMA OF ACCOUNTING",
        "Course_code": "090624M",
        "Application_Fee": "",
        "Material_Fee": "",
        "Tuition_Fee": ""
    },
    {
        "Course_Name": "BSB40215 Certificate IV in Business",
        "Course_code": "086944G",
        "Application_Fee": "250",
        "Material_Fee": "$100",
        "Tuition_Fee": "$4,700"
    },
    {
        "Course_Name": "BSB50215 Diploma of Business",
        "Course_code": "087212B",
        "Application_Fee": "250",
        "Material_Fee": "$100",
        "Tuition_Fee": "$9,400"
    },
    {
        "Course_Name": "BSB60215 Advanced Diploma of Business",
        "Course_code": "087491A",
        "Application_Fee": "250",
        "Material_Fee": "$100",
        "Tuition_Fee": "$9,400"
    },
    {
        "Course_Name": "BSB51918 Diploma of Leadership and Management",
        "Course_code": "0100654",
        "Application_Fee": "250",
        "Material_Fee": "$100",
        "Tuition_Fee": "$9,400"
    },
    {
        "Course_Name": "BSB61015 Advanced Diploma of Leadership and Management",
        "Course_code": "089958K",
        "Application_Fee": "250",
        "Material_Fee": "$100",
        "Tuition_Fee": "$9,400"
    },
    {
        "Course_Name": "BSB52415 Diploma of Marketing and Communication",
        "Course_code": "093716E",
        "Application_Fee": "",
        "Material_Fee": "",
        "Tuition_Fee": ""
    },
    {
        "Course_Name": "BSB61315 Advanced Diploma of Marketing and Communication",
        "Course_code": "093714G",
        "Application_Fee": "",
        "Material_Fee": "",
        "Tuition_Fee": ""
    },
    {
        "Course_Name": "ICT40418 Certificate IV in Information Technology Networking",
        "Course_code": "",
        "Application_Fee": "",
        "Material_Fee": "",
        "Tuition_Fee": ""
    },
    {
        "Course_Name": "ICT50418 Diploma of Information Technology Networking",
        "Course_code": "086656D",
        "Application_Fee": "",
        "Material_Fee": "",
        "Tuition_Fee": ""
    },
    {
        "Course_Name": "ICT60215 Advanced Diploma of Network Security",
        "Course_code": "086743E",
        "Application_Fee": "",
        "Material_Fee": "",
        "Tuition_Fee": ""
    },
    {
        "Course_Name": "SIT30816 Certificate III in Commercial Cookery",
        "Course_code": "093713G",
        "Application_Fee": "250",
        "Material_Fee": "$1,250",
        "Tuition_Fee": "$13,000"
    },
    {
        "Course_Name": "SIT40516 Certificate IV in Commercial Cookery",
        "Course_code": "093715F",
        "Application_Fee": "250",
        "Material_Fee": "$1,750",
        "Tuition_Fee": "$16,500"
    },
    {
        "Course_Name": "SIT50416 Diploma of Hospitality Management",
        "Course_code": "094456A",
        "Application_Fee": "250",
        "Material_Fee": "$1,750",
        "Tuition_Fee": "$16,500"
    }
]