{
    "univ_id": "danfordcollege",
    "course_outline": {
        "majors": [],
        "minors": [],
        "more_details": "https://www.danford.edu.au/program/project-management-programs/"
    },
    "application_fee": "",
    "course_title": "Diploma Of Project Management",
    "course_url": "https://www.danford.edu.au/program/project-management-programs/",
    "course_study_mode": "On campus",
    "course_campus_location": [
        {
            "name": "Melbourne",
            "code": "093015A"
        }
    ],
    "course_discipline": [
        "PROJECT AND PROGRAM MANAGEMENT"
    ],
    "program_code": "BSB51415",
    "course_study_level": "Diploma",
    "course_duration": "52 weeks (include 12 weeks holiday)",
    "course_duration_display": [
        {
            "unit": "weeks",
            "duration": "52",
            "display": "Full-Time",
            "filterduration": 0.9972594543072979
        }
    ],
    "isfulltime": true,
    "isparttime": false,
    "course_admission_requirement": {
        "english": [
            {
                "name": "ielts academic",
                "description": "For most Vocational course’s students are required to have a minimum IELTS (International English Language Testing Service) score of 5.5 overall with no band/sub score under 5.0 or equivalent English language tests as per accepted by the Department of Immigration.",
                "min": 0,
                "require": 5.5,
                "max": 9,
                "R": 5.0,
                "W": 5.0,
                "S": 5.0,
                "L": 5.0,
                "O": 5.5
            }
        ],
        "academic": [
            "All international students must meet a minimum academic requirement to gain admission to Danford College. Danford College requires the successful completion of studies equivalent to Australian Year 12 education as the minimum level of entry into our courses."
        ],
        "entry_requirements_url": "https://www.danford.edu.au/apply/entry-requirements/",
        "english_requirements_url": "https://www.danford.edu.au/apply/entry-requirements/",
        "academic_requirements_url": "https://www.danford.edu.au/apply/entry-requirements/"
    },
    "course_intake": {
        "intake": [
            {
                "name": "Melbourne",
                "value": [
                    {
                        "actualdate": "13-01-2020",
                        "month": "January",
                        "filterdate": "2020-1-13"
                    },
                    {
                        "actualdate": "24-02-2020",
                        "month": "February",
                        "filterdate": "2020-02-24"
                    },
                    {
                        "actualdate": "23-03-2020",
                        "month": "March",
                        "filterdate": "2020-03-23"
                    },
                    {
                        "actualdate": "13-04-2020",
                        "month": "April",
                        "filterdate": "2020-04-13"
                    },
                    {
                        "actualdate": "25-05-2020",
                        "month": "May",
                        "filterdate": "2020-05-25"
                    },
                    {
                        "actualdate": "22-06-2020",
                        "month": "June",
                        "filterdate": "2020-06-22"
                    },
                    {
                        "actualdate": "13-07-2020",
                        "month": "July",
                        "filterdate": "2020-07-13"
                    },
                    {
                        "actualdate": "03-08-2020",
                        "month": "August",
                        "filterdate": "2020-08-03"
                    },
                    {
                        "actualdate": "14-09-2020",
                        "month": "September",
                        "filterdate": "2020-09-14"
                    },
                    {
                        "actualdate": "12-10-2020",
                        "month": "October",
                        "filterdate": "2020-10-12"
                    },
                    {
                        "actualdate": "23-11-2020",
                        "month": "November",
                        "filterdate": "2020-11-23"
                    }
                ]
            }
        ],
        "more_details": "https://www.danford.edu.au/apply/fees-and-intakes/"
    },
    "course_overview": "Learn to apply expert project management skills and knowledge across different industry sectors and contexts.The Diploma of Project Management gets you ready for project leadership and management roles, and for overseeing and achieving project objectives. Manage project scope, time, quality, and costs, risk, and all other elements of project delivery. Gain a sound theoretical knowledge of project management, and use a range of specialised technical and managerial skills to initiate, plan, execute and evaluate your own work and that of other staff.Electives are available in procurement, stakeholder engagement, governance, and policies and procedures for sustainability.",
    "course_career_outcome": [
        "Project Manager (generic or industry-specific), Project Leader, Project Team Leader, Project Contract Manager, Project Vendor Manager."
    ],
    "course_country": "Australia",
    "course_tuition_fee": {
        "fees": [
            {
                "name": "Melbourne",
                "value": {
                    "international_student": {
                        "amount": 8000,
                        "duration": 52,
                        "unit": "weeks",
                        "description": "$8,000"
                    },
                    "fee_duration_years": "1",
                    "currency": "AUD"
                }
            }
        ]
    },
    "course_id": "diplomaofprojectmanagement"
}