{
      "univ_id": "theuniversityofwesternaustralia",
      "course_title": "Master Of Biotechnology",
      "course_campus_location": [
            {
                  "name": "Crawley",
                  "code": "083859F"
            }
      ],
      "program_code": "71580",
      "course_discipline": [
            "Science"
      ],
      "course_study_level": "Postgraduate",
      "course_study_mode": "On campus",
      "course_url": "https://www.uwa.edu.au/study/courses/master-of-biotechnology",
      "course_duration": "2 years",
      "course_duration_display": [
            {
                  "unit": "years",
                  "duration": "2",
                  "display": "Full-Time",
                  "filterduration": 2
            }
      ],
      "isfulltime": true,
      "isparttime": false,
      "course_admission_requirement": {
            "english": [
                  {
                        "name": "ielts academic",
                        "description": "6.5 overall (no band lower than 6.0)",
                        "min": 0,
                        "require": 6.5,
                        "max": 9,
                        "R": 6,
                        "W": 6,
                        "S": 6,
                        "L": 6,
                        "O": 6.5
                  },
                  {
                        "name": "toefl ibt",
                        "description": "82 with 22 for writing, 20 for speaking, 20 for listening, and 18 for reading",
                        "min": 0,
                        "require": 82,
                        "max": 120,
                        "R": 18,
                        "W": 22,
                        "S": 20,
                        "L": 20,
                        "O": 85
                  },
                  {
                        "name": "toefl pbt",
                        "description": "570 with a Test of Written English (TWE) of no less than 4.5",
                        "min": 310,
                        "require": 570,
                        "max": 677,
                        "R": 0,
                        "W": 0,
                        "S": 0,
                        "L": 0,
                        "O": 570
                  },
                  {
                        "name": "pte academic",
                        "description": "64 with  minimum score of 64 in the Reading and Writing sections 59 in the Speaking section and 54 in the Listening section.",
                        "min": 0,
                        "require": 64,
                        "max": 90,
                        "R": 64,
                        "W": 64,
                        "S": 59,
                        "L": 54,
                        "O": 64
                  },
                  {
                        "name": "cae",
                        "description": "Minimum grade of 180 with no band less than 170",
                        "min": 80,
                        "require": 180,
                        "max": 230,
                        "R": 170,
                        "W": 170,
                        "S": 170,
                        "L": 170,
                        "O": 180
                  }
            ],
            "academic": [
                  "Applicants wishing to commence an undergraduate degree (Bachelor of Arts, Biomedical Science, Commerce or Science) at UWA must satisfy the University’s academic and English language competence (ELC) requirements to be eligible for a place within the course. Applicants only need to satisfy one of the below academic requirements to be eligible.UWA also offers a number of Direct Pathways giving successful applicants an assured place into one of our professional postgraduate courses. Entry into a Direct Pathway requires a higher ATAR than the minimum for entry into an undergraduate course and is generally only available to current school-leaving applicants."
            ],
            "academic_requirements_url": "https://www.uwa.edu.au/study/how-to-apply/international-and-overseas-qualifications",
            "english_requirements_url": "https://www.uwa.edu.au/study/how-to-apply/entry-requirements/english-language-requirements",
            "entry_requirements_url": ""
      },
      "course_intake": {
            "intake": [
                  {
                        "name": "Crawley",
                        "value": [
                              {
                                    "actualdate": "24 February",
                                    "month": "February",
                                    "filterdate": "2020-02-24"
                              },
                              {
                                    "actualdate": "27 July",
                                    "month": "July",
                                    "filterdate": "2020-07-27"
                              }
                        ]
                  }
            ],
            "more_details": "http://www.governance.uwa.edu.au/structure/academic-dates"
      },
      "course_overview": "Using world-leading research staff, business experts and mentors in biotechnology companies, you're provided with the fundamental academic and business skills needed to make a significant contribution to the biotechnology sector. You can specialise in one of Biochemistry and Molecular Biology, Environmental Biotechnology, or Genetics and Genomics.",
      "course_outline": {
            "majors": [],
            "minors": [],
            "more_details": "https://www.uwa.edu.au/study/courses/master-of-biotechnology"
      },
      "application_fee": "",
      "course_career_outcome": [
            "Academic",
            "Agricultural Consultant",
            "Agricultural Scientist",
            "Biochemist"
      ],
      "course_tuition_fee": {
            "fees": [
                  {
                        "name": "Crawley",
                        "value": {
                              "international_student": {
                                    "amount": 80200,
                                    "duration": 2,
                                    "unit": "years",
                                    "description": "$80,200.00"
                              },
                              "fee_duration_years": "1",
                              "currency": "AUD"
                        }
                  }
            ]
      },
      "course_country": "Australia",
      "course_id": "masterofbiotechnology"
}