{
    "univ_id": "griffithcollege",
    "course_title": "Diploma Of Hotel Management",
    "course_study_mode": "On campus",
    "course_discipline": [
        "Hotel management"
    ],
    "program_code": "",
    "course_outline": {
        "majors": [],
        "minors": [],
        "more_details": "https://www.griffith.edu.au/college/programs/hotel-management"
    },
    "application_fee": "",
    "course_admission_requirement": {
        "english": [
            {
                "name": "ielts academic",
                "description": "5.5 (with no band below 5.0)",
                "min": 0,
                "require": 5.5,
                "max": 9,
                "R": 5,
                "W": 5,
                "S": 5,
                "L": 5,
                "O": 5.5
            },
           
            {
                "name": "toefl ibt",
                "description": "46",
                "min": 0,
                "require": 46,
                "max": 120,
                "R": 46,
                "W": 46,
                "S": 46,
                "L": 46,
                "O": 46
            },
            {
                "name": "pte academic",
                "description": "42",
                "min": 0,
                "require": 42,
                "max": 90,
                "R": 42,
                "W": 42,
                "S": 42,
                "L": 42,
                "O": 42
            },
            {
                "name": "cae",
                "description": "162 (with no score below 154)",
                "min": 80,
                "require": 162,
                "max": 230,
                "R": 154,
                "W": 154,
                "S": 154,
                "L": 154,
                "O": 162
            }
        ],
        "academic": [
            "All India Senior Secondary School Certificate Average of 50% (awarded by CBSE, CISCE and all other Boards) in 4 academic subjects"
        ],
        "english_requirements_url": "https://www.griffith.edu.au/college/admissions#entry",
        "entry_requirements_url": "https://www.griffith.edu.au/college/admissions#entry",
        "academic_requirements_url": "https://www.griffith.edu.au/college/admissions#entry"
    },
    "course_url": "https://www.griffith.edu.au/college/programs/hotel-management",
    "course_study_level": "Diploma",
    "course_campus_location": [
        {
            "name": "Mt Gravatt",
            "code": "052593F"
        },
        {
            "name": "Gold Coast",
            "code": "052593F"
        }
    ],
    "course_duration": "2 trimesters (8 months) or 3 trimesters (12 months)",
    "course_duration_display": [
        {
            "unit": "months",
            "duration": "8",
            "display": "Full-Time",
            "filterduration": 0.6666666666666666
        }
    ],
    "isfulltime": true,
    "isparttime": false,
    "course_intake": {
        "intake": [
            {
                "name": "Mt Gravatt",
                "value": [
                    {
                        "actualdate": "24 February 2020",
                        "month": "February"
                    },
                    {
                        "actualdate": "29 June 2020",
                        "month": "June"
                    },
                    {
                        "actualdate": "19 October 2020",
                        "month": "October"
                    }
                ]
            },
            {
                "name": "Gold Coast",
                "value": [
                    {
                        "actualdate": "24 February 2020",
                        "month": "February"
                    },
                    {
                        "actualdate": "29 June 2020",
                        "month": "June"
                    },
                    {
                        "actualdate": "19 October 2020",
                        "month": "October"
                    }
                ]
            }
        ],
        "more_details": "https://www.griffith.edu.au/college/admissions/important-dates"
    },
    "course_overview": "The hospitality and tourism industries contribute more than AUD$4 trillion in gross global output, which translates into millions of jobs worldwide. As the industry moves from being skills-based to a more knowledge-based industry, you need a higher level of education to access the top jobs. Managers now need to be fully attuned to the culture, service and competitive aspects of the sector. Whilst studying the Diploma, you will learn about the service industry in general, basic hotel operations and basic management and accounting skills.",
    "course_career_outcome": [],
    "course_country": "Australia",
    "course_tuition_fee": {
        "fees": [
            {
                "name": "Mt Gravatt",
                "value": {
                    "international_student": {
                        "amount": 28500,
                        "duration": 8,
                        "unit": "months",
                        "description": "A$28,500"
                    },
                    "fee_duration_years": "1",
                    "currency": "AUD"
                }
            },
            {
                "name": "Gold Coast",
                "value": {
                    "international_student": {
                        "amount": 28500,
                        "duration": 8,
                        "unit": "months",
                        "description": "A$28,500"
                    },
                    "fee_duration_years": "1",
                    "currency": "AUD"
                }
            }
        ]
    },
    "course_id": "diplomaofhotelmanagement"
}