{
    "univ_id": "charlessturtuniversity",
    "course_title": "Master of Theology",
    "course_campus_location": [
        "Canberra",
        "United Theological College"
    ],
    "course_discipline": [
        "Theology and Islamic Studies"
    ],
    "course_study_level": "Post Graduate",
    "course_url": "https://futurestudents.csu.edu.au/courses/theology-islamic-studies/master-theology",
    "course_cricos_code": [
        "Canberra - 025512C",
        "United Theological College - 025512C"
    ],
    "course_duration": [
        {
            "duration_full_time": "Full-time 1.5 years (3.0 sessions) Part-time 3.0 years (6.0 sessions)"
        }
    ],
    "course_duration_display": [
        {
            "unit": "years",
            "duration": "1.5",
            "display": "Full-Time",
            "filterduration": 1.5
        },
        {
            "unit": "years",
            "duration": "3.0",
            "display": "Part-Time",
            "filterduration": 3
        }
    ],
    "course_tuition_fee": {
        "year": "2019",
        "fees": [
            {
                "name": "Canberra",
                "value": {
                    "international_student": [
                        {
                            "amount": 19440,
                            "duration": 1,
                            "unit": "Year",
                            "isfulltime": true,
                            "description": "",
                            "type": ""
                        }
                    ],
                    "fee_duration_years": "1",
                    "international_student_all_fees": [],
                    "currency": "AUD"
                }
            },
            {
                "name": "United Theological College",
                "value": {
                    "international_student": [
                        {
                            "amount": 19440,
                            "duration": 1,
                            "unit": "Year",
                            "isfulltime": true,
                            "description": "",
                            "type": ""
                        }
                    ],
                    "fee_duration_years": "1",
                    "international_student_all_fees": [],
                    "currency": "AUD"
                }
            }
        ]
    },
    "course_intake": {
        "intake": [
            {
                "name": "Canberra",
                "value": [
                    {
                        "actualdate": "March 4,2019",
                        "month": "March",
                        "intake": "Autumn"
                    },
                    {
                        "actualdate": "July 15,2019",
                        "month": "July",
                        "intake": "Winter"
                    }
                ]
            },
            {
                "name": "United Theological College",
                "value": [
                    {
                        "actualdate": "March 4,2019",
                        "month": "March",
                        "intake": "Autumn"
                    },
                    {
                        "actualdate": "July 15,2019",
                        "month": "July",
                        "intake": "Winter"
                    }
                ]
            }
        ],
        "more_details": [
            "http://www.csustudycentres.edu.au/how-to-apply/key-dates"
        ]
    },
    "course_overview": "The Master of Theology from Charles Sturt University offers depth and breadth in theological education. This course builds on your previous theological study to help you develop an in-depth understanding of major issues in contemporary theology. It provides advanced critical knowledge and skills in the theological disciplines and their application to contemporary society and church.",
    "course_career_outcome": [
        "You could work in church leadership with other religious leaders in the community to support and enhance community engagement in the activities of various churches and faiths. There are also opportunities to develop and implement research projects to build critical perspectives across Christian ministry, its history and practice. You could also choose to analyse and improve models of mission and evangelism to build a contemporary approach to mission relevant to cultural and ecclesial contexts. The Master of Theology is also a pathway to further study; the degree equips you to undertake research at the master's and PhD levels."
    ],
    "course_country": "Australia",
    "course_study_mode": [
        "On campus"
    ],
    "course_admission_requirement": {
        "english": [
            {
                "name": "ielts academic",
                "description": "Academic IELTS with a minimum overall score of 6 with no individual score below 5.5"
            },
            {
                "name": "toefl ibt",
                "description": "TOEFL (iBT) overall 60 (Reading 17, Writing 16, Speaking 19 & Listening 17)"
            },
            {
                "name": "pte academic",
                "description": "PTE Academic overall 50 (Each section 50)"
            },
            {
                "name": "cae",
                "description": "CAE overall 169 (Each section 169)"
            }
        ],
        "englishprogress": [
            {
                "name": "ielts academic",
                "value": {
                    "min": 0,
                    "require": 6,
                    "max": 9
                }
            },
            {
                "name": "toefl ibt",
                "value": {
                    "min": 0,
                    "require": 60,
                    "max": 120
                }
            },
            {
                "name": "pte academic",
                "value": {
                    "min": 0,
                    "require": 50,
                    "max": 90
                }
            },
            {
                "name": "cae",
                "value": {
                    "min": 80,
                    "require": 169,
                    "max": 230
                }
            }
        ],
        "academic": [
            "Applicants for the Master of Theology must meet the following admission requirements:\n\t\n\thold a Bachelor degree in Theology (or AQF equivalent)\n\t\n\tOR\n\t\n\thave obtained a Credit average or higher in a Graduate Diploma of Theology (or AQF equivalent) in Theology or Divinity."
        ],
        "academic_requirements_url": "https://futurestudents.csu.edu.au/international/course-entry-requirements/requirements",
        "english_requirements_url": "https://futurestudents.csu.edu.au/apply/english-language",
        "entry_requirements_url": ""
    },
    "program_code": [],
    "course_id": "masteroftheology_unitedtheologicalcollege",
    "current_course_campus_location": "United Theological College",
    "course_intake_display": {
        "actualdate": "March 4,2019",
        "month": "March",
        "intake": "Autumn"
    },
    "international_student_all_fees": {
        "name": "United Theological College",
        "value": {
            "international_student": [
                {
                    "amount": 19440,
                    "duration": 1,
                    "unit": "Year",
                    "isfulltime": true,
                    "description": "",
                    "type": ""
                }
            ],
            "fee_duration_years": "1",
            "international_student_all_fees": [],
            "currency": "AUD"
        }
    }
}