{
    "univ_id": "theuniversityofwesternaustralia",
    "course_title": "Graduate Certificate In Health Professions Education",
    "course_campus_location": [
        {
            "name": "Crawley",
            "city": "",
            "state": "",
            "country": "",
            "iscurrent": true
        }
    ],
    "program_code": "90210",
    "course_discipline": [
        "Medicine and Health"
    ],
    "course_study_level": "Postgraduate",
    "course_study_mode": "On campus",
    "course_url": "https://www.uwa.edu.au/study/courses/graduate-certificate-in-health-professions-education",
    "course_cricos_code": [
        {
            "location": "Crawley",
            "code": "058206G",
            "iscurrent": true
        }
    ],
    "course_duration": [
        {
            "duration_full_time": "1 semester"
        }
    ],
    "course_duration_display": [
        {
            "unit": "semester",
            "duration": "1",
            "display": "Full-Time",
            "filterduration": 0.5
        }
    ],
    "isfulltime": true,
    "isparttime": false,
    "course_admission_requirement": {
        "english": [
            {
                "name": "ielts academic",
                "description": "6.5 overall (no band lower than 6.0)",
                "min": 0,
                "require": 6.5,
                "max": 9,
                "R": 0,
                "W": 0,
                "S": 0,
                "L": 0,
                "O": 0
            },
            {
                "name": "toefl ibt",
                "description": "82 with 22 for writing, 20 for speaking, 20 for listening, and 18 for reading",
                "min": 0,
                "require": 82,
                "max": 120,
                "R": 0,
                "W": 0,
                "S": 0,
                "L": 0,
                "O": 0
            },
            {
                "name": "toefl pbt",
                "description": "570 with a Test of Written English (TWE) of no less than 4.5",
                "min": 310,
                "require": 570,
                "max": 677,
                "R": 0,
                "W": 0,
                "S": 0,
                "L": 0,
                "O": 0
            },
            {
                "name": "pte academic",
                "description": "64 with  minimum score of 64 in the Reading and Writing sections 59 in the Speaking section and 54 in the Listening section.",
                "min": 0,
                "require": 64,
                "max": 90,
                "R": 0,
                "W": 0,
                "S": 0,
                "L": 0,
                "O": 0
            },
            {
                "name": "cae",
                "description": "Minimum grade of 180 with no band less than 170",
                "min": 80,
                "require": 180,
                "max": 230,
                "R": 0,
                "W": 0,
                "S": 0,
                "L": 0,
                "O": 0
            }
        ],
        "academic": [
            "Applicants wishing to commence an undergraduate degree (Bachelor of Arts, Biomedical Science, Commerce or Science) at UWA must satisfy the University’s academic and English language competence (ELC) requirements to be eligible for a place within the course. Applicants only need to satisfy one of the below academic requirements to be eligible.UWA also offers a number of Direct Pathways giving successful applicants an assured place into one of our professional postgraduate courses. Entry into a Direct Pathway requires a higher ATAR than the minimum for entry into an undergraduate course and is generally only available to current school-leaving applicants."
        ],
        "academic_requirements_url": "https://www.uwa.edu.au/study/how-to-apply/entry-requirements/international-and-overseas-qualifications",
        "english_requirements_url": "https://www.uwa.edu.au/study/how-to-apply/entry-requirements/english-language-requirements",
        "entry_requirements_url": ""
    },
    "course_intake": {
        "intake": [
            {
                "name": "Crawley",
                "value": [
                    {
                        "actualdate": "24 February",
                        "month": "February",
                        "intake": "Summer"
                    }
                ],
                "iscurrent": true
            }
        ],
        "more_details": "http://www.governance.uwa.edu.au/structure/academic-dates"
    },
    "course_overview": "Participants in this course are offered a range of options specific to health professionals from the Faculty of Health and Medical Sciences.",
    "course_career_outcome": [
        "Academic",
        "Disease Prevention Educator",
        "Training and Development Professional"
    ],
    "course_tuition_fee": {
        "fees": [
            {
                "name": "Crawley",
                "value": {
                    "international_student": [
                        {
                            "amount": 0,
                            "duration": 1,
                            "unit": "Year",
                            "isfulltime": true,
                            "description": "",
                            "type": ""
                        }
                    ],
                    "fee_duration_years": "1",
                    "international_student_all_fees": [],
                    "currency": "AUD"
                },
                "iscurrent": true
            }
        ]
    },
    "course_country": "Australia",
    "course_id": "graduatecertificateinhealthprofessionseducation",
    "basecourseid": "graduatecertificateinhealthprofessionseducation"
}