{
    "univ_id": "federationuniversity",
    "course_title": "English And Academic Preparation 3 (15 Weeks)",
    "course_campus_location": [
        {
            "name": "Mt Helen",
            "code": "050427C"
        }
    ],
    "course_discipline": [
        "Pathways"
    ],
    "program_code": "XT3",
    "course_outline": {
        "majors": [],
        "minors": [],
        "more_details": ""
    },
    "application_fee": "Students who apply through the Online Application Centre will attract a $25 application fee. Students who submit a paper-based application (pdf, 372kb) will attract a $50 application fee.",
    "course_admission_requirement": {
        "english": [
            {
                "name": "ielts academic",
                "description": "Intermediate for students with IELTS 5.5 (no band less than 5.0)",
                "min": 0,
                "require": 5.5,
                "max": 9,
                "R": 0,
                "W": 0,
                "S": 0,
                "L": 0,
                "O": 0
            },
            {
                "name": "ielts academic (Advanced)",
                "description": "Advanced for students with IELTS 6.0 (no band less than 5.5)",
                "min": 0,
                "require": 6,
                "max": 9,
                "R": 0,
                "W": 0,
                "S": 0,
                "L": 0,
                "O": 0
            },
            {
                "name": "pte academic",
                "description": "Overall 42 (no band less than 36)",
                "min": 0,
                "require": 42,
                "max": 90,
                "R": 0,
                "W": 0,
                "S": 0,
                "L": 0,
                "O": 0
            },
            {
                "name": "toefl ibt",
                "description": "46-59 with minimums: Reading 4, Listening 4, Speaking 14, Writing 14",
                "min": 0,
                "require": 46,
                "max": 120,
                "R": 0,
                "W": 0,
                "S": 0,
                "L": 0,
                "O": 0
            },
            {
                "name": "cae",
                "description": "An overall score of 162 with a minimum of 154 in all sub-skills.",
                "min": 80,
                "require": 162,
                "max": 230,
                "R": 0,
                "W": 0,
                "S": 0,
                "L": 0,
                "O": 0
            }
        ],
        "entry_requirements_url": "https://federation.edu.au/international/study-at-feduni/apply/prepare-your-application/entry-requirements",
        "academic_requirements_url": "https://federation.edu.au/international/study-at-feduni/apply/prepare-your-application/entry-requirements",
        "english_requirements_url": "https://federation.edu.au/international/study-at-feduni/apply/prepare-your-application/english-language-requirements"
    },
    "course_study_level": "Non AQF Award",
    "course_url": "https://study.federation.edu.au/#/course/DXT3",
    "course_study_mode": [
        "On campus"
    ],
    "course_duration": "15 Weeks",
    "course_duration_display": [
        {
            "unit": "weeks",
            "duration": "15",
            "display": "Full-Time",
            "filterduration": 0.2876709964347975
        }
    ],
    "isfulltime": true,
    "isparttime": false,
    "course_tuition_fee": {
        "fees": [
            {
                "name": "Mt Helen",
                "value": {
                    "international_student": {
                        "amount": 0,
                        "duration": 1,
                        "unit": "Year",
                        "description": ""
                    },
                    "fee_duration_years": "1",
                    "currency": "AUD"
                }
            }
        ]
    },
    "course_intake": {
        "intake": [
            {
                "name": "Mt Helen",
                "value": [
                    {
                        "actualdate": "2 March 2020",
                        "month": "March"
                    },
                    {
                        "actualdate": "27 July 2020",
                        "month": "July"
                    }
                ]
            }
        ],
        "more_details": [
            "https://federation.edu.au/__data/assets/pdf_file/0006/365271/Academic-Calendar-2020-Standard-and-Non-Standard.pdf"
        ]
    },
    "course_overview": "The English and Academic Preparation Intermediate stream prepares students for direct entry into Federation University programs requiring Academic IELTS of Overall 6.0, with no band less than 6.0, or equivalent. The English and Academic Preparation Advanced stream prepares students for direct entry into Federation University programs requiring Academic IELTS of Overall 6.5, with no band less than 6.0, or equivalent. Students will develop a range of academic English skills and will learn how to apply these skills in an Australian higher education environment. The program will focus on: Academic writing, including reports and essays\nAcademic reading, listening and note-making\nOral presentations and tutorial discussions\nAcademic vocabulary and assessments tailored specifically to students' disciplines, through breakout workshop sessions\nResearch, library skills and independent study techniques Intermediate level students will develop skills needed for a higher education environment that requires good command of spoken and written English. The emphasis will be on practical application of language skills in an academic environment. Advanced level students will develop skills needed for a challenging higher education environment that requires strong command of spoken and written English. The emphasis will be on practical application of language skills in an academic environment.",
    "course_career_outcome": [],
    "course_country": "Australia",
    "course_id": "englishandacademicpreparation3(15weeks)(xt3)"
}