{
    "univ_id": "flemingcollege",
    "course_title": "Environmental Technician (Optional Co_op)",
    "course_study_mode": "On campus",
    "course_campus_location": [
        {
            "name": "Frost",
            "code": ""
        }
    ],
    "course_discipline": [],
    "program_code": "ETN",
    "course_study_level": "Diploma_Co-op",
    "course_url": "https://flemingcollege.ca/programs/environmental-technician",
    "course_duration": "4 semesters",
    "course_duration_display": [
        {
            "unit": "semesters",
            "duration": "4",
            "display": "Full-Time",
            "filterduration": 2
        }
    ],
    "isfulltime": true,
    "isparttime": false,
    "course_admission_requirement": {
        "english": [
            {
                "name": "ielts academic",
                "description": "6.0 with no band less than 5.5",
                "min": 0,
                "require": 6,
                "max": 9,
                "R": 5.5,
                "W": 5.5,
                "S": 5.5,
                "L": 5.5,
                "O": 6
            },
            {
                "name": "toefl ibt",
                "description": "80 with no score less than 20",
                "min": 0,
                "require": 80,
                "max": 120,
                "R": 20,
                "W": 20,
                "S": 20,
                "L": 20,
                "O": 80
            },
            {
                "name": "toefl pbt",
                "description": "550",
                "min": 310,
                "require": 550,
                "max": 677,
                "R": 0,
                "W": 0,
                "S": 0,
                "L": 0,
                "O": 550
            },
            {
                "name": "pte academic",
                "description": "58",
                "min": 0,
                "require": 58,
                "max": 90,
                "R": 58,
                "W": 58,
                "S": 58,
                "L": 58,
                "O": 58
            }
        ],
        "academic": [
            "OSSD including Gr 12 C English and Gr 12 C Math"
        ],
        "english_requirements_url": "https://flemingcollege.ca/international-education/language-requirements",
        "academic_requirements_url": "",
        "entry_requirements_url": ""
    },
    "course_intake": {
        "intake": [
            {
                "name": "Frost",
                "value": [
                    {
                        "actualdate": "September 08 2020",
                        "month": "September"
                    },
                    {
                        "actualdate": "January 11 2021",
                        "month": "January"
                    }
                ]
            }
        ],
        "more_details": "https://flemingcollege.ca/admissions/academic-schedule"
    },
    "course_overview": "Throughout this program, you will engage in a wide range of hands-on environmental training activities to complement your in-class courses. As a result, you'll be well-prepared to monitor and improve the natural environment.",
    "course_career_outcome": [
        "The employment level is consistently very high with recent graduates finding work across Canada and around the world in the public and private sectors. Employers include government ministries/departments, regulatory agencies, environmental consultants, non-governmental or non-profit organizations, and urban/rural planners."
    ],
    "course_country": "Canada",
    "course_tuition_fee": {
        "fees": [
            {
                "name": "Frost",
                "value": {
                    "international_student": {
                        "amount": 8029,
                        "duration": 1,
                        "unit": "Semester",
                        "description": "$8,029.65 "
                    },
                    "fee_duration_years": "1",
                    "currency": "CAD"
                }
            }
        ]
    },
    "course_outline": {
        "minors": [],
        "majors": [],
        "more_details": ""
    },
    "application_fees": "100",
    "course_id": "environmentaltechnician(optionalco_op)"
}