[
  {
    "mapping": [
      {
        "Courses": [
          "Aircraft Structural Repair Technician",
          "Business",
          "Business - Accounting",
          "Office Administration - Executive",
          "Child and Youth Care",
          "Early Childhood Education",
          "Social Service Worker",
          "Social Service Worker - Indigenous Specialization",
          "Culinary Management",
          "Culinary Skills - Chef Training",
          "General Arts and Science - Kitchen Assistant",
          "Civil Engineering Technician",
          "Construction Carpentry Techniques",
          "Electrical Engineering Technician - Process Automation",
          "Electrical Engineering Technician - Process Automation and Trades",
          "Mechanical Engineering Technician - Manufacturing",
          "Mechanical Techniques - Industrial Maintenance (Millwright)",
          "Mechanical Techniques - Machine Shop",
          "Metal Fabrication Technician",
          "Motive Power Fundamentals - Automotive Repair",
          "Motive Power Fundamentals - Heavy Equipment and Truck Repair",
          "Motive Power Technician - Advanced Repair",
          "Pre-Trades and Technology",
          "Welding Techniques",
          "General Arts and Science - One-Year",
          "General Arts and Science - University Transfer",
          "Fitness and Health Promotion",
          "Occupational Therapist Assistant and Physiotherapist Assistant",
          "Personal Support Worker",
          "Practical Nursing",
          "Pre-Health Sciences Pathway to Advanced Diplomas and Degrees",
          "Pre-Health Sciences Pathway to Certificates and Diplomas",
          "Computer Programmer",
          "Protection, Security and Investigation",
          "Digital Film Production",
          "Graphic Design - Digital Media",
          "Game - Art",
          "Adventure Recreation and Parks Technician",
          "Fish and Wildlife Conservation Technician",
          "Forestry Technician - Conservation",
          "Natural Environment Technician - Conservation and Management",
          "Natural Environment Technologist - Conservation and Management"
         ],
        "IELTS": "IELTS score of 6.0 with no band lower than 5.5, with test results within two years of the start of the program",
        "PTE": "Pearson Test of English (Academic), 60 or higher",
        "PBT": "550",
        "IBT": "79-80"
      },
      {
        "Courses": [
          "Business Management",
          "Geographic Information Systems - Applications Specialist",
          "Health Care Administration",
          "Hospitality and Tourism Management",
          "Mobile Applications Design",
          "Natural Resource/Environmental Law - Inspection and Enforcement",
          "Network Architecture and Security Analytics",
          "Project Management",
          "Public Relations and Event Management",
          "Robotics and Advanced Automation",
          "Supply Chain Management"
        ],
        "IELTS": "IELTS score of 6.0 with no band lower than 5.5, with test results within two years of the start of the program",
        "PTE": "Pearson Test of English(Academic), 60 or higher",
        "PBT": "550",
        "IBT": "88-89"
      }
    ]
  }
]