{
    "univ_id": "",
    "univ_url": "http://www.aeta.vic.edu.au/",
    "page_url": "http://www.aeta.vic.edu.au/",
    "univ_name": "",
    "univ_country": [
        {
            "url": "",
            "elements": [
                {
                    "elementType": "readfromfile",
                    "value": "./selectors/university_hard_coded_data.json",
                    "selectors": [
                        "univ_country"
                    ]
                }
            ]
        }
    ],
    "univ_about": [
        {
            "url": "",
            "elements": [
                {
                    "elementType": "readfromfile",
                    "value": "./selectors/university_hard_coded_data.json",
                    "selectors": [
                        "univ_about"
                    ]
                }
            ]
        }
    ],
    "univ_logo": [
        {
            "url": "",
            "elements": [
                {
                    "elementType": "readfromfile",
                    "value": "./selectors/university_hard_coded_data.json",
                    "selectors": [
                        "univ_logo"
                    ]
                }
            ]
        }
    ],
    "univ_accomodation": [
        {
            "url": "",
            "elements": [
                {
                    "elementType": "readfromfile",
                    "value": "./selectors/university_hard_coded_data.json",
                    "selectors": [
                        "univ_accomodation"
                    ]
                }
            ]
        }
    ],
    "university_type": [
        {
            "url": "",
            "elements": [
                {
                    "elementType": "readfromfile",
                    "value": "./selectors/university_hard_coded_data.json",
                    "selectors": [
                        "university_type"
                    ]
                }
            ]
        }
    ],
    "univ_rankings": [
        {
            "url": "",
            "elements": [
                {
                    "elementType": "readfromfile",
                    "value": "./selectors/university_hard_coded_data.json",
                    "selectors": [
                        "univ_rankings"
                    ]
                }
            ]
        }
    ],
    "apply_url": [
        {
            "url": "",
            "elements": [
                {
                    "elementType": "readfromfile",
                    "value": "./selectors/university_hard_coded_data.json",
                    "selectors": [
                        "apply_url"
                    ]
                }
            ]
        }
    ],
    "placement_url": [
        {
            "url": "",
            "elements": [
                {
                    "elementType": "readfromfile",
                    "value": "./selectors/university_hard_coded_data.json",
                    "selectors": [
                        "placement_url"
                    ]
                }
            ]
        }
    ],
    "brochure_path": [
        {
            "url": "http://www.albrightinstitute.edu.au/wp-content/uploads/2019/01/handbook2019_web.pdf",
            "elements": [
                {
                    "elementType": "readfromfile",
                    "value": "./selectors/university_hard_coded_data.json",
                    "selectors": [
                        "brochure_path"
                    ]
                }
            ]
        }
    ],
    "application_fee": [
        {
            "url": "",
            "elements": [
                {
                    "elementType": "readfromfile",
                    "value": "./selectors/university_hard_coded_data.json",
                    "selectors": [
                        "application_fee"
                    ]
                }
            ]
        }
    ],
    "facebook_page_name": [
        {
            "url": "https://www.facebook.com/ALBRIGHTINST/",
            "elements": [
                {
                    "elementType": "readfromfile",
                    "value": "./selectors/university_hard_coded_data.json",
                    "selectors": [
                        "facebook_page_name"
                    ]
                }
            ]
        }
    ],
    "twitter_page_name": [
        {
            "url": "https://twitter.com/albrightinst?lang=en",
            "elements": [
                {
                    "elementType": "readfromfile",
                    "value": "./selectors/university_hard_coded_data.json",
                    "selectors": [
                        "twitter_page_name"
                    ]
                }
            ]
        }
    ],
    "abbreviation": [
        {
            "url": "",
            "elements": [
                {
                    "elementType": "readfromfile",
                    "value": "./selectors/university_hard_coded_data.json",
                    "selectors": [
                        "abbreviation"
                    ]
                }
            ]
        }
    ],
    "youtube_page_name": [
        {
            "url": "",
            "elements": [
                {
                    "elementType": "readfromfile",
                    "value": "./selectors/university_hard_coded_data.json",
                    "selectors": [
                        "youtube_page_name"
                    ]
                }
            ]
        }
    ],
    "contactInformation": [
        {
            "url": "",
            "elements": [
                {
                    "elementType": "readfromfile",
                    "value": "./selectors/university_hard_coded_data.json",
                    "selectors": [
                        "contactInformation"
                    ]
                }
            ]
        }
    ]
}