{
    "univ_id": "",
    "course_title": [
        {
            "url": "",
            "elements": [
                {
                    "elementType": "div",
                    "selectors": [
                        "body > div.l-base-page > div.l-base-page--main > div > div.l-base-page--content.inside > div.l-base-page--content-header.block.block__pad-lg.t-default.t-default__glassy-more > h1.l-base-page--title"
                    ]
                }
            ]
        }
    ],
    "course_overview": [
        {
            "url": "",
            "elements": [
                {
                    "elementType": "anchorclick",
                    "selectors": [
                        "a.btn.btn__fat.btn__large.btn__prestige.u-full-width.t-mineshaft"
                    ]
                },
                {
                    "elementType": "anchorclick",
                    "selectors": [
                        "#tabs > li:nth-child(2)"
                    ]
                },
                {
                    "elementType": "div",
                    "selectors": [
                        "body > main > div > div > div.block.block__gutter-md.block__shadowed > div > div.richtext.richtext__medium > div.lede",
                        "body > main > div > div > div.block.block__gutter-md.block__shadowed > div > div.richtext.richtext__medium > p"
                    ]
                }
            ]
        }
    ],
    "course_outline": [
        {
            "url": "",
            "elements": [                
                {
                    "elementType": "div_page_url",
                    "selectors": [
                        "h3.unit-list--name",
                        "h4.unit-list--name",
                        "h5.unit-list--name",
                        "h6.unit-list--name"
                    ]
                }
            ]
        }
    ]
}