{
    "univ_id": "federationuniversity",
    "course_title": "Master Of Social Work (Qualifying)",
    "course_campus_location": [
        {
            "name": "Mt Helen(Ballarat)",
            "code": "085213F"
        },
        {
            "name": "Berwick",
            "code": "085213F"
        }
    ],
    "course_discipline": [
        "Arts, humanities and social sciences"
    ],
    "program_code": "HW9",
    "course_outline": {
        "majors": [],
        "minors": [],
        "more_details": "https://study.federation.edu.au/#/course/DHW9"
    },
    "application_fee": "Students who apply through the Online Application Centre will attract a $25 application fee. Students who submit a paper-based application (pdf, 372kb) will attract a $50 application fee.",
    "course_admission_requirement": {
        "english": [
            {
                "name": "ielts academic",
                "description": "Overall Academic IELTS score of 6.5 or equivalent.",
                "R": 6.5,
                "W": 6.5,
                "S": 6.5,
                "L": 6.5,
                "O": 6.5,
                "min": 0,
                "require": 6.5,
                "max": 9
            },
            {
                "name": "pte academic",
                "description": "Overall 58 (no band less than 50)",
                "R": 50,
                "W": 50,
                "S": 50,
                "L": 50,
                "O": 58,
                "min": 0,
                "require": 58,
                "max": 90
            },
            {
                "name": "toefl ibt",
                "description": "79-93 with minimums: Reading 13, Listening 12, Speaking 18, Writing 21",
                "R": 13,
                "W": 21,
                "S": 18,
                "L": 12,
                "O": 79,
                "min": 0,
                "require": 79,
                "max": 120
            },
            {
                "name": "cae",
                "description": "Overall 176 (no band less than 169)",
                "R": 169,
                "W": 169,
                "S": 169,
                "L": 169,
                "O": 176,
                "min": 80,
                "require": 176,
                "max": 230
            }
        ],
        "academic": [
            "Successful completion of a relevant* Bachelor degree with a least one year of study, or the equivalent of full time studies in social and behavioural sciences. *Relevant Bachelor degrees should have at least one year of study in any of the following disciplines:"
        ],
        "entry_requirements_url": "https://federation.edu.au/international/study-at-feduni/apply/prepare-your-application/entry-requirements",
        "academic_requirements_url": "https://federation.edu.au/international/study-at-feduni/apply/prepare-your-application/entry-requirements",
        "english_requirements_url": "https://federation.edu.au/international/study-at-feduni/apply/prepare-your-application/english-language-requirements"
    },
    "course_study_level": "Masters Degree (Coursework)",
    "course_url": "https://study.federation.edu.au/#/course/DHW9",
   "course_study_mode": "On campus",
    "course_duration": "104 weeks",
    "course_duration_display": [
        {
            "unit": "years",
            "duration": "2",
            "display": "Full-Time",
            "filterduration": 2
        }
    ],
    "isfulltime": false,
    "isparttime": false,
    "course_tuition_fee": {
        "fees": [
            {
                "name": "Mt Helen(Ballarat)",
                "value": {
                    "international_student": {
                        "amount": 25800,
                        "duration": 1,
                        "unit": "Year",
                        "description": ""
                    },
                    "fee_duration_years": "1",
                    "currency": "AUD"
                }
            },
            {
                "name": "Berwick",
                "value": {
                    "international_student": {
                        "amount": 25800,
                        "duration": 1,
                        "unit": "Year",
                        "description": ""
                    },
                    "fee_duration_years": "1",
                    "currency": "AUD"
                }
            }
        ]
    },
    "course_intake": {
        "intake": [
            {
                "name": "Mt Helen(Ballarat)",
                "value": [
                    {
                        "actualdate": "2 March 2020",
                        "month": "March",
                        "filterdate": "2020-03-02"
                    },
                    {
                        "actualdate": "27 July 2020",
                        "month": "July",
                        "filterdate": "2020-07-27"
                    }
                ]
            },
            {
                "name": "Berwick",
                "value": [
                    {
                        "actualdate": "2 March 2020",
                        "month": "March",
                        "filterdate": "2020-03-02"
                    },
                    {
                        "actualdate": "27 July 2020",
                        "month": "July",
                        "filterdate": "2020-07-27"
                    }
                ]
            }
        ],
        "more_details": "https://federation.edu.au/__data/assets/pdf_file/0006/365271/Academic-Calendar-2020-Standard-and-Non-Standard.pdf"
    },
    "course_overview": "Be an advocate for social justice and human rights. Make a real difference to the lives of people in need. Excel in your career in one of the fastest growing professions. You might be a new graduate looking for a clear career path or an experienced social worker wanting to take the next step in your professional life. Or perhaps you are ready for a career change and want to step into social work. Whatever your background, we'll prepare you to work across human and community services in government bodies, non-government organisations, community and health services and more. You'll become confident working with migrants, people with alcohol, drug and mental health problems and in palliative care, child protection, youth services and much more. You'll be exposed to challenging real life situations through 140 days during your studies in social work settings, being mentored by experienced professionals in the field. Then, once you graduate, you can go on to be a qualified social worker, take up management positions or work in national or international policy development. This is an Australian Association of Social Workers (AASW) accredited qualification, and is an entry qualification into the social work profession. It has been deemed to meet the Australian Social Work Education and Accreditation Standards.",
    "course_career_outcome": [
        "Social worker",
        "Professional social work positions in hospitals, community health care, child protection, justice, community development, local government, government policy, social research, advocacy and many more."
    ],
    "course_country": "Australia",
    "course_id": "masterofsocialwork(qualifying)(hw9)"
}