{
    "univ_id": "federationuniversity",
    "course_title": "Master Of Engineering Technology (Mining Engineering)",
    "course_campus_location": [
        {
            "name": "Mt Helen(Ballarat)",
            "code": "079928K"
        }
    ],
    "course_discipline": [
        "Engineering"
    ],
    "program_code": "EY9",
    "course_outline": {
        "majors": [],
        "minors": [],
        "more_details": "https://study.federation.edu.au/#/course/DEY9.MIN"
    },
    "application_fee": "Students who apply through the Online Application Centre will attract a $25 application fee. Students who submit a paper-based application (pdf, 372kb) will attract a $50 application fee.",
    "course_admission_requirement": {
        "english": [
            {
                "name": "ielts academic",
                "description": "Overall IELTS band score of 6.0, with no band less than 6.0, orequivalent.",
                "R": 6,
                "W": 6,
                "S": 6,
                "L": 6,
                "O": 6,
                "min": 0,
                "require": 6,
                "max": 9
            },
            {
                "name": "pte academic",
                "description": "Overall 50 (no band less than 50)",
                "R": 50,
                "W": 50,
                "S": 50,
                "L": 50,
                "O": 50,
                "min": 0,
                "require": 50,
                "max": 90
            },
            {
                "name": "toefl ibt",
                "description": "60-78 with minimums: Reading 13, Listening 12, Speaking 18, Writing 21",
                "R": 13,
                "W": 21,
                "S": 18,
                "L": 12,
                "O": 60,
                "min": 0,
                "require": 60,
                "max": 120
            },
            {
                "name": "cae",
                "description": "Overall 169 (no band less than 169)",
                "R": 169,
                "W": 169,
                "S": 169,
                "L": 169,
                "O": 169,
                "min": 80,
                "require": 169,
                "max": 230
            }
        ],
        "academic": [
            "Successful completion of a recognised 3 or 4 year Engineering bachelor degree in the relevant specialisation (major field) with credit average, awarded by an Australian university, or a recognised overseas equivalent."
        ],
        "entry_requirements_url": "https://federation.edu.au/international/study-at-feduni/apply/prepare-your-application/entry-requirements",
        "academic_requirements_url": "https://federation.edu.au/international/study-at-feduni/apply/prepare-your-application/entry-requirements",
        "english_requirements_url": "https://federation.edu.au/international/study-at-feduni/apply/prepare-your-application/english-language-requirements"
    },
    "course_study_level": "Masters Degree (Coursework)",
    "course_url": "https://study.federation.edu.au/#/course/DEY9.MIN",
   "course_study_mode": "On campus",
    "course_duration": "104 weeks",
    "course_duration_display": [
        {
            "unit": "years",
            "duration": "2",
            "display": "Full-Time",
            "filterduration": 2
        }
    ],
    "isfulltime": false,
    "isparttime": false,
    "course_tuition_fee": {
        "fees": [
            {
                "name": "Mt Helen(Ballarat)",
                "value": {
                    "international_student": {
                        "amount": 28800,
                        "duration": 1,
                        "unit": "Year",
                        "description": ""
                    },
                    "fee_duration_years": "1",
                    "currency": "AUD"
                }
            }
        ]
    },
    "course_intake": {
        "intake": [
            {
                "name": "Mt Helen(Ballarat)",
                "value": [
                    {
                        "actualdate": "2 March 2020",
                        "month": "March",
                        "filterdate": "2020-03-02"
                    },
                    {
                        "actualdate": "27 July 2020",
                        "month": "July",
                        "filterdate": "2020-07-27"
                    }
                ]
            }
        ],
        "more_details": "https://federation.edu.au/__data/assets/pdf_file/0006/365271/Academic-Calendar-2020-Standard-and-Non-Standard.pdf"
    },
    "course_overview": "This is a professionally orientated program that provides students with the knowledge and skills that are necessary to obtain employment as an engineer and to be admitted as a Member with Engineers Australia. The program also serves as a preparation for further graduate studies in technology, business administration and other areas. Specifically the program provides students with advanced studies in Mining Engineering. This program includes compulsory online courses.",
    "course_career_outcome": [
        "Construction engineer",
        "Geotechnical engineer",
        "Mining engineer",
        "Project engineer",
        "Site manager",
        "Consultant",
        "Mine safety engineer",
        "Open pit mining engineer",
        "Researcher",
        "Underground mining engineer",
        "Engineer",
        "Mine ventilation officer",
        "Planning engineer",
        "Sales engineer",
        "The specialised education gained in this program will allow you to obtain employment in the highest levels of the mining industry.",
        "As a Professional Mining Engineer you will oversee teams of engineering technologists and skilled trade staff to construct the designs that you have created. You will work at a theoretical level to isolate, analyse and define a required engineering outcome.",
        "Mining Engineers work in all parts of the industry from feasibility studies through to mine design, to managing actual production and sales and are in high demand in Australia and the Asia Pacific Region. The broad education offered at FedUni also enables students to find employment in a wide range of resource related industries, including consulting."
    ],
    "course_country": "Australia",
    "course_id": "masterofengineeringtechnology(miningengineering)(ey9)"
}