{
    "univ_id": "federationuniversity",
    "course_title": "Bachelor Of Education Studies",
    "course_campus_location": [
        {
            "name": "Mt Helen(Ballarat)",
            "code": "091968A"
        },
        {
            "name": "Berwick",
            "code": "091968A"
        },
        {
            "name": "Gippsland(Churchill)",
            "code": "091968A"
        }
    ],
    "course_discipline": [
        "Education and early childhood"
    ],
    "program_code": "TC5",
    "course_outline": {
        "majors": [],
        "minors": [],
        "more_details": "https://study.federation.edu.au/#/course/DTC5"
    },
    "application_fee": "Students who apply through the Online Application Centre will attract a $25 application fee. Students who submit a paper-based application (pdf, 372kb) will attract a $50 application fee.",
    "course_admission_requirement": {
        "english": [
            {
                "name": "ielts academic",
                "description": "Overall Academic IELTS band score of 6.0, with no band less than 6.0 or equivalent",
                "R": 6,
                "W": 6,
                "S": 6,
                "L": 6,
                "O": 6,
                "min": 0,
                "require": 6,
                "max": 9
            },
            {
                "name": "pte academic",
                "description": "Overall 50 (no band less than 50)",
                "R": 50,
                "W": 50,
                "S": 50,
                "L": 50,
                "O": 50,
                "min": 0,
                "require": 50,
                "max": 90
            },
            {
                "name": "toefl ibt",
                "description": "60-78 with minimums: Reading 13, Listening 12, Speaking 18, Writing 21",
                "R": 13,
                "W": 21,
                "S": 18,
                "L": 12,
                "O": 60,
                "min": 0,
                "require": 60,
                "max": 120
            },
            {
                "name": "cae",
                "description": "Overall 169 (no band less than 169)",
                "R": 169,
                "W": 169,
                "S": 169,
                "L": 169,
                "O": 169,
                "min": 80,
                "require": 169,
                "max": 230
            }
        ],
        "academic": [
            "Successful completion of Australian Year 12 with final-year mathematics courses; or overseas equivalent."
        ],
        "entry_requirements_url": "https://federation.edu.au/international/study-at-feduni/apply/prepare-your-application/entry-requirements",
        "academic_requirements_url": "https://federation.edu.au/international/study-at-feduni/apply/prepare-your-application/entry-requirements",
        "english_requirements_url": "https://federation.edu.au/international/study-at-feduni/apply/prepare-your-application/english-language-requirements"
    },
    "course_study_level": "Bachelor Degree",
    "course_url": "https://study.federation.edu.au/#/course/DTC5",
   "course_study_mode": "On campus",
    "course_duration": "156 weeks",
    "course_duration_display": [
        {
            "unit": "years",
            "duration": "3",
            "display": "Full-Time",
            "filterduration": 3
        }
    ],
    "isfulltime": false,
    "isparttime": false,
    "course_tuition_fee": {
        "fees": [
            {
                "name": "Mt Helen(Ballarat)",
                "value": {
                    "international_student": {
                        "amount": 23900,
                        "duration": 1,
                        "unit": "Year",
                        "description": ""
                    },
                    "fee_duration_years": "1",
                    "currency": "AUD"
                }
            },
            {
                "name": "Berwick",
                "value": {
                    "international_student": {
                        "amount": 23900,
                        "duration": 1,
                        "unit": "Year",
                        "description": ""
                    },
                    "fee_duration_years": "1",
                    "currency": "AUD"
                }
            },
            {
                "name": "Gippsland(Churchill)",
                "value": {
                    "international_student": {
                        "amount": 23900,
                        "duration": 1,
                        "unit": "Year",
                        "description": ""
                    },
                    "fee_duration_years": "1",
                    "currency": "AUD"
                }
            }
        ]
    },
    "course_intake": {
        "intake": [
            {
                "name": "Mt Helen(Ballarat)",
                "value": [
                    {
                        "actualdate": "2 March 2020",
                        "month": "March",
                        "filterdate": "2020-03-02"
                    },
                    {
                        "actualdate": "27 July 2020",
                        "month": "July",
                        "filterdate": "2020-07-27"
                    }
                ]
            },
            {
                "name": "Berwick",
                "value": [
                    {
                        "actualdate": "2 March 2020",
                        "month": "March",
                        "filterdate": "2020-03-02"
                    },
                    {
                        "actualdate": "27 July 2020",
                        "month": "July",
                        "filterdate": "2020-07-27"
                    }
                ]
            },
            {
                "name": "Gippsland(Churchill)",
                "value": [
                    {
                        "actualdate": "2 March 2020",
                        "month": "March",
                        "filterdate": "2020-03-02"
                    },
                    {
                        "actualdate": "27 July 2020",
                        "month": "July",
                        "filterdate": "2020-07-27"
                    }
                ]
            }
        ],
        "more_details": "https://federation.edu.au/__data/assets/pdf_file/0006/365271/Academic-Calendar-2020-Standard-and-Non-Standard.pdf"
    },
    "course_overview": "We have designed this degree to give your teaching career a kick start. If you were disappointed in your ATAR or if you do not meet the subject entry requirements to begin a teaching degree, this is the course for you. You can use this 3 year degree in 3 ways: If you did not meet the entry requirements to commence a teaching degree, you can commence your studies with the Bachelor of Education Studies. At the completion of first year, if you have maintained a good academic standard throughout the year, you may be eligible to apply for a transfer into the second year of a FedUni teaching degree. This means that you may still qualify as a VIT registered teacher within 4 years of study. Alternatively, you may complete the three years of this degree, and continue into a Master of Teaching in either Secondary, Primary or Early Childhood teaching and qualify as a VIT registered teacher within 4.5 years. Finally, this is a 3 year generalist degree that can prepare you for work in Learning and Education and allow you to discover more about the education system. The opportunities for graduates are very broad. This degree will qualify you to work in many roles including as an Education Officer developing programs for a wide range of industries or as an Education Support Officer (Integration Aide) working to support students within a school setting. Or you may be interested in working in education policy as a project officer. The opportunities are almost limitless.",
    "course_career_outcome": [
        "Non teaching roles in the Education sector",
        "Education support worker (Integration aide)",
        "Education officer"
    ],
    "course_country": "Australia",
    "course_id": "bachelorofeducationstudies(tc5)"
}