{
    "univ_id": "federationuniversity",
    "course_title": "Bachelor Of Visual Arts",
    "course_campus_location": [
        {
            "name": "Camp Street",
            "code": "0100641"
        }
    ],
    "course_discipline": [
        "Visual arts"
    ],
    "program_code": "QV5",
    "course_outline": {
        "majors": [],
        "minors": [],
        "more_details": "https://study.federation.edu.au/#/course/DQV5"
    },
    "application_fee": "Students who apply through the Online Application Centre will attract a $25 application fee. Students who submit a paper-based application (pdf, 372kb) will attract a $50 application fee.",
    "course_admission_requirement": {
        "english": [
            {
                "name": "ielts academic",
                "description": "Academic IELTS of 6.0 overall with no bands less than 6.0",
                "R": 6,
                "W": 6,
                "S": 6,
                "L": 6,
                "O": 6,
                "min": 0,
                "require": 6,
                "max": 9
            },
            {
                "name": "pte academic",
                "description": "Overall 50 (no band less than 50)",
                "R": 50,
                "W": 50,
                "S": 50,
                "L": 50,
                "O": 50,
                "min": 0,
                "require": 50,
                "max": 90
            },
            {
                "name": "toefl ibt",
                "description": "60-78 with minimums: Reading 13, Listening 12, Speaking 18, Writing 21",
                "R": 13,
                "W": 21,
                "S": 18,
                "L": 12,
                "O": 60,
                "min": 0,
                "require": 60,
                "max": 120
            },
            {
                "name": "cae",
                "description": "Overall 169 (no band less than 169)",
                "R": 169,
                "W": 169,
                "S": 169,
                "L": 169,
                "O": 169,
                "min": 80,
                "require": 169,
                "max": 230
            }
        ],
        "academic": [],
        "entry_requirements_url": "https://federation.edu.au/international/study-at-feduni/apply/prepare-your-application/entry-requirements",
        "academic_requirements_url": "https://federation.edu.au/international/study-at-feduni/apply/prepare-your-application/entry-requirements",
        "english_requirements_url": "https://federation.edu.au/international/study-at-feduni/apply/prepare-your-application/english-language-requirements"
    },
    "course_study_level": "Bachelor Degree",
    "course_url": "https://study.federation.edu.au/#/course/DQV5",
   "course_study_mode": "On campus",
    "course_duration": "156 weeks",
    "course_duration_display": [
        {
            "unit": "years",
            "duration": "3",
            "display": "Full-Time",
            "filterduration": 3
        }
    ],
    "isfulltime": false,
    "isparttime": false,
    "course_tuition_fee": {
        "fees": [
            {
                "name": "Camp Street",
                "value": {
                    "international_student": {
                        "amount": 27300,
                        "duration": 1,
                        "unit": "Year",
                        "description": ""
                    },
                    "fee_duration_years": "1",
                    "currency": "AUD"
                }
            }
        ]
    },
    "course_intake": {
        "intake": [
            {
                "name": "Camp Street",
                "value": [
                    {
                        "actualdate": "2 March 2020",
                        "month": "March",
                        "filterdate": "2020-03-02"
                    },
                    {
                        "actualdate": "27 July 2020",
                        "month": "July",
                        "filterdate": "2020-07-27"
                    }
                ]
            }
        ],
        "more_details": "https://federation.edu.au/__data/assets/pdf_file/0006/365271/Academic-Calendar-2020-Standard-and-Non-Standard.pdf"
    },
    "course_overview": "By engaging in Visual Art studio activities you will explore and define yourself as a creative practitioner. You will start to build your specialist skills through practical studio based workshops of experimentation and self-discovery. During the first year, you are introduced to studio based learning in both two-dimensional and multi-dimensional projects. Learning may take place in a studio or workshop, lecture, tutorial, library, gallery or another learning setting, on- or off-campus. In your second and third years of study you will continue to explore and deepen your specialist studio based interests and adopt critical approaches in your practice, continuing to develop yourself as a creative practitioner. In the final year of your degree, you will propose a self-directed project incorporating research and contemporary art practice, supported by staff from a number of specialist studios. You will be working in, or across, the different studios or directly with practitioners in community based arts activities and events. This will culminate in opportunities to exhibit, engage in community cultural events and explore your future opportunities in diverse creative industries. You will develop the skills and understanding required for employment in community arts as future leaders and entrepreneurs. Our open, flexible studios in the Visual Arts include specialized facilities for work in ceramics/3D materials, drawing, printmaking, photography and painting. All intensive teaching staff are practicing artists and designers with considerable reputations in Australia. For more information, please visit www.federation.edu.au/artists.",
    "course_career_outcome": [
        "Arts and cultural planner",
        "Cartoonist",
        "Commercial potter",
        "Creative director",
        "Cultural development officer",
        "Cultural heritage officer",
        "Gallery assistant",
        "Illustrator",
        "Jewellery designer/maker",
        "Museum curator/technician",
        "Painter",
        "Photo journalist",
        "Photographer",
        "Potter/ceramist",
        "Printmaker",
        "Screen printer",
        "Sculptor",
        "Set designer",
        "Textile designer",
        "Visual merchandiser",
        "Art/creative director",
        "Artist"
    ],
    "course_country": "Australia",
    "course_id": "bachelorofvisualarts(qv5)"
}