{
    "univ_id": "federationuniversity",
    "course_title": "Master Of Engineering Science",
    "course_campus_location": [
        {
            "name": "Mt Helen(Ballarat)",
            "code": "015134G"
        },
        {
            "name": "Berwick",
            "code": "015134G"
        },
        {
            "name": "Gippsland(Churchill)",
            "code": "015134G"
        }
    ],
    "course_discipline": [
        "Engineering"
    ],
    "program_code": "EI9",
    "course_outline": {
        "majors": [],
        "minors": [],
        "more_details": "https://study.federation.edu.au/#/course/DEI9"
    },
    "application_fee": "Students who apply through the Online Application Centre will attract a $25 application fee. Students who submit a paper-based application (pdf, 372kb) will attract a $50 application fee.",
    "course_admission_requirement": {
        "english": [
            {
                "name": "ielts academic",
                "description": "Overall 6.0 (no band less than 6.0)",
                "R": 6,
                "W": 6,
                "S": 6,
                "L": 6,
                "O": 6,
                "min": 0,
                "require": 6,
                "max": 9
            },
            {
                "name": "pte academic",
                "description": "Overall 50 (no band less than 50)",
                "R": 50,
                "W": 50,
                "S": 50,
                "L": 50,
                "O": 50,
                "min": 0,
                "require": 50,
                "max": 90
            },
            {
                "name": "toefl ibt",
                "description": "60-78 with minimums: Reading 13, Listening 12, Speaking 18, Writing 21",
                "R": 13,
                "W": 21,
                "S": 18,
                "L": 12,
                "O": 60,
                "min": 0,
                "require": 60,
                "max": 120
            },
            {
                "name": "cae",
                "description": "Overall 169 (no band less than 169)",
                "R": 169,
                "W": 169,
                "S": 169,
                "L": 169,
                "O": 169,
                "min": 80,
                "require": 169,
                "max": 230
            }
        ],
        "academic": [
            "have graduated with or qualified for a four year Honours Bachelor degree, or Degree with Honours, at least second class honours level, that included a dissertation demonstrating the ability to undertake research at Masters level; or",
            "hold qualifications and/or have demonstrated skills, experience, research, or publications which are assessed as being at least equivalent to the qualifications above",
            "Applicants who do not meet the requirements will be required to undertake an additional programme of study equivalent to a fourth year of advanced undergraduate study and research in the relevant field"
        ],
        "entry_requirements_url": "https://federation.edu.au/international/study-at-feduni/apply/prepare-your-application/entry-requirements",
        "academic_requirements_url": "https://federation.edu.au/international/study-at-feduni/apply/prepare-your-application/entry-requirements",
        "english_requirements_url": "https://federation.edu.au/international/study-at-feduni/apply/prepare-your-application/english-language-requirements"
    },
    "course_study_level": "Masters Degree (Research)",
    "course_url": "https://study.federation.edu.au/#/course/DEI9",
   "course_study_mode": "On campus",
    "course_duration": "78 weeks",
    "course_duration_display": [
        {
            "unit": "years",
            "duration": "1.5",
            "display": "Full-Time",
            "filterduration": 1.5
        }
    ],
    "isfulltime": false,
    "isparttime": false,
    "course_tuition_fee": {
        "fees": [
            {
                "name": "Mt Helen(Ballarat)",
                "value": {
                    "international_student": {
                        "amount": 28000,
                        "duration": 1,
                        "unit": "Year",
                        "description": ""
                    },
                    "fee_duration_years": "1",
                    "currency": "AUD"
                }
            },
            {
                "name": "Berwick",
                "value": {
                    "international_student": {
                        "amount": 28000,
                        "duration": 1,
                        "unit": "Year",
                        "description": ""
                    },
                    "fee_duration_years": "1",
                    "currency": "AUD"
                }
            },
            {
                "name": "Gippsland(Churchill)",
                "value": {
                    "international_student": {
                        "amount": 28000,
                        "duration": 1,
                        "unit": "Year",
                        "description": ""
                    },
                    "fee_duration_years": "1",
                    "currency": "AUD"
                }
            }
        ]
    },
    "course_intake": {
        "intake": [
            {
                "name": "Mt Helen(Ballarat)",
                "value": [
                    {
                        "actualdate": "anytime",
                        "month": "",
                        "filterdate": ""
                    }
                ]
            },
            {
                "name": "Berwick",
                "value": [
                    {
                        "actualdate": "anytime",
                        "month": "",
                        "filterdate": ""
                    }
                ]
            },
            {
                "name": "Gippsland(Churchill)",
                "value": [
                    {
                        "actualdate": "anytime",
                        "month": "",
                        "filterdate": ""
                    }
                ]
            }
        ],
        "more_details": "https://federation.edu.au/__data/assets/pdf_file/0006/365271/Academic-Calendar-2020-Standard-and-Non-Standard.pdf"
    },
    "course_overview": "This Masters by Research program sees candidates working with a Principal Supervisor, appointed by the Research Higher Degrees Sub Committee, with the approval of the School. A minimum of 1.5 years and a maximum of 2 years (full-time equivalent), this degree is awarded on the basis of an externally examined thesis of approximately 40,000 words.",
    "course_career_outcome": [
        "Researcher",
        "Engineer",
        "This qualification has application (depending on the nature of the research) to government, industry, commerce and independent research centre employment."
    ],
    "course_country": "Australia",
    "course_id": "masterofengineeringscience(ei9)"
}