{
    "univ_id": "federationuniversity",
    "course_title": "Graduate Diploma Of Management",
    "course_campus_location": [
        {
            "name": "Mt Helen(Ballarat)",
            "code": "085208C"
        }
    ],
    "course_discipline": [
        "Business"
    ],
    "program_code": "MB4",
    "course_outline": {
        "majors": [],
        "minors": [],
        "more_details": "https://study.federation.edu.au/#/course/DMB4"
    },
    "application_fee": "Students who apply through the Online Application Centre will attract a $25 application fee. Students who submit a paper-based application (pdf, 372kb) will attract a $50 application fee.",
    "course_admission_requirement": {
        "english": [
            {
                "name": "ielts academic",
                "description": "Overall Academic IELTS band score of 6.0, with no band less than6.0.",
                "R": 6,
                "W": 6,
                "S": 6,
                "L": 6,
                "O": 6,
                "min": 0,
                "require": 6,
                "max": 9
            },
            {
                "name": "pte academic",
                "description": "Overall 50 (no band less than 50)",
                "R": 50,
                "W": 50,
                "S": 50,
                "L": 50,
                "O": 50,
                "min": 0,
                "require": 50,
                "max": 90
            },
            {
                "name": "toefl ibt",
                "description": "60-78 with minimums: Reading 13, Listening 12, Speaking 18, Writing 21",
                "R": 13,
                "W": 21,
                "S": 18,
                "L": 12,
                "O": 60,
                "min": 0,
                "require": 60,
                "max": 120
            },
            {
                "name": "cae",
                "description": "Overall 169 (no band less than 169)",
                "R": 169,
                "W": 169,
                "S": 169,
                "L": 169,
                "O": 169,
                "min": 80,
                "require": 169,
                "max": 230
            }
        ],
        "academic": [
            "Applicants for this program must hold a Bachelor degree or equivalent professional qualification; Applicants holding other academic or professional qualifications and/or with no work experience may also be granted admission to the program following an evaluation of their academic and professional skills; or Applicants without tertiary qualifications, but with significan tmanagerial work experience, and an assessed capacity to undertake study at this level may also be granted admission. Professional qualification and work experience will be assessed by faculty Program Coordinator."
        ],
        "entry_requirements_url": "https://federation.edu.au/international/study-at-feduni/apply/prepare-your-application/entry-requirements",
        "academic_requirements_url": "https://federation.edu.au/international/study-at-feduni/apply/prepare-your-application/entry-requirements",
        "english_requirements_url": "https://federation.edu.au/international/study-at-feduni/apply/prepare-your-application/english-language-requirements"
    },
    "course_study_level": "Graduate Diploma",
    "course_url": "https://study.federation.edu.au/#/course/DMB4",
   "course_study_mode": "On campus",
    "course_duration": "78 weeks",
    "course_duration_display": [
        {
            "unit": "years",
            "duration": "1.5",
            "display": "Full-Time",
            "filterduration": 1.5
        }
    ],
    "isfulltime": false,
    "isparttime": false,
    "course_tuition_fee": {
        "fees": [
            {
                "name": "Mt Helen(Ballarat)",
                "value": {
                    "international_student": {
                        "amount": 28400,
                        "duration": 1,
                        "unit": "Year",
                        "description": ""
                    },
                    "fee_duration_years": "1",
                    "currency": "AUD"
                }
            }
        ]
    },
    "course_intake": {
        "intake": [
            {
                "name": "Mt Helen(Ballarat)",
                "value": [
                    {
                        "actualdate": "2 March 2020",
                        "month": "March",
                        "filterdate": "2020-03-02"
                    }
                ]
            }
        ],
        "more_details": "https://federation.edu.au/__data/assets/pdf_file/0006/365271/Academic-Calendar-2020-Standard-and-Non-Standard.pdf"
    },
    "course_overview": "This program has been designed as both an entry and exit point for the Master of Business Administration. For further program outline information, please see MM9 Master of Business Administration.",
    "course_career_outcome": [
        "Business analyst",
        "Business owner",
        "Marketing manager",
        "Business consultant",
        "General manager",
        "Researcher",
        "Business manager",
        "Human resources manager",
        "Strategic planner"
    ],
    "course_country": "Australia",
    "course_id": "graduatediplomaofmanagement(mb4)"
}