{
    "univ_id": "federationuniversity",
    "course_title": "Bachelor Of Information Technology (Mobile App Development)",
    "course_campus_location": [
        {
            "name": "Mt Helen(Ballarat)",
            "code": "092109C"
        },
        {
            "name": "Berwick",
            "code": "092109C"
        },
        {
            "name": "Gippsland(Churchill)",
            "code": "092109C"
        }
    ],
    "course_discipline": [
        "Information technology"
    ],
    "program_code": "CT5",
    "course_outline": {
        "majors": [],
        "minors": [],
        "more_details": "https://study.federation.edu.au/#/course/DCT5.MAD"
    },
    "application_fee": "Students who apply through the Online Application Centre will attract a $25 application fee. Students who submit a paper-based application (pdf, 372kb) will attract a $50 application fee.",
    "course_admission_requirement": {
        "english": [
            {
                "name": "ielts academic",
                "description": "Overall Academic IELTS band score of 6.0, with no band less than 5.5, or equivalent",
                "R": 5.5,
                "W": 5.5,
                "S": 5.5,
                "L": 5.5,
                "O": 6,
                "min": 0,
                "require": 6,
                "max": 9
            },
            {
                "name": "pte academic",
                "description": "Overall 50 (no band less than 50)",
                "R": 50,
                "W": 50,
                "S": 50,
                "L": 50,
                "O": 50,
                "min": 0,
                "require": 50,
                "max": 90
            },
            {
                "name": "toefl ibt",
                "description": "60-78 with minimums: Reading 13, Listening 12, Speaking 18, Writing 21",
                "R": 13,
                "W": 21,
                "S": 18,
                "L": 12,
                "O": 60,
                "min": 0,
                "require": 60,
                "max": 120
            },
            {
                "name": "cae",
                "description": "Overall 169 (no band less than 169)",
                "R": 169,
                "W": 169,
                "S": 169,
                "L": 169,
                "O": 169,
                "min": 80,
                "require": 169,
                "max": 230
            }
        ],
        "academic": [
            "Successful completion of Australian Year 12 with final-year mathematics courses, or overseas equivalent."
        ],
        "entry_requirements_url": "https://federation.edu.au/international/study-at-feduni/apply/prepare-your-application/entry-requirements",
        "academic_requirements_url": "https://federation.edu.au/international/study-at-feduni/apply/prepare-your-application/entry-requirements",
        "english_requirements_url": "https://federation.edu.au/international/study-at-feduni/apply/prepare-your-application/english-language-requirements"
    },
    "course_study_level": "Bachelor Degree",
    "course_url": "https://study.federation.edu.au/#/course/DCT5.MAD",
   "course_study_mode": "On campus",
    "course_duration": "156 weeks",
    "course_duration_display": [
        {
            "unit": "years",
            "duration": "3",
            "display": "Full-Time",
            "filterduration": 3
        }
    ],
    "isfulltime": false,
    "isparttime": false,
    "course_tuition_fee": {
        "fees": [
            {
                "name": "Mt Helen(Ballarat)",
                "value": {
                    "international_student": {
                        "amount": 24300,
                        "duration": 1,
                        "unit": "Year",
                        "description": ""
                    },
                    "fee_duration_years": "1",
                    "currency": "AUD"
                }
            },
            {
                "name": "Berwick",
                "value": {
                    "international_student": {
                        "amount": 24300,
                        "duration": 1,
                        "unit": "Year",
                        "description": ""
                    },
                    "fee_duration_years": "1",
                    "currency": "AUD"
                }
            },
            {
                "name": "Gippsland(Churchill)",
                "value": {
                    "international_student": {
                        "amount": 24300,
                        "duration": 1,
                        "unit": "Year",
                        "description": ""
                    },
                    "fee_duration_years": "1",
                    "currency": "AUD"
                }
            }
        ]
    },
    "course_intake": {
        "intake": [
            {
                "name": "Mt Helen(Ballarat)",
                "value": [
                    {
                        "actualdate": "2 March 2020",
                        "month": "March",
                        "filterdate": "2020-03-02"
                    },
                    {
                        "actualdate": "27 July 2020",
                        "month": "July",
                        "filterdate": "2020-07-27"
                    }
                ]
            },
            {
                "name": "Berwick",
                "value": [
                    {
                        "actualdate": "2 March 2020",
                        "month": "March",
                        "filterdate": "2020-03-02"
                    },
                    {
                        "actualdate": "27 July 2020",
                        "month": "July",
                        "filterdate": "2020-07-27"
                    }
                ]
            },
            {
                "name": "Gippsland(Churchill)",
                "value": [
                    {
                        "actualdate": "2 March 2020",
                        "month": "March",
                        "filterdate": "2020-03-02"
                    },
                    {
                        "actualdate": "27 July 2020",
                        "month": "July",
                        "filterdate": "2020-07-27"
                    }
                ]
            }
        ],
        "more_details": "https://federation.edu.au/__data/assets/pdf_file/0006/365271/Academic-Calendar-2020-Standard-and-Non-Standard.pdf"
    },
    "course_overview": "The mobile application industry is rapidly growing - with millions of people using apps each day the industry needs innovative, creative and skilled professionals. Companies want employees to help them create 'the next big thing' in mobile app technology. Demand for high quality mobile apps continues to grow and to create these apps requires expertise in the latest technologies. On graduation, you can move into Honours in IT or straight into employment. Chances are, the job you'll end up having doesn't even exist today. The degree will place you at the forefront in this industry with a particular focus on developing apps for mobile platforms such as Android - the most popular mobile operating system in the world - as well as the security implications of mobile development. The degree has been designed to provide you with the key IT knowledge and skills you'll need in the workplace. You'll obtain a core of basic skills, common to all branches of IT, while at the same time developing extensive expertise in wireless mobile communications, cloud computing, programming, system architecture, design, user experience, networking and security.",
    "course_career_outcome": [
        "App designer",
        "Application developer",
        "App performance tester",
        "Development team leader",
        "Marketing representative",
        "Mobile applications designer",
        "Programmer",
        "User experience designer",
        "User experience tester",
        "Wireless communication designer",
        "Mobile device programmer",
        "Mobile interface designer",
        "Augmented reality developer",
        "Wireless communication designer",
        "Mobile networks and wireless communications design"
    ],
    "course_country": "Australia",
    "course_id": "bachelorofinformationtechnology(mobileappdevelopment)(ct5)"
}