[
  {
    "univ_id": "universityofsouthernqueensland",
    "univ_url": "https://www.usq.edu.au/",
    "univ_name": "University of Southern Queensland",
    "univ_country": "Australia",
    "univ_about": "We are the number 1 University in Queensland for graduate employability. A recognised leader in online and blended education, we are renowned for our supportive environment and student-focused commitment to learning and teaching.",
    "univ_logo": "univ_uosq/univ_logo.png",
    "univ_accomodation": {
      "applicant": 20290,
      "partner": 7100,
      "child": 3040,
      "currency": "AUD",
      "more_details_univ_website": "https://www.usq.edu.au/accommodation",
      "more_details": "https://www.studyinaustralia.gov.au/english/live-in-australia/living-costs"
    },
    "univ_rankings": {
      "rankings": [
        {
          "name": "QS World University Rankings",
          "level": [
            {
              "name": "Australia",
              "value": "32"
            },
            {
              "name": "World",
              "value": "751-800"
            }
          ]
        },
        {
          "name": "Times Higher Education World University Rankings",
          "level": [
            {
              "name": "World",
              "value": "601–800"
            }
          ]
        },
        {
          "name": "Ranking Web of Universities",
          "level": [
            {
              "name": "Australia",
              "value": "30"
            },
            {
              "name": "World",
              "value": "792"
            }
          ]
        }
      ]
    },
    "university_type": "Government",
    "contactInformation": {
      "university": {
        "address": "West St, Darling Heights QLD 4350, Australia",
        "inquiry_no": [ ],
        "place_id": "ChIJQ8QtrqBblmsRQkmjfVatnzY",
        "contact_info": [
          {
            "name": "",
            "phone_no": "+611800007252",
            "fax": "",
            "email_address": "",
            "description": ""
          }
        ],
        "cricos_provider_code": "00025B",
        "vtour_url": "https://www.google.com/maps/embed?pb=!4v1575352482730!6m8!1m7!1s1F56MeepDQASy9T7dwkF0g!2m2!1d-27.60431637526528!2d151.9298693319957!3f46.89736441315512!4f-5.069638900256265!5f0.7820865974627469"
      },
      "campus": [
        {
          "name": "Springfield campus",
          "overview": "Greater Springfield is located approximately 30 minutes to Brisbane, 50 minutes to the Gold Coast, and 90 minutes to Toowoomba. With a population of over 26,000, greater Springfield is emerging as one of the most dynamic urban growth areas in Queensland is the largest privately owned master-planned city in Australia. Greater Springfield is comprised of a wide selection of residential areas to suit all budgets and tastes.",
          "additional_info": "Hours of opening: 8.00am to 5.00pm (AEST)",
          "address": "University of Southern Queensland,Springfield campus,PO BOX 4393,Raceview LPO Raceview QLD 4305,Australia",
          "inquiry_no": [ ],
          "place_id": "ChIJm9EBdxdKkWsR0u4wdDaPI4M",
          "contact_info": [
            {
              "name": "",
              "phone_no": "+61746312100",
              "email_address": "",
              "fax": "",
              "description": ""
            },
            {
              "name": "",
              "phone_no": "1800007252",
              "email_address": "",
              "fax": "",
              "description": "Freecall"
            }
          ],
          "cricos_provider_code": "00025B",
          "vtour_url": "https://www.google.com/maps/embed?pb=!4v1575271583749!6m8!1m7!1szMgGN3cV8_93AsL6V6qa6w!2m2!1d-27.68241445373491!2d152.9079530246794!3f180.9909933738229!4f7.733857319017105!5f2.0004988055554054"
        },
        {
          "name": "Ipswich campus",
          "overview": "The city offers an ideal lifestyle, combining heritage charm with the benefits of a modern, exciting metropolitan lifestyle. It’s Queensland's fastest growing city, and also home to the youngest demographic in south-east Queensland. Ipswich is a diverse and multicultural city, with residents from over 115 different cultural backgrounds.",
          "additional_info": "Hours of opening: 8.00am to 5.00pm (AEST)",
          "address": "University of Southern Queensland,Ipswich campus,PO BOX 4393,Raceview LPO Raceview QLD 4305,Australia",
          "inquiry_no": [ ],
          "place_id": "ChIJLylwHkm0lmsRTDKz5o5pS0M",
          "contact_info": [
            {
              "name": "",
              "phone_no": "+61746312100",
              "email_address": "",
              "fax": "",
              "description": ""
            },
            {
              "name": "",
              "phone_no": "1800007252 ",
              "email_address": "",
              "fax": "",
              "description": "Freecall"
            }
          ],
          "cricos_provider_code": "00025B",
          "vtour_url": "https://www.google.com/maps/embed?pb=!4v1575272535150!6m8!1m7!1sP4TUUrGPphpvUP3olZ0ntA!2m2!1d-27.62857270675195!2d152.7548412298111!3f26.834851865342465!4f-23.624664320895093!5f0.7820865974627469"
        }
      ]
    },
    "apply_url": "https://www.usq.edu.au/study/international/apply/how-to-apply",
    "placement_url": "https://www.usq.edu.au/current-students/academic/education-placements",
    "brochure_path": [
      {
        "name": "univ_uosq/universityofsouthernqueensland_1.pdf",
        "text": "2020 Undergraduate Guide"
      },
      {
        "name": "univ_uosq/universityofsouthernqueensland_2.pdf",
        "text": "2020 Postgraduate Guide"
      }
    ],
    "application_fee": "",
    "facebook_page_name": "usqedu",
    "twitter_page_name": "usqedu",
    "youtube_page_name": "usqedu",
    "abbreviation": "usq"
  }
]