{
      "univ_id": "torrensuniversity",
      "course_study_mode": "On campus",
      "course_campus_location": [
            {
                  "name": "Adelaide",
                  "code": "086075C"
            },
            {
                  "name": "Sydney",
                  "code": "086075C"
            }
      ],
      "course_title": "Master Of Philosophy",
      "course_tuition_fee": {
            "fees": [
                  {
                        "name": "Adelaide",
                        "value": {
                              "international_student": {
                                    "amount": 21800,
                                    "duration": 1,
                                    "unit": "Year",
                                    "description": "$21,800"
                              },
                              "fee_duration_years": "1",
                              "currency": "AUD"
                        }
                  },
                  {
                        "name": "Sydney",
                        "value": {
                              "international_student": {
                                    "amount": 21800,
                                    "duration": 1,
                                    "unit": "Year",
                                    "description": "$21,800"
                              },
                              "fee_duration_years": "1",
                              "currency": "AUD"
                        }
                  }
            ]
      },
      "course_discipline": [
            "HIGHER DEGREES BY RESEARCH"
      ],
      "program_code": "",
      "course_study_level": "Postgraduate",
      "course_url": "https://www.torrens.edu.au/courses/higher-degrees-by-research/master-of-philosophy",
      "course_duration": "Full-time: 2 yearsPart-time: Options available",
      "course_duration_display": [
            {
                  "unit": "years",
                  "duration": "2",
                  "display": "Full-Time",
                  "filterduration": 2
            },
            {
                  "unit": "years",
                  "duration": "4",
                  "display": "Part-Time",
                  "filterduration": 4
            }
      ],
      "isfulltime": true,
      "isparttime": true,
      "course_admission_requirement": {
            "english": [
                  {
                        "name": "ielts academic",
                        "description": "PTE 60",
                        "min": 0,
                        "require": 60,
                        "max": 9,
                        "R": 0,
                        "W": 0,
                        "S": 0,
                        "L": 0,
                        "O": 0
                  }
            ],
            "academic": [
                  "CAE 58"
            ],
            "entry_requirements_url": "https://www.torrens.edu.au/general-admission-information-for-torrens-university-australia-ltd",
            "academic_requirements_url": "https://www.torrens.edu.au/apply-online/admissions-criteria",
            "english_requirements_url": "https://www.torrens.edu.au/apply-online/admissions-criteria"
      },
      "course_intake": {
            "intake": [
                  {
                        "name": "Adelaide",
                        "value": [
                              {
                                    "actualdate": "1 June 2020",
                                    "month": "June"
                              }
                        ]
                  },
                  {
                        "name": "Sydney",
                        "value": [
                              {
                                    "actualdate": "1 June 2020",
                                    "month": "June"
                              }
                        ]
                  }
            ],
            "more_details": "https://www.torrens.edu.au/apply-online/key-dates"
      },
      "course_overview": "Available in Adelaide, Sydney, Brisbane, Melbourne or online, the Master of Philosophy is a pathway to a Doctor of Philosophy  PhD . With the agreement of your supervisors, you may also be eligible to transfer to a PhD before you have finished your Master’s if you have demonstrated a high level of achievement in your studies. You will be required to provide a Research Proposal as part of your initial application. LEARNING OUTCOMES: Develop and conduct research projects High-level communication skills Research and critical analysis skills In-depth knowledge of your professional discipline Completion of a thesis or project",
      "course_career_outcome": [],
      "course_country": "Australia",
      "course_outline": {
            "majors": [],
            "minors": [],
            "more_details": "https://www.torrens.edu.au/courses/higher-degrees-by-research/master-of-philosophy"
      },
      "application_fee": "",
      "course_id": "masterofphilosophy"
}