{
      "univ_id": "torrensuniversity",
      "course_study_mode": "On campus",
      "course_campus_location": [
            {
                  "name": "Adelaide",
                  "code": "097401C"
            }
      ],
      "course_title": "Bachelor Of Applied Social Science(Community Services)",
      "course_tuition_fee": {
            "fees": [
                  {
                        "name": "Adelaide",
                        "value": {
                              "international_student": {
                                    "amount": 21499,
                                    "duration": 1,
                                    "unit": "Year",
                                    "description": "$21,499"
                              },
                              "fee_duration_years": "1",
                              "currency": "AUD"
                        }
                  }
            ]
      },
      "course_discipline": [
            "HEALTH"
      ],
      "program_code": "",
      "course_study_level": "Undergraduate",
      "course_url": "https://www.torrens.edu.au/courses/health/bachelor-of-applied-social-science-community-services",
      "course_duration": "3 years full-time,6 years pat-timeundefined",
      "course_duration_display": [
            {
                  "unit": "years",
                  "duration": "3",
                  "display": "Full-Time",
                  "filterduration": 3
            },
            {
                  "unit": "years",
                  "duration": "6",
                  "display": "Part-Time",
                  "filterduration": 6
            }
      ],
      "isfulltime": true,
      "isparttime": true,
      "course_admission_requirement": {
            "english": [
                  {
                        "name": "ielts academic (PhD)",
                        "description": "Academic IELTS 6.0 (no band less than 5.5) or equivalent.",
                        "min": 0,
                        "require": 6,
                        "max": 9,
                        "R": 0,
                        "W": 0,
                        "S": 0,
                        "L": 0,
                        "O": 0
                  },
                  {
                        "name": "ielts academic (M.Phil)",
                        "description": "Academic IELTS 6.0 (no band less than 5.5) or equivalent.",
                        "min": 0,
                        "require": 6,
                        "max": 9,
                        "R": 0,
                        "W": 0,
                        "S": 0,
                        "L": 0,
                        "O": 0
                  }
            ],
            "academic": [
                  "Australian Year 12 or equivalent; and"
            ],
            "entry_requirements_url": "https://www.torrens.edu.au/general-admission-information-for-torrens-university-australia-ltd",
            "academic_requirements_url": "https://www.torrens.edu.au/apply-online/admissions-criteria",
            "english_requirements_url": "https://www.torrens.edu.au/apply-online/admissions-criteria"
      },
      "course_intake": {
            "intake": [
                  {
                        "name": "Adelaide",
                        "value": [
                              {
                                    "actualdate": "1 June 2020",
                                    "month": "June"
                              }
                        ]
                  }
            ],
            "more_details": "https://www.torrens.edu.au/apply-online/key-dates"
      },
      "course_overview": "The Bachelor of Applied Social Science  Community Services  is an approved course of the Australian Community Workers Association. As a graduate of this course, you’ll be able to apply for membership of the ACWA, the peak body for community services professionals. Delivered by Jansen Newman Institute  JNI , experts in community services education, this course focuses on practical training while providing a solid grounding in the relevant theory. It includes fieldwork placements, ensuring that you graduate with valuable experience and industry contacts. LEARNING OUTCOMES: Apply specific counselling modalities and interventions to meet the needs of clients Explain mental health and the impact of mental ill health on individuals and families Apply effective counselling interventions with people presenting with alcohol, drug abuse and addiction",
      "course_career_outcome": [
            "Child and family services\nHomelessness\nDomestic violence\nIndigenous groups\nLocal government councils"
      ],
      "course_country": "Australia",
      "course_outline": {
            "majors": [],
            "minors": [],
            "more_details": "https://www.torrens.edu.au/courses/health/bachelor-of-applied-social-science-community-services"
      },
      "application_fee": "",
      "course_id": "bachelorofappliedsocialscience(communityservices)"
}