 for (let target of targetLinksCardsTotal) {
        await page.goto(target.href);
        var studylevel="//*/div[3]/div[1]/div[1]/div/div/h2[not(contains(text(),'Short courses'))]/text()"
        const levels = await page.$x(studylevel)
        for(let j=0; j<levels.length;j++){
          var studylevelstring = await page.evaluate(el => el.textContent, levels[j]);
         // studylevels.push({innerText: studylevelstring });
          let studylevelss = "//*/div[3]/div[1]/div[1]/div/div/h2[contains(text(),'" + studylevelstring + "')]";
          let linkselector = "//*/div[3]/div[1]/div[1]/div/div/h2[contains(text(),'" + studylevelstring + "')]/following-sibling::div//a";
         
          //const level = await page.$x(studylevel)
          //console.log(level.length);
          const level1 = await page.$x(studylevelss)
          //console.log(level1)
        
          console.log("Study_level",  studylevelss)
          const targetLinks = await page.$x(linkselector);
        //   const targetText = await page.$x(textselector);
        //   console.log("#total link selectors---->" + targetLinks.length);
        for (var i = 0; i < targetLinks.length; i++) {
          var studylevelstrings = await page.evaluate(el => el.textContent,level1[0]);
          var elementstring = await page.evaluate(el => el.innerText, targetLinks[i]);
          const elementlink = await page.evaluate(el => el.href, targetLinks[i]);
          totalCourseList.push({ href: elementlink, innerText: elementstring, category: target.innerText,study_level:studylevelstring });
        }
        }
       
       
       
        // console.log("Studylevel", studylevels)
        // //scrape university courselist
        // let studylevel = "//*/div[3]/div[1]/div[1]/div/div/h2[text()='']";
        // let linkselector = "//*/div/div/div/span/a";
        // let textselector = "//*/div/div/div/span/a"
        // const level = await page.$x(studylevel)
        // // console.log(level.length);
        // var studylevelstring = await page.evaluate(el => el.textContent, level[0]);
        // console.log("Study_level", studylevelstring)
        // const targetLinks = await page.$x(linkselector);
        // const targetText = await page.$x(textselector);


        
      }