{
    "univ_id": "theuniversityofnewcastle",
    "course_title": "M Philosophy (aboriginal Health Studies)",
    "course_campus_location": [
        {
            "name": "Newcastle",
            "code": "039981C"
        }
    ],
    "course_discipline": [
        "Health and Medical Services",
        "Science and the Environment"
    ],
    "course_study_level": "Research",
    "course_url": "https://www.newcastle.edu.au/about-uon/governance-and-leadership/faculties-and-schools/faculty-of-health-and-medicine/school-of-medicine-and-public-health/school-research/phd-research-masters",
    "course_outline": {
        "majors": [],
        "minors": [],
        "more_details": "https://www.newcastle.edu.au/about-uon/governance-and-leadership/faculties-and-schools/faculty-of-health-and-medicine/school-of-medicine-and-public-health/school-research/phd-research-masters"
    },
    "application_fee": "",
    "program_code": "11644",
    "course_duration": "2 years of full-time study or equivalent",
    "course_duration_display": [
        {
            "unit": "years",
            "duration": "2",
            "display": "Full-Time",
            "filterduration": 2
        }
    ],
    "isfulltime": true,
    "isparttime": false,
    "course_intake": {
        "intake": [
            {
                "name": "Newcastle",
                "value": [
                    {
                        "actualdate": "February 2020",
                        "month": "February"
                    },
                    {
                        "actualdate": "July 2020",
                        "month": "July"
                    }
                ]
            }
        ],
        "more_details": "https://www.newcastle.edu.au/dates#filter=audience_research"
    },
    "course_career_outcome": [],
    "course_country": "Australia",
    "course_study_mode": "On campus",
    "course_admission_requirement": {
        "english": [
            {
                "name": "ielts academic",
                "description": "IELTS overall 6.5 (Section minimum+ 6.0)",
                "min": 0,
                "require": 6.5,
                "max": 9,
                "R": 0,
                "W": 0,
                "S": 0,
                "L": 0,
                "O": 0
            }
        ],
        "academic": [
            "Have satisfied all of the requirements for admission to the degree of Bachelor with Honours Class 1 or Honours Class II, Division 1 or any other degree approved for this purpose by the Assistant Dean (Research Training) or have satisfied all the requirements for admission to a degree of Bachelor in the University or another degree approved for this purpose by the Assistant Dean (Research Training) on the recommendation of the relevant School or in exceptional cases produce evidence of possessing such other academic or professional qualifications and/or experience as may be approved by the Assistant Dean (Research Training) on the recommendation of the relevant Head of School or  in the disciplines of education, medical physics, nursing, social work, social sciences and surgery have completed a minimum standard of professional experience as required by the Assistant Dean (Research Training) on the recommendation of the School."
        ],
        "entry_requirements_url": "",
        "english_requirements_url": "https://www.newcastle.edu.au/study/postgraduate/apply/english-language-proficiency",
        "academic_requirements_url": "https://www.newcastle.edu.au/international/study-with-us/what-can-i-study"
    },
    "course_tuition_fee": {
        "fees": [
            {
                "name": "Newcastle",
                "value": {
                    "international_student": {
                        "amount": 40770,
                        "duration": 1,
                        "unit": "Year",
                        "description": "$40,770"
                    },
                    "fee_duration_years": "1",
                    "currency": "AUD"
                }
            }
        ]
    },
    "course_overview": "Brain and Mental Health\nCancer Research\nCardiovascular Health\nChemical Biology and Clinical Pharmacology\nDigestive Health\nGenerational Health and Ageing\nGrow Up Well\nHealth Behaviour\nHealthy Lungs\nPhysical Activity and Nutrition\nReproductive Science\nStroke and Brain Injury",
    "course_id": "mphilosophy(aboriginalhealthstudies)"
}