{
    "univ_id": "theuniversityofnewcastle",
    "course_title": "M Philosophy (Surveying)",
    "course_campus_location": [
        {
            "name": "Newcastle",
            "code": "013963G"
        }
    ],
    "course_discipline": [
        "Architecture, Building and Construction",
        "Business and Entrepreneurship",
        "Computing, Maths and Technology",
        "Communication and Creative Industries",
        "Engineering",
        "Health and Medical Services",
        "Science and the Environment"
    ],
    "course_study_level": "Research",
    "course_url": "https://www.newcastle.edu.au/about-uon/governance-and-leadership/faculties-and-schools/faculty-of-engineering-and-built-environment/school-of-engineering/school-research/phd-research-masters",
    "course_outline": {
        "majors": [],
        "minors": [],
        "more_details": "https://www.newcastle.edu.au/about-uon/governance-and-leadership/faculties-and-schools/faculty-of-engineering-and-built-environment/school-of-engineering/school-research/phd-research-masters"
    },
    "application_fee": "",
    "program_code": "11628",
    "course_duration": "2 years of full-time study or equivalent",
    "course_duration_display": [
        {
            "unit": "years",
            "duration": "2",
            "display": "Full-Time",
            "filterduration": 2
        }
    ],
    "isfulltime": true,
    "isparttime": false,
    "course_intake": {
        "intake": [
            {
                "name": "Newcastle",
                "value": [
                    {
                        "actualdate": "February 2020",
                        "month": "February"
                    },
                    {
                        "actualdate": "July 2020",
                        "month": "July"
                    }
                ]
            }
        ],
        "more_details": "https://www.newcastle.edu.au/dates#filter=audience_research"
    },
    "course_career_outcome": [],
    "course_country": "Australia",
    "course_study_mode": "On campus",
    "course_admission_requirement": {
        "english": [
            {
                "name": "ielts academic",
                "description": "IELTS overall 6.5 (Section minimum+ 6.0)",
                "min": 0,
                "require": 6.5,
                "max": 9,
                "R": 6,
                "W": 6,
                "S": 6,
                "L": 6,
                "O": 6.5
            }
        ],
        "academic": [
            "Have satisfied all of the requirements for admission to the degree of Bachelor with Honours Class 1 or Honours Class II, Division 1 or any other degree approved for this purpose by the Assistant Dean (Research Training) or have satisfied all the requirements for admission to a degree of Bachelor in the University or another degree approved for this purpose by the Assistant Dean (Research Training) on the recommendation of the relevant School or in exceptional cases produce evidence of possessing such other academic or professional qualifications and/or experience as may be approved by the Assistant Dean (Research Training) on the recommendation of the relevant Head of School or in the disciplines of education, medical physics, nursing, social work, social sciences and surgery have completed a minimum standard of professional experience as required by the Assistant Dean (Research Training) on the recommendation of the School."
        ],
        "entry_requirements_url": "",
        "english_requirements_url": "https://www.newcastle.edu.au/study/postgraduate/apply/english-language-proficiency",
        "academic_requirements_url": "https://www.newcastle.edu.au/international/study-with-us/what-can-i-study"
    },
    "course_tuition_fee": {
        "fees": [
            {
                "name": "Newcastle",
                "value": {
                    "international_student": {
                        "amount": 0,
                        "duration": 1,
                        "unit": "Year",
                        "description": ""
                    },
                    "fee_duration_years": "1",
                    "currency": "AUD"
                }
            }
        ]
    },
    "course_overview": "https://www.newcastle.edu.au/faculty",
    "course_id": "mphilosophy(surveying)"
}