[
    {
        "univ_id": "griffithcollege",
        "univ_url": "https://www.griffith.edu.au/college",
        "univ_name": "Griffith College",
        "univ_country": "Australia",
        "univ_about": "",
        "univ_logo": "univ_griff/univ_logo.jpg",
        "univ_accomodation": {
            "applicant": 20290,
            "partner": 7100,
            "child": 3040,
            "currency": "AUD",
            "more_details_univ_website": "https://www.griffith.edu.au/college/arrival/accommodation",
            "more_details": "https://www.studyinaustralia.gov.au/english/live-in-australia/living-costs"
        },
        "university_type": "Private",
        "abbreviation": "",
        "univ_rankings": {
            "rankings": []
        },
        "apply_url": "https://www.griffith.edu.au/college/admissions/how-to-apply",
        "placement_url": "",
        "brochure_path": [
            {
                "name": "univ_griff/griffithcollege_1.pdf",
                "text": "2020 International Student Guide"
            }
        ],
        "application_fee": "",
        "facebook_page_name": "GriffithCollegeAUS",
        "twitter_page_name": "GCollegeAUS",
        "youtube_page_name": "QIBTam",
        "contactInformation": [
            {
                "name": "Gold Coast",
                "address": "G52, Griffith College, 1 Parklands Dr, Southport QLD 4215, Australia",
                "inquiry_no": [],
                "place_id": "ChIJY6GxZAUQkWsRflNhbtWrDOo",
                "contact_info": [
                    {
                        "name": "",
                        "phone_no": "+61(0)755528500",
                        "fax": "",
                        "email_address": "griffithcollege@navitas.com",
                        "description": ""
                    }
                ],
                "type": "University",
                "cricos_provider_code": "01737F",
                "vtour_url": "https://www.google.com/maps/embed?pb=!4v1596007141543!6m8!1m7!1spAJ96a1vzJSeLKV75XmZ0g!2m2!1d-27.96575779370654!2d153.3814351719566!3f287.64130983165944!4f-6.81437244298715!5f0.7820865974627469"
            },
            {
                "name": "Mt Gravatt",
                "overview": "",
                "additional_info": "",
                "address": "Level 5, International Building M14 176 Messines Ridge Rd, Mt Gravatt QLD 4122",
                "inquiry_no": [],
                "place_id": "ChIJu1touSZbkWsRMbGlFaOfq0s",
                "contact_info": [
                    {
                        "name": "",
                        "phone_no": "+61(0)737356900",
                        "fax": "",
                        "email_address": "griffithcollege@navitas.com",
                        "description": ""
                    }
                ],
                "type": "Campus",
                "cricos_provider_code": "01737F",
                "vtour_url": "https://www.google.com/maps/embed?pb=!4v1596007398860!6m8!1m7!1sewEBURbkKZiHUpKI8ZUNzg!2m2!1d-27.54234690578779!2d153.0660093102351!3f144.76578608463416!4f-20.320984462846468!5f0.7820865974627469"
            }
        ]
    }
]