{
    "univ_id": "theuniversityofnewcastle",
    "course_url": "https://www.newcastle.edu.au/degrees/bachelor-of-electrical-and-electronic-engineering-honours/handbook",
    "course_title": "Bachelor Of Electrical And Electronic Engineering (Honours)",
    "course_campus_location": [
        {
            "name": "Newcastle",
            "code": "092849M"
        }
    ],
    "course_discipline": [
        "Engineering"
    ],
    "course_study_level": "Bachelor Honours Degree",
    "program_code": "40066",
    "course_duration": "4 years full-time.",
    "course_duration_display": [
        {
            "unit": "years",
            "duration": "4",
            "display": "Full-Time",
            "filterduration": 4
        }
    ],
    "isfulltime": true,
    "isparttime": false,
    "course_intake": {
        "intake": [
            {
                "name": "Newcastle",
                "value": [
                    {
                        "actualdate": "24 Feb 2020",
                        "month": "February"
                    },
                    {
                        "actualdate": "3 August 2020",
                        "month": "August"
                    }
                ]
            }
        ],
        "more_details": "https://www.newcastle.edu.au/dates#filter=audience_research"
    },
    "course_outline": {
        "majors": [],
        "minors": [],
        "more_details": "https://www.newcastle.edu.au/degrees/bachelor-of-electrical-and-electronic-engineering-honours/handbook"
    },
    "application_fee": "",
    "course_overview": "Electrical and electronic engineering is a professional career that utilises mathematics, science, technology and problem solving skills to design, construct and maintain the products and services that underpin modern society. Electrical and electronic engineering is the major area of expertise behind control and automation, telecommunications and networking, signal processing, analogue, digital and computer electronics and power generation, distribution and utilization. It is also vital in new and emerging fields such as nanotechnology, robotics, renewable energy and Internet of Things.",
    "course_country": "Australia",
    "course_study_mode": "On campus",
    "course_admission_requirement": {
        "english": [
            {
                "name": "ielts academic",
                "description": "IELTS overall minimum - 6.0, IELTS section minimum - 6.0",
                "min": 0,
                "require": 6,
                "max": 9,
                "R": 6,
                "W": 6,
                "S": 6,
                "L": 6,
                "O": 6
            },
            {
                "name": "toefl ibt",
                "description": "TOEFL (iBT) overall 60 (Reading 13-18, Writing 21-23, Speaking 18-19 & Listening 12-19)",
                "min": 0,
                "require": 60,
                "max": 120,
                "R": 13,
                "W": 21,
                "S": 18,
                "L": 12,
                "O": 60
            },
            {
                "name": "pte academic",
                "description": "PTE Academic overall 54 (Each section 54)",
                "min": 0,
                "require": 54,
                "max": 90,
                "R": 54,
                "W": 54,
                "S": 54,
                "L": 54,
                "O": 54
            }
        ],
        "academic": [
            "To check the admission requirement in the degree program, please see the below link."
        ],
        "entry_requirements_url": "",
        "english_requirements_url": "https://www.newcastle.edu.au/study/postgraduate/apply/english-language-proficiency",
        "academic_requirements_url": "https://www.newcastle.edu.au/international/study-with-us/what-can-i-study"
    },
    "course_tuition_fee": {
        "fees": [
            {
                "name": "Newcastle",
                "value": {
                    "international_student": {
                        "amount": 36615,
                        "duration": 1,
                        "unit": "Year",
                        "description": "AUD36,615 (indicative annual fee, 2020)\n Indicative annual fees are based on a full year full time load (80 units) Find out more about fees"
                    },
                    "fee_duration_years": "1",
                    "currency": "AUD"
                }
            }
        ]
    },
    "course_career_outcome": [
        "telecommunications equipment designer",
        "electrical design engineer",
        "automatic systems designer",
        "robotics engineer",
        "biomedical instrumentation designer",
        "renewable energy systems engineer"
    ],
    "course_id": "bachelorofelectricalandelectronicengineering(honours)"
}