[
  {
    "univ_country": "Australia",
    "univ_rankings": {
      "rankings": []
    },
    "univ_name": "Kent Institute",
    "univ_accomodation": {
      "applicant": 20290,
      "partner": 7100,
      "child": 3040,
      "currency": "AUD",
      "more_details_univ_website": "",
      "more_details": "https://www.studyinaustralia.gov.au/english/live-in-australia/living-costs"
    },
    "academic_requirements_url": "",
    "entry_requirements_url": "",
    "univ_logo": "univ_kent/univ_logo.png",
    "university_type": "Private",
    "course_tuition_fees_currency": "AUD",
    "course_tuition_fee_duration_years": "1",
    "course_admission_english_more_details": "",
    "intake_url": "https://kent.edu.au/kent3/important-dates/",
    "program_code": "",
    "apply_url": "https://kent.edu.au/kent3/how-to-apply/",
    "placement_url": "",
    "brochure_path": [
      {
        "name": "univ_kent/kent_1.pdf",
        "text": "brochure for International Course Guide 2019"
      }
    ],
    "application_fee": "",
    "facebook_page_name": "kentinstituteaustralia",
    "twitter_page_name": "kent_institute",
    "youtube_page_name": "UC027emYgFDmacSLgiq9jSkw",
    "abbreviation": "kent",
    "contactInformation": [
      {
        "name": "Sydney",
        "address": "10 Barrack St, Sydney NSW 2000, Australia",
        "inquiry_no": [
          "+61290935151"
        ],
        "place_id": "ChIJU1A2CzyuEmsRfx_Z2q9ABcE",
        "contact_info": [
          {
            "name": "",
            "phone_no": "",
            "fax": "",
            "email_address": "",
            "description": ""
          }
        ],
        "type": "University",
        "cricos_provider_code": "00161E",
        "vtour_url": "https://www.google.com/maps/embed?pb=!4v1585305387707!6m8!1m7!1sCAoSLEFGMVFpcFAxc3g0TmY3T2t5V0N2eVE5Nno5M090ckxJTWR1TEJuYUhSR2Fw!2m2!1d-33.86740262364425!2d151.2062803282417!3f306.9902520735741!4f-1.3264173286644052!5f0.7820865974627469"
      },
      {
        "name": "Melbourne",
        "overview": "The specially designed campus features furnished student breakout areas, contemporary colour schemes and premium IT facilities. Some other features of the campus include:Four new computer labs and five lecture theatres/tutorial rooms,An Academic Learning Centre and Library with private study areas, Two private group project rooms with projection functionality,Large student breakout room,Indoor bike racks",
        "address": "Level 10, 350 Queen Street,Melbourne VIC 3000, Australia",
        "inquiry_no": [
          "+61383530800"
        ],
        "place_id": "ChIJPwfjIRdo1moRQIqUgnD_1Wk",
        "contact_info": [
          {
            "name": "",
            "phone_no": "",
            "fax": "",
            "email_address": "",
            "description": ""
          }
        ],
        "type": "Campus",
        "cricos_provider_code": "00161E",
        "vtour_url": "https://www.google.com/maps/embed?pb=!4v1585305465051!6m8!1m7!1sCAoSLEFGMVFpcE1SWXFKbVpITkhURzR3WGIzdHpXMWtZdmgwUXJYaXBUU1NLQ1NW!2m2!1d-37.810298102515!2d144.95908759662!3f53.134370017968074!4f9.293924303541331!5f0.7820865974627469"
      }
    ]
  }
]