{
      "univ_id": "torrensuniversity",
      "course_study_mode": "On campus",
      "course_campus_location": [
            {
                  "name": "Sydney",
                  "code": "094177G"
            }
      ],
      "course_title": "Diploma Of Business(Hospitality Management)",
      "course_tuition_fee": {
            "fees": [
                  {
                        "name": "Sydney",
                        "value": {
                              "international_student": {
                                    "amount": 24000,
                                    "duration": 1,
                                    "unit": "Year",
                                    "description": "$24,000"
                              },
                              "fee_duration_years": "1",
                              "currency": "AUD"
                        }
                  }
            ]
      },
      "course_discipline": [
            "HOSPITALITY"
      ],
      "program_code": "",
      "course_study_level": "Undergraduate",
      "course_url": "https://www.torrens.edu.au/courses/hospitality/diploma-of-business-hospitality-management-2",
      "course_duration": "Full time - 1 year",
      "course_duration_display": [
            {
                  "unit": "year",
                  "duration": "1",
                  "display": "Full-Time",
                  "filterduration": 1
            }
      ],
      "isfulltime": true,
      "isparttime": false,
      "course_admission_requirement": {
            "english": [
                  {
                        "name": "ielts academic (PhD)",
                        "description": "Academic IELTS 5.5 (no band less than 5.0) or equivalent.",
                        "min": 0,
                        "require": 5.5,
                        "max": 9,
                        "R": 0,
                        "W": 0,
                        "S": 0,
                        "L": 0,
                        "O": 0
                  },
                  {
                        "name": "ielts academic (M.Phil)",
                        "description": "Academic IELTS 5.5 (no band less than 5.0) or equivalent.",
                        "min": 0,
                        "require": 5.5,
                        "max": 9,
                        "R": 0,
                        "W": 0,
                        "S": 0,
                        "L": 0,
                        "O": 0
                  }
            ],
            "academic": [
                  "Australian Year 12 or equivalent; and"
            ],
            "entry_requirements_url": "https://www.torrens.edu.au/general-admission-information-for-torrens-university-australia-ltd",
            "academic_requirements_url": "https://www.torrens.edu.au/apply-online/admissions-criteria",
            "english_requirements_url": "https://www.torrens.edu.au/apply-online/admissions-criteria"
      },
      "course_intake": {
            "intake": [
                  {
                        "name": "Sydney",
                        "value": [
                              {
                                    "actualdate": "14 Sep 2020",
                                    "month": "September"
                              }
                        ]
                  }
            ],
            "more_details": "https://www.torrens.edu.au/apply-online/key-dates"
      },
      "course_overview": "This course can be studied fully online, on-campus in Sydney or a blend of both. During this course you will be introduced to hospitality concepts and discover business and management principles. As a graduate, you will have the opportunity for an exciting role in many areas of the hospitality industry. LEARNING OUTCOMES: Management of service contexts in a global environment HR management and leadership Marketing fundamentals and business accounting",
      "course_career_outcome": [
            "Banquet or Function Supervisor",
            "Front Office Supervisor",
            "Guest Relations Supervisor",
            "Restaurant Supervisor"
      ],
      "course_country": "Australia",
      "course_outline": {
            "majors": [],
            "minors": [],
            "more_details": "https://www.torrens.edu.au/courses/hospitality/diploma-of-business-hospitality-management-2"
      },
      "application_fee": "",
      "course_id": "diplomaofbusiness(hospitalitymanagement)"
}