[
      {
            "href": "https://coursefinder.uow.edu.au/information/index.html?course=graduate-certificate-international-relations",
            "innerText": "Graduate Certificate in International Relations",
            "category": [
                  "Arts & Humanities",
                  "International studies"
            ],
            "study_level": "Postgraduate coursework & research  ",
            "reason": "Error: ENOENT: no such file or directory, open './output/universityofwollongong_graduatecertificateininternationalrelations*_details.json'",
            "index": 34
      },
      {
            "href": "https://coursefinder.uow.edu.au/information/index.html?course=master-international-relations-1",
            "innerText": "Master of International Relations (1 year)",
            "category": [
                  "Arts & Humanities",
                  "International studies"
            ],
            "study_level": "Postgraduate coursework & research  ",
            "reason": "Error: ENOENT: no such file or directory, open './output/universityofwollongong_masterofinternationalrelations(1year)*_details.json'",
            "index": 35
      },
      {
            "href": "https://coursefinder.uow.edu.au/information/index.html?course=master-international-relations-1-5",
            "innerText": "Master of International Relations (1.5 years)",
            "category": [
                  "Arts & Humanities",
                  "International studies"
            ],
            "study_level": "Postgraduate coursework & research  ",
            "reason": "Error: ENOENT: no such file or directory, open './output/universityofwollongong_masterofinternationalrelations(1.5years)*_details.json'",
            "index": 36
      },
      {
            "href": "https://coursefinder.uow.edu.au/information/index.html?course=master-international-relations-2",
            "innerText": "Master of International Relations (2 years)",
            "category": [
                  "Arts & Humanities",
                  "International studies"
            ],
            "study_level": "Postgraduate coursework & research  ",
            "reason": "Error: ENOENT: no such file or directory, open './output/universityofwollongong_masterofinternationalrelations(2years)*_details.json'",
            "index": 37
      },
   
      {
            "href": "http://coursefinder.uow.edu.au/information/index.html?course=graduate-certificate-in-autism-online-course",
            "innerText": "Graduate Certificate in Autism - Online Course",
            "category": [
                  "Education"
            ],
            "study_level": "Postgraduate coursework & research  ",
            "reason": "TypeError: resJsonData.course_campus_location is not iterable",
            "index": 139
      },
      {
            "href": "http://coursefinder.uow.edu.au/information/index.html?course=master-autism",
            "innerText": "Master of Autism",
            "category": [
                  "Education"
            ],
            "study_level": "Postgraduate coursework & research  ",
            "reason": "TypeError: resJsonData.course_campus_location is not iterable",
            "index": 144
      },
      {
            "href": "http://coursefinder.uow.edu.au/information/index.html?course=graduate-cert-electrical-power-engineering",
            "innerText": "Graduate Certificate in Electrical Power Engineering",
            "category": [
                  "Engineering"
            ],
            "study_level": "Postgraduate coursework & research  ",
            "reason": "TypeError: resJsonData.course_campus_location is not iterable",
            "index": 174
      },
      {
            "href": "http://coursefinder.uow.edu.au/information/index.html?course=graduate-cert-engineering-asset-management",
            "innerText": "Graduate Certificate in Engineering Asset Management",
            "category": [
                  "Engineering"
            ],
            "study_level": "Postgraduate coursework & research  ",
            "reason": "TypeError: resJsonData.course_campus_location is not iterable",
            "index": 176
      },
      {
            "href": "http://coursefinder.uow.edu.au/information/index.html?course=master-electrical-power-engineering",
            "innerText": "Master of Electrical Power Engineering",
            "category": [
                  "Engineering"
            ],
            "study_level": "Postgraduate coursework & research  ",
            "reason": "TypeError: resJsonData.course_campus_location is not iterable",
            "index": 178
      },
      {
            "href": "http://coursefinder.uow.edu.au/information/index.html?course=master-engineering-asset-management",
            "innerText": "Master of Engineering Asset Management",
            "category": [
                  "Engineering"
            ],
            "study_level": "Postgraduate coursework & research  ",
            "reason": "TypeError: resJsonData.course_campus_location is not iterable",
            "index": 189
      },
      {
            "href": "http://coursefinder.uow.edu.au/postgrad/index.html",
            "innerText": "View all UOW postgraduate coursework degrees",
            "category": [
                  "Geography"
            ],
            "study_level": "Postgraduate coursework & research  ",
            "reason": "Error: Invalid courseScrappedData, courseScrappedData = null",
            "index": 209
      },
      {
            "href": "http://coursefinder.uow.edu.au/postgrad-research/index.html",
            "innerText": "View all UOW postgraduate research degrees",
            "category": [
                  "Geography"
            ],
            "study_level": "Postgraduate coursework & research  ",
            "reason": "Error: Invalid courseScrappedData, courseScrappedData = null",
            "index": 210
      },
      {
            "href": "https://coursefinder.uow.edu.au/information/index.html?course=bachelor-neuroscience",
            "innerText": "Bachelor of Neuroscience",
            "category": [
                  "Health & Medicine",
                  "Psychology"
            ],
            "study_level": "Undergraduate degrees  ",
            "reason": "Error: ENOENT: no such file or directory, open './output/universityofwollongong_bachelorofneuroscience*_details.json'",
            "index": 216
      },
      {
            "href": "http://coursefinder.uow.edu.au/information/index.html?course=graduate-certificate-medical-health-leadership",
            "innerText": "Graduate Certificate in Medical and Health Leadership",
            "category": [
                  "Health & Medicine"
            ],
            "study_level": "Postgraduate coursework & research  ",
            "reason": "TypeError: resJsonData.course_campus_location is not iterable",
            "index": 228
      },
      {
            "href": "http://coursefinder.uow.edu.au/information/index.html?course=graduate-certificate-strength-conditioning",
            "innerText": "Graduate Certificate in Strength & Conditioning (Online Delivery)",
            "category": [
                  "Health & Medicine"
            ],
            "study_level": "Postgraduate coursework & research  ",
            "reason": "TypeError: resJsonData.course_campus_location is not iterable",
            "index": 231
      },
      {
            "href": "https://coursefinder.uow.edu.au/information/index.html?course=master-medical-health-leadership",
            "innerText": "Master of Medical and Health Leadership",
            "category": [
                  "Health & Medicine"
            ],
            "study_level": "Postgraduate coursework & research  ",
            "reason": "TypeError: resJsonData.course_campus_location is not iterable",
            "index": 234
      },
      {
            "href": "http://coursefinder.uow.edu.au/information/index.html?course=bachelor-arts-italian",
            "innerText": "Bachelor of Arts (Italian)",
            "category": [
                  "International studies"
            ],
            "study_level": "Undergraduate degrees  ",
            "reason": "Error: Invalid courseScrappedData, courseScrappedData = null",
            "index": 279
      },
  
    
      {
            "href": "https://coursefinder.uow.edu.au/information/index.html?course=bachelor-psychological-science-bachelor-neuroscience",
            "innerText": "Bachelor of Psychological Science - Bachelor of Neuroscience",
            "category": [
                  "Psychology"
            ],
            "study_level": "Undergraduate degrees  ",
            "reason": "Error: ENOENT: no such file or directory, open './output/universityofwollongong_bachelorofpsychologicalscience-bachelorofneuroscience*_details.json'",
            "index": 350
      },
      {
            "href": "http://coursefinder.uow.edu.au/information/index.html?course=bachelor-social-science-health-promotion",
            "innerText": "Bachelor of Social Science (Health Promotion)",
            "category": [
                  "Public Health"
            ],
            "study_level": "Undergraduate degrees  ",
            "reason": "Error: Invalid courseScrappedData, courseScrappedData = null",
            "index": 368
      },
      {
            "href": "https://coursefinder.uow.edu.au/information/index.html?course=bachelor-social-change-advocacy",
            "innerText": "Bachelor of Social Change and Advocacy",
            "category": [
                  "Social Sciences"
            ],
            "study_level": "Undergraduate degrees  ",
            "reason": "Error: ENOENT: no such file or directory, open './output/universityofwollongong_bachelorofsocialchangeandadvocacy*_details.json'",
            "index": 406
      },
      {
            "href": "https://coursefinder.uow.edu.au/information/index.html?course=bachelor-sport",
            "innerText": "Bachelor of Sport",
            "category": [
                  "Social Sciences"
            ],
            "study_level": "Undergraduate degrees  ",
            "reason": "Error: ENOENT: no such file or directory, open './output/universityofwollongong_bachelorofsport*_details.json'",
            "index": 417
      },
      {
            "href": "http://coursefinder.uow.edu.au/undergrad/index.html",
            "innerText": "View all UOW undergraduate (bachelor) degrees >>",
            "category": [
                  "Social Work"
            ],
            "study_level": "Undergraduate degree  ",
            "reason": "Error: Invalid courseScrappedData, courseScrappedData = null",
            "index": 428
      }
]