{
    "univ_id": "westernaustralianinstitutesoffurtherstudies",
    "course_title": "Diploma Of Business",
    "course_url": "http://waifs.wa.edu.au/course/diploma-of-business/",
    "course_study_mode": "On campus",
    "course_campus_location": [
        {
            "name": "Perth",
            "code": "087254C"
        }
    ],
    "course_discipline": [
        "Business"
    ],
    "program_code": "BSB50215",
    "course_admission_requirement": {
        "english": [
            {
                "name": "ielts academic",
                "description": "IELTS score of 5.5 (or equivalent).",
                "min": 0,
                "require": 5.5,
                "max": 9,
                "R": 0,
                "W": 0,
                "S": 0,
                "L": 0,
                "O": 0
            }
        ],
        "academic": [
            "Successful completion of Year 12 (or equivalent)."
        ],
        "english_requirements_url": "",
        "academic_requirements_url": "",
        "entry_requirements_url": ""
    },
    "course_study_level": "Diploma",
    "course_duration": "26 weeks",
    "course_duration_display": [
        {
            "unit": "weeks",
            "duration": "26",
            "display": "Full-Time",
            "filterduration": 0.49862972715364895
        }
    ],
    "isfulltime": true,
    "isparttime": false,
    "course_intake": {
        "intake": [
            {
                "name": "Perth",
                "value": [
                    
                ]
            }
        ],
        "more_details": "http://waifs.wa.edu.au/fees-and-intake-dates/"
    },
    "course_overview": "This qualification can be useful to you if you have substantial experience in a range of settings and are seeking to further develop your skills across a range of business functions. It is also suitable if you have little or no vocational experience, but have a good grounding in business skills and knowledge that you’d like to further develop to assist your educational or career aspirations.",
    "course_career_outcome": [
        "Executive Officer",
        "Program Consultant",
        "Program Coordinator"
    ],
    "course_outline": {
        "majors": [],
        "minors": [],
        "more_details": "http://waifs.wa.edu.au/course/diploma-of-business/"
    },
    "application_fee": "230",
    "course_country": "Australia",
    "course_tuition_fee": {
        "fees": [
            {
                "name": "Perth",
                "value": {
                    "international_student": {
                        "amount": 7500,
                        "duration": 26,
                        "unit": "weeks",
                        "description": "$7,500.00"
                    },
                    "fee_duration_years": "1",
                    "currency": "AUD"
                }
            }
        ]
    },
    "course_id": "diplomaofbusiness"
}