{
    "univ_id": "skillsinstituteaustralia",
    "course_title": "Advanced Diploma of Program Management",
    "course_url": "https://skills.qld.edu.au/study/bsb61218/",
    "course_study_mode": "On campus",
    "course_campus_location": [
        {
            "name": "Slacks Creek",
            "code": "098954F"
        }
    ],
    "course_discipline": "Business",
    "program_code": "BSB61218",
    "course_admission_requirement": {
        "english": [
            {
                "name": "ielts academic",
                "description": "Overseas students require a language proficiency of IELTS 5.5 or equivalent",
                "min": 0,
                "require": 5.5,
                "max": 9,
                "R": 0,
                "W": 0,
                "S": 0,
                "L": 0,
                "O": 0
            }
        ],
        "academic": [
            "Satisfactory completion of year 12 or equivalent"
        ],
        "english_requirements_url": "",
        "academic_requirements_url": "",
        "entry_requirements_url": ""
    },
    "course_study_level": "Advanced Diploma",
    "course_duration": "52 weeks",
    "course_duration_display": [
        {
            "unit": "weeks",
            "duration": "52",
            "display": "Full-Time",
            "filterduration": 0.9972594543072979
        }
    ],
    "isfulltime": true,
    "isparttime": false,
    "course_intake": {
        "intake": [
            {
                "name": "Slacks Creek",
                "value": []
            }
        ],
        "more_details": ""
    },
    "course_overview": "This qualification reflects the role of individuals who apply specialised knowledge and skills, together with experience in program management across a range of enterprise and industry contexts.",
    "course_career_outcome": [
        "Project Leader",
        "Project Management Facilitator",
        "Project or Program Administrator."
    ],
    "course_outline": {
        "majors": [],
        "minors": [],
        "more_details": "https://skills.qld.edu.au/study/bsb61218/"
    },
    "application_fee": "",
    "course_country": "Australia",
    "course_tuition_fee": {
        "fees": [
            {
                "name": "Slacks Creek",
                "value": {
                    "international_student": {
                        "amount": 9700,
                        "duration": 52,
                        "unit": "weeks",
                        "description": ""
                    },
                    "fee_duration_years": "1",
                    "currency": "AUD"
                }
            }
        ]
    },
    "course_id": "advanceddiplomaofprogrammanagement"
}