{
    "univ_id": "charlessturtuniversity",
    "course_title": "Bachelor Of Business (Marketing)",
    "course_study_level": "Undergraduate",
    "course_campus_location": [
        {
            "name": "Albury-Wodonga",
            "code": "006177D"
        },
        {
            "name": "Bathurst",
            "code": "006177D"
        }
    ],
    "course_outline": {
        "majors": [],
        "minors": [],
        "more_details": "https://study.csu.edu.au/courses/business/bachelor-business-marketing"
    },
    "application_fee": "",
    "course_discipline": [
        "Business"
    ],
    "course_url": "https://study.csu.edu.au/courses/business/bachelor-business-marketing",
    "course_duration": "Full-time: 3 years (or part-time equivalent)\n\nCourse duration is the effective time taken to complete a course when studied full-time (full-time equivalent duration). Students are advised to consult the Enrolment Pattern to determine length of study. Not all courses are offered in full-time mode.",
    "course_duration_display": [
        {
            "unit": "years",
            "duration": "3",
            "display": "Full-Time",
            "filterduration": 3
        },
        {
            "unit": "years",
            "duration": "6",
            "display": "Part-Time",
            "filterduration": 6
        }
    ],
    "isfulltime": true,
    "isparttime": true,
    "course_tuition_fee": {
        "fees": [
            {
                "name": "Albury-Wodonga",
                "value": {
                    "international_student": {
                        "amount": 28224,
                        "duration": 1,
                        "unit": "Year",
                        "description": "$28,224"
                    },
                    "fee_duration_years": "1",
                    "currency": "AUD"
                }
            },
            {
                "name": "Bathurst",
                "value": {
                    "international_student": {
                        "amount": 28224,
                        "duration": 1,
                        "unit": "Year",
                        "description": "$28,224"
                    },
                    "fee_duration_years": "1",
                    "currency": "AUD"
                }
            }
        ]
    },
    "course_intake": {
        "intake": [
            {
                "name": "Albury-Wodonga",
                "value": [
                    {
                        "actualdate": "March 2,2020",
                        "month": "March",
                        "filterdate": "2020-03-02"
                    },
                    {
                        "actualdate": "July 13,2020",
                        "month": "July",
                        "filterdate": "2020-07-13"
                    },
                    {
                        "actualdate": "November 16,2020",
                        "month": "November",
                        "filterdate": "2020-11-16"
                    }
                ]
            },
            {
                "name": "Bathurst",
                "value": [
                    {
                        "actualdate": "March 2,2020",
                        "month": "March",
                        "filterdate": "2020-03-02"
                    },
                    {
                        "actualdate": "July 13,2020",
                        "month": "July",
                        "filterdate": "2020-07-13"
                    },
                    {
                        "actualdate": "November 16,2020",
                        "month": "November",
                        "filterdate": "2020-11-16"
                    }
                ]
            }
        ],
        "more_details": "http://www.csustudycentres.edu.au/how-to-apply/key-dates"
    },
    "course_overview": "Combining sharp strategic skills with creativity and persuasive communication, marketing is a fast-evolving career boasting global demand and opportunities. The Bachelor of Business (Marketing) from Charles Sturt University will give you solid specialist marketing knowledge and practical skills alongside a strong foundation in key business areas.",
    "course_career_outcome": [
        "Charles Sturt University's Bachelor of Business (Marketing) prepares you to meet the needs of industry and commerce, particularly in the areas of branding, international marketing, marketing research, marketing communications and strategic marketing. As a graduate, you'll be ready to embark on a broad range of high-demand marketing careers in Australia or overseas. If you are already working in the business or marketing industry, this course may open up opportunities for career advancement or promotion.Move into managementTake your skills to the top as a brand manager, product manager, customer relationship manager, national or international sales and marketing manager, or business development manager.Innovate in digital and social mediaStep into the ever-evolving and exciting world of digital and social media marketing as a social media campaigns manager, digital marketing manager or communications strategist.Take on consultancy and coordinationLooking for an always on-the-go career? You might like to explore roles such as marketing consultant, marketing and events coordinator, or social marketer."
    ],
    "course_country": "Australia",
    "course_study_mode": "On campus",
    "course_admission_requirement": {
        "english": [
            {
                "name": "ielts academic",
                "description": "Academic IELTS with a minimum overall score of 6 with no individual score below 5.5",
                "R": 5.5,
                "W": 5.5,
                "S": 5.5,
                "L": 5.5,
                "O": 6,
                "min": 0,
                "require": 6,
                "max": 9
            },
            {
                "name": "toefl ibt",
                "description": "TOEFL (iBT) overall 60 (Reading 17, Writing 16, Speaking 19 & Listening 17)",
                "R": 17,
                "W": 16,
                "S": 19,
                "L": 17,
                "O": 60,
                "min": 0,
                "require": 60,
                "max": 120
            },
            {
                "name": "pte academic",
                "description": "PTE Academic overall 50 (Each section 50)",
                "R": 50,
                "W": 50,
                "S": 50,
                "L": 50,
                "O": 50,
                "min": 0,
                "require": 50,
                "max": 90
            },
            {
                "name": "cae",
                "description": "CAE overall 169 (Each section 169)",
                "R": 169,
                "W": 169,
                "S": 169,
                "L": 169,
                "O": 169,
                "min": 80,
                "require": 169,
                "max": 230
            }
        ],
        "academic": [
            "Applicants for the Bachelor of Business (Marketing) must meet the following Admission Requirements: A completed High School Certificate (or equivalent) with an ATAR of at least 60 (including adjustment factors). OR Successful completion of at least two Bachelor degree level subjects (or Australian Qualifications Framework (AQF) equivalent) or higher in any discipline. OR A completed Vocational Education and Training (VET) Certificate III or higher, studied at a TAFE or Registered Training Organisation (RTO), or equivalent. OR A completed Tertiary Preparation Certificate (TPC) or bridging program studied at a TAFE, Registered Training Organisation (RTO) or University, or equivalent. OR Partial completion of a Vocational Education and Training (VET) Diploma, of at least 50% from a TAFE or Registered Training Organisation (RTO), or equivalent. OR Work experience of at least two years full time equivalence duration with some elements of management or supervision demonstrated by a detailed resume. English Language Proficiency Minimum CSU English Language Proficiency Requirements apply."
        ],
        "academic_requirements_url": "https://futurestudents.csu.edu.au/international/course-entry-requirements/requirements",
        "english_requirements_url": "https://futurestudents.csu.edu.au/apply/english-language",
        "entry_requirements_url": "https://study.csu.edu.au/international/apply/course-entry"
    },
    "program_code": "",
    "course_id": "bachelorofbusiness(marketing)"
}