{
    "univ_id": "charlessturtuniversity",
    "course_title": "Bachelor Of Education (Early Childhood And Primary)",
    "course_study_level": "Undergraduate",
    "course_campus_location": [
        {
            "name": "Albury-Wodonga",
            "code": "017967E"
        },
        {
            "name": "Bathurst",
            "code": "017967E"
        },
        {
            "name": "Dubbo",
            "code": "017967E"
        },
        {
            "name": "Wagga Wagga",
            "code": "017967E"
        }
    ],
    "course_outline": {
        "majors": [],
        "minors": [],
        "more_details": "https://study.csu.edu.au/courses/teaching-education/bachelor-early-childhood-primary"
    },
    "application_fee": "",
    "course_discipline": [
        "Teaching and Education"
    ],
    "course_url": "https://study.csu.edu.au/courses/teaching-education/bachelor-early-childhood-primary",
    "course_duration": "Full-time: 4 years (or part-time equivalent)\n\nCourse duration is the effective time taken to complete a course when studied full-time (full-time equivalent duration). Students are advised to consult the Enrolment Pattern to determine length of study. Not all courses are offered in full-time mode.",
    "course_duration_display": [
        {
            "unit": "years",
            "duration": "4",
            "display": "Full-Time",
            "filterduration": 4
        },
        {
            "unit": "years",
            "duration": "8",
            "display": "Part-Time",
            "filterduration": 8
        }
    ],
    "isfulltime": true,
    "isparttime": true,
    "course_tuition_fee": {
        "fees": [
            {
                "name": "Albury-Wodonga",
                "value": {
                    "international_student": {
                        "amount": 22720,
                        "duration": 1,
                        "unit": "Year",
                        "description": "$22,720"
                    },
                    "fee_duration_years": "1",
                    "currency": "AUD"
                }
            },
            {
                "name": "Bathurst",
                "value": {
                    "international_student": {
                        "amount": 22720,
                        "duration": 1,
                        "unit": "Year",
                        "description": "$22,720"
                    },
                    "fee_duration_years": "1",
                    "currency": "AUD"
                }
            },
            {
                "name": "Dubbo",
                "value": {
                    "international_student": {
                        "amount": 22720,
                        "duration": 1,
                        "unit": "Year",
                        "description": "$22,720"
                    },
                    "fee_duration_years": "1",
                    "currency": "AUD"
                }
            },
            {
                "name": "Wagga Wagga",
                "value": {
                    "international_student": {
                        "amount": 22720,
                        "duration": 1,
                        "unit": "Year",
                        "description": "$22,720"
                    },
                    "fee_duration_years": "1",
                    "currency": "AUD"
                }
            }
        ]
    },
    "course_intake": {
        "intake": [
            {
                "name": "Albury-Wodonga",
                "value": [
                    {
                        "actualdate": "March 2,2020",
                        "month": "March",
                        "filterdate": "2020-03-02"
                    }
                ]
            },
            {
                "name": "Bathurst",
                "value": [
                    {
                        "actualdate": "March 2,2020",
                        "month": "March",
                        "filterdate": "2020-03-02"
                    }
                ]
            },
            {
                "name": "Dubbo",
                "value": [
                    {
                        "actualdate": "March 2,2020",
                        "month": "March",
                        "filterdate": "2020-03-02"
                    }
                ]
            },
            {
                "name": "Wagga Wagga",
                "value": [
                    {
                        "actualdate": "March 2,2020",
                        "month": "March",
                        "filterdate": "2020-03-02"
                    }
                ]
            }
        ],
        "more_details": "http://www.csustudycentres.edu.au/how-to-apply/key-dates"
    },
    "course_overview": "The Bachelor of Education (Early Childhood and Primary) from Charles Sturt University develops professional teachers who can support, engage and teach young children in their most formative years. Become qualified to teach children from birth to age 12 as an early childhood and primary school teacher – and make a real difference.",
    "course_career_outcome": [
        "Becoming a teacher offers you the opportunity to play a key role in the development of young people, with the potential to expand your horizons within and beyond the classroom.Work in schoolsWith this qualification you'll be able to work as a teacher in government and non-government schools in Australia or overseas.Enhance early childhood educationPut your degree into action as a teacher in a preschool, childcare centre or other early childhood service area.Explore opportunities in other organisationsTeaching skills are also useful in a wide variety of other professions, such as adult or community education careers, museum or art gallery educators, tutor or educational support personnel, corporate training professionals and educational product designers (for example, software, children's educational products and resources for teachers)."
    ],
    "course_country": "Australia",
    "course_study_mode": "On campus",
    "course_admission_requirement": {
        "english": [
            {
                "name": "ielts academic",
                "description": "A minimum overall Academic IELTS score of 7.5 (with no score below 7 in reading and writing, and a score of no less than 8 in speaking and listening) or a qualification deemed equivalent. Testing results must be obtained within two years from the date of your application for admission.",
                "R": 7,
                "W": 7,
                "S": 8,
                "L": 8,
                "O": 7.5,
                "min": 0,
                "require": 7.5,
                "max": 9
            },
            {
                "name": "toefl ibt",
                "description": "TOEFL (iBT) overall 102 (Reading 25, Writing 27, Speaking 25 & Listening 25)",
                "R": 25,
                "W": 27,
                "S": 25,
                "L": 25,
                "O": 102,
                "min": 0,
                "require": 102,
                "max": 120
            },
            {
                "name": "pte academic",
                "description": "PTE Academic overall 73 (Each section 73)",
                "R": 73,
                "W": 73,
                "S": 73,
                "L": 73,
                "O": 73,
                "min": 0,
                "require": 73,
                "max": 90
            },
            {
                "name": "cae",
                "description": "CAE overall 191 (Each section 185)",
                "R": 185,
                "W": 185,
                "S": 185,
                "L": 185,
                "O": 191,
                "min": 80,
                "require": 191,
                "max": 230
            }
        ],
        "academic": [
            "Charles Sturt takes a holistic approach to understand each applicants potential for academic success. Each student is assessed on a range of factors including academic readiness, previous study, work and life experience, motivation to succeed, and awareness of the demands of tertiary study. Charles Sturt offers a range of pathways and admission options into this program including: Applicants with higher education study Successful completion of at least two university level subjects (AQF level Associate Degree or higher) demonstrating a reasonable prospect of success through the Grade Point Average (GPA) gained in these studies. Completed bridging or enabling course Successful completion of a Tertiary Preparation Course from an Australian University or an accredited provider demonstrating a reasonable prospect of success through the Grade Point Average (GPA) gained in these studies. Applicants with vocational education and training (VET) study A completed AQF Certificate III (or higher) at an accredited provider demonstrating a reasonable prospect of success through the Grade Point Average (GPA) gained in these studies. 50% completion of an AQF Diploma level qualification at an accredited provider demonstrating a reasonable prospect of success through the Grade Point Average (GPA) gained in these studies. Applicants with work and life experience Commissioned Officers from Australian Police, Fire, Mercantile Marine, Civil Aviation and Defence Forces (and related) can be admitted on the basis of rank, license, class, length of service and/or competencies achieved. Applicants with recent secondary education (within past two years) ATAR-based admission An ATAR of 65 (including adjustment factors) Other admission and pathway options include: Schools Recommendation Scheme (SRS) Indigenous Access Program (IAP) Charles Sturt University Diploma of General Studies Elite Athletes Program Additional essential requirements for admission Higher CSU English Language Proficiency requirements For International students from non-English-speaking backgrounds: an overall IELTS (or equivalent) score of 7.5 (with no score below 7 in reading and writing, and a score of no less than 8 in speaking and listening). Demonstrate minimum capability in the Australian Institute for Teaching and School Leadership (AITSL) non-academic attribute and motivation requirements for effective teachers.Please note: during your application, you will need to complete a short questionnaire on behalf of the Australian Institute for Teaching and School Leadership, who accredit this course."
        ],
        "academic_requirements_url": "https://futurestudents.csu.edu.au/international/course-entry-requirements/requirements",
        "english_requirements_url": "https://futurestudents.csu.edu.au/apply/english-language",
        "entry_requirements_url": "https://study.csu.edu.au/international/apply/course-entry"
    },
    "program_code": "",
    "course_id": "bachelorofeducation(earlychildhoodandprimary)"
}