{
    "univ_id": "charlessturtuniversity",
    "course_title": "Bachelor Of Clinical Science",
    "course_study_level": "Undergraduate",
    "course_campus_location": [
        {
            "name": "Orange",
            "code": "068977C"
        }
    ],
    "course_outline": {
        "majors": [],
        "minors": [],
        "more_details": "https://study.csu.edu.au/courses/medical-science/bachelor-clinical-science"
    },
    "application_fee": "",
    "course_discipline": [
        "Allied Health and Pharmacy",
        "Medical Science and Dentistry"
    ],
    "course_url": "https://study.csu.edu.au/courses/medical-science/bachelor-clinical-science",
    "course_duration": "Full-time 3 years (6.0 sessions)",
    "course_duration_display": [
        {
            "unit": "years",
            "duration": "3",
            "display": "Full-Time",
            "filterduration": 3
        }
    ],
    "isfulltime": true,
    "isparttime": false,
    "course_tuition_fee": {
        "fees": [
            {
                "name": "Orange",
                "value": {
                    "international_student": {
                        "amount": 30400,
                        "duration": 1,
                        "unit": "Year",
                        "description": "$30,400"
                    },
                    "fee_duration_years": "1",
                    "currency": "AUD"
                }
            }
        ]
    },
    "course_intake": {
        "intake": [
            {
                "name": "Orange",
                "value": [
                    {
                        "actualdate": "March 2,2020",
                        "month": "March",
                        "filterdate": "2020-03-02"
                    },
                    {
                        "actualdate": "July 13,2020",
                        "month": "July",
                        "filterdate": "2020-07-13"
                    }
                ]
            }
        ],
        "more_details": "http://www.csustudycentres.edu.au/how-to-apply/key-dates"
    },
    "course_overview": "If working as part of a team undertaking groundbreaking research into a debilitating disease, or interpreting test results to ensure people receive the correct medical treatment, sounds like the career path for you, then the Bachelor of Clinical Science from Charles Sturt University can help you reach your goals.",
    "course_career_outcome": [
        "With the Bachelor of Clinical Science under your belt, you will be ready to jump into a variety of employment opportunities in the health and medical research sectors.Contribute to public healthMake a difference in your community by putting your clinical science skills to work in a variety of government health roles, from community education to public policy work.Be curious to find curesYour critical thinking and analytic skills will equip you to take on research roles and be involved in the latest scientific discoveries.Take the next stepThis course is a pathway to further study in areas such as medicine, dentistry and physiotherapy."
    ],
    "course_country": "Australia",
    "course_study_mode": "On campus",
    "course_admission_requirement": {
        "english": [
            {
                "name": "ielts academic",
                "description": "Academic IELTS with a minimum overall score of 6 with no individual score below 5.5",
                "R": 5.5,
                "W": 5.5,
                "S": 5.5,
                "L": 5.5,
                "O": 6,
                "min": 0,
                "require": 6,
                "max": 9
            },
            {
                "name": "toefl ibt",
                "description": "TOEFL (iBT) overall 60 (Reading 17, Writing 16, Speaking 19 & Listening 17)",
                "R": 17,
                "W": 16,
                "S": 19,
                "L": 17,
                "O": 60,
                "min": 0,
                "require": 60,
                "max": 120
            },
            {
                "name": "pte academic",
                "description": "PTE Academic overall 50 (Each section 50)",
                "R": 50,
                "W": 50,
                "S": 50,
                "L": 50,
                "O": 50,
                "min": 0,
                "require": 50,
                "max": 90
            },
            {
                "name": "cae",
                "description": "CAE overall 169 (Each section 169)",
                "R": 169,
                "W": 169,
                "S": 169,
                "L": 169,
                "O": 169,
                "min": 80,
                "require": 169,
                "max": 230
            }
        ],
        "academic": [
            "A completed High School Certificate with an ATAR of 65 (including adjustment factors) or equivalent. OR Successful completion of two university level subjects (AQF level Associate Degree or higher) demonstrating a reasonable prospect of success through the Grade Point Average (GPA) gained in these studies. OR A completed AQF Certificate III or higher level qualification. OR 50% completion of an AQF Diploma level qualification. OR A completed Tertiary Preparation Course from an Australian University or an accredited provider demonstrating a reasonable prospect of success through the Grade Point Average (GPA) gained in these studies. AND STANDARD English Language Proficiency requirements. Refer to http://futurestudents.csu.edu.au/apply/english-language for the specific requirements."
        ],
        "academic_requirements_url": "https://futurestudents.csu.edu.au/international/course-entry-requirements/requirements",
        "english_requirements_url": "https://futurestudents.csu.edu.au/apply/english-language",
        "entry_requirements_url": "https://study.csu.edu.au/international/apply/course-entry"
    },
    "program_code": "",
    "course_id": "bachelorofclinicalscience"
}