{
    "univ_id": "charlessturtuniversity",
    "course_title": "Bachelor Of Business Studies",
    "course_study_level": "Undergraduate",
    "course_campus_location": [
        {
            "name": "Albury-Wodonga",
            "code": "029254F"
        },
        {
            "name": "Bathurst",
            "code": "029254F"
        },
        {
            "name": "Csu Study Centre Melbourne",
            "code": "029254F"
        },
        {
            "name": "Port Macquarie",
            "code": "029254F"
        },
        {
            "name": "Wagga Wagga",
            "code": "029254F"
        }
    ],
    "course_outline": {
        "majors": [],
        "minors": [],
        "more_details": "https://study.csu.edu.au/courses/business/bachelor-business-studies"
    },
    "application_fee": "",
    "course_discipline": [
        "Business"
    ],
    "course_url": "https://study.csu.edu.au/courses/business/bachelor-business-studies",
    "course_duration": "Full-time 3.0 years (6.0 sessions) Part-time 6.0 years (12.0 sessions)",
    "course_duration_display": [
        {
            "unit": "years",
            "duration": "3.0",
            "display": "Full-Time",
            "filterduration": 3
        },
        {
            "unit": "years",
            "duration": "6.0",
            "display": "Part-Time",
            "filterduration": 6
        }
    ],
    "isfulltime": true,
    "isparttime": true,
    "course_tuition_fee": {
        "fees": [
            {
                "name": "Albury-Wodonga",
                "value": {
                    "international_student": {
                        "amount": 28224,
                        "duration": 1,
                        "unit": "Year",
                        "description": "$28,224"
                    },
                    "fee_duration_years": "1",
                    "currency": "AUD"
                }
            },
            {
                "name": "Bathurst",
                "value": {
                    "international_student": {
                        "amount": 28224,
                        "duration": 1,
                        "unit": "Year",
                        "description": "$28,224"
                    },
                    "fee_duration_years": "1",
                    "currency": "AUD"
                }
            },
            {
                "name": "Csu Study Centre Melbourne",
                "value": {
                    "international_student": {
                        "amount": 28224,
                        "duration": 1,
                        "unit": "Year",
                        "description": "$28,224"
                    },
                    "fee_duration_years": "1",
                    "currency": "AUD"
                }
            },
            {
                "name": "Port Macquarie",
                "value": {
                    "international_student": {
                        "amount": 28224,
                        "duration": 1,
                        "unit": "Year",
                        "description": "$28,224"
                    },
                    "fee_duration_years": "1",
                    "currency": "AUD"
                }
            },
            {
                "name": "Wagga Wagga",
                "value": {
                    "international_student": {
                        "amount": 28224,
                        "duration": 1,
                        "unit": "Year",
                        "description": "$28,224"
                    },
                    "fee_duration_years": "1",
                    "currency": "AUD"
                }
            }
        ]
    },
    "course_intake": {
        "intake": [
            {
                "name": "Albury-Wodonga",
                "value": [
                    {
                        "actualdate": "March 2,2020",
                        "month": "March",
                        "filterdate": "2020-03-02"
                    },
                    {
                        "actualdate": "July 13,2020",
                        "month": "July",
                        "filterdate": "2020-07-13"
                    },
                    {
                        "actualdate": "November 16,2020",
                        "month": "November",
                        "filterdate": "2020-11-16"
                    }
                ]
            },
            {
                "name": "Bathurst",
                "value": [
                    {
                        "actualdate": "March 2,2020",
                        "month": "March",
                        "filterdate": "2020-03-02"
                    },
                    {
                        "actualdate": "July 13,2020",
                        "month": "July",
                        "filterdate": "2020-07-13"
                    },
                    {
                        "actualdate": "November 16,2020",
                        "month": "November",
                        "filterdate": "2020-11-16"
                    }
                ]
            },
            {
                "name": "Csu Study Centre Melbourne",
                "value": [
                    {
                        "actualdate": "March 2,2020",
                        "month": "March",
                        "filterdate": "2020-03-02"
                    },
                    {
                        "actualdate": "July 13,2020",
                        "month": "July",
                        "filterdate": "2020-07-13"
                    },
                    {
                        "actualdate": "November 16,2020",
                        "month": "November",
                        "filterdate": "2020-11-16"
                    }
                ]
            },
            {
                "name": "Port Macquarie",
                "value": [
                    {
                        "actualdate": "March 2,2020",
                        "month": "March",
                        "filterdate": "2020-03-02"
                    },
                    {
                        "actualdate": "July 13,2020",
                        "month": "July",
                        "filterdate": "2020-07-13"
                    },
                    {
                        "actualdate": "November 16,2020",
                        "month": "November",
                        "filterdate": "2020-11-16"
                    }
                ]
            },
            {
                "name": "Wagga Wagga",
                "value": [
                    {
                        "actualdate": "March 2,2020",
                        "month": "March",
                        "filterdate": "2020-03-02"
                    },
                    {
                        "actualdate": "July 13,2020",
                        "month": "July",
                        "filterdate": "2020-07-13"
                    },
                    {
                        "actualdate": "November 16,2020",
                        "month": "November",
                        "filterdate": "2020-11-16"
                    }
                ]
            }
        ],
        "more_details": "http://www.csustudycentres.edu.au/how-to-apply/key-dates"
    },
    "course_overview": "Looking for a competitive business degree that offers maximum flexibility? The Bachelor of Business Studies from Charles Sturt University allows you to design your own degree – so you can study a wide range of business subjects and even combine subjects from other areas, including arts, humanities and science.",
    "course_career_outcome": [
        "As a graduate of the Bachelor of Business Studies, you'll be able to embark on a broad range of careers. Your skills will be in demand in private organisations of all sizes, as well as across government and not-for-profit organisations.Manage businessesYour skills will be in demand as a product development team leader, client service or relationship manager, owner-manager, entrepreneur or business development manager.Lead marketing and advertising campaignsWork your business magic as an advertising support manager, social media manager, community or online manager, campaign manager or business marketing manager.Consult and researchGet to the heart of what makes businesses tick as a business analyst, marketing consultant or researcher."
    ],
    "course_country": "Australia",
    "course_study_mode": "On campus",
    "course_admission_requirement": {
        "english": [
            {
                "name": "ielts academic",
                "description": "Academic IELTS with a minimum overall score of 6 with no individual score below 5.5",
                "R": 5.5,
                "W": 5.5,
                "S": 5.5,
                "L": 5.5,
                "O": 6,
                "min": 0,
                "require": 6,
                "max": 9
            },
            {
                "name": "toefl ibt",
                "description": "TOEFL (iBT) overall 60 (Reading 17, Writing 16, Speaking 19 & Listening 17)",
                "R": 17,
                "W": 16,
                "S": 19,
                "L": 17,
                "O": 60,
                "min": 0,
                "require": 60,
                "max": 120
            },
            {
                "name": "pte academic",
                "description": "PTE Academic overall 50 (Each section 50)",
                "R": 50,
                "W": 50,
                "S": 50,
                "L": 50,
                "O": 50,
                "min": 0,
                "require": 50,
                "max": 90
            },
            {
                "name": "cae",
                "description": "CAE overall 169 (Each section 169)",
                "R": 169,
                "W": 169,
                "S": 169,
                "L": 169,
                "O": 169,
                "min": 80,
                "require": 169,
                "max": 230
            }
        ],
        "academic": [
            "Bachelor of Business Studies   Applicants for the Bachelor of Business Studies must meet the following Admission Requirements: A completed High School Certificate (or equivalent) with an ATAR of 60 (including adjustment factors) OR Successful completion of two university level subjects (AQF level Associate Degree or higher) demonstrating a reasonable prospect of success through the Grade Point Average (GPA) gained in these studies. OR A completed AQF Certificate III or higher level qualification. OR Minimum 50% completion of an AQF Diploma level qualification. OR Successful completion of a Tertiary Preparation Course from an Australian University or an accredited provider demonstrating a reasonable prospect of success through the Grade Point Average (GPA) gained in these studies. OR Work experience of no less than two years full time duration in areas related to the course as demonstrated by a detailed resume. English Language Proficiency Minimum CSU English Language Proficiency Requirements apply.   Applicants for the Bachelor of Business Studies - Canberra Institue of Technology must meet the following Admission Requirements: Successful completion of a Diploma (incorporating a Cert IV) or Advanced Diploma (incorporating both a Cert IV and a Diploma) in a relevant field from Canberra Institute of Technology. OR Successful completion of a Diploma (incorporating a Cert IV) or Advanced Diploma (incorporating both a Cert IV and a Diploma) in a relevant field as approved by the Course Director. English Language Proficiency Minimum CSU English Language Proficiency Requirements apply."
        ],
        "academic_requirements_url": "https://futurestudents.csu.edu.au/international/course-entry-requirements/requirements",
        "english_requirements_url": "https://futurestudents.csu.edu.au/apply/english-language",
        "entry_requirements_url": "https://study.csu.edu.au/international/apply/course-entry"
    },
    "program_code": "",
    "course_id": "bachelorofbusinessstudies"
}