{
      "univ_id": "ihnainstituteofhealthandnursing",
      "course_title": "Certificate Iv In Leadership And Management",
      "course_url": "https://ihna.edu.au/courses/certificate-iv-leadership-management-int/",
      "course_study_mode": "On campus",
      "course_campus_location": [
            {
                  "name": "Melbourne",
                  "code": "099948G"
            },
            {
                  "name": "Perth",
                  "code": "099948G"
            },
            {
                  "name": "Sydney",
                  "code": "099948G"
            }
      ],
      "course_discipline": [
            "Management and Commerce"
      ],
      "program_code": "BSB42015",
      "course_study_level": "Certificate IV",
      "course_duration": "6 months",
      "course_duration_display": [
            {
                  "unit": "months",
                  "duration": "6",
                  "display": "Full-Time",
                  "filterduration": 0.5
            }
      ],
      "isfulltime": true,
      "isparttime": false,
      "course_admission_requirement": {
            "english": [
                  {
                        "name": "ielts academic",
                        "description": "International English Language Testing System (IELTS) examination (Academic) with a minimum total band score of 5.5 and minimum score of 5.0 in each of the four components of listening, reading, writing and speaking or meets equivalent English language proficiency requirements",
                        "min": 0,
                        "require": 5.5,
                        "max": 9,
                        "R": 5,
                        "W": 5,
                        "S": 5,
                        "L": 5,
                        "O": 5.5
                  }
            ],
            "academic": [
                  "There are no pre-requisites or any other training package entry requirements for this course.",
                  "Applicants are required to be 18 years old and above"
            ],
            "entry_requirements_url": "",
            "english_requirements_url": "",
            "academic_requirements_url": ""
      },
      "course_intake": {
            "intake": [
                  {
                        "name": "Melbourne",
                        "value": []
                  },
                  {
                        "name": "Perth",
                        "value": []
                  },
                  {
                        "name": "Sydney",
                        "value": []
                  }
            ],
            "more_details": "https://ihna.edu.au/students/course-calendar/?stud_type=1"
      },
      "course_overview": "The BSB42015 Certificate IV in Leadership and Management course reflects the role of individuals working as developing and emerging leaders and managers in a range of enterprise and industry contexts.As well as assuming responsibility for their own performance, individuals at this level provide leadership, guidance and support to others. They also have some responsibility for organising and monitoring the output of their team.They apply solutions to a defined range of predictable and unpredictable problems and analyse and evaluate information from a variety of sources.No licensing, legislative or certification requirements apply to this qualification at the time of publication.",
      "course_career_outcome": [
            "Graduates may progress to higher level qualifications within and/or across the Management sector.",
            "Occupational titles may include Frontline Sales Manager, Team Leader, Production Supervisor, Leading Hand, Distribution Centre Supervisor, Supervisor, Warehouse Team Leader, Sales Team Manager, Line Manager, Coordinator (Business Operations)"
      ],
      "course_country": "Australia",
      "course_tuition_fee": {
            "fees": [
                  {
                        "name": "Melbourne",
                        "value": {
                              "international_student": {
                                    "amount": 6000,
                                    "duration": 6,
                                    "unit": "months",
                                    "description": "Total tuition cost for BSB42015 – Certificate IV in Leadership and Management course is AUD $6,000 for international students."
                              },
                              "fee_duration_years": "1",
                              "currency": "AUD"
                        }
                  },
                  {
                        "name": "Perth",
                        "value": {
                              "international_student": {
                                    "amount": 6000,
                                    "duration": 6,
                                    "unit": "months",
                                    "description": "Total tuition cost for BSB42015 – Certificate IV in Leadership and Management course is AUD $6,000 for international students."
                              },
                              "fee_duration_years": "1",
                              "currency": "AUD"
                        }
                  },
                  {
                        "name": "Sydney",
                        "value": {
                              "international_student": {
                                    "amount": 6000,
                                    "duration": 6,
                                    "unit": "months",
                                    "description": "Total tuition cost for BSB42015 – Certificate IV in Leadership and Management course is AUD $6,000 for international students."
                              },
                              "fee_duration_years": "1",
                              "currency": "AUD"
                        }
                  }
            ]
      },
      "course_outline": {
            "majors": [],
            "minors": [],
            "more_details": "https://ihna.edu.au/courses/certificate-iv-leadership-management-int/"
      },
      "application_fee": "",
      "course_id": "certificateivinleadershipandmanagement"
}