{
    "univ_id": "universityofnewengland",
    "course_title": "Doctor of Philosophy",
    "course_discipline": [
        "Nursing"
    ],
    "course_campus_location": [
        {
            "name": "Armidale",
            "code": "014586J"
        }
    ],
    "course_study_level": "Postgraduate Research",
    "program_code": "",
    "course_study_mode": "On campus",
    "course_url": "https://my.une.edu.au/courses/2020/courses/PHD",
    "course_duration": "3 Years Full-time\n6 Years Part-time",
    "course_duration_display": [
        {
            "unit": "years",
            "duration": "3",
            "display": "Full-Time",
            "filterduration": 3
        },
        {
            "unit": "years",
            "duration": "6",
            "display": "Part-Time",
            "filterduration": 6
        }
    ],
    "isfulltime": true,
    "isparttime": true,
    "application_fee": "",
    "course_admission_requirement": {
        "english": [
            {
                "name": "ielts academic",
                "description": "An IELTS (Academic) overall score of at least 6.0 with no sub-band less than 5.5",
                "min": 0,
                "require": 6,
                "max": 9,
                "R": 0,
                "W": 0,
                "S": 0,
                "L": 0,
                "O": 0
            },
            {
                "name": "pte academic",
                "description": "PTE Academic minimum overall score of 57 with no skill less than 50",
                "min": 0,
                "require": 57,
                "max": 90,
                "R": 0,
                "W": 0,
                "S": 0,
                "L": 0,
                "O": 0
            }
        ],
        "academic_requirements_url": "https://www.une.edu.au/study/international/eligibility",
        "english_requirements_url": "https://www.une.edu.au/study/international/eligibility/english-language-requirements",
        "entry_requirements_url": ""
    },
    "course_outline": {
        "majors": [],
        "minors": [],
        "more_details": "https://my.une.edu.au/courses/2020/courses/PHD"
    },
    "course_intake": {
        "intake": [
            {
                "name": "Armidale",
                "value": []
            }
        ],
        "more_details": "https://www.une.edu.au/current-students/my-course/managing-my-course/principal-dates"
    },
    "course_overview": "The University of New England is committed to maintaining its strong research culture, underpinned by high research training standards. The University Doctor of Philosophy Rules provide the framework for the University's highest level award. They provide the rigorous processes that are essential for the maintenance of academic quality and integrity in the University's operations, and that reflect the University's values of providing a formative, respectful, inclusive, flexible and innovative environment for the delivery of high quality research training for its students.Eligible Australian and New Zealand students who meet the criteria for entry to the PhD will not incur fees and will be funded under the Australian Government's Research Training Program (RTP) for the normal duration of the course. International Students incur tuition fees.",
    "course_career_outcome": [
        "exhibit an expert understanding of an academic field of knowledge by: (a) having systematically acquired a substantial body of intellectual skill and experience that is grounded in contemporary developments in an academic field; (b) creating and communicating original scholarship of a quality to satisfy peer review, extending the frontier of the field of knowledge and potentially meriting publication; (c) demonstrating thorough knowledge of research principles and methods applicable in advanced academic inquiry;",
        "conduct research independently and systematically by: (a) conceptualising, designing and implementing a project which will increase knowledge that is applicable or contributes new insights to an academic field; (b) evaluating ideas and making informed judgements on complex issues or challenges in the field of specialisation; (c) communicating ideas, methodologies and conclusions clearly and effectively to specialist and non-specialist audiences; and",
        "be accountable for their own learning and professional training by: (a) demonstrating the capacity to undertake further learning and/or a further career in or around research at an advanced level, and contributing substantially to the development or dissemination of new techniques, ideas, or approaches; (b) displaying the qualities and attributes necessary to exercise personal responsibility and autonomous initiative in complex and unpredictable situations, whether in professional environments or in the public domain."
    ],
    "course_country": "Australia",
    "course_tuition_fee": {
        "fees": [
            {
                "name": "Armidale",
                "value": {
                    "international_student": {
                        "amount": 31600,
                        "duration": "1",
                        "unit": "year",
                        "description": "31,600.00"
                    },
                    "fee_duration_years": "1",
                    "currency": "AUD"
                }
            }
        ]
    },
    "course_id": "doctorofphilosophy(nursing)"
}