[
      {
            "univ_id": "universityofnewengland",
            "univ_url": "https://www.une.edu.au/",
            "univ_name": "University of New England",
            "univ_country": "Australia",
            "univ_about": "UNE was formed in 1938 as the New England University College, a College of the University of Sydney. The University became fully independent in 1954 and pioneered teaching to external students by correspondence, making UNE Australia's most experienced provider of distance and now online education. Our focus is on your future, providing you with a personal and flexible approach to learning. We offer more than 200 courses at undergraduate, postgraduate coursework and higher degree research levels with options to study online or on campus.",
            "univ_logo": "univ_une/univ_logo.png",
            "university_type": "Government",
            "univ_accomodation": {
                  "applicant": 20290,
                  "partner": 7100,
                  "child": 3040,
                  "currency": "AUD",
                  "more_details_univ_website": "https://www.une.edu.au/study/international/accommodation-and-living-costs",
                  "more_details": "https://www.studyinaustralia.gov.au/english/live-in-australia/living-costs"
            },
            "univ_rankings": {
                  "rankings": [
                        {
                              "name": "QS World University Rankings",
                              "level": [
                                    {
                                          "name": "World",
                                          "value": "801-1000"
                                    },
                                    {
                                          "name": "Australia",
                                          "value": "34"
                                    }
                              ]
                        }
                  ]
            },
            "contactInformation": [
                  {
                        "name": "University of New England",
                        "address": "Armidale NSW 2351, Australia",
                        "inquiry_no": [],
                        "place_id": "ChIJ9YqXopp1n2sRxYOY4Wnyvlk",
                        "contact_info": [
                              {
                                    "name": "",
                                    "phone_no": "+61267732551",
                                    "fax": "",
                                    "email_address": "media@une.edu.au",
                                    "description": ""
                              }
                        ],
                        "type": "University",
                        "cricos_provider_code": "00003G",
                        "vtour_url": ""
                  }
            ],
            "apply_url": "https://www.une.edu.au/study/applying-to-une",
            "placement_url": "https://www.une.edu.au/about-une/faculty-of-humanities-arts-social-sciences-and-education/school-of-education/office-for-professional-learning/future-students/professional-experience-placement-guide",
            "brochure_path": [
                  {
                        "name": "univ_une/universityofnewengland_1.pdf",
                        "text": "Inbound Exchange and Study Abroad Guide (External Digital e-brochure)"
                  }
            ],
            "application_fee": "40",
            "facebook_page_name": "UniNewEngland",
            "twitter_page_name": "uninewengland",
            "youtube_page_name": "UNExtra",
            "abbreviation": "une"
      }
]