{
    "univ_id": "monashuniversity",
    "course_title": "Engineering (information Technology) (Diploma)",
    "course_campus_location": [{
            "name": "Clayton",
            "code": "043634K"
        }
    ],
    "course_study_mode": "On campus",
    "program_code": "2636",
    "course_discipline": ["Engineering", "Information technology"],
    "course_study_level": "Diploma",
    "course_url": "https://www.monash.edu/study/courses/find-a-course/2020/engineering-information-technology-2636?international=true",
    "course_outline": {
        "majors": [],
        "minors": [],
        "more_details": ""
    },
    "course_duration": "part 1: 2 trimester (8 months). part 2: 2 trimesters (8 months)",
    "course_duration_display": [{
            "unit": "months",
            "duration": "8",
            "display": "Full-Time",
            "filterduration": 0.6666666666666666
        }
    ],
    "isfulltime": true,
    "isparttime": false,
    "course_tuition_fee": {
        "year": "2020",
        "fees": [{
                "name": "Clayton",
                "value": {
                    "international_student": {
                        "amount": 27300,
                        "duration": 1,
                        "unit": "Year",
                        "description": "27,300"
                    },
                    "fee_duration_years": "1",
                    "currency": "AUD"
                }
            }
        ]
    },
    "course_admission_requirement": {
        "english": [{
                "name": "ielts academic (Diploma Part 2)",
                "description": "IELTS: 6.0 overall (Writing not less than 6.0)",
                "min": 0,
                "require": null,
                "max": 9,
                "R": 0,
                "W": 0,
                "S": 0,
                "L": 0,
                "O": 0
            }, {
                "name": "toefl ibt (Diploma Part 2)",
                "description": "TOEFL Internet-based test: score of 69 overall with minimum scores: Writing: 21",
                "min": 0,
                "require": 69,
                "max": 120,
                "R": 0,
                "W": 0,
                "S": 0,
                "L": 0,
                "O": 0
            }
        ],
        "academic": ["Equivalent to Australian Year 11 (part 1) or Australian Year 12 (part 2)."],
        "entry_requirements_url": "https://www.monash.edu/admissions/entry-requirements/minimum",
        "english_requirements_url": "https://www.monash.edu/admissions/english-language-requirements",
        "academic_requirements_url": "https://www.monash.edu/study/courses/find-a-course/2020/engineering-information-technology-2636?international=true"
    },
    "course_intake": {
        "intake": [{
                "name": "Clayton",
                "value": [{
                        "actualdate": "February",
                        "month": "February"
                    }, {
                        "actualdate": "July",
                        "month": "July"
                    }, {
                        "actualdate": "October",
                        "month": "October"
                    }
                ]
            }
        ],
        "more_details": ["https://www.monash.edu/students/dates/summary-dates"]
    },
    "course_overview": "IT works with industry to research and innovate. Be part of a dynamic field that is changing the way we communicate, the way business is conducted and the way we experience entertainment. IT makes business happen.",
    "course_country": "Australia",
    "course_career_outcome": [],
    "application_fee": "100",
    "course_id": "engineering(informationtechnology)(diploma)"
}
