[
    {
        "univ_id": "universityofsouthaustralia",
        "univ_url": "https://www.unisa.edu.au/",
        "univ_name": "University of South Australia",
        "univ_country": "Australia",
        "course_current_year": "2019",
        "univ_logo": "univ_unisa/univ_logo.png",
        "univ_about": "The University of South Australia is a globally connected and engaged university with industry-informed teaching and research that is inventive and adventurous. Ranked number one in Australia for quality education^ and with 100% of assessed research rated at or above world-class#, the University is young, innovative and offers students the chance to gain real-world experience.",
        "university_type": "Government",
        "univ_accomodation": {
            "applicant": 20290,
            "partner": 7100,
            "child": 3040,
            "currency": "AUD",
            "more_details_univ_website": "http://i.unisa.edu.au/students/student-support-services/student-accommodation/",
            "more_details": "https://www.studyinaustralia.gov.au/english/live-in-australia/living-costs"
        },
        "univ_rankings": {
            "rankings": [
                {
                    "name": "QS World University Rankings",
                    "level": [
                        {
                            "name": "Australia",
                            "value": "16"
                        },
                        {
                            "name": "World",
                            "value": "264"
                        }
                    ]
                },
                {
                    "name": "Times Higher Education World University Rankings",
                    "level": [
                        {
                            "name": "Australia",
                            "value": "10"
                        },
                        {
                            "name": "World",
                            "value": "201-250"
                        }
                    ]
                },
                {
                    "name": "Ranking Web of Universities",
                    "level": [
                        {
                            "name": "Australia",
                            "value": "18"
                        },
                        {
                            "name": "World",
                            "value": "376"
                        }
                    ]
                }
            ]
        },
        "univ_scholarship": {
            "scholarship": "Recipients will receive a 25% reduction in their student contributions (tuition fees) for their first year of study into their chosen program, up to a maximum of two semesters or eight courses. Students will be automatically assessed when applying for an eligible program.",
            "more_details": "https://international.unisa.edu.au/scholarships-and-sponsorships/international-merit-scholarship/"
        },
        "contactInformation": {
            "university": {
                "address": "University of South Australia, Level 1, 101 Currie Street, Adelaide, South Australia 5000, Australia",
                "inquiry_no": [],
                "place_id": "ChIJmXWznCjPsGoRnCoN1hEM0ao",
                "contact_info": [
                    {
                        "name": "",
                        "phone_no": "+61883020114",
                        "fax": "+61883029121",
                        "email_address": "",
                        "description": ""
                    },
                    {
                        "name": "",
                        "phone_no": "0883026611",
                        "fax": "",
                        "email_address": "",
                        "description": ""
                    },
                    {
                        "name": "",
                        "phone_no": "0883022376",
                        "fax": "",
                        "email_address": "",
                        "description": ""
                    }
                ]
            },
            "campus": [
                {
                    "name": "City East campus",
                    "overview": "City East campus is next to the parklands, Rundle Mall shopping district and some of the city’s best cafés, restaurants and bars. There are a number of on-campus health clinics open to students and the public, such as a medical clinic and a physiotherapy clinic. It’s also close to public transport.",
                    "additional_info": "",
                    "address": "The University of South Australia, City East Campus, North Terrace, Adelaide SA, Australia",
                    "inquiry_no": [],
                    "place_id": "ChIJ-0NF0NLOsGoRIz5t0zW34d8",
                    "contact_info": []
                },
                {
                    "name": "City West campus",
                    "overview": "City West is a state-of-the art campus, in Adelaide’s west end. In one of the city’s most vibrant and booming areas, it is an easy walk to art galleries, live music venues, cafés and restaurants. City West is just a short walk from the Adelaide Railway Station and tram line and is easily accessible by bus.",
                    "additional_info": "",
                    "address": "University of South Australia City West Campus, North Terrace, Adelaide SA, Australia",
                    "inquiry_no": [],
                    "place_id": "ChIJL1f8hi_PsGoRxiUUx3nUUdA",
                    "contact_info": []
                },
                {
                    "name": "Magill campus",
                    "overview": "Magill campus is seven kilometres from central Adelaide and is easily accessible by bus and car. The campus is on stunning grounds, with a creek and huge eucalyptus trees bordering open grassy spaces. The campus has a gym and swimming pool for student use, and is a short walk from restaurants, takeaway shops, and a pub.",
                    "additional_info": "",
                    "address": "University of South Australia Magill Campus, Saint Bernards Road, Magill SA, Australia",
                    "inquiry_no": [],
                    "place_id": "ChIJwWQxSlTKsGoRUfNnK4DVja0",
                    "contact_info": []
                },
                {
                    "name": "Mawson Lakes campus",
                    "overview": "Mawson Lakes campus, nestled amongst engineering and tech companies in Technology Park, has state-of-the-art teaching and research facilities. The campus hosts many internationally-recognised research institutes and centres. On-campus there are cafés, green lawns, wetland areas and a gym for student use. Mawson Lakes is 20 minutes from the Adelaide city centre. It is easily accessible by bus, train and car.",
                    "additional_info": "",
                    "address": "University of South Australia Mawson Lakes Campus, Mawson Lakes Boulevard, Mawson Lakes SA, Australia",
                    "inquiry_no": [],
                    "place_id": "ChIJdW6VMYy2sGoRkMi6RVU2Aw8",
                    "contact_info": []
                },
                {
                    "name": "Whyalla campus",
                    "overview": "At the Whyalla Campus you will find Campus Central, USASA offices, computer pools, study spaces, and a security service, as well as excellent on-campus accommodation for students.We have installed high-speed fibre optic cables to Whyalla making it one of the best connected campuses in any regional city in Australia. This means you’ll have fast access to online resources, ensuring you get access to the same curriculum, resources and academics as students in the city.",
                    "additional_info": "Whyalla Campus Opening Hours. Monday to Friday – 7.00am to 9.00pm. Weekends and Public Holidays – 11.00am to 3.00pm",
                    "address": "University of South Australia Whyalla Campus, 111 Nicolson Ave, Whyalla SA 5608",
                    "inquiry_no": [],
                    "place_id": "ChIJTUTUI2tRu2oRjzJjuZTutDg",
                    "contact_info": []
                },
                {
                    "name": "Mount Gambier Campus",
                    "overview": "UniSA’s new Learning Centre in Mount Gambier features collaborative teaching and learning facilities so lecturers, tutors and students can instantly display their work on large screens for discussion and debate. There are specialist teaching facilities for education, nursing and social work students including treatment rooms modelled on the Royal Adelaide Hospital and Mount Gambier Hospital, enabling students to learn in real-world scenarios.",
                    "additional_info": "Mount Gambier Opening Hours. Monday to Friday – 8.30am to 9.00pm, Weekends and Public Holidays – 11.00am to 3.00pm",
                    "address": "The University of South Australia, Mount Gambier Campus, Wireless West Road, Mount Gambier SA, Australia",
                    "inquiry_no": [],
                    "place_id": "ChIJuwFOTuUonqoRTzAYfPTs7J8",
                    "contact_info": []
                },
                {
                    "name": "University of South Australia Cancer Research Institute",
                    "overview": "Based on 2010 statistics, 1 in 2 men and 1 in 3 women are at risk of developing cancer before the age of 85.* In 2012, more than 43,000 Australians died from cancer, with blood cancers accounting for 20% of these deaths. While there are many risk factors including gender, age, lifestyle, exercise and genetics, a collaborative and holistic approach to cancer and health research is the key to improving treatments and finding possible cures.",
                    "additional_info": "Mount Gambier Opening Hours. Monday to Friday – 8.30am to 9.00pm, Weekends and Public Holidays – 11.00am to 3.00pm",
                    "address": "UniSA Cancer Research Institute, North Terrace, Adelaide SA, Australia",
                    "inquiry_no": [],
                    "place_id": "ChIJ-dWQIS_PsGoRSJsDCtrjelc",
                    "contact_info": []
                }
            ]
        },
        "apply_url": "https://international.unisa.edu.au/how-to-apply/",
        "placement_url": "http://w3.unisa.edu.au/current-students/Assessment/placements.html",
        "brochure_path": [
            {
                "name": "univ_unisa/universityofsouthaustralia_1.pdf",
                "text": "Brochure for INTERNATIONAL STUDENTS"
            }
        ],
        "application_fee": "",
        "facebook_page_name": "UniSA",
        "category": [
            "Aboriginal and Australian Studies",
            "Accounting and Finance",
            "Architecture",
            "Arts",
            "Aviation",
            "Business",
            "Communication",
            "Construction Management",
            "Contemporary Art",
            "Creative Industries",
            "Design",
            "Education and Teaching",
            "Engineering",
            "Environmental Science",
            "Health Science",
            "Human Movement, Sport, Clinical Exercise Physiology",
            "Human Services",
            "Information Technology",
            "Journalism",
            "Laboratory Medicine",
            "Languages",
            "Law",
            "Management and HRM",
            "Marketing",
            "Mathematics",
            "Media Arts",
            "Medical Radiation Science",
            "Medical Sciences",
            "Nursing and Midwifery",
            "Nutrition and Food Sciences",
            "Occupational Therapy",
            "Pharmacy",
            "Physiotherapy",
            "Podiatry",
            "Property",
            "Psychology",
            "Science",
            "Social Work",
            "Tourism, Sport and Events",
            "Cybersecurity",
            "Data Science",
            "Film and TV",
            "Human Resource Management",
            "Information Management",
            "International MBA",
            "MBA",
            "Project Management",
            "Safety Management",
            "Social Work",
            "Urban and Regional Planning",
            "Visual Effects"
        ],
        "abbreviation": "unisa",
        "twitter_page_name": "unisa",
        "youtube_page_name": "UniSouthAustralia"
    }
]