{
      "univ_id": "melbournepolytechnic",
      "course_title": "Diploma Of Agriculture",
      "course_url": "https://www.melbournepolytechnic.edu.au/study/diploma/agriculture/",
      "course_study_mode": "On campus",
      "course_campus_location": [
            {
                  "name": "Epping",
                  "code": "092578G"
            },
            {
                  "name": "Yan Yean at Northern Lodge",
                  "code": "092578G"
            }
      ],
      "course_discipline": [
            "Agriculture, Environmental and Related Studies"
      ],
      "program_code": "AHC50116",
      "course_study_level": "Diploma",
      "course_duration": "2 years full time / available part time",
      "course_duration_display": [
            {
                  "unit": "years",
                  "duration": "2",
                  "display": "Full-Time",
                  "filterduration": 2
            },
            {
                  "unit": "years",
                  "duration": "4",
                  "display": "Part-Time",
                  "filterduration": 4
            }
      ],
      "isfulltime": true,
      "isparttime": true,
      "course_outline": {
            "majors": [],
            "minors": [],
            "more_details": "https://www.melbournepolytechnic.edu.au/study/diploma/agriculture/"
      },
      "application_fee": "",
      "course_admission_requirement": {
            "english": [
                  {
                        "name": "ielts academic",
                        "description": "",
                        "min": 0,
                        "require": 0,
                        "max": 9,
                        "R": 0,
                        "W": 0,
                        "S": 0,
                        "L": 0,
                        "O": 0
                  }
            ],
            "academic": [
                  "Australian Year 11 equivalency"
            ],
            "entry_requirements_url": "",
            "english_requirements_url": "",
            "academic_requirements_url": ""
      },
      "course_intake": {
            "intake": [
                  {
                        "name": "Epping",
                        "value": [
                              {
                                    "actualdate": "February",
                                    "month": "February"
                              }
                        ]
                  },
                  {
                        "name": "Yan Yean at Northern Lodge",
                        "value": [
                              {
                                    "actualdate": "February",
                                    "month": "February"
                              }
                        ]
                  }
            ],
            "more_details": "https://www.melbournepolytechnic.edu.au/students/academic-calendars/"
      },
      "course_overview": "",
      "course_career_outcome": [
            "Graduates may enter a wide range of occupations within the rural production industry and associated agribusiness enterprises, such as stock and station agents, farm managers and farm operators",
            "Stock Manager",
            "Farm Manager",
            "Farm Operator"
      ],
      "course_country": "Australia",
      "course_tuition_fee": {
            "fees": [
                  {
                        "name": "Epping",
                        "value": {
                              "international_student": {
                                    "amount": 14000,
                                    "duration": 1,
                                    "unit": "year",
                                    "description": "$14000"
                              },
                              "fee_duration_years": "1",
                              "currency": "AUD"
                        }
                  },
                  {
                        "name": "Yan Yean at Northern Lodge",
                        "value": {
                              "international_student": {
                                    "amount": 14000,
                                    "duration": 1,
                                    "unit": "year",
                                    "description": "$14000"
                              },
                              "fee_duration_years": "1",
                              "currency": "AUD"
                        }
                  }
            ]
      },
      "course_id": "diplomaofagriculture"
}