[
    {
        "href": "https://bond.edu.au/program/graduate-certificate-building-surveying",
        "innerText": "Graduate Certificate in Building Surveying",
        "category": [
            "Architecture and Built Environment"
        ],
        "reason": "Error: Cricos Code not found",
        "index": 15
    },
    {
        "href": "https://bond.edu.au/program/graduate-certificate-project-management",
        "innerText": "Graduate Certificate in Project Management",
        "category": [
            "Architecture and Built Environment"
        ],
        "reason": "Error: Cricos Code not found",
        "index": 17
    },
    {
        "href": "https://bond.edu.au/program/graduate-diploma-building-surveying",
        "innerText": "Graduate Diploma in Building Surveying",
        "category": [
            "Architecture and Built Environment"
        ],
        "reason": "Error: Cricos Code not found",
        "index": 21
    },
    {
        "href": "https://bond.edu.au/program/graduate-diploma-project-management",
        "innerText": "Graduate Diploma in Project Management",
        "category": [
            "Architecture and Built Environment"
        ],
        "reason": "Error: Cricos Code not found",
        "index": 24
    },
    {
        "href": "https://bond.edu.au/program/bachelor-digital-transformation",
        "innerText": "Bachelor of Digital Transformation",
        "category": [
            "Business and Commerce",
            "Communication and Creative Media",
            "Health Sciences",
            "International Relations and Humanities",
            "Law",
            "Social Sciences, Psychology and Counselling"
        ],
        "reason": "Error: Cricos Code not found",
        "index": 64
    },
    {
        "href": "https://bond.edu.au/program/bachelor-entrepreneurial-transformation",
        "innerText": "Bachelor of Entrepreneurial Transformation",
        "category": [
            "Business and Commerce",
            "Communication and Creative Media",
            "Health Sciences",
            "International Relations and Humanities",
            "Law",
            "Social Sciences, Psychology and Counselling"
        ],
        "reason": "Error: Cricos Code not found",
        "index": 65
    },
    {
        "href": "https://bond.edu.au/program/bachelor-health-transformation",
        "innerText": "Bachelor of Health Transformation",
        "category": [
            "Business and Commerce",
            "Communication and Creative Media",
            "Health Sciences",
            "International Relations and Humanities",
            "Law",
            "Social Sciences, Psychology and Counselling"
        ],
        "reason": "Error: Cricos Code not found",
        "index": 66
    },
    {
        "href": "https://bond.edu.au/program/bachelor-legal-transformation",
        "innerText": "Bachelor of Legal Transformation",
        "category": [
            "Business and Commerce",
            "Communication and Creative Media",
            "International Relations and Humanities",
            "Law",
            "Social Sciences, Psychology and Counselling"
        ],
        "reason": "Error: Cricos Code not found",
        "index": 68
    },
    {
        "href": "https://bond.edu.au/program/bond-university-bbt-global-leadership-mba",
        "innerText": "Bond University - BBT Global Leadership MBA",
        "category": [
            "Business and Commerce"
        ],
        "reason": "Error: Cricos Code not found",
        "index": 70
    },
    {
        "href": "https://bond.edu.au/program/executive-graduate-certificate-leadership",
        "innerText": "Executive Graduate Certificate in Leadership",
        "category": [
            "Business and Commerce"
        ],
        "reason": "Error: Cricos Code not found",
        "index": 71
    },
    {
        "href": "https://bond.edu.au/program/executive-master-business-administration",
        "innerText": "Executive Master of Business Administration",
        "category": [
            "Business and Commerce"
        ],
        "reason": "Error: Cricos Code not found",
        "index": 72
    },
    {
        "href": "https://bond.edu.au/program/graduate-certificate-global-leadership",
        "innerText": "Graduate Certificate in Global Leadership",
        "category": [
            "Business and Commerce"
        ],
        "reason": "Error: Cricos Code not found",
        "index": 76
    },
    {
        "href": "https://bond.edu.au/program/graduate-certificate-evidence-based-practice",
        "innerText": "Graduate Certificate in Evidence Based Practice",
        "category": [
            "Health Sciences",
            "Medicine"
        ],
        "reason": "Error: Cricos Code not found",
        "index": 121
    },
    {
        "href": "https://bond.edu.au/program/graduate-certificate-tesol-online",
        "innerText": "Graduate Certificate in TESOL (Online)",
        "category": [
            "International Relations and Humanities"
        ],
        "reason": "Error: Cricos Code not found",
        "index": 141
    },
    {
        "href": "https://bond.edu.au/program/master-arts-tesol-online",
        "innerText": "Master of Arts (TESOL) (online)",
        "category": [
            "International Relations and Humanities"
        ],
        "reason": "Error: Cricos Code not found",
        "index": 145
    },
    {
        "href": "https://bond.edu.au/program/graduate-certificate-family-dispute-resolution",
        "innerText": "Graduate Certificate in Family Dispute Resolution",
        "category": [
            "Law"
        ],
        "reason": "Error: Cricos Code not found",
        "index": 154
    },
    {
        "href": "https://bond.edu.au/program/graduate-diploma-legal-practice-online",
        "innerText": "Graduate Diploma in Legal Practice (ONLINE)",
        "category": [
            "Law"
        ],
        "reason": "Error: Cricos Code not found",
        "index": 156
    },
    {
        "href": "https://bond.edu.au/program/master-laws-enterprise-governance",
        "innerText": "Master of Laws in Enterprise Governance",
        "category": [
            "Law"
        ],
        "reason": "Error: Invalid courseScrappedData, courseScrappedData = null",
        "index": 160
    }
]