{
    "univ_id": "cquniversity",
    "course_discipline": [
        "Information Systems and Technology"
    ],
    "course_title": "Bachelor Of Information Technology (Co-Op)",
    "program_code": "CG99",
    "application_fee": "",
    "course_outline": {
        "majors": [
            "Application Development",
            "Business Analysis",
            "Cyber Security"
        ],
        "minors": [],
        "more_details": "https://www.cqu.edu.au/courses/bachelor-of-information-technology-co-op"
    },
    "course_study_level": "Bachelor Degree",
    "course_url": "https://www.cqu.edu.au/courses/bachelor-of-information-technology-co-op",
    "course_campus_location": [
        {
            "name": "Brisbane",
            "code": "077816A"
        },
        {
            "name": "Cairns",
            "code": "077816A"
        },
        {
            "name": "Melbourne",
            "code": "077816A"
        },
        {
            "name": "Rockhampton",
            "code": "077816A"
        },
        {
            "name": "Sydney",
            "code": "077816A"
        },
        {
            "name": "Townsville",
            "code": "077816A"
        }
    ],
    "course_study_mode": "On campus",
    "course_duration": "3 years full-time, 6 years part-time",
    "course_duration_display": [
        {
            "unit": "years",
            "duration": "3",
            "display": "Full-Time",
            "filterduration": 3
        },
        {
            "unit": "years",
            "duration": "6",
            "display": "Part-Time",
            "filterduration": 6
        }
    ],
    "isfulltime": true,
    "isparttime": true,
    "course_admission_requirement": {
        "english": [
            {
                "name": "ielts academic",
                "description": "6.0 (with no individual band score of less than 5.5).",
                "R": 5.5,
                "W": 5.5,
                "S": 5.5,
                "L": 5.5,
                "O": 6,
                "min": 0,
                "require": 6,
                "max": 9
            },
            {
                "name": "toefl ibt",
                "description": "Overall score of 75 with no score less than 17.",
                "R": 17,
                "W": 17,
                "S": 17,
                "L": 17,
                "O": 75,
                "min": 0,
                "require": 75,
                "max": 120
            },
            {
                "name": "pte",
                "description": "Overall score of 54 with no score less than 46.",
                "R": 46,
                "W": 46,
                "S": 46,
                "L": 46,
                "O": 54,
                "min": 0,
                "require": 54,
                "max": 90
            },
            {
                "name": "cae academic",
                "description": "Overall test score of 169 (with no individual band score of less than 154).",
                "R": 154,
                "W": 154,
                "S": 154,
                "L": 154,
                "O": 169,
                "min": 0,
                "require": 169,
                "max": 90
            }
        ],
        "academic": [
            "Prerequisite: English (4, SA)English Requirements:\n\n\n\tIf you were not born in Australia, Canada, New Zealand, United Kingdom, Ireland, South Africa or United States of America you are required to meet the English Language Proficiency requirements set by the University.\n\n\n\tApplicants are required to provide evidence of completion of:\n\n\n\t• a secondary qualification (Year 11 or 12, or equivalent), or• tertiary diploma level qualification, or\n\n\t• bachelor level qualification study for a period of at least 2 years fulltime with a minimum overall GPA 4.0\n\n\n\tcompleted within Australia, Canada, New Zealand, United Kingdom, South Africa, Ireland, or United States of America, which will meet the English proficiency.\n\n\n\tIf you do not satisfy any of the above you will need to undertake an English language proficiency test and achieve the following scores as below.\n\n\n\t• An International English Language Testing System (IELTS Academic) overall band score of at least 6.0 overall with a minimum 5.5 in each subset; or\n\n\n\t• Test of English as a Foreign Language (TOEFL) - Requires 550 or better overall & minimum TWE score of 4.5 (Paper Based Test), or 75 or better overall and no score less than 17 (Internet Based Test); or\n\n\n\t• Pearson Test of English Academic (PTE Academic) - Requires an overall score of 54 with no sub-score less than 46; or\n\n\n\t• An Occupational English Test with Grades A or B only in each of the four components; or\n\n\n\t• Cambridge Certificate in Advanced English (CAE) - Score of 180 or above; or\n\n\n\t• Cambridge Certificate of Proficiency in English - Score of 200 or above; or\n\n\n\t• Combined Universities Language Test (CULT) - 70% with no individual component score of less than 15.\n\n\n\tEnglish test results remain valid for no more than two years between final examination date and the date of commencement of study, and must appear on a single result certificate.\n\n\n\tEach student will be assessed individually.\n\n\n\nSecurity RequirementsNo information available at this time.Health RequirementsNo information available at this time.Assumed KnowledgeIndustry PlacementStudents must undertake an industry placement. The minimum duration of the placement is three months (12 weeks). If the placement is not a full-time job, the duration may be extended to six months. Students may need to travel to and arrange appropriate accommodation in the location of the placement.Students who do not obtain a work placement could take an Exit award from CQ18 BIT by undertaking two more electives.Recommended Study ScheduleA recommended study schedule for this course can be obtained from your student advisor. Students may determine their own schedule based upon credit transfers and personal study requirements. It is important to note that full-time students should enrol in 4 units per term and part-time students should enrol in 2 units per term to be able to complete their course of study within the stated time frame."
        ],
        "english_requirements_url": "https://www.cqu.edu.au/international-students/entry-requirements",
        "academic_requirements_url": "https://www.cqu.edu.au/international-students/entry-requirements/academic-requirements",
        "entry_requirements_url": "https://www.cqu.edu.au/international-students/entry-requirements"
    },
    "course_intake": {
        "intake": [
            {
                "name": "Brisbane",
                "value": [
                    {
                        "actualdate": "9 March",
                        "month": "March",
                        "filterdate": "2020-03-09"
                    },
                    {
                        "actualdate": "13 July",
                        "month": "July",
                        "filterdate": "2020-07-13"
                    },
                    {
                        "actualdate": "9 November",
                        "month": "November",
                        "filterdate": "2020-11-09"
                    }
                ]
            },
            {
                "name": "Cairns",
                "value": [
                    {
                        "actualdate": "9 March",
                        "month": "March",
                        "filterdate": "2020-03-09"
                    },
                    {
                        "actualdate": "13 July",
                        "month": "July",
                        "filterdate": "2020-07-13"
                    }
                ]
            },
            {
                "name": "Melbourne",
                "value": [
                    {
                        "actualdate": "9 March",
                        "month": "March",
                        "filterdate": "2020-03-09"
                    },
                    {
                        "actualdate": "13 July",
                        "month": "July",
                        "filterdate": "2020-07-13"
                    },
                    {
                        "actualdate": "9 November",
                        "month": "November",
                        "filterdate": "2020-11-09"
                    }
                ]
            },
            {
                "name": "Rockhampton",
                "value": [
                    {
                        "actualdate": "9 March",
                        "month": "March",
                        "filterdate": "2020-03-09"
                    },
                    {
                        "actualdate": "13 July",
                        "month": "July",
                        "filterdate": "2020-07-13"
                    }
                ]
            },
            {
                "name": "Sydney",
                "value": [
                    {
                        "actualdate": "9 March",
                        "month": "March",
                        "filterdate": "2020-03-09"
                    },
                    {
                        "actualdate": "13 July",
                        "month": "July",
                        "filterdate": "2020-07-13"
                    },
                    {
                        "actualdate": "9 November",
                        "month": "November",
                        "filterdate": "2020-11-09"
                    }
                ]
            },
            {
                "name": "Townsville",
                "value": [
                    {
                        "actualdate": "9 March",
                        "month": "March",
                        "filterdate": "2020-03-09"
                    },
                    {
                        "actualdate": "13 July",
                        "month": "July",
                        "filterdate": "2020-07-13"
                    }
                ]
            }
        ]
    },
    "course_overview": "Completing this course will provide you with a comprehensive understanding of a variety of key areas in IT and computer-based systems. The course includes a six month, paid work placement where you will gain real-world and hands-on experience within the industry.",
    "course_career_outcome": [
        "\n\t\tapplication programmer\n\t",
        "\n\t\tanalyst programmer\n\t",
        "\n\t\tdatabase administrator\n\t",
        "\n\t\tICT customer support technician\n\t",
        "\n\t\tICT support engineer\n\t",
        "\n\t\tICT support technician\n\t",
        "\n\t\tinformation technology project manager\n\t",
        "\n\t\tnetwork administrator\n\t",
        "\n\t\tsecurity analyst\n\t",
        "\n\t\tsystems administrator\n\t",
        "\n\t\tsystems analyst\n\t",
        "\n\t\tweb developer.\n\t"
    ],
    "course_country": "Australia",
    "course_tuition_fee": {
        "fees": [
            {
                "name": "Brisbane",
                "value": {
                    "international_student": {
                        "amount": 30480,
                        "duration": 1,
                        "unit": "Year",
                        "description": ""
                    },
                    "fee_duration_years": "1",
                    "currency": "AUD"
                }
            },
            {
                "name": "Cairns",
                "value": {
                    "international_student": {
                        "amount": 30480,
                        "duration": 1,
                        "unit": "Year",
                        "description": ""
                    },
                    "fee_duration_years": "1",
                    "currency": "AUD"
                }
            },
            {
                "name": "Melbourne",
                "value": {
                    "international_student": {
                        "amount": 30480,
                        "duration": 1,
                        "unit": "Year",
                        "description": ""
                    },
                    "fee_duration_years": "1",
                    "currency": "AUD"
                }
            },
            {
                "name": "Rockhampton",
                "value": {
                    "international_student": {
                        "amount": 30480,
                        "duration": 1,
                        "unit": "Year",
                        "description": ""
                    },
                    "fee_duration_years": "1",
                    "currency": "AUD"
                }
            },
            {
                "name": "Sydney",
                "value": {
                    "international_student": {
                        "amount": 30480,
                        "duration": 1,
                        "unit": "Year",
                        "description": ""
                    },
                    "fee_duration_years": "1",
                    "currency": "AUD"
                }
            },
            {
                "name": "Townsville",
                "value": {
                    "international_student": {
                        "amount": 30480,
                        "duration": 1,
                        "unit": "Year",
                        "description": ""
                    },
                    "fee_duration_years": "1",
                    "currency": "AUD"
                }
            }
        ]
    },
    "course_id": "bachelorofinformationtechnology(co(op))"
}