{
    "univ_id": "cquniversity",
    "course_discipline": [
        "Psychology, Social Work and Community Services"
    ],
    "course_title": "Bachelor Of Science (Psychology)",
    "program_code": "CF59",
    "application_fee": "",
    "course_outline": {
        "majors": [],
        "minors": [],
        "more_details": "https://www.cqu.edu.au/courses/bachelor-of-science-psychology"
    },
    "course_study_level": "Bachelor Degree",
    "course_url": "https://www.cqu.edu.au/courses/bachelor-of-science-psychology",
    "course_campus_location": [
        {
            "name": "Adelaide",
            "code": "083579C"
        },
        {
            "name": "Bundaberg",
            "code": "083579C"
        },
        {
            "name": "Cairns",
            "code": "083579C"
        },
        {
            "name": "Rockhampton",
            "code": "083579C"
        },
        {
            "name": "Townsville",
            "code": "083579C"
        }
    ],
    "course_study_mode": "On campus",
    "course_duration": "3 years full-time, 6 years part-time",
    "course_duration_display": [
        {
            "unit": "years",
            "duration": "3",
            "display": "Full-Time",
            "filterduration": 3
        },
        {
            "unit": "years",
            "duration": "6",
            "display": "Part-Time",
            "filterduration": 6
        }
    ],
    "isfulltime": true,
    "isparttime": true,
    "course_admission_requirement": {
        "english": [
            {
                "name": "ielts academic",
                "description": "6.0 (with no individual band score of less than 5.5).",
                "R": 5.5,
                "W": 5.5,
                "S": 5.5,
                "L": 5.5,
                "O": 6,
                "min": 0,
                "require": 6,
                "max": 9
            },
            {
                "name": "toefl ibt",
                "description": "Overall score of 75 with no score less than 17.",
                "R": 17,
                "W": 17,
                "S": 17,
                "L": 17,
                "O": 75,
                "min": 0,
                "require": 75,
                "max": 120
            },
            {
                "name": "pte",
                "description": "Overall score of 54 with no score less than 46.",
                "R": 46,
                "W": 46,
                "S": 46,
                "L": 46,
                "O": 54,
                "min": 0,
                "require": 54,
                "max": 90
            },
            {
                "name": "cae academic",
                "description": "Overall test score of 169 (with no individual band score of less than 154).",
                "R": 154,
                "W": 154,
                "S": 154,
                "L": 154,
                "O": 169,
                "min": 0,
                "require": 169,
                "max": 90
            }
        ],
        "academic": [
            "A bachelor degree in any discipline from an Australian university or equivalent.\n\n\n\tEnglish Requirements:\n\n\n\tIf you were not born in Australia, Canada, New Zealand, United Kingdom, Ireland, South Africa or United States of America, you are required to meet the English Language Proficiency requirements set by the University.\n\n\n\tApplicants are required to provide evidence of completion of:\n\n\n\t\n\t\ta secondary qualification (Year 11 and 12, or equivalent), or\n\t\n\t\n\t\ttertiary diploma level qualification, or\n\t\n\t\n\t\tbachelor level qualification study for a period of at least 2 years fulltime with a minimum overall GPA 4.0\n\t\n\nThese must have been completed within Australia, Canada, New Zealand, United Kingdom, South Africa, Ireland, or United States of America, which will meet the English proficiency.\n\n\n\tIf you do not satisfy any of the above, you will need to undertake an English language proficiency test and achieve the following scores:\n\n\n\t\n\t\tAn International English Language Testing System (IELTS Academic) overall band score of at least 6.0 overall with a minimum 5.5 in each subset; or\n\t\n\t\n\t\tTest of English as a Foreign Language (TOEFL) - Requires 550 or better overall and minimum TWE score of 4.5 (Paper Based Test), or 75 or better overall and no score less than 17 (Internet Based Test); or\n\t\n\t\n\t\tPearson Test of English Academic (PTE Academic) - Requires an overall score of 54 with no sub-score less than 46; or\n\t\n\t\n\t\tAn Occupational English Test with Grades A or B only in each of the four components; or\n\t\n\t\n\t\tCambridge Certificate in advanced English (CAE) - Score of 180 or above; or\n\t\n\t\n\t\tCambridge Certificate of Proficiency in English - Score of 200 or above; or\n\t\n\t\n\t\tCombined Universities Language Test (CULT) - 70% with no individual component score of less than 15.\n\t\n\n\n\tEnglish test results remain valid for no more than two years between final examination date and the date of commencement of study, and must appear on a single result certificate.\nSecurity RequirementsNo information available at this time.Health RequirementsNo information available at this time.Assumed KnowledgeNone."
        ],
        "english_requirements_url": "https://www.cqu.edu.au/international-students/entry-requirements",
        "academic_requirements_url": "https://www.cqu.edu.au/international-students/entry-requirements/academic-requirements",
        "entry_requirements_url": "https://www.cqu.edu.au/international-students/entry-requirements"
    },
    "course_intake": {
        "intake": [
            {
                "name": "Adelaide",
                "value": [
                    {
                        "actualdate": "9 March",
                        "month": "March",
                        "filterdate": "2020-03-09"
                    },
                    {
                        "actualdate": "13 July",
                        "month": "July",
                        "filterdate": "2020-07-13"
                    }
                ]
            },
            {
                "name": "Bundaberg",
                "value": [
                    {
                        "actualdate": "9 March",
                        "month": "March",
                        "filterdate": "2020-03-09"
                    },
                    {
                        "actualdate": "13 July",
                        "month": "July",
                        "filterdate": "2020-07-13"
                    }
                ]
            },
            {
                "name": "Cairns",
                "value": [
                    {
                        "actualdate": "9 March",
                        "month": "March",
                        "filterdate": "2020-03-09"
                    },
                    {
                        "actualdate": "13 July",
                        "month": "July",
                        "filterdate": "2020-07-13"
                    }
                ]
            },
            {
                "name": "Rockhampton",
                "value": [
                    {
                        "actualdate": "9 March",
                        "month": "March",
                        "filterdate": "2020-03-09"
                    },
                    {
                        "actualdate": "13 July",
                        "month": "July",
                        "filterdate": "2020-07-13"
                    }
                ]
            },
            {
                "name": "Townsville",
                "value": [
                    {
                        "actualdate": "9 March",
                        "month": "March",
                        "filterdate": "2020-03-09"
                    },
                    {
                        "actualdate": "13 July",
                        "month": "July",
                        "filterdate": "2020-07-13"
                    }
                ]
            }
        ]
    },
    "course_overview": "Upon completion of this course, you will have a highly marketable qualiﬁcation. This course is universally acknowledged as an indication of competence and achievement in understanding human thought and behaviour that can be applied in a variety of people-oriented vocations. Graduating with this qualification, however, will not allow you to call yourself a 'psychologist'. This requires further study involving an honours course (4th year of study) and then an accredited Psychology Board of Australia pathway.",
    "course_career_outcome": [
        "You may choose a career path that requires a sound understanding of human behaviour such as:\t\t\thuman resource management \t\t\t\trehabilitation \t\t\t\tbusiness management \t\t\t\tteaching \t\t\t\tschool guidance counselling \t\t\t\tscientific research \t\t\t\tpublic health \t\t\t\tdefence \t\t\t\tspecial education. \t\n\n\n\tIf you would like to become registered as a psychologist, you will need to complete further study."
    ],
    "course_country": "Australia",
    "course_tuition_fee": {
        "fees": [
            {
                "name": "Adelaide",
                "value": {
                    "international_student": {
                        "amount": 28800,
                        "duration": 1,
                        "unit": "Year",
                        "description": "28800"
                    },
                    "fee_duration_years": "1",
                    "currency": "AUD"
                }
            },
            {
                "name": "Bundaberg",
                "value": {
                    "international_student": {
                        "amount": 28800,
                        "duration": 1,
                        "unit": "Year",
                        "description": "28800"
                    },
                    "fee_duration_years": "1",
                    "currency": "AUD"
                }
            },
            {
                "name": "Cairns",
                "value": {
                    "international_student": {
                        "amount": 28800,
                        "duration": 1,
                        "unit": "Year",
                        "description": "28800"
                    },
                    "fee_duration_years": "1",
                    "currency": "AUD"
                }
            },
            {
                "name": "Rockhampton",
                "value": {
                    "international_student": {
                        "amount": 28800,
                        "duration": 1,
                        "unit": "Year",
                        "description": "28800"
                    },
                    "fee_duration_years": "1",
                    "currency": "AUD"
                }
            },
            {
                "name": "Townsville",
                "value": {
                    "international_student": {
                        "amount": 28800,
                        "duration": 1,
                        "unit": "Year",
                        "description": "28800"
                    },
                    "fee_duration_years": "1",
                    "currency": "AUD"
                }
            }
        ]
    },
    "course_id": "bachelorofscience(psychology)(cf59)"
}