{
    "univ_id": "queenslanduniversityoftechnology",
    "course_title": "Bachelor Of Business/bachelor Of Design(Fashion)",
    "course_discipline": [
        "Business"
    ],
    "course_study_level": "Undergraduates",
    "course_url": "https://www.qut.edu.au/courses/bachelor-of-business-bachelor-of-design-fashion",
    "course_campus_location": [
        {
            "name": "Gardens Point",
            "code": "096567M"
        },
        {
            "name": "Kelvin Grove",
            "code": "096567M"
        }
    ],
    "course_study_mode": "On campus",
    "course_intake": {
        "intake": [
            {
                "name": "Gardens Point",
                "value": [
                    {
                        "actualdate": "February",
                        "month": "February"
                    }
                ]
            },
            {
                "name": "Kelvin Grove",
                "value": [
                    {
                        "actualdate": "February",
                        "month": "February"
                    }
                ]
            }
        ],
        "more_details": "https://www.qut.edu.au/about/key-dates-and-academic-calendar/academic-calendar/2020-academic-calendar"
    },
    "course_duration_display": [
        {
            "unit": "years",
            "duration": "4",
            "display": "Full-Time",
            "filterduration": 4
        }
    ],
    "isfulltime": true,
    "isparttime": false,
    "course_duration": "4 years full-time",
    "course_overview": "Develop business skills and be able to think creatively and critically, communicate professionally, make ethical business decisions and work in a global context. Through the combination of fashion and business you will be able to work in diverse design careers and roles including fashion buying, fashion marketing, fashion finance, fashion business analyst, design forecaster and fashion entrepreneur. Be advised by leading fashion industry mentors, and learn about ethics and sustainability, industry practices and emerging digital technologies. Embrace the opportunity to study abroad and get global experience with international exchanges and internships.",
    "course_career_outcome": [
        "Accountant",
        "Advertising Professional",
        "Economist",
        "Fashion Designer",
        "Fashion Professional",
        "Financial Advisor/Analyst",
        "Human Resource Manager",
        "International Business Specialist",
        "Manager",
        "Marketing Officer/Manager",
        "Public Relations Officer/Consultant"
    ],
    "program_code": "ID12",
    "course_admission_requirement": {
        "english": [
            {
                "name": "ielts academic",
                "description": "Overall score: 6.5 Listening: 6; Reading: 6;Writing: 6;Speaking: 6",
                "min": 0,
                "require": 6.5,
                "max": 9,
                "R": 0,
                "W": 0,
                "S": 0,
                "L": 0,
                "O": 0
            },
            {
                "name": "toefl ibt",
                "description": "Overall score: 79 Listening: 16; Reading: 16;Writing: 21;Speaking: 18",
                "min": 0,
                "require": 79,
                "max": 120,
                "R": 0,
                "W": 0,
                "S": 0,
                "L": 0,
                "O": 0
            },
            {
                "name": "pte academic",
                "description": "Overall score: 58 Listening: 50; Reading: 50;Writing: 50;Speaking: 50",
                "min": 0,
                "require": 58,
                "max": 90,
                "R": 0,
                "W": 0,
                "S": 0,
                "L": 0,
                "O": 0
            },
            {
                "name": "cae",
                "description": "Overall score: 176 Listening: 169; Reading: 169;Writing: 169;Speaking: 169",
                "min": 80,
                "require": 176,
                "max": 230,
                "R": 0,
                "W": 0,
                "S": 0,
                "L": 0,
                "O": 0
            }
        ],
        "academic": [
            "You must have a completed recognised qualification in respective discipline with a minimum average point scale (or equivalent). For detailed academic requirement"
        ],
        "entry_requirements_url": "https://www.qut.edu.au/study/applying/international-applying-for-degrees",
        "academic_requirements_url": "https://www.qut.edu.au/courses/bachelor-of-business-bachelor-of-design-fashion",
        "english_requirements_url": "https://www.qut.edu.au/study/applying/international-applying-for-degrees"
    },
    "course_tuition_fee": {
        "fees": [
            {
                
                    "name": "Gardens Point",
                    
                "value": {
                    "international_student": {
                        "amount": 0,
                        "duration": 1,
                        "unit": "Year",
                        "description": ""
                    }
                }
            },
            {
                
                    "name": "Kelvin Grove",
                    
                "value": {
                    "international_student": {
                        "amount": 0,
                        "duration": 1,
                        "unit": "Year",
                        "description": ""
                    }
                }
            }
        ]
    },
    "course_country": "Australia",
    "course_outline": {
        "minors": [],
        "majors": [],
        "more_details": ""
    },
    "application_fees": "100",
    "course_id": "bachelorofbusiness_bachelorofdesign(fashion)"
}