{
    "univ_id": "queenslanduniversityoftechnology",
    "course_title": "Bachelor Of Vision Science",
    "course_discipline": [
        "Health and community"
    ],
    "course_study_level": "Undergraduates",
    "course_url": "https://www.qut.edu.au/courses/bachelor-of-vision-science",
    "course_campus_location": [
        {
            "name": "Kelvin Grove",
            "code": "065380A"
        }
    ],
    "course_study_mode": "On campus",
    "course_intake": {
        "intake": [
            {
                "name": "Kelvin Grove",
                "value": [
                    {
                        "actualdate": "February",
                        "month": "February"
                    }
                ]
            }
        ],
        "more_details": "https://www.qut.edu.au/about/key-dates-and-academic-calendar/academic-calendar/2020-academic-calendar"
    },
    "course_duration_display": [
        {
            "unit": "years",
            "duration": "3",
            "display": "Full-Time",
            "filterduration": 3
        }
    ],
    "isfulltime": true,
    "isparttime": false,
    "course_duration": "3 years full-time",
    "course_overview": "After completion of Master of Optometry, graduates are able to practise as an optometrist and register with the Optometry Board of Australia. Prepare for a career in private practice, contact lens practice, paediatric vision, occupational/public health vision or low vision. Practise clinical skills under the supervision of registered optometrists at the on-campus QUT Health Clinics. Choose to travel and complete clinical training in rural and remote Australia, or overseas.",
    "course_career_outcome": [
        "Optometrist"
    ],
    "program_code": "OP45",
    "course_admission_requirement": {
        "english": [
            {
                "name": "ielts academic",
                "description": "Overall score: 7 Listening: 6.5; Reading: 6.5;Writing: 6.5;Speaking: 6.5",
                "min": 0,
                "require": 7,
                "max": 9,
                "R": 0,
                "W": 0,
                "S": 0,
                "L": 0,
                "O": 0
            },
            {
                "name": "toefl ibt",
                "description": "Overall score: 98 Listening: 20; Reading: 20;Writing: 24;Speaking: 20",
                "min": 0,
                "require": 98,
                "max": 120,
                "R": 0,
                "W": 0,
                "S": 0,
                "L": 0,
                "O": 0
            },
            {
                "name": "pte academic",
                "description": "Overall score: 65 Listening: 58; Reading: 58;Writing: 58;Speaking: 58",
                "min": 0,
                "require": 65,
                "max": 90,
                "R": 0,
                "W": 0,
                "S": 0,
                "L": 0,
                "O": 0
            },
            {
                "name": "cae",
                "description": "Overall score: 185 Listening: 176; Reading: 176;Writing: 176;Speaking: 176",
                "min": 80,
                "require": 185,
                "max": 230,
                "R": 0,
                "W": 0,
                "S": 0,
                "L": 0,
                "O": 0
            }
        ],
        "academic": [
            "You must have a completed recognised qualification in respective discipline with a minimum average point scale (or equivalent). For detailed academic requirement"
        ],
        "entry_requirements_url": "https://www.qut.edu.au/study/applying/international-applying-for-degrees",
        "academic_requirements_url": "https://www.qut.edu.au/courses/bachelor-of-vision-science",
        "english_requirements_url": "https://www.qut.edu.au/study/applying/international-applying-for-degrees"
    },
    "course_tuition_fee": {
        "fees": [
            {
               
                    "name": "Kelvin Grove",
                    
                "value": {
                    "international_student": {
                        "amount": 0,
                        "duration": 1,
                        "unit": "Year",
                        "description": ""
                    }
                }
            }
        ]
    },
    "course_country": "Australia",
    "course_outline": {
        "minors": [],
        "majors": [],
        "more_details": ""
    },
    "application_fees": "100",
    "course_id": "bachelorofvisionscience"
}