{
    "univ_id": "queenslanduniversityoftechnology",
    "course_title": "Graduate Diploma In Business(Research) (philanthropy And Nonprofit Studies)",
    "course_discipline": [
        "Business"
    ],
    "course_study_level": "Postgraduates",
    "course_url": "https://www.qut.edu.au/courses/graduate-diploma-in-business-research-philanthropy-and-nonprofit-studies",
    "course_campus_location": [
        {
            "name": "Gardens Point",
            "code": "072979M"
        }
    ],
    "course_study_mode": "On campus",
    "course_intake": {
        "intake": [
            {
                "name": "Gardens Point",
                "value": [
                    {
                        "actualdate": "February",
                        "month": "February"
                    }
                ]
            }
        ],
        "more_details": "https://www.qut.edu.au/about/key-dates-and-academic-calendar/academic-calendar/2020-academic-calendar"
    },
    "course_duration_display": [
        {
            "unit": "year",
            "duration": "1",
            "display": "Full-Time",
            "filterduration": 1
        }
    ],
    "isfulltime": true,
    "isparttime": false,
    "course_duration": "1 year full-time",
    "course_overview": "Alternative pathway for PhD candidates who require necessary research training and experience. Study discipline coursework and research methods, before completing a supervised research dissertation. Complete in 2 semesters full-time or 4 semesters part-time.",
    "course_career_outcome": [],
    "program_code": "BS69",
    "course_admission_requirement": {
        "english": [
            {
                "name": "ielts academic",
                "description": "Overall score: 6.5 Listening: 6; Reading: 6;Writing: 6;Speaking: 6",
                "min": 0,
                "require": 6.5,
                "max": 9,
                "R": 0,
                "W": 0,
                "S": 0,
                "L": 0,
                "O": 0
            },
            {
                "name": "toefl ibt",
                "description": "Overall score: 79 Listening: 16; Reading: 16;Writing: 21;Speaking: 18",
                "min": 0,
                "require": 79,
                "max": 120,
                "R": 0,
                "W": 0,
                "S": 0,
                "L": 0,
                "O": 0
            },
            {
                "name": "pte academic",
                "description": "Overall score: 58 Listening: 50; Reading: 50;Writing: 50;Speaking: 50",
                "min": 0,
                "require": 58,
                "max": 90,
                "R": 0,
                "W": 0,
                "S": 0,
                "L": 0,
                "O": 0
            },
            {
                "name": "cae",
                "description": "Overall score: 176 Listening: 169; Reading: 169;Writing: 169;Speaking: 169",
                "min": 80,
                "require": 176,
                "max": 230,
                "R": 0,
                "W": 0,
                "S": 0,
                "L": 0,
                "O": 0
            }
        ],
        "academic": [
            "You must have a completed recognised qualification in respective discipline with a minimum average point scale (or equivalent). For detailed academic requirement"
        ],
        "entry_requirements_url": "https://www.qut.edu.au/study/applying/international-applying-for-degrees",
        "academic_requirements_url": "https://www.qut.edu.au/courses/graduate-diploma-in-business-research-philanthropy-and-nonprofit-studies",
        "english_requirements_url": "https://www.qut.edu.au/study/applying/international-applying-for-degrees"
    },
    "course_tuition_fee": {
        "fees": [
            {
               
                    "name": "Gardens Point",
                   
                "value": {
                    "international_student": {
                        "amount": 0,
                        "duration": 1,
                        "unit": "Year",
                        "description": ""
                    }
                }
            }
        ]
    },
    "course_country": "Australia",
    "course_outline": {
        "minors": [],
        "majors": [],
        "more_details": ""
    },
    "application_fees": "100",
    "course_id": "graduatediplomainbusiness(research)(philanthropyandnonprofitstudies)"
}