{
    "univ_id": "",
    "course_title": [
        {
            "url": "",
            "elements": [
                {
                    "elementType": "scrape_by_xpath",
                    "selectors": [
                        "//*//h1[@class='entry-title']"
                    ]
                }
            ]
        }
    ],
    "course_url": [
        {
            "url": "",
            "elements": [
                {
                    "elementType": "current_page_url",
                    "selectors": [
                        "nothing"
                    ]
                }
            ]
        }
    ],
    "page_url": "",
    "course_discipline": "",
    "program_code": [
        {
            "url": "",
            "elements": [
                {
                    "elementType": "scrape_text_content",
                    "selectors": [
                        ""
                    ]
                }
            ]
        }
    ],
    "course_toefl_ielts_score": [
        {
            "url": "",
            "elements": [
                {
                    "elementType": "scrape_text_content",
                    "selectors": [
                        "//*//p[contains(text(),'Academic requirements:')]/following-sibling::ul[1]/li[contains(text(),'IELTS')]"
                    ]
                }
            ]
        }
    ],
    "course_study_level": [
        {
            "url": "",
            "elements": [
                {
                    "elementType": "",
                    "selectors": [
                        ""
                    ]
                }
            ]
        }
    ],
    "course_campus_location": [
        {
            "url": "",
            "elements": [
                {
                    "elementType": "scrape_text_content",
                    "selectors": [
                        ""
                    ]
                }
            ]
        }
    ],
    "course_cricos_code": [
        {
            "url": "",
            "elements": [
                {
                    "elementType": "scrape_text_content",
                    "selectors": [
                        "//*//p[contains(text(),'CRICOS code:')]"
                    ]
                }
            ]
        }
    ],
    "course_duration": "",
    "course_duration_full_time": [
        {
            "url": "",
            "elements": [
                {
                    "elementType": "scrape_by_xpath",
                    "selectors": [
                        ""
                    ]
                }
            ]
        }
    ],
    "course_intake": [
        {
            "url": "",
            "elements": [
                {
                    "elementType": "scrape_by_xpath",
                    "selectors": [
                        ""
                    ]
                }
            ]
        }
    ],
    "course_overview": [
        {
            "url": "",
            "elements": [
                {
                    "elementType": "scrape_by_xpath",
                    "selectors": [
                        "//*//h2[contains(text(),'Course description')]/following-sibling::p[1]"
                    ]
                }
            ]
        }
    ],
    "course_career_outcome": [
        {
            "url": "",
            "elements": [
                {
                    "elementType": "scrape_by_xpath",
                    "selectors": [
                        "//*//h2[contains(text(),'Career outcomes')]/following-sibling::p[1] | //*//h2[contains(text(),'Career outcomes')]/following-sibling::ul[1]/li"
                    ]
                }
            ]
        }
    ],
    "course_tuition_fees_year": [
        {
            "url": "",
            "elements": [
                {
                    "elementType": "readfromfile",
                    "value": "./selectors/university_hard_coded_data.json",
                    "selectors": [
                        "course_tuition_fees_year"
                    ]
                }
            ]
        }
    ],
    "course_tuition_fee_duration_years": [
        {
            "url": "",
            "elements": [
                {
                    "elementType": "readfromfile",
                    "value": "./selectors/university_hard_coded_data.json",
                    "selectors": [
                        "course_tuition_fee_duration_years"
                    ]
                }
            ]
        }
    ],
    "course_tuition_fees_currency": [
        {
            "elements": [
                {
                    "elementType": "readfromfile",
                    "value": "./selectors/university_hard_coded_data.json",
                    "selectors": [
                        "course_tuition_fees_currency"
                    ]
                }
            ]
        }
    ],
    "course_admission_english_more_details": [
        {
            "url": "",
            "elements": [
                {
                    "elementType": "readfromfile",
                    "value": "./selectors/university_hard_coded_data.json",
                    "selectors": [
                        "course_admission_english_more_details"
                    ]
                }
            ]
        }
    ],
    "academic_requirements_url": [
        {
            "url": "",
            "elements": [
                {
                    "elementType": "readfromfile",
                    "value": "./selectors/university_hard_coded_data.json",
                    "selectors": [
                        "academic_requirements_url"
                    ]
                }
            ]
        }
    ],
    "entry_requirements_url": [
        {
            "url": "",
            "elements": [
                {
                    "elementType": "readfromfile",
                    "value": "./selectors/university_hard_coded_data.json",
                    "selectors": [
                        "entry_requirements_url"
                    ]
                }
            ]
        }
    ],
    "course_outline": [
        {
            "url": "",
            "elements": [
                {
                    "elementType": "",
                    "selectors": [
                        ""
                    ]
                }
            ]
        }
    ],
    "application_fee": [
        {
            "url": "",
            "elements": [
                {
                    "elementType": "readfromfile",
                    "value": "./selectors/university_hard_coded_data.json",
                    "selectors": [
                        "application_fee"
                    ]
                }
            ]
        }
    ],
    "course_admission_academic_more_details": [
        {
            "url": "",
            "elements": [
                {
                    "elementType": "readfromfile",
                    "value": "./selectors/university_hard_coded_data.json",
                    "selectors": [
                        "academic_details_more"
                    ]
                }
            ]
        }
    ],
    "course_country": [
        {
            "elements": [
                {
                    "elementType": "readfromfile",
                    "value": "./selectors/university_hard_coded_data.json",
                    "selectors": [
                        "univ_country"
                    ]
                }
            ]
        }
    ],
    "course_tuition_fees_international_student": [
        {
            "url": "",
            "elements": [
                {
                    "elementType": "scrape_text_content",
                    "selectors": [
                        ""
                    ]
                }
            ]
        }
    ],
    "course_tuition_fees_international_student_more": [
        {
            "url": "",
            "elements": [
                {
                    "elementType": "scrape_by_xpath",
                    "selectors": [
                        ""
                    ]
                }
            ]
        }
    ],
    "course_scholarship": [
        {
            "url": "",
            "elements": [
                {
                    "elementType": "readfromfile",
                    "value": "./output/tafesa_overview.json",
                    "selectors": [
                        "univ_scholarship"
                    ]
                }
            ]
        }
    ],
    "course_academic_requirement": [
        {
            "url": "",
            "elements": [
                {
                    "elementType": "scrape_text_content",
                    "selectors": [
                        "//*//p[contains(text(),'Academic requirements:')]/following-sibling::ul[1]/li[not(contains(text(),'IELTS'))]"
                    ]
                }
            ]
        }
    ]
}