[
    {
        "semester": "1",
        "domestic_tuition": "1,360.26",
        "domestic_compulsory_ancillary_fees": "868.07",
        "total_domestic_semester_fee": "2,228.33",
        "international_tuition": "6,670.00",
        "international_compulsory_ancillary_fees": "1,975.07",
        "total_international_semester_fee": "8,645.07",
        "course_code": "AADF",
        "course_name": "Art & Design Fundamentals",
        "campus": "BA",
        "intake": "Fall 2019"
    },
    {
        "semester": "1",
        "domestic_tuition": "7,275.00",
        "domestic_compulsory_ancillary_fees": "923.95",
        "total_domestic_semester_fee": "8,198.95",
        "international_tuition": "7,275.00",
        "international_compulsory_ancillary_fees": "2,030.95",
        "total_international_semester_fee": "9,305.95",
        "course_code": "ACCA",
        "course_name": "Acute Complex Care_Intl Ed Nrs",
        "campus": "OV",
        "intake": "Fall 2019"
    },
    {
        "semester": "1",
        "domestic_tuition": "3,203.71",
        "domestic_compulsory_ancillary_fees": "838.07",
        "total_domestic_semester_fee": "4,041.78",
        "international_tuition": "6,600.00",
        "international_compulsory_ancillary_fees": "1,945.07",
        "total_international_semester_fee": "8,545.07",
        "course_code": "ACPT",
        "course_name": "Acupuncture",
        "campus": "BA",
        "intake": "Fall 2019"
    },
    {
        "semester": "1",
        "domestic_tuition": "1,360.26",
        "domestic_compulsory_ancillary_fees": "863.07",
        "total_domestic_semester_fee": "2,223.33",
        "international_tuition": "6,670.00",
        "international_compulsory_ancillary_fees": "1,970.07",
        "total_international_semester_fee": "8,640.07",
        "course_code": "ADMC",
        "course_name": "Advertising and Marketing Comm",
        "campus": "BA",
        "intake": "Fall 2019"
    },
    {
        "semester": "1",
        "domestic_tuition": "1,876.45",
        "domestic_compulsory_ancillary_fees": "686.62",
        "total_domestic_semester_fee": "2,563.07",
        "international_tuition": "7,275.00",
        "international_compulsory_ancillary_fees": "1,793.62",
        "total_international_semester_fee": "9,068.62",
        "course_code": "ADTP",
        "course_name": "Addictions:Treatment & Preven",
        "campus": "OR",
        "intake": "Fall 2019"
    },
    {
        "semester": "3",
        "domestic_tuition": "1,619.16",
        "domestic_compulsory_ancillary_fees": "747.48",
        "total_domestic_semester_fee": "2,366.64",
        "international_tuition": "6,670.00",
        "international_compulsory_ancillary_fees": "1,854.48",
        "total_international_semester_fee": "8,524.48",
        "course_code": "ANPD",
        "course_name": "Anishnaabemowin and Prog. Dev.",
        "campus": "BA",
        "intake": "Fall 2019"
    },
    {
        "semester": "1",
        "domestic_tuition": "1,360.26",
        "domestic_compulsory_ancillary_fees": "1,023.07",
        "total_domestic_semester_fee": "2,383.33",
        "international_tuition": "6,670.00",
        "international_compulsory_ancillary_fees": "2,130.07",
        "total_international_semester_fee": "8,800.07",
        "course_code": "ARTC",
        "course_name": "Architectural Technician",
        "campus": "BA",
        "intake": "Fall 2019"
    },
    {
        "semester": "1",
        "domestic_tuition": "1,360.26",
        "domestic_compulsory_ancillary_fees": "1,023.07",
        "total_domestic_semester_fee": "2,383.33",
        "international_tuition": "6,670.00",
        "international_compulsory_ancillary_fees": "2,130.07",
        "total_international_semester_fee": "8,800.07",
        "course_code": "ARTE",
        "course_name": "Architectural Technology",
        "campus": "BA",
        "intake": "Fall 2019"
    },
    {
        "semester": "1",
        "domestic_tuition": "1,360.26",
        "domestic_compulsory_ancillary_fees": "1,050.62",
        "total_domestic_semester_fee": "2,410.88",
        "international_tuition": "7,275.00",
        "international_compulsory_ancillary_fees": "2,157.62",
        "total_international_semester_fee": "9,432.62",
        "course_code": "ATBS",
        "course_name": "Autism and Behaviour Sciences",
        "campus": "OR",
        "intake": "Fall 2019"
    },
    {
        "semester": "3",
        "domestic_tuition": "1,360.26",
        "domestic_compulsory_ancillary_fees": "1,023.07",
        "total_domestic_semester_fee": "2,383.33",
        "international_tuition": "6,670.00",
        "international_compulsory_ancillary_fees": "2,130.07",
        "total_international_semester_fee": "8,800.07",
        "course_code": "AUBI",
        "course_name": "Automotive Business",
        "campus": "BA",
        "intake": "Fall 2019"
    },
    {
        "semester": "1",
        "domestic_tuition": "12,606.04",
        "domestic_compulsory_ancillary_fees": "778.07",
        "total_domestic_semester_fee": "13,384.11",
        "international_tuition": "12,606.30",
        "international_compulsory_ancillary_fees": "1,885.07",
        "total_international_semester_fee": "14,491.37",
        "course_code": "AUDM",
        "course_name": "Automotive Dealership Manageme",
        "campus": "BA",
        "intake": "Fall 2019"
    },
    {
        "semester": "1",
        "domestic_tuition": "1,360.26",
        "domestic_compulsory_ancillary_fees": "1,633.07",
        "total_domestic_semester_fee": "2,993.33",
        "international_tuition": "6,670.00",
        "international_compulsory_ancillary_fees": "2,740.07",
        "total_international_semester_fee": "9,410.07",
        "course_code": "AVIA",
        "course_name": "Aviation Management",
        "campus": "BA",
        "intake": "Fall 2019"
    },
    {
        "semester": "3",
        "domestic_tuition": "1,360.26",
        "domestic_compulsory_ancillary_fees": "1,603.07",
        "total_domestic_semester_fee": "2,963.33",
        "international_tuition": "6,670.00",
        "international_compulsory_ancillary_fees": "2,710.07",
        "total_international_semester_fee": "9,380.07",
        "course_code": "AVII",
        "course_name": "Aviation Mgmt-CIIS intake",
        "campus": "BA",
        "intake": "Fall 2019"
    },
    {
        "semester": "1",
        "domestic_tuition": "1,360.26",
        "domestic_compulsory_ancillary_fees": "1,023.07",
        "total_domestic_semester_fee": "2,383.33",
        "international_tuition": "6,670.00",
        "international_compulsory_ancillary_fees": "2,130.07",
        "total_international_semester_fee": "8,800.07",
        "course_code": "BAAC",
        "course_name": "Business Admin - Accounting",
        "campus": "BA",
        "intake": "Fall 2019"
    },
    {
        "semester": "1",
        "domestic_tuition": "1,360.26",
        "domestic_compulsory_ancillary_fees": "808.07",
        "total_domestic_semester_fee": "2,168.33",
        "international_tuition": "6,670.00",
        "international_compulsory_ancillary_fees": "1,915.07",
        "total_international_semester_fee": "8,585.07",
        "course_code": "BACN",
        "course_name": "Bus - Accounting (non Co-op)",
        "campus": "BA",
        "intake": "Fall 2019"
    },
    {
        "semester": "1",
        "domestic_tuition": "1,360.26",
        "domestic_compulsory_ancillary_fees": "1,023.07",
        "total_domestic_semester_fee": "2,383.33",
        "international_tuition": "6,670.00",
        "international_compulsory_ancillary_fees": "2,130.07",
        "total_international_semester_fee": "8,800.07",
        "course_code": "BACT",
        "course_name": "Business - Accounting",
        "campus": "BA",
        "intake": "Fall 2019"
    },
    {
        "semester": "1",
        "domestic_tuition": "1,360.26",
        "domestic_compulsory_ancillary_fees": "1,023.07",
        "total_domestic_semester_fee": "2,383.33",
        "international_tuition": "6,670.00",
        "international_compulsory_ancillary_fees": "2,130.07",
        "total_international_semester_fee": "8,800.07",
        "course_code": "BADM",
        "course_name": "Business Administration",
        "campus": "BA",
        "intake": "Fall 2019"
    },
    {
        "semester": "1",
        "domestic_tuition": "4,305.06",
        "domestic_compulsory_ancillary_fees": "993.07",
        "total_domestic_semester_fee": "5,298.13",
        "international_tuition": "8,080.00",
        "international_compulsory_ancillary_fees": "2,100.07",
        "total_international_semester_fee": "10,180.07",
        "course_code": "BAGM",
        "course_name": "Hon. Bach BusAdmin (Golf Mgmt)",
        "campus": "BA",
        "intake": "Fall 2019"
    },
    {
        "semester": "1",
        "domestic_tuition": "1,360.26",
        "domestic_compulsory_ancillary_fees": "1,023.07",
        "total_domestic_semester_fee": "2,383.33",
        "international_tuition": "6,670.00",
        "international_compulsory_ancillary_fees": "2,130.07",
        "total_international_semester_fee": "8,800.07",
        "course_code": "BAHR",
        "course_name": "Bus Admin - Human Resources",
        "campus": "BA",
        "intake": "Fall 2019"
    },
    {
        "semester": "1",
        "domestic_tuition": "3,489.90",
        "domestic_compulsory_ancillary_fees": "1,039.07",
        "total_domestic_semester_fee": "4,528.97",
        "international_tuition": "8,080.00",
        "international_compulsory_ancillary_fees": "2,146.07",
        "total_international_semester_fee": "10,226.07",
        "course_code": "BAID",
        "course_name": "Hon Bach. of Interior Design",
        "campus": "BA",
        "intake": "Fall 2019"
    },
    {
        "semester": "1",
        "domestic_tuition": "1,619.16",
        "domestic_compulsory_ancillary_fees": "1,308.07",
        "total_domestic_semester_fee": "2,927.23",
        "international_tuition": "6,670.00",
        "international_compulsory_ancillary_fees": "2,415.07",
        "total_international_semester_fee": "9,085.07",
        "course_code": "BAKE",
        "course_name": "Baking and Pastry Arts",
        "campus": "BA",
        "intake": "Fall 2019"
    },
    {
        "semester": "5",
        "domestic_tuition": "3,059.08",
        "domestic_compulsory_ancillary_fees": "871.03",
        "total_domestic_semester_fee": "3,930.11",
        "international_tuition": "8,080.00",
        "international_compulsory_ancillary_fees": "1,978.03",
        "total_international_semester_fee": "10,058.03",
        "course_code": "BAPA",
        "course_name": "Hon BachPolice Studies-AdvStdg",
        "campus": "OR",
        "intake": "Fall 2019"
    },
    {
        "semester": "1",
        "domestic_tuition": "3,059.08",
        "domestic_compulsory_ancillary_fees": "901.62",
        "total_domestic_semester_fee": "3,960.70",
        "international_tuition": "8,080.00",
        "international_compulsory_ancillary_fees": "2,008.62",
        "total_international_semester_fee": "10,088.62",
        "course_code": "BAPS",
        "course_name": "Hon Bach of Police Studies",
        "campus": "OR",
        "intake": "Fall 2019"
    },
    {
        "semester": "1",
        "domestic_tuition": "3,059.08",
        "domestic_compulsory_ancillary_fees": "993.07",
        "total_domestic_semester_fee": "4,052.15",
        "international_tuition": "8,080.00",
        "international_compulsory_ancillary_fees": "2,100.07",
        "total_international_semester_fee": "10,180.07",
        "course_code": "BBAA",
        "course_name": "Honours Bach Bus Admin(AutMgm)",
        "campus": "BA",
        "intake": "Fall 2019"
    },
    {
        "semester": "1",
        "domestic_tuition": "3,059.08",
        "domestic_compulsory_ancillary_fees": "993.07",
        "total_domestic_semester_fee": "4,052.15",
        "international_tuition": "8,080.00",
        "international_compulsory_ancillary_fees": "2,100.07",
        "total_international_semester_fee": "10,180.07",
        "course_code": "BBML",
        "course_name": "Hon. Bach BusAdmn(Mgmt-Leader)",
        "campus": "BA",
        "intake": "Fall 2019"
    },
    {
        "semester": "1",
        "domestic_tuition": "1,619.16",
        "domestic_compulsory_ancillary_fees": "778.07",
        "total_domestic_semester_fee": "2,397.23",
        "international_tuition": "7,275.00",
        "international_compulsory_ancillary_fees": "1,885.07",
        "total_international_semester_fee": "9,160.07",
        "course_code": "BDAT",
        "course_name": "Big Data Analytics",
        "campus": "BA",
        "intake": "Fall 2019"
    },
    {
        "semester": "6",
        "domestic_tuition": "3,059.08",
        "domestic_compulsory_ancillary_fees": "871.03",
        "total_domestic_semester_fee": "3,930.11",
        "international_tuition": "8,080.00",
        "international_compulsory_ancillary_fees": "1,978.03",
        "total_international_semester_fee": "10,058.03",
        "course_code": "BHSP",
        "course_name": "Bach of Human Serv (Police St)",
        "campus": "OR",
        "intake": "Fall 2019"
    },
    {
        "semester": "1",
        "domestic_tuition": "1,619.16",
        "domestic_compulsory_ancillary_fees": "808.07",
        "total_domestic_semester_fee": "2,427.23",
        "international_tuition": "6,670.00",
        "international_compulsory_ancillary_fees": "1,915.07",
        "total_international_semester_fee": "8,585.07",
        "course_code": "BIOT",
        "course_name": "Biotechnology - Health",
        "campus": "BA",
        "intake": "Fall 2019"
    },
    {
        "semester": "1",
        "domestic_tuition": "1,360.26",
        "domestic_compulsory_ancillary_fees": "838.07",
        "total_domestic_semester_fee": "2,198.33",
        "international_tuition": "6,670.00",
        "international_compulsory_ancillary_fees": "1,945.07",
        "total_international_semester_fee": "8,615.07",
        "course_code": "BMKN",
        "course_name": "Bus - Marketing (non Co-op)",
        "campus": "BA",
        "intake": "Fall 2019"
    },
    {
        "semester": "1",
        "domestic_tuition": "1,360.26",
        "domestic_compulsory_ancillary_fees": "1,053.07",
        "total_domestic_semester_fee": "2,413.33",
        "international_tuition": "6,670.00",
        "international_compulsory_ancillary_fees": "2,160.07",
        "total_international_semester_fee": "8,830.07",
        "course_code": "BMKT",
        "course_name": "Business - Marketing",
        "campus": "BA",
        "intake": "Fall 2019"
    },
    {
        "semester": "1",
        "domestic_tuition": "1,360.26",
        "domestic_compulsory_ancillary_fees": "609.41",
        "total_domestic_semester_fee": "1,969.67",
        "international_tuition": "6,670.00",
        "international_compulsory_ancillary_fees": "1,716.41",
        "total_international_semester_fee": "8,386.41",
        "course_code": "BOKP",
        "course_name": "Bookkeeping",
        "campus": "SG",
        "intake": "Fall 2019"
    },
    {
        "semester": "1",
        "domestic_tuition": "3,059.08",
        "domestic_compulsory_ancillary_fees": "777.48",
        "total_domestic_semester_fee": "3,836.56",
        "international_tuition": "8,080.00",
        "international_compulsory_ancillary_fees": "1,884.48",
        "total_international_semester_fee": "9,964.48",
        "course_code": "BSCN",
        "course_name": "Nursing (Collab Degree Prog)",
        "campus": "BA",
        "intake": "Fall 2019"
    },
    {
        "semester": "1",
        "domestic_tuition": "1,360.26",
        "domestic_compulsory_ancillary_fees": "609.41",
        "total_domestic_semester_fee": "1,969.67",
        "international_tuition": "6,670.00",
        "international_compulsory_ancillary_fees": "1,716.41",
        "total_international_semester_fee": "8,386.41",
        "course_code": "BSFN",
        "course_name": "Business Fundamentals",
        "campus": "OV",
        "intake": "Fall 2019"
    },
    {
        "semester": "1",
        "domestic_tuition": "1,360.26",
        "domestic_compulsory_ancillary_fees": "1,023.07",
        "total_domestic_semester_fee": "2,383.33",
        "international_tuition": "6,670.00",
        "international_compulsory_ancillary_fees": "2,130.07",
        "total_international_semester_fee": "8,800.07",
        "course_code": "BUSG",
        "course_name": "Business",
        "campus": "BA",
        "intake": "Fall 2019"
    },
    {
        "semester": "1",
        "domestic_tuition": "1,360.26",
        "domestic_compulsory_ancillary_fees": "808.07",
        "total_domestic_semester_fee": "2,168.33",
        "international_tuition": "6,670.00",
        "international_compulsory_ancillary_fees": "1,915.07",
        "total_international_semester_fee": "8,585.07",
        "course_code": "BUSN",
        "course_name": "Business (non-Co-op)",
        "campus": "BA",
        "intake": "Fall 2019"
    },
    {
        "semester": "1",
        "domestic_tuition": "1,360.26",
        "domestic_compulsory_ancillary_fees": "941.07",
        "total_domestic_semester_fee": "2,301.33",
        "international_tuition": "6,670.00",
        "international_compulsory_ancillary_fees": "2,048.07",
        "total_international_semester_fee": "8,718.07",
        "course_code": "CABT",
        "course_name": "Cabinetmaking Techniques",
        "campus": "BA",
        "intake": "Fall 2019"
    },
    {
        "semester": "1",
        "domestic_tuition": "1,360.26",
        "domestic_compulsory_ancillary_fees": "808.07",
        "total_domestic_semester_fee": "2,168.33",
        "international_tuition": "6,670.00",
        "international_compulsory_ancillary_fees": "1,915.07",
        "total_international_semester_fee": "8,585.07",
        "course_code": "CICE",
        "course_name": "Community Integration/Co-op Ed",
        "campus": "BA",
        "intake": "Fall 2019"
    },
    {
        "semester": "1",
        "domestic_tuition": "1,360.26",
        "domestic_compulsory_ancillary_fees": "716.62",
        "total_domestic_semester_fee": "2,076.88",
        "international_tuition": "6,670.00",
        "international_compulsory_ancillary_fees": "1,823.62",
        "total_international_semester_fee": "8,493.62",
        "course_code": "CJSR",
        "course_name": "Community and Justice Services",
        "campus": "OR",
        "intake": "Fall 2019"
    },
    {
        "semester": "1",
        "domestic_tuition": "1,969.45",
        "domestic_compulsory_ancillary_fees": "808.07",
        "total_domestic_semester_fee": "2,777.52",
        "international_tuition": "7,275.00",
        "international_compulsory_ancillary_fees": "1,915.07",
        "total_international_semester_fee": "9,190.07",
        "course_code": "CODA",
        "course_name": "Communicative Disorders Assist",
        "campus": "BA",
        "intake": "Fall 2019"
    },
    {
        "semester": "1",
        "domestic_tuition": "1,360.26",
        "domestic_compulsory_ancillary_fees": "1,073.07",
        "total_domestic_semester_fee": "2,433.33",
        "international_tuition": "6,670.00",
        "international_compulsory_ancillary_fees": "2,180.07",
        "total_international_semester_fee": "8,850.07",
        "course_code": "COPA",
        "course_name": "Computer Programmer Analyst",
        "campus": "BA",
        "intake": "Fall 2019"
    },
    {
        "semester": "1",
        "domestic_tuition": "1,360.26",
        "domestic_compulsory_ancillary_fees": "1,073.07",
        "total_domestic_semester_fee": "2,433.33",
        "international_tuition": "6,670.00",
        "international_compulsory_ancillary_fees": "2,180.07",
        "total_international_semester_fee": "8,850.07",
        "course_code": "COPR",
        "course_name": "Computer Programmer",
        "campus": "BA",
        "intake": "Fall 2019"
    },
    {
        "semester": "1",
        "international_tuition": "",
        "international_compulsory_ancillary_fees": "",
        "total_international_semester_fee": "",
        "course_code": "CMPG",
        "course_name": "Computer Programming"
    },
    {
        "semester": "1",
        "domestic_tuition": "2,390.08",
        "domestic_compulsory_ancillary_fees": "868.07",
        "total_domestic_semester_fee": "3,258.15",
        "international_tuition": "6,670.00",
        "international_compulsory_ancillary_fees": "1,975.07",
        "total_international_semester_fee": "8,645.07",
        "course_code": "CRNT",
        "course_name": "Carpentry and Renovation Tcnqs",
        "campus": "BA",
        "intake": "Fall 2019"
    },
    {
        "semester": "1",
        "domestic_tuition": "1,360.26",
        "domestic_compulsory_ancillary_fees": "1,053.07",
        "total_domestic_semester_fee": "2,413.33",
        "international_tuition": "6,670.00",
        "international_compulsory_ancillary_fees": "2,160.07",
        "total_international_semester_fee": "8,830.07",
        "course_code": "CSTN",
        "course_name": "Computer Syst Techn-Networking",
        "campus": "BA",
        "intake": "Fall 2019"
    },
    {
        "semester": "2",
        "domestic_tuition": "1,360.26",
        "domestic_compulsory_ancillary_fees": "992.48",
        "total_domestic_semester_fee": "2,352.74",
        "international_tuition": "6,670.00",
        "international_compulsory_ancillary_fees": "2,099.48",
        "total_international_semester_fee": "8,769.48",
        "course_code": "CSTN",
        "course_name": "Computer Syst Techn-Networking",
        "campus": "BA",
        "intake": "Fall 2019"
    },
    {
        "semester": "3",
        "domestic_tuition": "1,360.26",
        "domestic_compulsory_ancillary_fees": "992.48",
        "total_domestic_semester_fee": "2,352.74",
        "international_tuition": "6,670.00",
        "international_compulsory_ancillary_fees": "2,099.48",
        "total_international_semester_fee": "8,769.48",
        "course_code": "CSTN",
        "course_name": "Computer Syst Techn-Networking",
        "campus": "BA",
        "intake": "Fall 2019"
    },
    {
        "semester": "1",
        "domestic_tuition": "1,360.26",
        "domestic_compulsory_ancillary_fees": "1,208.07",
        "total_domestic_semester_fee": "2,568.33",
        "international_tuition": "6,670.00",
        "international_compulsory_ancillary_fees": "2,315.07",
        "total_international_semester_fee": "8,985.07",
        "course_code": "CULI",
        "course_name": "Culinary Skills",
        "campus": "BA",
        "intake": "Fall 2019"
    },
    {
        "semester": "1",
        "domestic_tuition": "1,360.26",
        "domestic_compulsory_ancillary_fees": "1,423.07",
        "total_domestic_semester_fee": "2,783.33",
        "international_tuition": "6,670.00",
        "international_compulsory_ancillary_fees": "2,530.07",
        "total_international_semester_fee": "9,200.07",
        "course_code": "CULN",
        "course_name": "Culinary Management",
        "campus": "BA",
        "intake": "Fall 2019"
    },
    {
        "semester": "1",
        "domestic_tuition": "1,360.26",
        "domestic_compulsory_ancillary_fees": "1,023.07",
        "total_domestic_semester_fee": "2,383.33",
        "international_tuition": "6,670.00",
        "international_compulsory_ancillary_fees": "2,130.07",
        "total_international_semester_fee": "8,800.07",
        "course_code": "CVET",
        "course_name": "Civil Engineering Technician",
        "campus": "BA",
        "intake": "Fall 2019"
    },
    {
        "semester": "1",
        "domestic_tuition": "1,360.26",
        "domestic_compulsory_ancillary_fees": "1,023.07",
        "total_domestic_semester_fee": "2,383.33",
        "international_tuition": "6,670.00",
        "international_compulsory_ancillary_fees": "2,130.07",
        "total_international_semester_fee": "8,800.07",
        "course_code": "CVTY",
        "course_name": "Civil Engineering Technology",
        "campus": "BA",
        "intake": "Fall 2019"
    },
    {
        "semester": "3",
        "domestic_tuition": "1,360.26",
        "domestic_compulsory_ancillary_fees": "656.03",
        "total_domestic_semester_fee": "2,016.29",
        "international_tuition": "6,670.00",
        "international_compulsory_ancillary_fees": "1,763.03",
        "total_international_semester_fee": "8,433.03",
        "course_code": "CYAC",
        "course_name": "Child and Youth Care (Acceler)",
        "campus": "OR",
        "intake": "Fall 2019"
    },
    {
        "semester": "1",
        "domestic_tuition": "1,360.26",
        "domestic_compulsory_ancillary_fees": "716.62",
        "total_domestic_semester_fee": "2,076.88",
        "international_tuition": "6,670.00",
        "international_compulsory_ancillary_fees": "1,823.62",
        "total_international_semester_fee": "8,493.62",
        "course_code": "CYCA",
        "course_name": "Child and Youth Care",
        "campus": "OR",
        "intake": "Fall 2019"
    },
    {
        "semester": "1",
        "domestic_tuition": "2,371.18",
        "domestic_compulsory_ancillary_fees": "1,041.40",
        "total_domestic_semester_fee": "3,412.58",
        "international_tuition": "6,670.00",
        "international_compulsory_ancillary_fees": "2,148.40",
        "total_international_semester_fee": "8,818.40",
        "course_code": "DNAS",
        "course_name": "Dental Assisting (Lvls I & II)",
        "campus": "BA",
        "intake": "Fall 2019"
    },
    {
        "semester": "1",
        "domestic_tuition": "4,503.56",
        "domestic_compulsory_ancillary_fees": "977.67",
        "total_domestic_semester_fee": "5,481.23",
        "international_tuition": "6,670.00",
        "international_compulsory_ancillary_fees": "2,084.67",
        "total_international_semester_fee": "8,754.67",
        "course_code": "DNTH",
        "course_name": "Dental Hygiene (6 semesters)",
        "campus": "BA",
        "intake": "Fall 2019"
    },
    {
        "semester": "3",
        "domestic_tuition": "6,340.31",
        "domestic_compulsory_ancillary_fees": "747.48",
        "total_domestic_semester_fee": "7,087.79",
        "international_tuition": "12,754.00",
        "international_compulsory_ancillary_fees": "1,854.48",
        "total_international_semester_fee": "14,608.48",
        "course_code": "DNTM",
        "course_name": "Denturism",
        "campus": "BA",
        "intake": "Fall 2019"
    },
    {
        "semester": "3",
        "domestic_tuition": "1,360.26",
        "domestic_compulsory_ancillary_fees": "857.48",
        "total_domestic_semester_fee": "2,217.74",
        "international_tuition": "6,670.00",
        "international_compulsory_ancillary_fees": "1,964.48",
        "total_international_semester_fee": "8,634.48",
        "course_code": "DPAI",
        "course_name": "Digital Photography & Imaging",
        "campus": "BA",
        "intake": "Fall 2019"
    },
    {
        "semester": "1",
        "domestic_tuition": "1,360.26",
        "domestic_compulsory_ancillary_fees": "716.62",
        "total_domestic_semester_fee": "2,076.88",
        "international_tuition": "6,670.00",
        "international_compulsory_ancillary_fees": "1,823.62",
        "total_international_semester_fee": "8,493.62",
        "course_code": "DSWR",
        "course_name": "Developmental Services Worker",
        "campus": "OR",
        "intake": "Fall 2019"
    },
    {
        "semester": "1",
        "domestic_tuition": "1,619.16",
        "domestic_compulsory_ancillary_fees": "808.07",
        "total_domestic_semester_fee": "2,427.23",
        "international_tuition": "4,879.32",
        "international_compulsory_ancillary_fees": "1,120.67",
        "total_international_semester_fee": "5,999.99",
        "course_code": "EAPC",
        "course_name": "GAS -Eng for Academic Purposes",
        "campus": "BA",
        "intake": "Fall 2019"
    },
    {
        "semester": "1",
        "domestic_tuition": "1,360.26",
        "domestic_compulsory_ancillary_fees": "716.62",
        "total_domestic_semester_fee": "2,076.88",
        "international_tuition": "6,670.00",
        "international_compulsory_ancillary_fees": "1,823.62",
        "total_international_semester_fee": "8,493.62",
        "course_code": "ECED",
        "course_name": "Early Childhood Education",
        "campus": "OR",
        "intake": "Fall 2019"
    },
    {
        "semester": "1",
        "domestic_tuition": "1,360.26",
        "domestic_compulsory_ancillary_fees": "1,063.07",
        "total_domestic_semester_fee": "2,423.33",
        "international_tuition": "6,670.00",
        "international_compulsory_ancillary_fees": "2,170.07",
        "total_international_semester_fee": "8,840.07",
        "course_code": "EETN",
        "course_name": "Electrical Eng Technician",
        "campus": "BA",
        "intake": "Fall 2019"
    },
    {
        "semester": "1",
        "domestic_tuition": "1,360.26",
        "domestic_compulsory_ancillary_fees": "1,063.07",
        "total_domestic_semester_fee": "2,423.33",
        "international_tuition": "6,670.00",
        "international_compulsory_ancillary_fees": "2,170.07",
        "total_international_semester_fee": "8,840.07",
        "course_code": "EETY",
        "course_name": "Electrical Eng Technology",
        "campus": "BA",
        "intake": "Fall 2019"
    },
    {
        "semester": "1",
        "domestic_tuition": "1,360.26",
        "domestic_compulsory_ancillary_fees": "609.41",
        "total_domestic_semester_fee": "1,969.67",
        "international_tuition": "6,670.00",
        "international_compulsory_ancillary_fees": "1,716.41",
        "total_international_semester_fee": "8,386.41",
        "course_code": "ELTQ",
        "course_name": "Electrical Techniques",
        "campus": "MI",
        "intake": "Fall 2019"
    },
    {
        "semester": "1",
        "domestic_tuition": "1,619.16",
        "domestic_compulsory_ancillary_fees": "808.07",
        "total_domestic_semester_fee": "2,427.23",
        "international_tuition": "6,670.00",
        "international_compulsory_ancillary_fees": "1,915.07",
        "total_international_semester_fee": "8,585.07",
        "course_code": "ENTB",
        "course_name": "Business - Entrepreneurship",
        "campus": "BA",
        "intake": "Fall 2019"
    },
    {
        "semester": "1",
        "domestic_tuition": "1,619.16",
        "domestic_compulsory_ancillary_fees": "1,023.07",
        "total_domestic_semester_fee": "2,642.23",
        "international_tuition": "6,670.00",
        "international_compulsory_ancillary_fees": "2,130.07",
        "total_international_semester_fee": "8,800.07",
        "course_code": "ENTC",
        "course_name": "Business-Entrepreneurship-coop",
        "campus": "BA",
        "intake": "Fall 2019"
    },
    {
        "semester": "1",
        "domestic_tuition": "1,360.26",
        "domestic_compulsory_ancillary_fees": "1,023.07",
        "total_domestic_semester_fee": "2,383.33",
        "international_tuition": "6,670.00",
        "international_compulsory_ancillary_fees": "2,130.07",
        "total_international_semester_fee": "8,800.07",
        "course_code": "ENTN",
        "course_name": "Environmental Technician",
        "campus": "BA",
        "intake": "Fall 2019"
    },
    {
        "semester": "1",
        "domestic_tuition": "1,360.26",
        "domestic_compulsory_ancillary_fees": "1,023.07",
        "total_domestic_semester_fee": "2,383.33",
        "international_tuition": "6,670.00",
        "international_compulsory_ancillary_fees": "2,130.07",
        "total_international_semester_fee": "8,800.07",
        "course_code": "ENVR",
        "course_name": "Environmental Technology",
        "campus": "BA",
        "intake": "Fall 2019"
    },
    {
        "semester": "1",
        "domestic_tuition": "1,360.26",
        "domestic_compulsory_ancillary_fees": "1,024.07",
        "total_domestic_semester_fee": "2,384.33",
        "international_tuition": "6,670.00",
        "international_compulsory_ancillary_fees": "2,131.07",
        "total_international_semester_fee": "8,801.07",
        "course_code": "ESTH",
        "course_name": "Esthetician",
        "campus": "BA",
        "intake": "Fall 2019"
    },
    {
        "semester": "1",
        "domestic_tuition": "1,360.26",
        "domestic_compulsory_ancillary_fees": "928.07",
        "total_domestic_semester_fee": "2,288.33",
        "international_tuition": "7,275.00",
        "international_compulsory_ancillary_fees": "2,035.07",
        "total_international_semester_fee": "9,310.07",
        "course_code": "EVNT",
        "course_name": "Event Management",
        "campus": "BA",
        "intake": "Fall 2019"
    },
    {
        "semester": "1",
        "domestic_tuition": "1,619.16",
        "domestic_compulsory_ancillary_fees": "778.07",
        "total_domestic_semester_fee": "2,397.23",
        "international_tuition": "7,275.00",
        "international_compulsory_ancillary_fees": "1,885.07",
        "total_international_semester_fee": "9,160.07",
        "course_code": "FDNM",
        "course_name": "Food and Nutrition Management",
        "campus": "BA",
        "intake": "Fall 2019"
    },
    {
        "semester": "1",
        "domestic_tuition": "1,619.16",
        "domestic_compulsory_ancillary_fees": "1,033.07",
        "total_domestic_semester_fee": "2,652.23",
        "international_tuition": "6,670.00",
        "international_compulsory_ancillary_fees": "2,140.07",
        "total_international_semester_fee": "8,810.07",
        "course_code": "FHPR",
        "course_name": "Fitness and Health Promotion",
        "campus": "BA",
        "intake": "Fall 2019"
    },
    {
        "semester": "1",
        "domestic_tuition": "1,360.26",
        "domestic_compulsory_ancillary_fees": "908.07",
        "total_domestic_semester_fee": "2,268.33",
        "international_tuition": "6,670.00",
        "international_compulsory_ancillary_fees": "2,015.07",
        "total_international_semester_fee": "8,685.07",
        "course_code": "FIAA",
        "course_name": "Fine Arts Advanced",
        "campus": "BA",
        "intake": "Fall 2019"
    },
    {
        "semester": "1",
        "domestic_tuition": "1,360.26",
        "domestic_compulsory_ancillary_fees": "908.07",
        "total_domestic_semester_fee": "2,268.33",
        "international_tuition": "6,670.00",
        "international_compulsory_ancillary_fees": "2,015.07",
        "total_international_semester_fee": "8,685.07",
        "course_code": "FIAR",
        "course_name": "Fine Arts",
        "campus": "BA",
        "intake": "Fall 2019"
    },
    {
        "semester": "1",
        "domestic_tuition": "4,791.42",
        "domestic_compulsory_ancillary_fees": "1,273.07",
        "total_domestic_semester_fee": "6,064.49",
        "international_tuition": "6,670.00",
        "international_compulsory_ancillary_fees": "2,380.07",
        "total_international_semester_fee": "9,050.07",
        "course_code": "FIRE",
        "course_name": "Pre-Service Firefighter Ed/Trn",
        "campus": "BA",
        "intake": "Fall 2019"
    },
    {
        "semester": "1",
        "domestic_tuition": "1,619.16",
        "domestic_compulsory_ancillary_fees": "1,308.07",
        "total_domestic_semester_fee": "2,927.23",
        "international_tuition": "6,670.00",
        "international_compulsory_ancillary_fees": "2,415.07",
        "total_international_semester_fee": "9,085.07",
        "course_code": "FLIE",
        "course_name": "Flight Services",
        "campus": "BA",
        "intake": "Fall 2019"
    },
    {
        "semester": "1",
        "domestic_tuition": "1,360.26",
        "domestic_compulsory_ancillary_fees": "808.07",
        "total_domestic_semester_fee": "2,168.33",
        "international_tuition": "6,670.00",
        "international_compulsory_ancillary_fees": "1,915.07",
        "total_international_semester_fee": "8,585.07",
        "course_code": "GAAS",
        "course_name": "General Arts & Science, 2 yr",
        "campus": "BA",
        "intake": "Fall 2019"
    },
    {
        "semester": "1",
        "domestic_tuition": "1,360.26",
        "domestic_compulsory_ancillary_fees": "808.07",
        "total_domestic_semester_fee": "2,168.33",
        "international_tuition": "6,670.00",
        "international_compulsory_ancillary_fees": "1,915.07",
        "total_international_semester_fee": "8,585.07",
        "course_code": "GASC",
        "course_name": "General Arts & Science, 1 yr",
        "campus": "BA",
        "intake": "Fall 2019"
    },
    {
        "semester": "1",
        "domestic_tuition": "1,360.26",
        "domestic_compulsory_ancillary_fees": "808.07",
        "total_domestic_semester_fee": "2,168.33",
        "international_tuition": "6,670.00",
        "international_compulsory_ancillary_fees": "1,915.07",
        "total_international_semester_fee": "8,585.07",
        "course_code": "GASK",
        "course_name": "GenArtSci-Shki Miikan(NewRoad)",
        "campus": "BA",
        "intake": "Fall 2019"
    },
    {
        "semester": "1",
        "domestic_tuition": "2,168.66",
        "domestic_compulsory_ancillary_fees": "808.07",
        "total_domestic_semester_fee": "2,976.73",
        "international_tuition": "6,670.00",
        "international_compulsory_ancillary_fees": "1,915.07",
        "total_international_semester_fee": "8,585.07",
        "course_code": "GAST",
        "course_name": "Gas Technician",
        "campus": "BA",
        "intake": "Fall 2019"
    },
    {
        "semester": "1",
        "domestic_tuition": "1,619.16",
        "domestic_compulsory_ancillary_fees": "1,258.32",
        "total_domestic_semester_fee": "2,877.48",
        "international_tuition": "7,275.00",
        "international_compulsory_ancillary_fees": "2,365.32",
        "total_international_semester_fee": "9,640.32",
        "course_code": "GBMT",
        "course_name": "Global Business Management",
        "campus": "BA",
        "intake": "Fall 2019"
    },
    {
        "semester": "1",
        "domestic_tuition": "1,674.35",
        "domestic_compulsory_ancillary_fees": "888.07",
        "total_domestic_semester_fee": "2,562.42",
        "international_tuition": "7,275.00",
        "international_compulsory_ancillary_fees": "1,995.07",
        "total_international_semester_fee": "9,270.07",
        "course_code": "GLDS",
        "course_name": "Goldsmithing & Silversmithing",
        "campus": "BA",
        "intake": "Fall 2019"
    },
    {
        "semester": "1",
        "domestic_tuition": "2,960.66",
        "domestic_compulsory_ancillary_fees": "1,123.07",
        "total_domestic_semester_fee": "4,083.73",
        "international_tuition": "6,670.00",
        "international_compulsory_ancillary_fees": "2,230.07",
        "total_international_semester_fee": "8,900.07",
        "course_code": "GLFO",
        "course_name": "Golf Facilities Operation Mgmt",
        "campus": "BA",
        "intake": "Fall 2019"
    },
    {
        "semester": "1",
        "domestic_tuition": "1,360.26",
        "domestic_compulsory_ancillary_fees": "868.07",
        "total_domestic_semester_fee": "2,228.33",
        "international_tuition": "6,670.00",
        "international_compulsory_ancillary_fees": "1,975.07",
        "total_international_semester_fee": "8,645.07",
        "course_code": "GRDE",
        "course_name": "Graphic Design",
        "campus": "BA",
        "intake": "Fall 2019"
    },
    {
        "semester": "1",
        "domestic_tuition": "1,360.26",
        "domestic_compulsory_ancillary_fees": "868.07",
        "total_domestic_semester_fee": "2,228.33",
        "international_tuition": "6,670.00",
        "international_compulsory_ancillary_fees": "1,975.07",
        "total_international_semester_fee": "8,645.07",
        "course_code": "GRDP",
        "course_name": "Graphic Design Production",
        "campus": "BA",
        "intake": "Fall 2019"
    },
    {
        "semester": "1",
        "domestic_tuition": "1,360.26",
        "domestic_compulsory_ancillary_fees": "1,173.07",
        "total_domestic_semester_fee": "2,533.33",
        "international_tuition": "6,670.00",
        "international_compulsory_ancillary_fees": "2,280.07",
        "total_international_semester_fee": "8,950.07",
        "course_code": "HADM",
        "course_name": "Hosp Admin - Hotel and Resort",
        "campus": "BA",
        "intake": "Fall 2019"
    },
    {
        "semester": "1",
        "domestic_tuition": "1,845.58",
        "domestic_compulsory_ancillary_fees": "808.07",
        "total_domestic_semester_fee": "2,653.65",
        "international_tuition": "6,670.00",
        "international_compulsory_ancillary_fees": "1,915.07",
        "total_international_semester_fee": "8,585.07",
        "course_code": "HAIR",
        "course_name": "Hairstyling",
        "campus": "BA",
        "intake": "Fall 2019"
    },
    {
        "semester": "1",
        "domestic_tuition": "1,360.26",
        "domestic_compulsory_ancillary_fees": "1,173.07",
        "total_domestic_semester_fee": "2,533.33",
        "international_tuition": "6,670.00",
        "international_compulsory_ancillary_fees": "2,280.07",
        "total_international_semester_fee": "8,950.07",
        "course_code": "HHRO",
        "course_name": "Hosp-Hotel and Resort Ops Mgmt",
        "campus": "BA",
        "intake": "Fall 2019"
    },
    {
        "semester": "1",
        "domestic_tuition": "2,168.66",
        "domestic_compulsory_ancillary_fees": "1,098.07",
        "total_domestic_semester_fee": "3,266.73",
        "international_tuition": "6,670.00",
        "international_compulsory_ancillary_fees": "2,205.07",
        "total_international_semester_fee": "8,875.07",
        "course_code": "HRAC",
        "course_name": "Heat/Ref/Air Cond Technician",
        "campus": "BA",
        "intake": "Fall 2019"
    },
    {
        "semester": "1",
        "domestic_tuition": "3,518.09",
        "domestic_compulsory_ancillary_fees": "993.07",
        "total_domestic_semester_fee": "4,511.16",
        "international_tuition": "7,275.00",
        "international_compulsory_ancillary_fees": "2,100.07",
        "total_international_semester_fee": "9,375.07",
        "course_code": "HRMN",
        "course_name": "Human Resources Management",
        "campus": "BA",
        "intake": "Fall 2019"
    },
    {
        "semester": "1",
        "domestic_tuition": "1,360.26",
        "domestic_compulsory_ancillary_fees": "1,023.07",
        "total_domestic_semester_fee": "2,383.33",
        "international_tuition": "6,670.00",
        "international_compulsory_ancillary_fees": "2,130.07",
        "total_international_semester_fee": "8,800.07",
        "course_code": "ICSD",
        "course_name": "Indigenous Comm and Social Dev",
        "campus": "BA",
        "intake": "Fall 2019"
    },
    {
        "semester": "1",
        "domestic_tuition": "1,360.26",
        "domestic_compulsory_ancillary_fees": "1,073.07",
        "total_domestic_semester_fee": "2,433.33",
        "international_tuition": "6,670.00",
        "international_compulsory_ancillary_fees": "2,180.07",
        "total_international_semester_fee": "8,850.07",
        "course_code": "IMDW",
        "course_name": "Interactive Media Design - Web",
        "campus": "BA",
        "intake": "Fall 2019"
    },
    {
        "semester": "1",
        "domestic_tuition": "1,360.26",
        "domestic_compulsory_ancillary_fees": "838.07",
        "total_domestic_semester_fee": "2,198.33",
        "international_tuition": "6,670.00",
        "international_compulsory_ancillary_fees": "1,945.07",
        "total_international_semester_fee": "8,615.07",
        "course_code": "INDC",
        "course_name": "Interior Decorating",
        "campus": "BA",
        "intake": "Fall 2019"
    },
    {
        "semester": "1",
        "domestic_tuition": "3,904.48",
        "domestic_compulsory_ancillary_fees": "993.07",
        "total_domestic_semester_fee": "4,897.55",
        "international_tuition": "7,275.00",
        "international_compulsory_ancillary_fees": "2,100.07",
        "total_international_semester_fee": "9,375.07",
        "course_code": "INSS",
        "course_name": "Information Systems Security",
        "campus": "BA",
        "intake": "Fall 2019"
    },
    {
        "semester": "1",
        "domestic_tuition": "1,360.26",
        "domestic_compulsory_ancillary_fees": "918.07",
        "total_domestic_semester_fee": "2,278.33",
        "international_tuition": "6,670.00",
        "international_compulsory_ancillary_fees": "2,025.07",
        "total_international_semester_fee": "8,695.07",
        "course_code": "JMET",
        "course_name": "Jewellery and Metals",
        "campus": "BA",
        "intake": "Fall 2019"
    },
    {
        "semester": "1",
        "domestic_tuition": "2,129.14",
        "domestic_compulsory_ancillary_fees": "778.07",
        "total_domestic_semester_fee": "2,907.21",
        "international_tuition": "7,275.00",
        "international_compulsory_ancillary_fees": "1,885.07",
        "total_international_semester_fee": "9,160.07",
        "course_code": "KBDE",
        "course_name": "Kitchen and Bath Design",
        "campus": "BA",
        "intake": "Fall 2019"
    },
    {
        "semester": "1",
        "domestic_tuition": "1,360.26",
        "domestic_compulsory_ancillary_fees": "808.07",
        "total_domestic_semester_fee": "2,168.33",
        "international_tuition": "6,670.00",
        "international_compulsory_ancillary_fees": "1,915.07",
        "total_international_semester_fee": "8,585.07",
        "course_code": "LCLR",
        "course_name": "Law Clerk",
        "campus": "BA",
        "intake": "Fall 2019"
    },
    {
        "semester": "1",
        "domestic_tuition": "1,360.26",
        "domestic_compulsory_ancillary_fees": "808.07",
        "total_domestic_semester_fee": "2,168.33",
        "international_tuition": "6,670.00",
        "international_compulsory_ancillary_fees": "1,915.07",
        "total_international_semester_fee": "8,585.07",
        "course_code": "MASF",
        "course_name": "Massage Therapy (Fast Track)",
        "campus": "BA",
        "intake": "Fall 2019"
    },
    {
        "semester": "3",
        "domestic_tuition": "1,360.26",
        "domestic_compulsory_ancillary_fees": "777.48",
        "total_domestic_semester_fee": "2,137.74",
        "international_tuition": "6,670.00",
        "international_compulsory_ancillary_fees": "1,884.48",
        "total_international_semester_fee": "8,554.48",
        "course_code": "MASF",
        "course_name": "Massage Therapy (Fast Track)",
        "campus": "BA",
        "intake": "Fall 2019"
    },
    {
        "semester": "1",
        "domestic_tuition": "1,360.26",
        "domestic_compulsory_ancillary_fees": "808.07",
        "total_domestic_semester_fee": "2,168.33",
        "international_tuition": "6,670.00",
        "international_compulsory_ancillary_fees": "1,915.07",
        "total_international_semester_fee": "8,585.07",
        "course_code": "MASG",
        "course_name": "Massage Therapy",
        "campus": "BA",
        "intake": "Fall 2019"
    },
    {
        "semester": "2",
        "domestic_tuition": "1,895.39",
        "domestic_compulsory_ancillary_fees": "747.48",
        "total_domestic_semester_fee": "2,642.87",
        "international_tuition": "7,275.00",
        "international_compulsory_ancillary_fees": "1,854.48",
        "total_international_semester_fee": "9,129.48",
        "course_code": "MDEV",
        "course_name": "Mobile Application Development",
        "campus": "BA",
        "intake": "Fall 2019"
    },
    {
        "semester": "1",
        "domestic_tuition": "1,360.26",
        "domestic_compulsory_ancillary_fees": "808.07",
        "total_domestic_semester_fee": "2,168.33",
        "international_tuition": "6,670.00",
        "international_compulsory_ancillary_fees": "1,915.07",
        "total_international_semester_fee": "8,585.07",
        "course_code": "MDTR",
        "course_name": "Medical Transcrip-Hlth Records",
        "campus": "BA",
        "intake": "Fall 2019"
    },
    {
        "semester": "1",
        "domestic_tuition": "1,868.56",
        "domestic_compulsory_ancillary_fees": "631.66",
        "total_domestic_semester_fee": "2,500.22",
        "international_tuition": "7,275.00",
        "international_compulsory_ancillary_fees": "1,519.06",
        "total_international_semester_fee": "8,794.06",
        "course_code": "MEMG",
        "course_name": "Marine Engineering Management",
        "campus": "OS",
        "intake": "Winter 2020"
    },
    {
        "semester": "1",
        "domestic_tuition": "1,360.26",
        "domestic_compulsory_ancillary_fees": "1,105.07",
        "total_domestic_semester_fee": "2,465.33",
        "international_tuition": "6,670.00",
        "international_compulsory_ancillary_fees": "2,212.07",
        "total_international_semester_fee": "8,882.07",
        "course_code": "METY",
        "course_name": "Mechanical Engineering Technol",
        "campus": "BA",
        "intake": "Fall 2019"
    },
    {
        "semester": "1",
        "domestic_tuition": "1,360.26",
        "domestic_compulsory_ancillary_fees": "917.28",
        "total_domestic_semester_fee": "2,277.54",
        "international_tuition": "6,670.00",
        "international_compulsory_ancillary_fees": "2,024.28",
        "total_international_semester_fee": "8,694.28",
        "course_code": "MNAV",
        "course_name": "Marine Technology - Navigation",
        "campus": "OS",
        "intake": "Fall 2019"
    },
    {
        "semester": "1",
        "domestic_tuition": "1,360.26",
        "domestic_compulsory_ancillary_fees": "778.07",
        "total_domestic_semester_fee": "2,138.33",
        "international_tuition": "7,275.00",
        "international_compulsory_ancillary_fees": "1,885.07",
        "total_international_semester_fee": "9,160.07",
        "course_code": "MSCT",
        "course_name": "Medical Skin Care Therapies",
        "campus": "BA",
        "intake": "Fall 2019"
    },
    {
        "semester": "1",
        "domestic_tuition": "1,360.26",
        "domestic_compulsory_ancillary_fees": "917.28",
        "total_domestic_semester_fee": "2,277.54",
        "international_tuition": "6,670.00",
        "international_compulsory_ancillary_fees": "2,024.28",
        "total_international_semester_fee": "8,694.28",
        "course_code": "MTCY",
        "course_name": "Marine Engineering Technology",
        "campus": "OS",
        "intake": "Fall 2019"
    },
    {
        "semester": "1",
        "domestic_tuition": "1,360.26",
        "domestic_compulsory_ancillary_fees": "609.41",
        "total_domestic_semester_fee": "1,969.67",
        "international_tuition": "6,670.00",
        "international_compulsory_ancillary_fees": "1,716.41",
        "total_international_semester_fee": "8,386.41",
        "course_code": "MTME",
        "course_name": "Mech Tecnq-Marine Eng Mechanic",
        "campus": "MI",
        "intake": "Fall 2019"
    },
    {
        "semester": "1",
        "domestic_tuition": "2,606.22",
        "domestic_compulsory_ancillary_fees": "1,193.07",
        "total_domestic_semester_fee": "3,799.29",
        "international_tuition": "6,900.00",
        "international_compulsory_ancillary_fees": "2,300.07",
        "total_international_semester_fee": "9,200.07",
        "course_code": "MTPS",
        "course_name": "Mech Techn-Precision Skills",
        "campus": "BA",
        "intake": "Fall 2019"
    },
    {
        "semester": "1",
        "domestic_tuition": "1,360.26",
        "domestic_compulsory_ancillary_fees": "609.41",
        "total_domestic_semester_fee": "1,969.67",
        "international_tuition": "6,670.00",
        "international_compulsory_ancillary_fees": "1,716.41",
        "total_international_semester_fee": "8,386.41",
        "course_code": "MTSE",
        "course_name": "Mech Tecnq-Small Eng Mechanic",
        "campus": "MI",
        "intake": "Fall 2019"
    },
    {
        "semester": "1",
        "domestic_tuition": "1,572.00",
        "domestic_compulsory_ancillary_fees": "778.07",
        "total_domestic_semester_fee": "2,350.07",
        "international_tuition": "7,275.00",
        "international_compulsory_ancillary_fees": "1,885.07",
        "total_international_semester_fee": "9,160.07",
        "course_code": "MUSM",
        "course_name": "Museum and Gallery Studies",
        "campus": "BA",
        "intake": "Fall 2019"
    },
    {
        "semester": "1",
        "domestic_tuition": "1,360.26",
        "domestic_compulsory_ancillary_fees": "808.07",
        "total_domestic_semester_fee": "2,168.33",
        "international_tuition": "6,670.00",
        "international_compulsory_ancillary_fees": "1,915.07",
        "total_international_semester_fee": "8,585.07",
        "course_code": "OFAE",
        "course_name": "Office Admin - Executive",
        "campus": "BA",
        "intake": "Fall 2019"
    },
    {
        "semester": "1",
        "domestic_tuition": "1,360.26",
        "domestic_compulsory_ancillary_fees": "808.07",
        "total_domestic_semester_fee": "2,168.33",
        "international_tuition": "6,670.00",
        "international_compulsory_ancillary_fees": "1,915.07",
        "total_international_semester_fee": "8,585.07",
        "course_code": "OFAG",
        "course_name": "Office Admin - General",
        "campus": "BA",
        "intake": "Fall 2019"
    },
    {
        "semester": "1",
        "domestic_tuition": "1,360.26",
        "domestic_compulsory_ancillary_fees": "808.07",
        "total_domestic_semester_fee": "2,168.33",
        "international_tuition": "6,670.00",
        "international_compulsory_ancillary_fees": "1,915.07",
        "total_international_semester_fee": "8,585.07",
        "course_code": "OFAH",
        "course_name": "Office Admin-Health Services",
        "campus": "BA",
        "intake": "Fall 2019"
    },
    {
        "semester": "1",
        "domestic_tuition": "1,360.26",
        "domestic_compulsory_ancillary_fees": "1,023.07",
        "total_domestic_semester_fee": "2,383.33",
        "international_tuition": "6,670.00",
        "international_compulsory_ancillary_fees": "2,130.07",
        "total_international_semester_fee": "8,800.07",
        "course_code": "OFEC",
        "course_name": "Office Admin-Executive (co-op)",
        "campus": "BA",
        "intake": "Fall 2019"
    },
    {
        "semester": "1",
        "domestic_tuition": "1,619.16",
        "domestic_compulsory_ancillary_fees": "838.07",
        "total_domestic_semester_fee": "2,457.23",
        "international_tuition": "6,670.00",
        "international_compulsory_ancillary_fees": "1,945.07",
        "total_international_semester_fee": "8,615.07",
        "course_code": "OPTA",
        "course_name": "Occ Thr Asst and Phys Thr Asst",
        "campus": "BA",
        "intake": "Fall 2019"
    },
    {
        "semester": "1",
        "domestic_tuition": "3,057.26",
        "domestic_compulsory_ancillary_fees": "1,023.07",
        "total_domestic_semester_fee": "4,080.33",
        "international_tuition": "6,600.00",
        "international_compulsory_ancillary_fees": "2,130.07",
        "total_international_semester_fee": "8,730.07",
        "course_code": "OPTI",
        "course_name": "Opticianry",
        "campus": "BA",
        "intake": "Fall 2019"
    },
    {
        "semester": "1",
        "domestic_tuition": "2,762.58",
        "domestic_compulsory_ancillary_fees": "888.07",
        "total_domestic_semester_fee": "3,650.65",
        "international_tuition": "6,670.00",
        "international_compulsory_ancillary_fees": "1,995.07",
        "total_international_semester_fee": "8,665.07",
        "course_code": "PARA",
        "course_name": "Paramedic",
        "campus": "BA",
        "intake": "Fall 2019"
    },
    {
        "semester": "1",
        "domestic_tuition": "1,220.86",
        "domestic_compulsory_ancillary_fees": "778.07",
        "total_domestic_semester_fee": "1,998.93",
        "international_tuition": "7,275.00",
        "international_compulsory_ancillary_fees": "1,885.07",
        "total_international_semester_fee": "9,160.07",
        "course_code": "PARL",
        "course_name": "Paralegal",
        "campus": "BA",
        "intake": "Fall 2019"
    },
    {
        "semester": "1",
        "domestic_tuition": "4,736.98",
        "domestic_compulsory_ancillary_fees": "828.07",
        "total_domestic_semester_fee": "5,565.05",
        "international_tuition": "12,000.00",
        "international_compulsory_ancillary_fees": "1,935.07",
        "total_international_semester_fee": "13,935.07",
        "course_code": "PARM",
        "course_name": "Advanced Care Paramedic",
        "campus": "BA",
        "intake": "Fall 2019"
    },
    {
        "semester": "1",
        "domestic_tuition": "1,360.26",
        "domestic_compulsory_ancillary_fees": "917.28",
        "total_domestic_semester_fee": "2,277.54",
        "international_tuition": "6,670.00",
        "international_compulsory_ancillary_fees": "2,024.28",
        "total_international_semester_fee": "8,694.28",
        "course_code": "PETY",
        "course_name": "Power Engineering Technology",
        "campus": "OS",
        "intake": "Fall 2019"
    },
    {
        "semester": "1",
        "domestic_tuition": "1,360.26",
        "domestic_compulsory_ancillary_fees": "716.62",
        "total_domestic_semester_fee": "2,076.88",
        "international_tuition": "6,670.00",
        "international_compulsory_ancillary_fees": "1,823.62",
        "total_international_semester_fee": "8,493.62",
        "course_code": "PFPR",
        "course_name": "Police Foundations",
        "campus": "OR",
        "intake": "Fall 2019"
    },
    {
        "semester": "1",
        "domestic_tuition": "1,360.26",
        "domestic_compulsory_ancillary_fees": "918.07",
        "total_domestic_semester_fee": "2,278.33",
        "international_tuition": "6,670.00",
        "international_compulsory_ancillary_fees": "2,025.07",
        "total_international_semester_fee": "8,695.07",
        "course_code": "PHOT",
        "course_name": "Photography",
        "campus": "BA",
        "intake": "Fall 2019"
    },
    {
        "semester": "1",
        "domestic_tuition": "1,360.26",
        "domestic_compulsory_ancillary_fees": "808.07",
        "total_domestic_semester_fee": "2,168.33",
        "international_tuition": "6,670.00",
        "international_compulsory_ancillary_fees": "1,915.07",
        "total_international_semester_fee": "8,585.07",
        "course_code": "PHPA",
        "course_name": "Pre-Health Pathway Diploma-Deg",
        "campus": "BA",
        "intake": "Fall 2019"
    },
    {
        "semester": "1",
        "domestic_tuition": "1,360.26",
        "domestic_compulsory_ancillary_fees": "808.07",
        "total_domestic_semester_fee": "2,168.33",
        "international_tuition": "6,670.00",
        "international_compulsory_ancillary_fees": "1,915.07",
        "total_international_semester_fee": "8,585.07",
        "course_code": "PHRM",
        "course_name": "Pharmacy Technician",
        "campus": "BA",
        "intake": "Fall 2019"
    },
    {
        "semester": "1",
        "domestic_tuition": "1,360.26",
        "domestic_compulsory_ancillary_fees": "609.41",
        "total_domestic_semester_fee": "1,969.67",
        "international_tuition": "6,670.00",
        "international_compulsory_ancillary_fees": "1,716.41",
        "total_international_semester_fee": "8,386.41",
        "course_code": "PLTQ",
        "course_name": "Plumbing Techniques",
        "campus": "MI",
        "intake": "Fall 2019"
    },
    {
        "semester": "1",
        "domestic_tuition": "1,360.26",
        "domestic_compulsory_ancillary_fees": "838.07",
        "total_domestic_semester_fee": "2,198.33",
        "international_tuition": "6,670.00",
        "international_compulsory_ancillary_fees": "1,945.07",
        "total_international_semester_fee": "8,615.07",
        "course_code": "PNRS",
        "course_name": "Practical Nursing (2.5 yr dip)",
        "campus": "BA",
        "intake": "Fall 2019"
    },
    {
        "semester": "1",
        "domestic_tuition": "1,619.16",
        "domestic_compulsory_ancillary_fees": "778.07",
        "total_domestic_semester_fee": "2,397.23",
        "international_tuition": "7,275.00",
        "international_compulsory_ancillary_fees": "1,885.07",
        "total_international_semester_fee": "9,160.07",
        "course_code": "PRJM",
        "course_name": "Project Management",
        "campus": "BA",
        "intake": "Fall 2019"
    },
    {
        "semester": "1",
        "domestic_tuition": "1,360.26",
        "domestic_compulsory_ancillary_fees": "716.62",
        "total_domestic_semester_fee": "2,076.88",
        "international_tuition": "6,670.00",
        "international_compulsory_ancillary_fees": "1,823.62",
        "total_international_semester_fee": "8,493.62",
        "course_code": "PSIN",
        "course_name": "Protect, Security,and Invest",
        "campus": "OR",
        "intake": "Fall 2019"
    },
    {
        "semester": "1",
        "domestic_tuition": "1,360.26",
        "domestic_compulsory_ancillary_fees": "838.07",
        "total_domestic_semester_fee": "2,198.33",
        "international_tuition": "6,670.00",
        "international_compulsory_ancillary_fees": "1,945.07",
        "total_international_semester_fee": "8,615.07",
        "course_code": "PSWR",
        "course_name": "Personal Support Worker",
        "campus": "BA",
        "intake": "Fall 2019"
    },
    {
        "semester": "1",
        "domestic_tuition": "1,876.45",
        "domestic_compulsory_ancillary_fees": "993.07",
        "total_domestic_semester_fee": "2,869.52",
        "international_tuition": "7,275.00",
        "international_compulsory_ancillary_fees": "2,100.07",
        "total_international_semester_fee": "9,375.07",
        "course_code": "RAPP",
        "course_name": "Research Analyst",
        "campus": "BA",
        "intake": "Fall 2019"
    },
    {
        "semester": "1",
        "domestic_tuition": "1,360.26",
        "domestic_compulsory_ancillary_fees": "1,223.07",
        "total_domestic_semester_fee": "2,583.33",
        "international_tuition": "6,670.00",
        "international_compulsory_ancillary_fees": "2,330.07",
        "total_international_semester_fee": "9,000.07",
        "course_code": "RELS",
        "course_name": "Recreation/Leisure Services",
        "campus": "BA",
        "intake": "Fall 2019"
    },
    {
        "semester": "1",
        "domestic_tuition": "1,619.16",
        "domestic_compulsory_ancillary_fees": "1,125.07",
        "total_domestic_semester_fee": "2,744.23",
        "international_tuition": "6,670.00",
        "international_compulsory_ancillary_fees": "2,232.07",
        "total_international_semester_fee": "8,902.07",
        "course_code": "SPRT",
        "course_name": "Sport Administration",
        "campus": "BA",
        "intake": "Fall 2019"
    },
    {
        "semester": "3",
        "domestic_tuition": "1,360.26",
        "domestic_compulsory_ancillary_fees": "1,087.48",
        "total_domestic_semester_fee": "2,447.74",
        "international_tuition": "6,670.00",
        "international_compulsory_ancillary_fees": "2,194.48",
        "total_international_semester_fee": "8,864.48",
        "course_code": "SROP",
        "course_name": "Snow Resort Operations",
        "campus": "BA",
        "intake": "Fall 2019"
    },
    {
        "semester": "1",
        "domestic_tuition": "1,360.26",
        "domestic_compulsory_ancillary_fees": "716.62",
        "total_domestic_semester_fee": "2,076.88",
        "international_tuition": "6,670.00",
        "international_compulsory_ancillary_fees": "1,823.62",
        "total_international_semester_fee": "8,493.62",
        "course_code": "SSWK",
        "course_name": "Social Service Worker",
        "campus": "OR",
        "intake": "Fall 2019"
    },
    {
        "semester": "1",
        "domestic_tuition": "3,203.87",
        "domestic_compulsory_ancillary_fees": "737.45",
        "total_domestic_semester_fee": "3,941.32",
        "international_tuition": "7,275.00",
        "international_compulsory_ancillary_fees": "1,624.85",
        "total_international_semester_fee": "8,899.85",
        "course_code": "TCMP",
        "course_name": "Traditional Chinese Medicine",
        "campus": "BA",
        "intake": "Winter 2020"
    },
    {
        "semester": "1",
        "domestic_tuition": "1,360.26",
        "domestic_compulsory_ancillary_fees": "1,173.07",
        "total_domestic_semester_fee": "2,533.33",
        "international_tuition": "6,670.00",
        "international_compulsory_ancillary_fees": "2,280.07",
        "total_international_semester_fee": "8,950.07",
        "course_code": "TMPD",
        "course_name": "Tourism-Mktg and Prod Develop",
        "campus": "BA",
        "intake": "Fall 2019"
    },
    {
        "semester": "1",
        "domestic_tuition": "1,876.45",
        "domestic_compulsory_ancillary_fees": "996.62",
        "total_domestic_semester_fee": "2,873.07",
        "international_tuition": "7,275.00",
        "international_compulsory_ancillary_fees": "2,103.62",
        "total_international_semester_fee": "9,378.62",
        "course_code": "TREC",
        "course_name": "Therapeutic Recreation",
        "campus": "OR",
        "intake": "Fall 2019"
    },
    {
        "semester": "1",
        "domestic_tuition": "1,360.26",
        "domestic_compulsory_ancillary_fees": "676.00",
        "total_domestic_semester_fee": "2,036.26",
        "international_tuition": "6,670.00",
        "international_compulsory_ancillary_fees": "1,563.40",
        "total_international_semester_fee": "8,233.40",
        "course_code": "VETA",
        "course_name": "Veterinary Assistant",
        "campus": "OR",
        "intake": "Winter 2020"
    },
    {
        "semester": "1",
        "domestic_tuition": "1,360.26",
        "domestic_compulsory_ancillary_fees": "1,066.62",
        "total_domestic_semester_fee": "2,426.88",
        "international_tuition": "6,670.00",
        "international_compulsory_ancillary_fees": "2,173.62",
        "total_international_semester_fee": "8,843.62",
        "course_code": "VETN",
        "course_name": "Veterinary Technician/non-coop",
        "campus": "OR",
        "intake": "Fall 2019"
    },
    {
        "semester": "1",
        "domestic_tuition": "3,384.33",
        "domestic_compulsory_ancillary_fees": "609.41",
        "total_domestic_semester_fee": "3,993.74",
        "international_tuition": "6,670.00",
        "international_compulsory_ancillary_fees": "1,716.41",
        "total_international_semester_fee": "8,386.41",
        "course_code": "WETC",
        "course_name": "Welding Techniques",
        "campus": "MI",
        "intake": "Fall 2019"
    }
]