{
      "univ_id": "georgiancollege",
      "course_title": "Honours Bachelor Of Police Studies",
      "course_url": "https://www.georgiancollege.ca/academics/full-time-programs/honours-bachelor-of-police-studies-co-op-baps/",
      "course_campus_location": [
            {
                  "name": "Orillia",
                  "code": ""
            }
      ],
      "course_study_mode": "On campus",
      "course_outline": {
            "majors": [],
            "minors": [],
            "more_details": "https://www.georgiancollege.ca/academics/full-time-programs/honours-bachelor-of-police-studies-co-op-baps/"
      },
      "application_fee": "",
      "course_discipline": [
            "Community Safety - Degree Studies"
      ],
      "program_code": "BAPS",
      "course_study_level": "Honours Bachelor Degree",
      "course_duration": "8 Semesters, plus 1 work term",
      "course_duration_display": [
            {
                  "unit": "semesters",
                  "duration": "8",
                  "display": "Full-Time",
                  "filterduration": 4
            }
      ],
      "isfulltime": true,
      "isparttime": false,
      "course_admission_requirement": {
            "english": [
                  {
                        "name": "ielts academic",
                        "description": "6.5",
                        "min": 0,
                        "require": 6.5,
                        "max": 9,
                        "R": 0,
                        "W": 0,
                        "S": 0,
                        "L": 0,
                        "O": 0
                  },
                  {
                        "name": "toefl ibt",
                        "description": "89",
                        "min": 0,
                        "require": 89,
                        "max": 120,
                        "W": 0,
                        "S": 0,
                        "L": 0,
                        "O": 0
                  },
                  {
                        "name": "pte",
                        "description": "61",
                        "min": 0,
                        "require": 61,
                        "max": 90,
                        "W": 0,
                        "S": 0,
                        "L": 0,
                        "O": 0
                  },
                  {
                        "name": "toefl pbt",
                        "description": "580",
                        "min": 310,
                        "require": 580,
                        "max": 677,
                        "W": 0,
                        "S": 0,
                        "L": 0,
                        "O": 0
                  },
                  {
                        "name": "cae",
                        "description": "175",
                        "min": 80,
                        "require": 175,
                        "max": 230,
                        "W": 0,
                        "S": 0,
                        "L": 0,
                        "O": 0
                  }
            ],
            "academic": [
                  "The academic experience at Georgian College is focused on student-centred learning, support for student success, academic integrity and excellence. The academic regulations are based on accountability for academic standards and integrity of course credits and program credentials."
            ],
            "english_requirements_url": "https://www.georgiancollege.ca/international/admissions/#English-language-proficiency",
            "academic_requirements_url": "https://www.georgiancollege.ca/international/admissions/#admission-requirements",
            "entry_requirements_url": "https://www.georgiancollege.ca/international/admissions/#English-language-proficiency"
      },
      "course_intake": {
            "intake": [
                  {
                        "name": "Orillia",
                        "value": [
                              {
                                    "actualdate": "Fall 2020",
                                    "month": "September"
                              }
                        ]
                  }
            ],
            "more_details": "https://www.georgiancollege.ca/admissions/important-dates/"
      },
      "course_overview": "The Honours Bachelor of Police Studies degree encourages a broadened critical understanding of the nature, role and function of policing. Students will explore a variety of topics offering opportunities for careers in law enforcement. The program learning outcomes value an integrated learning approach to police education that will provide a diverse range of students with the critical mix of professionalism, technical/legal expertise and analytical skills necessary to succeed in justice-related careers. This multi-dimensional degree complements, rather than duplicates, existing educational initiatives, offering courses that encourage increasing levels of thinking and analysis, which are dynamic in design, rationale and delivery. The learning outcomes are designed to directly calibrate with the policing community and its high professional standards.",
      "course_career_outcome": [
            ",This program will prepare our graduates with a variety of career and educational opportunities. The primary career categories include the Ontario Provincial Police Service and municipal police services. Opportunities may also include out-of-province police services, Royal Canadian Mounted Police, Canadian Armed Forces, By-Law Enforcement, Private Police and Investigators, Canada Border Services and Corrections. ,"
      ],
      "course_country": "Canada",
      "course_tuition_fee": {
            "fees": [
                  {
                        "name": "Orillia",
                        "value": {
                              "international_student": {
                                    "amount": 8080,
                                    "duration": 1,
                                    "unit": "Semester",
                                    "description": "8,080.00 International Compulsory Ancillary Fees are also applicable and can be different by intake, campus and not included in tuition feesF"
                              },
                              "fee_duration_years": "1",
                              "currency": "CAD"
                        }
                  }
            ]
      },
      "course_id": "honoursbachelorofpolicestudies"
}