[
  {
    "univ_country": "Australia",
    "univ_rankings": {
      "rankings": []
    },
    "univ_name": "Holmesglen Institute",
    "univ_accomodation": {
      "applicant": 20290,
      "partner": 7100,
      "child": 3040,
      "currency": "AUD",
      "more_details_univ_website": "https://holmesglen.edu.au/Students/International-Students/Student-Accommodation-Options/Institute-Accommodation/",
      "more_details": "https://www.studyinaustralia.gov.au/english/live-in-australia/living-costs"
    },
    "univ_logo": "univ_hi/univ_logo.png",
    "university_type": "Private",
    "course_tuition_fees_currency": "AUD",
    "course_tuition_fee_duration_years": "1",
    "english_requirements_url": "https://holmesglen.edu.au/Holmesglen/media/PDFs/HOLM_8569-2020-Int-Guide-Interactive-WEB-SPREADS-170919_1.pdf",
    "intake_url": "https://holmesglen.edu.au/Holmesglen/media/PDFs/2020-Higher-Ed-Academic-Calendar-confirmed-and-updated.pdf",
    "ielts_mapping": [
      {
        "key": "Certificate IV in Business",
        "ielts": "Overall 5.5"
      },
      {
        "key": "Certificate IV in Engineering",
        "ielts": "Overall 5.5"
      },
      {
        "key": "Diploma of Community Services",
        "ielts": "Overall 5.5"
      },
      {
        "key": "Diploma of Engineering - Advanced Trade",
        "ielts": "Overall 5.5"
      },
      {
        "key": "Diploma of Furniture Design and Technology",
        "ielts": "Overall 5.5"
      },
      {
        "key": "Diploma of Information Technology Networking",
        "ielts": "Overall 5.5"
      },
      {
        "key": "Diploma of Laboratory Technology",
        "ielts": "Overall 5.5"
      },
      {
        "key": "Advanced Diploma of Graphic Design",
        "ielts": "Overall 5.5"
      }
    ],
    "contactInformation": [
      {
          "name": "St Kilda Road Campus",
          "address": "332 St Kilda Road, Southbank, VIC, 3006, Southbank, VIC, 3006",
          "inquiry_no": [],
          "place_id": "ChIJO3qzx6hC1moRi9DIKlSBUso",
          "contact_info": [
              {
                  "name": "",
                  "phone_no": "+611300639888",
                  "fax": "",
                  "email_address": "",
                  "description": ""
              },
              {
                  "name": "",
                  "phone_no": "+61395641703",
                  "fax": "",
                  "email_address": "International.Admissions@holmesglen.edu.au",
                  "description": "For international agents"
              },
              {
                  "name": "",
                  "phone_no": "+61395641703",
                  "fax": "",
                  "email_address": "Intl@holmesglen.edu.au",
                  "description": "For international students"
              }
          ],
          "cricos_provider_code": "00012G",
          "vtour_url": "https://www.google.com/maps/embed?pb=!4v1575092369558!6m8!1m7!1sCAoSLEFGMVFpcE5td1JVNkJuYUtlTTR4bU9BdzF5SW5BSWUtVDJmTDNoQ1Vla0Fm!2m2!1d-37.8284541!2d144.9707485!3f212.16139798750186!4f5.217329666450198!5f0.7820865974627469",
          "type": "University"
      },
      {
          "name": "Chadstone",
          "overview": "Opened in 1982, Chadstone is our original campus – as well as our largest and most populated. With a huge range of learning options, superior facilities, cafes, bars, shops and transport options, it’s no wonder Chadstone attracts thousands of learners every year.",
          "additional_info": "",
          "address": "Corner Batesford & Warrigal Roads, Chadstone, VIC, 3148, Chadstone, VIC, 3148",
          "inquiry_no": [],
          "place_id": "ChIJDdrkrOFr1moRlD3od0W_vwo",
          "contact_info": [
              {
                  "name": "",
                  "phone_no": "0395641555",
                  "fax": "",
                  "email_address": "",
                  "description": ""
              }
          ],
          "cricos_provider_code": "00012G",
          "vtour_url": "https://www.google.com/maps/embed?pb=!4v1575093703791!6m8!1m7!1sCAoSLEFGMVFpcFBjT0Q2UVRsS2VOMS1Mck1Cd3lnT1YyWmxmeXJfak9kMDVtWFJM!2m2!1d-37.8761001!2d145.0888823!3f62.666279488377384!4f-0.23291082392771045!5f0.7820865974627469",
          "type": "Campus"
      },
      {
          "name": "Glen Waverley",
          "overview": "With leafy, open spaces and a vibrant atmosphere, our Waverley campus boasts new buildings and modern facilities. It’s the ideal learning environment for people seeking hands-on preparation for employment in the real world.",
          "additional_info": "",
          "address": "595 Waverley Road, Glen Waverley, VIC, 3150, Glen Waverley, VIC, 3150",
          "inquiry_no": [],
          "place_id": "ChIJ_3ciwxs_1moRDN-LxsEqtyY",
          "contact_info": [
              {
                  "name": "",
                  "phone_no": "0395641555",
                  "fax": "",
                  "email_address": "",
                  "description": ""
              }
          ],
          "cricos_provider_code": "00012G",
          "vtour_url": "https://www.google.com/maps/embed?pb=!4v1575093899286!6m8!1m7!1sftV9RHPZUYUsQK4gRhDfrA!2m2!1d-37.88926761746295!2d145.1926972375195!3f25.797729072421262!4f6.198792490426641!5f0.7820865974627469",
          "type": "Campus"
      },
      {
          "name": "Moorabbin",
          "overview": "In the heart of bayside Melbourne, our Moorabbin campus is a hub of energy and activity. Providing vocational education and training to over 10,000 learners a year, this spacious and modern campus recently has undergone extensive refurbishment and expansion.",
          "additional_info": "",
          "address": "488 South Road, Moorabbin, VIC, 3189, Moorabbin, VIC, 3189",
          "inquiry_no": [],
          "place_id": "ChIJneUHd4pt1moR2VeJvLlpr04",
          "contact_info": [
              {
                  "name": "",
                  "phone_no": "0395641555",
                  "fax": "",
                  "email_address": "",
                  "description": ""
              }
          ],
          "cricos_provider_code": "00012G",
          "vtour_url": "https://www.google.com/maps/embed?pb=!4v1575094322981!6m8!1m7!1sbSdDYMT5PWZ2u0pyN9xs4g!2m2!1d-37.9382240787535!2d145.0495557874618!3f121.31673773299221!4f-13.932191668821673!5f0.7820865974627469",
          "type": "Campus"
      },
      {
          "name": "Eildon",
          "overview": "Nestled in a gully behind Barkers Ridge, with the Rubicon State Forest as a stunning backdrop, Holmesglen at Eildon is a two-hour drive from Melbourne",
          "additional_info": "",
          "address": "92 Moore Road, Eildon, VIC, 3713, Eildon, VIC, 3713",
          "inquiry_no": [],
          "place_id": "ChIJgcFI_wN1KGsRl5yQ9gJ2xNg",
          "contact_info": [
              {
                  "name": "",
                  "phone_no": "0357742631",
                  "fax": "",
                  "email_address": "",
                  "description": ""
              }
          ],
          "cricos_provider_code": "00012G",
          "vtour_url": "https://www.google.com/maps/embed?pb=!4v1575094841325!6m8!1m7!1sCAoSLEFGMVFpcE1STTJvSXg4QzVtek5MLTVYQW1JUjVRTUVtbVI0aGNrY2dKWkZs!2m2!1d-37.271099317313!2d145.89684865453!3f64.443323505836!4f2.140253674626507!5f0.7820865974627469",
          "type": "Campus"
      },
      {
          "name": "North Melbourne",
          "overview": "Our North Melbourne campus is home to our electrical training facility, Futuretech. Futuretech is a collaborative training venture between Holmesglen and the Electrical Trades Union (ETU) Victoria Branch.",
          "additional_info": "",
          "address": "Level 2, 200 Arden St, North Melbourne, VIC, 3051",
          "inquiry_no": [],
          "place_id": "ChIJq7F0mSZd1moR1l-31vO2EXk",
          "contact_info": [
              {
                  "name": "",
                  "phone_no": "1300639888",
                  "fax": "",
                  "email_address": "",
                  "description": ""
              }
          ],
          "cricos_provider_code": "00012G",
          "vtour_url": "https://www.google.com/maps/embed?pb=!4v1575096248226!6m8!1m7!1s_U5NRScyN2SyNBYXjIT2kQ!2m2!1d-37.79971856243677!2d144.9447252230898!3f180.3145673604364!4f14.092061140641704!5f0.7820865974627469",
          "type": "Campus"
      },
      {
          "name": "Drummond Street",
          "overview": "For over two decades the site has been the major Victorian trainer for electrical, gas, telecommunications, industrial skills and workplace health and safety training.",
          "additional_info": "",
          "address": "41 Drummond St, Chadstone VIC 3148, Chadstone, VIC, 3148",
          "inquiry_no": [],
          "place_id": "ChIJSSLp8WJq1moR3hifUf-uadM",
          "contact_info": [
              {
                  "name": "",
                  "phone_no": "1300639888",
                  "fax": "",
                  "email_address": "",
                  "description": ""
              }
          ],
          "cricos_provider_code": "00012G",
          "vtour_url": "https://www.google.com/maps/embed?pb=!4v1575096339546!6m8!1m7!1smx9OkgOOvn4s3pB5IWnN-g!2m2!1d-37.88572503533045!2d145.0920859390552!3f297.4104013802691!4f10.280378511799029!5f0.7820865974627469",
          "type": "Campus"
      },
      {
          "name": "Bourke Street",
          "overview": "Holmesglen's Bourke Street campus in the heart of Melbourne city is a specialist facility dedicated exclusively to delivering nursing training.",
          "additional_info": "",
          "address": "3/206-218 Bourke St, Melbourne VIC 3000, Melbourne, VIC, 3000",
          "inquiry_no": [],
          "place_id": "ChIJO5Zc7clC1moR_F5sJDwyPzQ",
          "contact_info": [
              {
                  "name": "",
                  "phone_no": "1300639888",
                  "fax": "",
                  "email_address": "",
                  "description": ""
              }
          ],
          "cricos_provider_code": "00012G",
          "vtour_url": "https://www.google.com/maps/embed?pb=!4v1575097730207!6m8!1m7!1sCAoSLEFGMVFpcE5JcUJzaFFMWThJMnRwejFNODdwaWdBVWM2cHRRTkMxN2tMMG5L!2m2!1d-37.81287647637302!2d144.9666996044357!3f61.820176900405166!4f-7.405965126080915!5f0.7820865974627469",
          "type": "Campus"
      }
  ],
    "apply_url": "https://holmesglen.edu.au/Students/International-Students/How-to-Apply/",
    "placement_url": "https://holmesglen.edu.au/Services/Holmesglen-Skills-and-Jobs-Centre/",
    "brochure_path": [
      {
        "name": "univ_hi/holmesgleninstitute_1.pdf",
        "text": "Brochure for course guide"
      }
    ],
    "application_fee": "500",
    "facebook_page_name": "holmesglen",
    "twitter_page_name": "holmesglen",
    "youtube_page_name": "UCuXs7xW_l-knNtajtVmASkg",
    "abbreviation": "holmesglen"
  }
]