[
      {
            "univ_id": "georgiancollege",
            "univ_url": "https://www.georgiancollege.ca/",
            "univ_name": "Georgian College",
            "univ_country": "Canada",
            "univ_about": "At Georgian, we work with industry and community partners to offer relevant, cutting-edge curriculum, quality work placements and co-op experiences with top employers.\n\nOur students graduate with the skills and the mindset to be innovative thinkers and changemakers who can transform their workplaces and communities.\n\nOur vision is to accelerate success through exceptional teaching and learning, innovation and partnerships.",
            "univ_logo": "univ_georgian/univ_georgian.png",
            "univ_accomodation": {
                  "applicant": 20290,
                  "partner": 7100,
                  "child": 3040,
                  "currency": "CAD",
                  "more_details_univ_website": "https://www.georgiancollege.ca/international/student-life/housing/",
                  "more_details": "https://www.canada.ca/en/immigration-refugees-citizenship/services/study-canada/study-permit/student-direct-stream.html"
            },
            "university_type": "Private",
            "univ_rankings": {
                  "rankings": []
            },
            "apply_url": "https://www.georgiancollege.ca/international/admissions/#learn-how-to-apply",
            "placement_url": "https://www.georgiancollege.ca/admissions/forms/tab/placement-requirement-forms/",
            "brochure_path": [
                  {
                        "name": "univ_georgian/georgian_1.pdf",
                        "text": "brochure for International Course Guide 2019"
                  }
            ],
            "application_fee": "",
            "facebook_page_name": "GeorgianCollege",
            "twitter_page_name": "georgiancollege",
            "abbreviation": "",
            "youtube_page_name": "UCwluUI3SqFZ3PxdmSlHbaEQ",
            "contactInformation": [
                  {
                        "name": "Barrie",
                        "address": "1 Georgian Dr, Barrie, ON L4M 3X9, Canada",
                        "inquiry_no": [
                              "7057281968"
                        ],
                        "place_id": "ChIJ8TIyPnKjKogRZVwVgRoDvuY",
                        "contact_info": [
                              {
                                    "name": "",
                                    "phone_no": "7057281968",
                                    "fax": "7057225122",
                                    "email_address": "inquire@georgiancollege.ca",
                                    "description": ""
                              }
                        ],
                        "type": "University",
                        "cricos_provider_code": "",
                        "vtour_url": "https://www.google.com/maps/embed?pb=!4v1588318863886!6m8!1m7!1sPhUcseDV10JYGn0HrcdeSQ!2m2!1d44.41285186123806!2d-79.66602739846284!3f96.61012204383975!4f21.179032108673482!5f0.7820865974627469"
                  },
                  {
                        "name": "Midland",
                        "overview": "",
                        "additional_info": "",
                        "address": "649 Prospect Blvd., Midland ON L4R 0G3",
                        "inquiry_no": [
                              "7055263666"
                        ],
                        "place_id": "ChIJq6ra_jCjKogRm0jOnDqAsIw",
                        "contact_info": [
                              {
                                    "name": "",
                                    "phone_no": "7055263666",
                                    "fax": "",
                                    "email_address": "midland@georgiancollege.ca",
                                    "description": ""
                              }
                        ],
                        "type": "Campus",
                        "cricos_provider_code": "",
                        "vtour_url": "https://www.google.com/maps/embed?pb=!4v1588319788879!6m8!1m7!1sfvQeMNctNj9MrrKp-0Q0kg!2m2!1d44.72719283380597!2d-79.8725533528006!3f158.50370427054014!4f0.9813339591231909!5f0.7820865974627469"
                  },
                  {
                        "name": "Muskoka",
                        "overview": "",
                        "additional_info": "",
                        "address": "111 Wellington St., Bracebridge ON P1L 1E2",
                        "inquiry_no": [
                              "7056467629"
                        ],
                        "place_id": "ChIJMyFj_YiGKk0R3LeamFII8ao",
                        "contact_info": [
                              {
                                    "name": "",
                                    "phone_no": "7056467629",
                                    "fax": "7056462120",
                                    "email_address": "muskoka@georgiancollege.ca",
                                    "description": ""
                              }
                        ],
                        "type": "Campus",
                        "cricos_provider_code": "",
                        "vtour_url": "https://www.google.com/maps/embed?pb=!4v1588319958164!6m8!1m7!1sSjnB5odTFj8lpnmgR27Q9w!2m2!1d45.03624940043447!2d-79.31814986647761!3f145.2480156446599!4f-7.390797592302889!5f0.7820865974627469"
                  },
                  {
                        "name": "Orangeville",
                        "overview": "",
                        "additional_info": "",
                        "address": "22 Centennial Road Orangeville, ON L9W 1P8",
                        "inquiry_no": [
                              "5199400331"
                        ],
                        "place_id": "ChIJ96A8Ow2qK4gRlRFVG8uv958",
                        "contact_info": [
                              {
                                    "name": "",
                                    "phone_no": "5199400331",
                                    "fax": "",
                                    "email_address": "orangeville@georgiancollege.ca",
                                    "description": ""
                              }
                        ],
                        "type": "Campus",
                        "cricos_provider_code": "",
                        "vtour_url": "https://www.google.com/maps/embed?pb=!4v1588320178955!6m8!1m7!1sCidcUkmmH7OSSFZ-cFM8QA!2m2!1d43.91258669420937!2d-80.10735121868998!3f41.09584893450024!4f13.644289077580751!5f0.7820865974627469"
                  },
                  {
                        "name": "Orillia",
                        "overview": "",
                        "additional_info": "",
                        "address": "825 Memorial Ave., Orillia ON L3V 6S2",
                        "inquiry_no": [
                              "7053252740"
                        ],
                        "place_id": "ChIJ6VsSSvurKk0R2t3NhNaG7QA",
                        "contact_info": [
                              {
                                    "name": "",
                                    "phone_no": "7053252740",
                                    "fax": "7053253690",
                                    "email_address": "orillia@georgiancollege.ca",
                                    "description": ""
                              }
                        ],
                        "type": "Campus",
                        "cricos_provider_code": "",
                        "vtour_url": "https://www.google.com/maps/embed?pb=!4v1588320339652!6m8!1m7!1sOYNWx_oFO61xqk7wOUxvYw!2m2!1d44.58169557699096!2d-79.43336480603158!3f261.06365738007014!4f1.4869912458798922!5f2.920527507323045"
                  },
                  {
                        "name": "Owen Sound",
                        "overview": "",
                        "additional_info": "",
                        "address": "1450 8th St. E., Owen Sound ON N4K 5R4",
                        "inquiry_no": [
                              "5193760840"
                        ],
                        "place_id": "ChIJUe2Pegv8KYgRHZxbg5ICAWQ",
                        "contact_info": [
                              {
                                    "name": "",
                                    "phone_no": "5193760840",
                                    "fax": "5193765395",
                                    "email_address": "owensound.inquire@georgiancollege.ca",
                                    "description": ""
                              }
                        ],
                        "type": "Campus",
                        "cricos_provider_code": "",
                        "vtour_url": "https://www.google.com/maps/embed?pb=!4v1588320688365!6m8!1m7!1s-kKD5RtmQ_Hd2l6qQeID2Q!2m2!1d44.56666366671982!2d-80.9185934431136!3f303.33821162181596!4f7.6181824595444!5f3.023908379153582"
                  },
                  {
                        "name": "South Georgian Bay",
                        "overview": "",
                        "additional_info": "",
                        "address": "499 Raglan St., Collingwood ON L9Y 3Z1",
                        "inquiry_no": [
                              "7054452961"
                        ],
                        "place_id": "ChIJbRGhZYt7KogRTh49NRY9bp4",
                        "contact_info": [
                              {
                                    "name": "",
                                    "phone_no": "7054452961",
                                    "fax": "7054451218",
                                    "email_address": "southgeorgianbay@georgiancollege.ca",
                                    "description": ""
                              }
                        ],
                        "type": "Campus",
                        "cricos_provider_code": "",
                        "vtour_url": "https://www.google.com/maps/embed?pb=!4v1588320872346!6m8!1m7!1s5azGhTqqW6s4ELTqWeBTHQ!2m2!1d44.48374710035316!2d-80.19261907394649!3f98.00890911927091!4f4.019380160657818!5f2.8131724796797326"
                  }
            ]
      }
]