{
    "univ_id": "loyalistcollege",
    "course_title": "Social Service Worker",
    "course_url": "https://www.loyalistcollege.com/programs-and-courses/full-time-programs/social-service-worker",
    "course_campus_location": [
        {
            "name": "Belleville campus",
            "city": "",
            "state": "",
            "country": "",
            "iscurrent": true
        }
    ],
    "course_study_mode": "On campus",
    "course_discipline": [],
    "program_code": "",
    "course_intake": {
        "intake": [
            {
                "name": "Belleville campus",
                "value": [
                    {
                        "actualdate": "September",
                        "month": "September",
                        "intake": "Spring"
                    },
                    {
                        "actualdate": "January",
                        "month": "January",
                        "intake": "Summer"
                    }
                ],
                "iscurrent": true
            }
        ],
        "more_details": "https://www.loyalistcollege.com/current-students/academic-schedule/academic-schedule-2020-2021/"
    },
    "course_study_level": "Diploma",
    "course_admission_requirement": {
        "english": [
            {
                "name": "ielts academic",
                "description": "6.0 overall with no bands less than 6.0 (under SDS)",
                "min": 0,
                "require": 6,
                "max": 9,
                "R": 0,
                "W": 0,
                "S": 0,
                "L": 0,
                "O": 0
            },
            {
                "name": "toefl pbt",
                "description": "550 (paper-based test)",
                "min": 310,
                "require": 550,
                "max": 677,
                "R": 0,
                "W": 0,
                "S": 0,
                "L": 0,
                "O": 0
            },
            {
                "name": "toefl ibt",
                "description": "80 (iBT internet-based test with minimums of 20)",
                "min": 0,
                "require": 80,
                "max": 120,
                "R": 0,
                "W": 0,
                "S": 0,
                "L": 0,
                "O": 0
            }
        ],
        "academic": [],
        "english_requirements_url": "http://www.stclaircollege.ca/international/admissionpolicies.html",
        "entry_requirements_url": "http://www.stclaircollege.ca/international/admissionpolicies.html",
        "academic_requirements_url": "http://www.stclaircollege.ca/international/admissionpolicies.html"
    },
    "course_duration": [
        {
            "duration_full_time": "two year program (SSWP); or accelerated stream for applicants with diploma or degree incorporating psychology and/or sociology (SSWA)"
        }
    ],
    "course_duration_display": [
        {
            "unit": "year",
            "duration": 2,
            "display": "Full-Time",
            "filterduration": 2
        }
    ],
    "isfulltime": true,
    "isparttime": false,
    "course_overview": "Social Service Workers help individuals and families deal with broad and complex issues such as poverty, access to needed social supports, reduction of oppression and social prejudice, educational challenges, mental health, addictions, abuse, illness and loss. This program will prepare you for the rewards and challenges of supporting people as they change and grow.",
    "course_career_outcome": [],
    "course_country": "Canada",
    "course_id": "socialserviceworker",
    "basecourseid": "socialserviceworker"
}