{
      "course_title": "Bachelor Of Fashion Business (Bfb)",
      "univ_id": "holmesinstitute",
      "course_url": "https://www.holmes.edu.au/pages/schools-and-faculties/higher-education/courses/bachelor-of-fashion-business",
      "course_campus_location": [
            {
                  "name": "Melbourne",
                  "code": "075515G"
            },
            {
                  "name": "Sydney",
                  "code": "075515G"
            }
      ],
      "course_study_mode": "On campus",
      "course_discipline": [
            "Management and Commerce"
      ],
      "program_code": "",
      "course_study_level": "Bachelor Degree",
      "course_duration": "3 year",
      "course_duration_display": [
            {
                  "unit": "year",
                  "duration": "3",
                  "display": "Full-Time",
                  "filterduration": 3
            }
      ],
      "isfulltime": true,
      "isparttime": false,
      "course_admission_requirement": {
            "english": [
                  {
                        "name": "ielts academic",
                        "description": "",
                        "min": 0,
                        "require": "",
                        "max": 9,
                        "R": 0,
                        "W": 0,
                        "S": 0,
                        "L": 0,
                        "O": 0
                  }
            ],
            "academic": [],
            "english_requirements_url": "",
            "academic_requirements_url": "",
            "entry_requirements_url": ""
      },
      "course_intake": {
            "intake": [
                  {
                        "name": "Melbourne",
                        "value": [
                              {
                                    "actualdate": "23rd March",
                                    "month": "March"
                              },
                              {
                                    "actualdate": "20th July",
                                    "month": "July"
                              },
                              {
                                    "actualdate": "9th November",
                                    "month": "November"
                              }
                        ]
                  },
                  {
                        "name": "Sydney",
                        "value": [
                              {
                                    "actualdate": "23rd March",
                                    "month": "March"
                              },
                              {
                                    "actualdate": "20th July",
                                    "month": "July"
                              },
                              {
                                    "actualdate": "9th November",
                                    "month": "November"
                              }
                        ]
                  }
            ],
            "more_details": "https://www.holmes.edu.au/pages/services/fees-and-start-dates"
      },
      "course_career_outcome": [],
      "course_country": "Australia",
      "course_tuition_fee": {
            "fees": [
                  {
                        "name": "Melbourne",
                        "value": {
                              "international_student": {
                                    "amount": 10700,
                                    "duration": 1,
                                    "unit": "trimester",
                                    "description": "$10,700 per trimester"
                              },
                              "fee_duration_years": "1",
                              "currency": "AUD"
                        }
                  },
                  {
                        "name": "Sydney",
                        "value": {
                              "international_student": {
                                    "amount": 10700,
                                    "duration": 1,
                                    "unit": "trimester",
                                    "description": "$10,700 per trimester"
                              },
                              "fee_duration_years": "1",
                              "currency": "AUD"
                        }
                  }
            ]
      },
      "course_overview": "As the fashion industry continues to grow in importance, it requires highly skilled individuals who understand how the fashion industry works. This course places emphasis on the business and commerce at the heart of the fashion industry.The study of fashion and business in a contemporary context reflects changes to industry-working practices to ensure closer alignment of fashion and business.Fashion product knowledge is reframed to better integrate design and aesthetics with management and business concepts, embedding themes of contemporary fashion industry studies, fashion product knowledge, retail and consumer relations and management and leadership in the fashion industry.This course examines how fashion ideas become fashion products and how these concepts reach the consumer. It explores the enterprises and businesses involved in this creative process along with the associated selling and promotion fields of the fashion industry.The course aims to provide students with the confidence and skills to create, communicate and thrive in the highly competitive fashion business environment. The Bachelor of Fashion and Business covers all aspects of the international fashion industry - with studies that will develop creative, technical, organisational and business knowledge and skills. The course analyses the history and theory behind the trade, design and communication within the fashion industry. It also examines future fashion production and promotion methods where students will develop the skills to manage costs, timelines and ethical issues impacting upon the fashion industry.",
      "course_outline": {
            "majors": [],
            "minors": [],
            "more_details": "https://www.holmes.edu.au/pages/schools-and-faculties/higher-education/courses/bachelor-of-fashion-business"
      },
      "application_fee": "",
      "course_id": "bacheloroffashionbusiness(bfb)"
}