[
    {
        "innerText": "Bachelor of Business (BBus)",
        "href": "https://www.holmes.edu.au/pages/schools-and-faculties/higher-education/courses/bachelor-of-business"
    },
    {
        "innerText": "Bachelor of Professional Accounting (BPA)",
        "href": "https://www.holmes.edu.au/pages/schools-and-faculties/higher-education/courses/bachelor-of-professional-accounting"
    },
    {
        "innerText": "Bachelor of Fashion Business (BFB)",
        "href": "https://www.holmes.edu.au/pages/schools-and-faculties/higher-education/courses/bachelor-of-fashion-business"
    },
    {
        "innerText": "Bachelor of Information Systems (BIS)",
        "href": "https://www.holmes.edu.au/pages/schools-and-faculties/higher-education/courses/bachelor-of-information-systems"
    },
    {
        "innerText": "Graduate Diploma in Business (GDB)",
        "href": "https://www.holmes.edu.au/pages/schools-and-faculties/higher-education/courses/graduate-diploma-in-business"
    },
    {
        "innerText": "Master of Business Administration (MBA)",
        "href": "https://www.holmes.edu.au/pages/schools-and-faculties/higher-education/courses/master-of-business-administration"
    },
    {
        "innerText": "Master of Professional Accounting (MPA)",
        "href": "https://www.holmes.edu.au/pages/schools-and-faculties/higher-education/courses/master-of-professional-accounting"
    },
    {
        "innerText": "Leadership and Management",
        "href": "https://www.holmes.edu.au/pages/schools-and-faculties/diploma/courses/leadership-and-management"
    },
    {
        "innerText": "Hospitality Management",
        "href": "https://www.holmes.edu.au/pages/schools-and-faculties/diploma/courses/hospitality"
    },
    {
        "innerText": "Commercial Cookery",
        "href": "https://www.holmes.edu.au/pages/schools-and-faculties/diploma/courses/commercial-cookery"
    },
    {
        "innerText": "Patisserie",
        "href": "https://www.holmes.edu.au/pages/schools-and-faculties/diploma/courses/patisserie"
    }
]