{
      "univ_id": "australiancatholicuniversity",
      "course_title": "Diploma In Youth Work",
      "course_url": "https://courses.acu.edu.au/other_courses/diploma_in_youth_work",
      "course_outline": {
            "majors": [],
            "minors": [],
            "more_details": "https://courses.acu.edu.au/other_courses/diploma_in_youth_work"
      },
      "application_fee": "",
      "program_code": "",
      "course_campus_location": [
            {
                  "name": "Melbourne",
                  "code": "084319D"
            }
      ],
      "course_study_mode": "On campus",
      "course_study_level": "Other courses",
      "course_overview": "This is a one-year introductory program for students interested in a range of entry-level careers in Youth Work. You will gain an insight into the diverse challenges and needs of young people in a range of public and community-based settings and be prepared for further study in the field.",
      "course_discipline": [
            "Humanities and social sciences"
      ],
      "course_admission_requirement": {
            "english": [
                  {
                        "name": "ielts academic",
                        "description": "Overall score: 6.0. Individual score of 5.5 in all tests.\n\n\t\t\t\t\t To be eligible for admission to the course, an applicant must have completed year 12 or equivalent with a minimum 50% pass, plus an IELTS overall score of 6.0 with an individual score of 5.5 in all tests.",
                        "min": 0,
                        "require": 6,
                        "max": 9,
                        "R": 0,
                        "W": 0,
                        "S": 0,
                        "L": 0,
                        "O": 0
                  }
            ],
            "academic": [
                  "An applicant must also comply with the Admission to Coursework Programs Policy.",
                  "Apply direct to Australian Catholic University.",
                  "To be eligible for admission to the course, an applicant must have completed year 12 or equivalent with a minimum 50% pass, plus an IELTS overall score of 6.0 with an individual score of 5.5 in all tests."
            ],
            "academic_requirements_url": "https://www.acu.edu.au/study-at-acu/how-to-apply/international-students/english-language-requirements",
            "english_requirements_url": "https://handbook.acu.edu.au/handbooks/handbook_2020/policies_and_general_information/admission_to_coursework_programs_-_policy_and_procedures/admission_to_coursework_programs_policy#collapseTwentyNine1",
            "entry_requirements_url": ""
      },
      "course_tuition_fee": {
            "fees": [
                  {
                        "name": "Melbourne",
                        "value": {
                              "international_student": {
                                    "amount": 23400,
                                    "duration": 1,
                                    "unit": "year",
                                    "description": "Average first year fee: $23400.00 (2020)"
                              },
                              "fee_duration_years": "1",
                              "currency": "AUD"
                        }
                  }
            ]
      },
      "course_duration": "1 year full-time or equivalent part-time",
      "course_duration_display": [
            {
                  "unit": "year",
                  "duration": "1",
                  "display": "Full-Time",
                  "filterduration": 1
            },
            {
                  "unit": "year",
                  "duration": "2",
                  "display": "Part-Time",
                  "filterduration": 2
            }
      ],
      "isfulltime": true,
      "isparttime": true,
      "course_intake": {
            "intake": [
                  {
                        "name": "Melbourne",
                        "value": [
                              {
                                    "actualdate": "20-Jul-2020 ",
                                    "month": "July"
                              },
                              {
                                    "actualdate": " 15-Feb-2021 ",
                                    "month": "February"
                              },
                              {
                                    "actualdate": " 26-Jul-2021 ",
                                    "month": "July"
                              },
                              {
                                    "actualdate": " 07-Feb-2022 ",
                                    "month": "February"
                              },
                              {
                                    "actualdate": " 18-Jul-2022",
                                    "month": "July"
                              }
                        ]
                  }
            ],
            "more_details": "https://www.acu.edu.au/research/resources-for-researchers/key-dates"
      },
      "course_career_outcome": [],
      "course_country": "Australia",
      "course_id": "diplomainyouthwork"
}
