[
      {
            "univ_id": "adelaideinstituteofbusinessandtechnology",
            "univ_url": "http://www.aibt.edu.au/",
            "univ_name": "Adelaide Institute of Business and Technology",
            "univ_country": "Australia",
            "univ_about": "Highly cost effective, our ever growing selection of nationally accredited courses are taught by fully employed AIBT lecturers and academics with diplomas, graduate diplomas and foundation courses leading directly to Bachelor and Master pathway entry to some of Australia’s top universities including Adelaide University, University of South Australia and Flinders University to name a few.",
            "univ_logo": "univ_aibtt/univ_logo.png",
            "univ_accomodation": {
                  "applicant": 20290,
                  "partner": 7100,
                  "child": 3040,
                  "currency": "AUD",
                  "more_details_univ_website": "",
                  "more_details": "https://www.studyinaustralia.gov.au/english/live-in-australia/living-costs"
            },
            "university_type": "Private",
            "univ_rankings": {
                  "rankings": []
            },
            "apply_url": "http://www.aibt.edu.au/enrolment/apply-now",
            "placement_url": "",
            "brochure_path": [
                  {
                        "name": "univ_aibt/aibt_1.pdf",
                        "text": "brochure for International Course Guide"
                  }
            ],
            "application_fee": "",
            "facebook_page_name": "AIBT",
            "twitter_page_name": "",
            "abbreviation": "AIBT",
            "youtube_page_name": "UCwVlZe65u-KP9NVA-aUG6jA",
            "contactInformation": [
                  {
                        "name": "Adelaide",
                        "address": "Level 5, 127 Rundle Mall, Adelaide, South Australia 5000 Australia",
                        "inquiry_no": [
                              "+61882120990"
                        ],
                        "place_id": "ChIJ2fcuN9bOsGoRYkKfjH7FnO8",
                        "contact_info": [
                              {
                                    "name": "",
                                    "phone_no": "",
                                    "fax": "",
                                    "email_address": "",
                                    "description": ""
                              }
                        ],
                        "type": "University",
                        "cricos_provider_code": "03133G",
                        "vtour_url": "https://www.google.com/maps/embed?pb=!4v1585302377695!6m8!1m7!1syiI3_77LedUFO-QRhe1Khg!2m2!1d-34.92299197007062!2d138.604402650601!3f239.84728607749688!4f-0.5708954823557804!5f0.7820865974627469"
                  }
            ]
      }
]