[
    {
        "univ_id": "universityofnewsouthwales",
        "univ_url": "https://www.international.unsw.edu.au/",
        "univ_name": "University of New South Wales",
        "univ_country": "Australia",
        "univ_about": "Welcome to UNSW Sydney (the University of New South Wales), one of Australia's leading research and teaching universities. At UNSW, we take pride in the broad range and high quality of our teaching programs. Our teaching gains strength and currency from our research activities, strong industry links and our international nature; UNSW has strong regional and global engagement. In developing new ideas and promoting lasting knowledge we are creating an academic environment where outstanding students and scholars from around the world can be inspired to excel in their programs of study and research. Partnerships with both local and global communities allow UNSW to share knowledge, debate and research outcomes. UNSW’s public events include concert performances, open days and public forums on issues such as the environment, healthcare and global politics. We encourage you to explore the UNSW website so you can find out more about what we do.",
        "univ_logo": "univ_unsw/unsw_logo.png",
        "univ_accomodation": {
            "applicant": 20290,
            "partner": 7100,
            "child": 3040,
            "currency": "AUD",
            "more_details_univ_website": "https://www.international.unsw.edu.au/accommodation",
            "more_details": "https://www.studyinaustralia.gov.au/english/live-in-australia/living-costs"
        },
        "univ_rankings": {
            "rankings": [
                {
                    "name": "QS World University Rankings",
                    "level": [
                        {
                            "name": "World",
                            "value": "43"
                        }
                    ]
                },
                {
                    "name": "Times Higher Education World University Rankings",
                    "level": [
                        {
                            "name": "World",
                            "value": "71"
                        }
                    ]
                }
            ]
        },
        "university_type": "Government",
        "apply_url": "https://www.futurestudents.unsw.edu.au/how-to-apply",
        "placement_url": "https://www.science.unsw.edu.au/industry/student-placements",
        "brochure_path": [
            {
                "name": "univ_unsw/universityofnewsouthwales_1.pdf",
                "text": "2020 Undergraduate Guide"
            },
            {
                "name": "univ_unsw/universityofnewsouthwales_2.pdf",
                "text": "2020 Postgraduate Guide"
            }
        ],
        "application_fee": "125",
        "facebook_page_name": "unsw",
        "twitter_page_name": "UNSW",
        "youtube_page_name": "UNSW",
        "abbreviation": "UNSW",
        "contactInformation": [
            {
                "name": "Kensington",
                "address": "Sydney NSW 2052, Australia",
                "inquiry_no": [],
                "place_id": "ChIJp8ECA4uxEmsRoAd6A2l9AR0",
                "contact_info": [
                    {
                        "name": "",
                        "phone_no": "+61293851000",
                        "fax": "",
                        "email_address": "",
                        "description": ""
                    }
                ],
                "cricos_provider_code": "00098G",
                "vtour_url": "https://www.google.com/maps/embed?pb=!4v1575267332235!6m8!1m7!1sCAoSLEFGMVFpcE42eU0yNGEtckhMQUk0R3h3NmdmVG95MXpuRlhjRW8wbG1xTVNY!2m2!1d-33.9171305!2d151.2304559!3f37.860232600639634!4f24.530494460110674!5f0.7820865974627469",
                "type": "University"
            }
        ]
    }
]