[
      {
            "href": "https://www.notredame.edu.au/programs/sydney/school-of-arts-and-sciences/undergraduate/bachelor-of-arts",
            "innerText": "Bachelor of Arts",
            "category": [
                  "Arts & Sciences"
            ],
            "study_level": "Undergraduate"
      },
      {
            "href": "https://www.notredame.edu.au/programs/fremantle/school-of-arts-and-sciences/undergraduate/bachelor-of-arts",
            "innerText": "Bachelor of Arts",
            "category": [
                  "Arts & Sciences"
            ],
            "study_level": "Undergraduate"
      },
      {
            "href": "https://www.notredame.edu.au/programs/fremantle/school-of-arts-and-sciences/undergraduate/bachelor-of-arts-major-archaeology",
            "innerText": "Bachelor of Arts (Major: Archaeology)",
            "category": [
                  "Arts & Sciences"
            ],
            "study_level": "Undergraduate"
      },
      {
            "href": "https://www.notredame.edu.au/programs/sydney/school-of-arts-and-sciences/undergraduate/bachelor-of-arts-major-advertising",
            "innerText": "Bachelor of Arts (Major: Advertising)",
            "category": [
                  "Arts & Sciences"
            ],
            "study_level": "Undergraduate"
      },
      {
            "href": "https://www.notredame.edu.au/programs/sydney/school-of-arts-and-sciences/undergraduate/bachelor-of-arts-major-applied-psychology",
            "innerText": "Bachelor of Arts (Major: Applied Psychology)",
            "category": [
                  "Arts & Sciences"
            ],
            "study_level": "Undergraduate"
      },
      {
            "href": "https://www.notredame.edu.au/programs/fremantle/school-of-arts-and-sciences/undergraduate/bachelor-of-arts-major-behavioural-science",
            "innerText": "Bachelor of Arts (Major: Behavioural Science)",
            "category": [
                  "Arts & Sciences"
            ],
            "study_level": "Undergraduate"
      },
      {
            "href": "https://www.notredame.edu.au/programs/sydney/school-of-arts-and-sciences/undergraduate/bachelor-of-arts-major-business",
            "innerText": "Bachelor of Arts (Second Major: Business)",
            "category": [
                  "Arts & Sciences"
            ],
            "study_level": "Undergraduate"
      },
      {
            "href": "https://www.notredame.edu.au/programs/fremantle/school-of-arts-and-sciences/undergraduate/bachelor-of-arts-major-business-studies",
            "innerText": "Bachelor of Arts (Second Major: Business Studies)",
            "category": [
                  "Arts & Sciences"
            ],
            "study_level": "Undergraduate"
      },
      {
            "href": "https://www.notredame.edu.au/programs/sydney/school-of-arts-and-sciences/undergraduate/bachelor-of-arts-major-counselling",
            "innerText": "Bachelor of Arts (Major: Counselling)",
            "category": [
                  "Arts & Sciences"
            ],
            "study_level": "Undergraduate"
      },
      {
            "href": "https://www.notredame.edu.au/programs/sydney/school-of-arts-and-sciences/undergraduate/bachelor-of-arts-major-english-literature",
            "innerText": "Bachelor of Arts (Major: English Literature)",
            "category": [
                  "Arts & Sciences"
            ],
            "study_level": "Undergraduate"
      },
      {
            "href": "https://www.notredame.edu.au/programs/fremantle/school-of-arts-and-sciences/undergraduate/bachelor-of-arts-major-english-literature",
            "innerText": "Bachelor of Arts (Major: English Literature)",
            "category": [
                  "Arts & Sciences"
            ],
            "study_level": "Undergraduate"
      },
      {
            "href": "https://www.notredame.edu.au/programs/fremantle/school-of-arts-and-sciences/undergraduate/bachelor-of-arts-major-environmental-management",
            "innerText": "Bachelor of Arts (Major: Environmental Management)",
            "category": [
                  "Arts & Sciences"
            ],
            "study_level": "Undergraduate"
      },
      {
            "href": "https://www.notredame.edu.au/programs/sydney/school-of-arts-and-sciences/undergraduate/bachelor-of-arts-major-film-and-screen-production",
            "innerText": "Bachelor of Arts (Major: Film & Screen Production)",
            "category": [
                  "Arts & Sciences"
            ],
            "study_level": "Undergraduate"
      },
      {
            "href": "https://www.notredame.edu.au/programs/fremantle/school-of-arts-and-sciences/undergraduate/bachelor-of-arts-major-film-and-screen-production",
            "innerText": "Bachelor of Arts (Major: Film & Screen Production)",
            "category": [
                  "Arts & Sciences"
            ],
            "study_level": "Undergraduate"
      },
      {
            "href": "https://www.notredame.edu.au/programs/sydney/school-of-arts-and-sciences/undergraduate/bachelor-of-arts-major-history",
            "innerText": "Bachelor of Arts (Major: History)",
            "category": [
                  "Arts & Sciences"
            ],
            "study_level": "Undergraduate"
      },
      {
            "href": "https://www.notredame.edu.au/programs/fremantle/school-of-arts-and-sciences/undergraduate/bachelor-of-arts-major-history",
            "innerText": "Bachelor of Arts (Major: History)",
            "category": [
                  "Arts & Sciences"
            ],
            "study_level": "Undergraduate"
      },
      {
            "href": "https://www.notredame.edu.au/programs/sydney/school-of-arts-and-sciences/undergraduate/bachelor-of-arts-major-human-resource-management",
            "innerText": "Bachelor of Arts (Second Major: Human Resource Management)",
            "category": [
                  "Arts & Sciences"
            ],
            "study_level": "Undergraduate"
      },
      {
            "href": "https://www.notredame.edu.au/programs/sydney/school-of-arts-and-sciences/undergraduate/bachelor-of-arts-major-journalism",
            "innerText": "Bachelor of Arts (Major: Journalism)",
            "category": [
                  "Arts & Sciences"
            ],
            "study_level": "Undergraduate"
      },
      {
            "href": "https://www.notredame.edu.au/programs/fremantle/school-of-arts-and-sciences/undergraduate/bachelor-of-arts-major-journalism",
            "innerText": "Bachelor of Arts (Major: Journalism)",
            "category": [
                  "Arts & Sciences"
            ],
            "study_level": "Undergraduate"
      },
      {
            "href": "https://www.notredame.edu.au/programs/fremantle/school-of-arts-and-sciences/undergraduate/bachelor-of-arts-major-photography",
            "innerText": "Bachelor of Arts (Major: Photography)",
            "category": [
                  "Arts & Sciences"
            ],
            "study_level": "Undergraduate"
      },
      {
            "href": "https://www.notredame.edu.au/programs/sydney/school-of-arts-and-sciences/undergraduate/bachelor-of-arts-major-liberal-arts",
            "innerText": "Bachelor of Arts (Major: Liberal Arts)",
            "category": [
                  "Arts & Sciences"
            ],
            "study_level": "Undergraduate"
      },
      {
            "href": "https://www.notredame.edu.au/programs/sydney/school-of-arts-and-sciences/undergraduate/bachelor-of-arts-major-marketing",
            "innerText": "Bachelor of Arts (Major: Marketing)",
            "category": [
                  "Arts & Sciences"
            ],
            "study_level": "Undergraduate"
      },
      {
            "href": "https://www.notredame.edu.au/programs/fremantle/school-of-arts-and-sciences/undergraduate/bachelor-of-arts-major-marketing-and-public-relations",
            "innerText": "Bachelor of Arts (Second Major: Marketing & Public Relations)",
            "category": [
                  "Arts & Sciences"
            ],
            "study_level": "Undergraduate"
      },
      {
            "href": "https://www.notredame.edu.au/programs/fremantle/school-of-arts-and-sciences/undergraduate/bachelor-of-arts-major-philosophy",
            "innerText": "Bachelor of Arts (Major: Philosophy)",
            "category": [
                  "Arts & Sciences"
            ],
            "study_level": "Undergraduate"
      },
      {
            "href": "https://www.notredame.edu.au/programs/sydney/school-of-arts-and-sciences/undergraduate/bachelor-of-arts-major-philosophy",
            "innerText": "Bachelor of Arts (Major: Philosophy)",
            "category": [
                  "Arts & Sciences"
            ],
            "study_level": "Undergraduate"
      },
      {
            "href": "https://www.notredame.edu.au/programs/fremantle/school-of-arts-and-sciences/undergraduate/bachelor-of-arts-major-politics-and-journalism",
            "innerText": "Bachelor of Arts (Politics & Journalism)",
            "category": [
                  "Arts & Sciences"
            ],
            "study_level": "Undergraduate"
      },
      {
            "href": "https://www.notredame.edu.au/programs/sydney/school-of-arts-and-sciences/undergraduate/bachelor-of-arts-major-politics-and-journalism",
            "innerText": "Bachelor of Arts (Politics & Journalism)",
            "category": [
                  "Arts & Sciences"
            ],
            "study_level": "Undergraduate"
      },
      {
            "href": "https://www.notredame.edu.au/programs/sydney/school-of-arts-and-sciences/undergraduate/bachelor-of-arts-major-politics-and-international-relations",
            "innerText": "Bachelor of Arts (Major: Politics & International Relations)",
            "category": [
                  "Arts & Sciences"
            ],
            "study_level": "Undergraduate"
      },
      {
            "href": "https://www.notredame.edu.au/programs/fremantle/school-of-arts-and-sciences/undergraduate/bachelor-of-arts-major-politics-and-international-relations",
            "innerText": "Bachelor of Arts (Major: Politics & International Relations)",
            "category": [
                  "Arts & Sciences"
            ],
            "study_level": "Undergraduate"
      },
      {
            "href": "https://www.notredame.edu.au/programs/sydney/school-of-arts-and-sciences/undergraduate/bachelor-of-arts-major-public-relations",
            "innerText": "Bachelor of Arts (Second Major: Public Relations)",
            "category": [
                  "Arts & Sciences"
            ],
            "study_level": "Undergraduate"
      },
      {
            "href": "https://www.notredame.edu.au/programs/fremantle/school-of-arts-and-sciences/undergraduate/bachelor-of-arts-major-social-justice",
            "innerText": "Bachelor of Arts (Major: Social Justice)",
            "category": [
                  "Arts & Sciences"
            ],
            "study_level": "Undergraduate"
      },
      {
            "href": "https://www.notredame.edu.au/programs/sydney/school-of-arts-and-sciences/undergraduate/bachelor-of-arts-major-social-justice",
            "innerText": "Bachelor of Arts (Major: Social Justice)",
            "category": [
                  "Arts & Sciences"
            ],
            "study_level": "Undergraduate"
      },
      {
            "href": "https://www.notredame.edu.au/programs/sydney/school-of-arts-and-sciences/undergraduate/bachelor-of-arts-major-sociology",
            "innerText": "Bachelor of Arts (Major: Sociology)",
            "category": [
                  "Arts & Sciences"
            ],
            "study_level": "Undergraduate"
      },
      {
            "href": "https://www.notredame.edu.au/programs/sydney/school-of-arts-and-sciences/undergraduate/bachelor-of-arts-major-theatre-studies",
            "innerText": "Bachelor of Arts (Major: Theatre Studies)",
            "category": [
                  "Arts & Sciences"
            ],
            "study_level": "Undergraduate"
      },
      {
            "href": "https://www.notredame.edu.au/programs/fremantle/school-of-arts-and-sciences/undergraduate/bachelor-of-arts-major-theatre-studies",
            "innerText": "Bachelor of Arts (Major: Theatre Studies)",
            "category": [
                  "Arts & Sciences"
            ],
            "study_level": "Undergraduate"
      },
      {
            "href": "https://www.notredame.edu.au/programs/sydney/school-of-arts-and-sciences/undergraduate/bachelor-of-arts-major-theology",
            "innerText": "Bachelor of Arts (Major: Theology)",
            "category": [
                  "Arts & Sciences"
            ],
            "study_level": "Undergraduate"
      },
      {
            "href": "https://www.notredame.edu.au/programs/fremantle/school-of-arts-and-sciences/undergraduate/bachelor-of-arts-major-theology",
            "innerText": "Bachelor of Arts (Major: Theology)",
            "category": [
                  "Arts & Sciences"
            ],
            "study_level": "Undergraduate"
      },
      {
            "href": "https://www.notredame.edu.au/programs/sydney/school-of-arts-and-sciences/undergraduate/bachelor-of-arts-major-writing",
            "innerText": "Bachelor of Arts (Major: Writing)",
            "category": [
                  "Arts & Sciences"
            ],
            "study_level": "Undergraduate"
      },
      {
            "href": "https://www.notredame.edu.au/programs/fremantle/school-of-arts-and-sciences/undergraduate/bachelor-of-behavioural-science",
            "innerText": "Bachelor of Behavioural Science",
            "category": [
                  "Arts & Sciences"
            ],
            "study_level": "Undergraduate"
      },
      {
            "href": "https://www.notredame.edu.au/programs/fremantle/school-of-arts-and-sciences/undergraduate/bachelor-of-counselling",
            "innerText": "Bachelor of Counselling",
            "category": [
                  "Arts & Sciences"
            ],
            "study_level": "Undergraduate"
      },
      {
            "href": "https://www.notredame.edu.au/programs/sydney/school-of-arts-and-sciences/undergraduate/bachelor-of-communications-and-media",
            "innerText": "Bachelor of Communications & Media",
            "category": [
                  "Arts & Sciences"
            ],
            "study_level": "Undergraduate"
      },
      {
            "href": "https://www.notredame.edu.au/programs/fremantle/school-of-arts-and-sciences/undergraduate/bachelor-of-communications-and-media",
            "innerText": "Bachelor of Communications & Media",
            "category": [
                  "Arts & Sciences"
            ],
            "study_level": "Undergraduate"
      },
      {
            "href": "https://www.notredame.edu.au/programs/fremantle/school-of-arts-and-sciences/undergraduate/bachelor-of-communications-and-media-major-film-and-screen-production",
            "innerText": "Bachelor of Communications & Media (Major: Film & Screen Production)",
            "category": [
                  "Arts & Sciences"
            ],
            "study_level": "Undergraduate"
      },
      {
            "href": "https://www.notredame.edu.au/programs/fremantle/school-of-arts-and-sciences/undergraduate/bachelor-of-communications-and-media-major-journalism",
            "innerText": "Bachelor of Communications & Media (Major: Journalism)",
            "category": [
                  "Arts & Sciences"
            ],
            "study_level": "Undergraduate"
      },
      {
            "href": "https://www.notredame.edu.au/programs/fremantle/school-of-arts-and-sciences/undergraduate/bachelor-of-media-communications-major-photography",
            "innerText": "Bachelor of Communications & Media (Major: Photography)",
            "category": [
                  "Arts & Sciences"
            ],
            "study_level": "Undergraduate"
      },
      {
            "href": "https://www.notredame.edu.au/programs/fremantle/school-of-arts-and-sciences/undergraduate/bachelor-of-science",
            "innerText": "Bachelor of Science",
            "category": [
                  "Arts & Sciences"
            ],
            "study_level": "Undergraduate"
      },
      {
            "href": "https://www.notredame.edu.au/programs/fremantle/school-of-arts-and-sciences/undergraduate/bachelor-of-science-major-archaeology",
            "innerText": "Bachelor of Science (Major: Archaeology)",
            "category": [
                  "Arts & Sciences"
            ],
            "study_level": "Undergraduate"
      },
      {
            "href": "https://www.notredame.edu.au/programs/fremantle/school-of-arts-and-sciences/undergraduate/bachelor-of-science-major-biology",
            "innerText": "Bachelor of Science (Major: Biology)",
            "category": [
                  "Arts & Sciences"
            ],
            "study_level": "Undergraduate"
      },
      {
            "href": "https://www.notredame.edu.au/programs/fremantle/school-of-arts-and-sciences/undergraduate/bachelor-of-science-major-environmental-management",
            "innerText": "Bachelor of Science (Major: Environmental Management)",
            "category": [
                  "Arts & Sciences"
            ],
            "study_level": "Undergraduate"
      },
      {
            "href": "https://www.notredame.edu.au/programs/fremantle/school-of-arts-and-sciences/undergraduate/double-degrees",
            "innerText": "Double degrees – Arts & Sciences",
            "category": [
                  "Arts & Sciences"
            ],
            "study_level": "Undergraduate"
      },
      {
            "href": "https://www.notredame.edu.au/programs/fremantle/school-of-arts-and-sciences/undergraduate/bachelor-of-arts-behavioural-science",
            "innerText": "Bachelor of Arts / Bachelor of Behavioural Science",
            "category": [
                  "Arts & Sciences"
            ],
            "study_level": "Undergraduate"
      },
      {
            "href": "https://www.notredame.edu.au/programs/fremantle/school-of-arts-and-sciences/undergraduate/bachelor-of-arts-pj-behavioural-science",
            "innerText": "Bachelor of Arts (Politics & Journalism) / Behavioural Science",
            "category": [
                  "Arts & Sciences"
            ],
            "study_level": "Undergraduate"
      },
      {
            "href": "https://www.notredame.edu.au/programs/fremantle/school-of-arts-and-sciences/undergraduate/bachelor-of-science-arts",
            "innerText": "Bachelor of Science / Bachelor of Arts",
            "category": [
                  "Arts & Sciences"
            ],
            "study_level": "Undergraduate"
      },
      {
            "href": "https://www.notredame.edu.au/programs/fremantle/school-of-arts-and-sciences/undergraduate/bachelor-of-science-behavioural-science",
            "innerText": "Bachelor of Science / Behavioural Science",
            "category": [
                  "Arts & Sciences"
            ],
            "study_level": "Undergraduate"
      },
      {
            "href": "https://www.notredame.edu.au/programs/fremantle/school-of-arts-and-sciences/undergraduate/bachelor-of-communications-and-media-arts",
            "innerText": "Bachelor of Communications & Media / Arts",
            "category": [
                  "Arts & Sciences"
            ],
            "study_level": "Undergraduate"
      },
      {
            "href": "https://www.notredame.edu.au/programs/fremantle/school-of-arts-and-sciences/undergraduate/bachelor-of-communications-and-media-behavioural-science",
            "innerText": "Bachelor of Communications & Media / Behavioural Science",
            "category": [
                  "Arts & Sciences"
            ],
            "study_level": "Undergraduate"
      },
      {
            "href": "https://www.notredame.edu.au/programs/sydney/school-of-business/undergraduate/bachelor-of-accounting",
            "innerText": "Bachelor of Accounting",
            "category": [
                  "Business"
            ],
            "study_level": "Undergraduate"
      },
      {
            "href": "https://www.notredame.edu.au/programs/sydney/school-of-business/undergraduate/bachelor-of-business-administration",
            "innerText": "Bachelor of Business Administration",
            "category": [
                  "Business"
            ],
            "study_level": "Undergraduate"
      },
      {
            "href": "https://www.notredame.edu.au/programs/fremantle/school-of-business/undergraduate/bachelor-of-commerce",
            "innerText": "Bachelor of Commerce",
            "category": [
                  "Business"
            ],
            "study_level": "Undergraduate"
      },
      {
            "href": "https://www.notredame.edu.au/programs/sydney/school-of-business/undergraduate/bachelor-of-commerce",
            "innerText": "Bachelor of Commerce",
            "category": [
                  "Business"
            ],
            "study_level": "Undergraduate"
      },
      {
            "href": "https://www.notredame.edu.au/programs/fremantle/school-of-business/undergraduate/bachelor-of-commerce-major-accounting",
            "innerText": "Bachelor of Commerce (Major: Accounting)",
            "category": [
                  "Business"
            ],
            "study_level": "Undergraduate"
      },
      {
            "href": "https://www.notredame.edu.au/programs/sydney/school-of-business/undergraduate/bachelor-of-commerce-accounting",
            "innerText": "Bachelor of Commerce (Major: Accounting)",
            "category": [
                  "Business"
            ],
            "study_level": "Undergraduate"
      },
      {
            "href": "https://www.notredame.edu.au/programs/sydney/school-of-business/undergraduate/bachelor-of-commerce-advertising",
            "innerText": "Bachelor of Commerce (Major: Advertising)",
            "category": [
                  "Business"
            ],
            "study_level": "Undergraduate"
      },
      {
            "href": "https://www.notredame.edu.au/programs/sydney/school-of-business/undergraduate/bachelor-of-commerce-economics",
            "innerText": "Bachelor of Commerce (Major: Economics)",
            "category": [
                  "Business"
            ],
            "study_level": "Undergraduate"
      },
      {
            "href": "https://www.notredame.edu.au/programs/fremantle/school-of-business/undergraduate/bachelor-of-commerce-major-economics",
            "innerText": "Bachelor of Commerce (Major: Economics)",
            "category": [
                  "Business"
            ],
            "study_level": "Undergraduate"
      },
      {
            "href": "https://www.notredame.edu.au/programs/sydney/school-of-business/undergraduate/bachelor-of-commerce-finance",
            "innerText": "Bachelor of Commerce (Major: Finance)",
            "category": [
                  "Business"
            ],
            "study_level": "Undergraduate"
      },
      {
            "href": "https://www.notredame.edu.au/programs/fremantle/school-of-business/undergraduate/bachelor-of-commerce-major-finance",
            "innerText": "Bachelor of Commerce (Major: Finance)",
            "category": [
                  "Business"
            ],
            "study_level": "Undergraduate"
      },
      {
            "href": "https://www.notredame.edu.au/programs/sydney/school-of-business/undergraduate/bachelor-of-commerce-human-resource-management",
            "innerText": "Bachelor of Commerce (Major: Human Resource Management)",
            "category": [
                  "Business"
            ],
            "study_level": "Undergraduate"
      },
      {
            "href": "https://www.notredame.edu.au/programs/fremantle/school-of-business/undergraduate/bachelor-of-commerce-major-human-resource-management",
            "innerText": "Bachelor of Commerce (Major: Human Resource Management)",
            "category": [
                  "Business"
            ],
            "study_level": "Undergraduate"
      },
      {
            "href": "https://www.notredame.edu.au/programs/sydney/school-of-business/undergraduate/bachelor-of-commerce-management",
            "innerText": "Bachelor of Commerce (Major: Management)",
            "category": [
                  "Business"
            ],
            "study_level": "Undergraduate"
      },
      {
            "href": "https://www.notredame.edu.au/programs/fremantle/school-of-business/undergraduate/bachelor-of-commerce-major-management",
            "innerText": "Bachelor of Commerce (Major: Management)",
            "category": [
                  "Business"
            ],
            "study_level": "Undergraduate"
      },
      {
            "href": "https://www.notredame.edu.au/programs/sydney/school-of-business/undergraduate/bachelor-of-commerce-marketing",
            "innerText": "Bachelor of Commerce (Major: Marketing)",
            "category": [
                  "Business"
            ],
            "study_level": "Undergraduate"
      },
      {
            "href": "https://www.notredame.edu.au/programs/fremantle/school-of-business/undergraduate/bachelor-of-commerce-major-marketing",
            "innerText": "Bachelor of Commerce (Major: Marketing)",
            "category": [
                  "Business"
            ],
            "study_level": "Undergraduate"
      },
      {
            "href": "https://www.notredame.edu.au/programs/sydney/school-of-business/undergraduate/bachelor-of-commerce-public-relations",
            "innerText": "Bachelor of Commerce (Major: Public Relations)",
            "category": [
                  "Business"
            ],
            "study_level": "Undergraduate"
      },
      {
            "href": "https://www.notredame.edu.au/programs/fremantle/school-of-business/undergraduate/bachelor-of-commerce-major-public-relations",
            "innerText": "Bachelor of Commerce (Major: Public Relations)",
            "category": [
                  "Business"
            ],
            "study_level": "Undergraduate"
      },
      {
            "href": "https://www.notredame.edu.au/programs/fremantle/school-of-business/undergraduate/bachelor-of-commerce-major-sport-and-recreation-management",
            "innerText": "Bachelor of Commerce (Major: Sport & Recreation Management)",
            "category": [
                  "Business"
            ],
            "study_level": "Undergraduate"
      },
      {
            "href": "https://www.notredame.edu.au/programs/fremantle/school-of-business/undergraduate/bachelor-of-commerce-bachelor-of-arts",
            "innerText": "Bachelor of Commerce / Bachelor of Arts ",
            "category": [
                  "Business"
            ],
            "study_level": "Undergraduate"
      },
      {
            "href": "https://www.notredame.edu.au/programs/sydney/school-of-business/undergraduate/bachelor-of-commercebachelor-of-arts",
            "innerText": "Bachelor of Commerce / Bachelor of Arts",
            "category": [
                  "Business"
            ],
            "study_level": "Undergraduate"
      },
      {
            "href": "https://www.notredame.edu.au/programs/fremantle/school-of-business/undergraduate/bachelor-of-commerce-bachelor-of-behavioural-science",
            "innerText": "Bachelor of Commerce / Bachelor of Behavioural Science",
            "category": [
                  "Business"
            ],
            "study_level": "Undergraduate"
      },
      {
            "href": "https://www.notredame.edu.au/programs/fremantle/school-of-business/undergraduate/bachelor-of-commerce-bachelor-of-communications-and-media",
            "innerText": "Bachelor of Commerce / Bachelor of Communications & Media",
            "category": [
                  "Business"
            ],
            "study_level": "Undergraduate"
      },
      {
            "href": "https://www.notredame.edu.au/programs/fremantle/school-of-business/undergraduate/bachelor-of-commerce-bachelor-of-science",
            "innerText": "Bachelor of Commerce / Bachelor of Science",
            "category": [
                  "Business"
            ],
            "study_level": "Undergraduate"
      },
      {
            "href": "https://www.notredame.edu.au/programs/sydney/school-of-business/undergraduate/bachelor-of-human-resource-management",
            "innerText": "Bachelor of Human Resource Management",
            "category": [
                  "Business"
            ],
            "study_level": "Undergraduate"
      },
      {
            "href": "https://www.notredame.edu.au/programs/fremantle/school-of-business/undergraduate/bachelor-of-human-resource-management",
            "innerText": "Bachelor of Human Resource Management",
            "category": [
                  "Business"
            ],
            "study_level": "Undergraduate"
      },
      {
            "href": "https://www.notredame.edu.au/programs/fremantle/school-of-business/undergraduate/bachelor-of-human-resource-management-bachelor-of-arts",
            "innerText": "Bachelor of Human Resource Management / Bachelor of Arts",
            "category": [
                  "Business"
            ],
            "study_level": "Undergraduate"
      },
      {
            "href": "https://www.notredame.edu.au/programs/fremantle/school-of-business/undergraduate/bachelor-of-human-resource-management-bachelor-of-behavioural-science",
            "innerText": "Bachelor of Human Resource Management / Bachelor of Behavioural Science",
            "category": [
                  "Business"
            ],
            "study_level": "Undergraduate"
      },
      {
            "href": "https://www.notredame.edu.au/programs/sydney/school-of-business/undergraduate/bachelor-of-marketing-and-public-relations",
            "innerText": "Bachelor of Marketing & Public Relations",
            "category": [
                  "Business"
            ],
            "study_level": "Undergraduate"
      },
      {
            "href": "https://www.notredame.edu.au/programs/fremantle/school-of-business/undergraduate/bachelor-of-marketing-and-public-relations",
            "innerText": "Bachelor of Marketing & Public Relations",
            "category": [
                  "Business"
            ],
            "study_level": "Undergraduate"
      },
      {
            "href": "https://www.notredame.edu.au/programs/fremantle/school-of-business/undergraduate/bachelor-of-marketing-and-public-relations-bachelor-of-arts",
            "innerText": "Bachelor of Marketing & Public Relations / Bachelor of Arts",
            "category": [
                  "Business"
            ],
            "study_level": "Undergraduate"
      },
      {
            "href": "https://www.notredame.edu.au/programs/fremantle/school-of-business/undergraduate/bachelor-of-marketing-and-public-relations-bachelor-of-behavioural-science",
            "innerText": "Bachelor of Marketing & Public Relations / Bachelor of Behavioural Science",
            "category": [
                  "Business"
            ],
            "study_level": "Undergraduate"
      },
      {
            "href": "https://www.notredame.edu.au/programs/fremantle/school-of-business/undergraduate/bachelor-of-marketing-and-public-relations-bachelor-of-communications-and-media",
            "innerText": "Bachelor of Marketing & Public Relations / Bachelor of Communications & Media",
            "category": [
                  "Business"
            ],
            "study_level": "Undergraduate"
      },
      {
            "href": "https://www.notredame.edu.au/programs/fremantle/school-of-business/undergraduate/bachelor-of-sport-recreation-management",
            "innerText": "Bachelor of Sport & Recreation Management",
            "category": [
                  "Business"
            ],
            "study_level": "Undergraduate"
      },
      {
            "href": "https://www.notredame.edu.au/programs/fremantle/school-of-business/undergraduate/bachelor-of-sport-and-recreation-management-bachelor-of-communications-and-media",
            "innerText": "Bachelor of Sport & Recreation Management / Bachelor of Communications & Media",
            "category": [
                  "Business"
            ],
            "study_level": "Undergraduate"
      },
      {
            "href": "https://www.notredame.edu.au/programs/fremantle/school-of-education/undergraduate/bachelor-of-education-early-childhood-and-care-0-8-years",
            "innerText": "Bachelor of Education (Early Childhood & Care: 0-8 Years)",
            "category": [
                  "Education"
            ],
            "study_level": "Undergraduate"
      },
      {
            "href": "https://www.notredame.edu.au/programs/fremantle/school-of-education/undergraduate/bachelor-of-education-early-childhood-and-care-0-8-yearsbachelor-of-arts",
            "innerText": "Bachelor of Education (Early Childhood & Care: 0-8 Years) / Bachelor of Arts",
            "category": [
                  "Education"
            ],
            "study_level": "Undergraduate"
      },
      {
            "href": "https://www.notredame.edu.au/programs/fremantle/school-of-education/undergraduate/bachelor-of-education-ece-behavioural-science",
            "innerText": "Bachelor of Education (Early Childhood & Care: 0-8 Years) / Bachelor of Behavioural Science",
            "category": [
                  "Education"
            ],
            "study_level": "Undergraduate"
      },
      {
            "href": "https://www.notredame.edu.au/programs/sydney/school-of-education/undergraduate/bachelor-of-primary-education",
            "innerText": "Bachelor of Primary Education",
            "category": [
                  "Education"
            ],
            "study_level": "Undergraduate"
      },
      {
            "href": "https://www.notredame.edu.au/programs/fremantle/school-of-education/undergraduate/bachelor-of-education-primary",
            "innerText": "Bachelor of Education (Primary)",
            "category": [
                  "Education"
            ],
            "study_level": "Undergraduate"
      },
      {
            "href": "https://www.notredame.edu.au/programs/fremantle/school-of-education/undergraduate/bachelor-of-education-secondary",
            "innerText": "Bachelor of Education (Secondary)",
            "category": [
                  "Education"
            ],
            "study_level": "Undergraduate"
      },
      {
            "href": "https://www.notredame.edu.au/programs/sydney/school-of-education/undergraduate/bachelor-of-secondary-education",
            "innerText": "Bachelor of Secondary Education",
            "category": [
                  "Education"
            ],
            "study_level": "Undergraduate"
      },
      {
            "href": "https://www.notredame.edu.au/programs/fremantle/school-of-health-sciences/undergraduate/bachelor-of-exercise-and-sport-science",
            "innerText": "Bachelor of Exercise & Sport Science",
            "category": [
                  "Health Sciences"
            ],
            "study_level": "Undergraduate"
      },
      {
            "href": "https://www.notredame.edu.au/programs/fremantle/school-of-health-sciences/undergraduate/bachelor-of-health-and-physical-education-primary",
            "innerText": "Bachelor of Health & Physical Education (Primary)",
            "category": [
                  "Health Sciences"
            ],
            "study_level": "Undergraduate"
      },
      {
            "href": "https://www.notredame.edu.au/programs/fremantle/school-of-health-sciences/undergraduate/bachelor-of-health-and-physical-education-secondary",
            "innerText": "Bachelor of Health & Physical Education (Secondary)",
            "category": [
                  "Health Sciences"
            ],
            "study_level": "Undergraduate"
      },
      {
            "href": "https://www.notredame.edu.au/programs/fremantle/school-of-health-sciences/undergraduate/bachelor-of-outdoor-recreation",
            "innerText": "Bachelor of Outdoor Recreation",
            "category": [
                  "Health Sciences"
            ],
            "study_level": "Undergraduate"
      },
      {
            "href": "https://www.notredame.edu.au/programs/fremantle/school-of-health-sciences/undergraduate/bachelor-of-health-promotion",
            "innerText": "Bachelor of Health Promotion",
            "category": [
                  "Health Sciences"
            ],
            "study_level": "Undergraduate"
      },
      {
            "href": "https://www.notredame.edu.au/programs/fremantle/school-of-health-sciences/undergraduate/bachelor-of-biomedical-science",
            "innerText": "Bachelor of Biomedical Science",
            "category": [
                  "Health Sciences"
            ],
            "study_level": "Undergraduate"
      },
      {
            "href": "https://www.notredame.edu.au/programs/fremantle/school-of-health-sciences/undergraduate/bachelor-of-biomedical-sciencebachelor-of-commerce",
            "innerText": "Bachelor of Biomedical Science / Bachelor of Commerce",
            "category": [
                  "Health Sciences"
            ],
            "study_level": "Undergraduate"
      },
      {
            "href": "https://www.notredame.edu.au/programs/fremantle/school-of-law/undergraduate/bachelor-of-laws",
            "innerText": "Bachelor of Laws",
            "category": [
                  "Law"
            ],
            "study_level": "Undergraduate"
      },
      {
            "href": "https://www.notredame.edu.au/programs/sydney/school-of-law/undergraduate/bachelor-of-laws",
            "innerText": "Bachelor of Laws",
            "category": [
                  "Law"
            ],
            "study_level": "Undergraduate"
      },
      {
            "href": "https://www.notredame.edu.au/programs/fremantle/school-of-law/undergraduate/bachelor-of-lawsbachelor-of-arts",
            "innerText": "Bachelor of Laws / Bachelor of Arts",
            "category": [
                  "Law"
            ],
            "study_level": "Undergraduate"
      },
      {
            "href": "https://www.notredame.edu.au/programs/sydney/school-of-law/undergraduate/bachelor-of-laws-bachelor-of-arts",
            "innerText": "Bachelor of Laws / Bachelor of Arts",
            "category": [
                  "Law"
            ],
            "study_level": "Undergraduate"
      },
      {
            "href": "https://www.notredame.edu.au/programs/fremantle/school-of-law/undergraduate/bachelor-of-lawsbachelor-of-arts-politics-and-journalism",
            "innerText": "Bachelor of Laws / Bachelor of Arts (Politics & Journalism)",
            "category": [
                  "Law"
            ],
            "study_level": "Undergraduate"
      },
      {
            "href": "https://www.notredame.edu.au/programs/sydney/school-of-law/undergraduate/bachelor-of-laws-bachelor-of-arts-politics-and-journalism",
            "innerText": "Bachelor of Laws / Bachelor of Arts (Politics and Journalism)",
            "category": [
                  "Law"
            ],
            "study_level": "Undergraduate"
      },
      {
            "href": "https://www.notredame.edu.au/programs/fremantle/school-of-law/undergraduate/bachelor-of-lawsbachelor-of-behavioural-science",
            "innerText": "Bachelor of Laws / Bachelor of Behavioural Science",
            "category": [
                  "Law"
            ],
            "study_level": "Undergraduate"
      },
      {
            "href": "https://www.notredame.edu.au/programs/fremantle/school-of-law/undergraduate/bachelor-of-lawsbachelor-of-biomedical-science",
            "innerText": "Bachelor of Laws / Bachelor of Biomedical Science",
            "category": [
                  "Law"
            ],
            "study_level": "Undergraduate"
      },
      {
            "href": "https://www.notredame.edu.au/programs/sydney/school-of-law/undergraduate/bachelor-of-laws-bachelor-of-commerce",
            "innerText": "Bachelor of Laws / Bachelor of Commerce",
            "category": [
                  "Law"
            ],
            "study_level": "Undergraduate"
      },
      {
            "href": "https://www.notredame.edu.au/programs/fremantle/school-of-law/undergraduate/bachelor-of-lawsbachelor-of-commerce",
            "innerText": "Bachelor of Laws / Bachelor of Commerce",
            "category": [
                  "Law"
            ],
            "study_level": "Undergraduate"
      },
      {
            "href": "https://www.notredame.edu.au/programs/fremantle/school-of-law/undergraduate/bachelor-of-lawsbachelor-of-communications-and-media",
            "innerText": "Bachelor of Laws / Bachelor of Communications & Media",
            "category": [
                  "Law"
            ],
            "study_level": "Undergraduate"
      },
      {
            "href": "https://www.notredame.edu.au/programs/sydney/school-of-law/undergraduate/bachelor-of-lawsbachelor-of-communications-and-media",
            "innerText": "Bachelor of Laws / Bachelor of Communications & Media",
            "category": [
                  "Law"
            ],
            "study_level": "Undergraduate"
      },
      {
            "href": "https://www.notredame.edu.au/programs/fremantle/school-of-law/undergraduate/bachelor-of-lawsbachelor-of-human-resource-management",
            "innerText": "Bachelor of Laws / Bachelor of Human Resource Management",
            "category": [
                  "Law"
            ],
            "study_level": "Undergraduate"
      },
      {
            "href": "https://www.notredame.edu.au/programs/sydney/school-of-law/undergraduate/bachelor-of-laws-bachelor-of-marketing-and-public-relations",
            "innerText": "Bachelor of Laws / Bachelor of Marketing and Public Relations",
            "category": [
                  "Law"
            ],
            "study_level": "Undergraduate"
      },
      {
            "href": "https://www.notredame.edu.au/programs/fremantle/school-of-law/undergraduate/bachelor-of-lawsbachelor-of-marketing-and-public-relations",
            "innerText": "Bachelor of Laws / Bachelor of Marketing & Public Relations",
            "category": [
                  "Law"
            ],
            "study_level": "Undergraduate"
      },
      {
            "href": "https://www.notredame.edu.au/programs/fremantle/school-of-law/undergraduate/bachelor-of-laws-bachelor-of-philosophy",
            "innerText": "Bachelor of Laws / Bachelor of Philosophy",
            "category": [
                  "Law"
            ],
            "study_level": "Undergraduate"
      },
      {
            "href": "https://www.notredame.edu.au/programs/fremantle/school-of-law/undergraduate/bachelor-of-lawsbachelor-of-science",
            "innerText": "Bachelor of Laws / Bachelor of Science",
            "category": [
                  "Law"
            ],
            "study_level": "Undergraduate"
      },
      {
            "href": "https://www.notredame.edu.au/programs/fremantle/school-of-nursing-and-midwifery/undergraduate/bachelor-of-nursing",
            "innerText": "Bachelor of Nursing",
            "category": [
                  "Nursing & Midwifery"
            ],
            "study_level": "Undergraduate"
      },
      {
            "href": "https://www.notredame.edu.au/programs/sydney/school-of-nursing-and-midwifery/undergraduate/bachelor-of-nursing",
            "innerText": "Bachelor of Nursing",
            "category": [
                  "Nursing & Midwifery"
            ],
            "study_level": "Undergraduate"
      },
      {
            "href": "https://www.notredame.edu.au/programs/fremantle/school-of-nursing-and-midwifery/undergraduate/bachelor-of-nursing-en-articulation-pathway",
            "innerText": "Bachelor of Nursing (EN Articulation Pathway)",
            "category": [
                  "Nursing & Midwifery"
            ],
            "study_level": "Undergraduate"
      },
      {
            "href": "https://www.notredame.edu.au/programs/fremantle/school-of-philosophy-and-theology/undergraduate/diploma-of-theology",
            "innerText": "Diploma of Theology",
            "category": [
                  "Philosophy & Theology"
            ],
            "study_level": "Undergraduate"
      },
      {
            "href": "https://www.notredame.edu.au/programs/fremantle/school-of-philosophy-and-theology/undergraduate/bachelor-of-philosophy",
            "innerText": "Bachelor of Philosophy",
            "category": [
                  "Philosophy & Theology"
            ],
            "study_level": "Undergraduate"
      },
      {
            "href": "https://www.notredame.edu.au/programs/sydney/school-of-philosophy-and-theology/undergraduate/bachelor-of-philosophy",
            "innerText": "Bachelor of Philosophy",
            "category": [
                  "Philosophy & Theology"
            ],
            "study_level": "Undergraduate"
      },
      {
            "href": "https://www.notredame.edu.au/programs/fremantle/school-of-philosophy-and-theology/undergraduate/bachelor-of-theology",
            "innerText": "Bachelor of Theology",
            "category": [
                  "Philosophy & Theology"
            ],
            "study_level": "Undergraduate"
      },
      {
            "href": "https://www.notredame.edu.au/programs/sydney/school-of-philosophy-and-theology/undergraduate/bachelor-of-theology",
            "innerText": "Bachelor of Theology",
            "category": [
                  "Philosophy & Theology"
            ],
            "study_level": "Undergraduate"
      },
      {
            "href": "https://www.notredame.edu.au/programs/fremantle/school-of-physiotherapy/undergraduate/bachelor-of-physiotherapy",
            "innerText": "Bachelor of Physiotherapy",
            "category": [
                  "Physiotherapy"
            ],
            "study_level": "Undergraduate"
      },
      {
            "href": "https://www.notredame.edu.au/programs/fremantle/school-of-physiotherapy/undergraduate/bachelor-of-physiotherapy-bachelor-of-exercise-and-sport-science",
            "innerText": "Bachelor of Physiotherapy / Bachelor of Exercise & Sport Science",
            "category": [
                  "Physiotherapy"
            ],
            "study_level": "Undergraduate"
      },
      {
            "href": "https://www.notredame.edu.au/programs/sydney/school-of-arts-and-sciences/postgraduate/master-of-arts",
            "innerText": "Master of Arts",
            "category": [
                  "Arts & Sciences"
            ],
            "study_level": "Postgraduate"
      },
      {
            "href": "https://www.notredame.edu.au/programs/sydney/school-of-arts-and-sciences/postgraduate/master-of-counselling",
            "innerText": "Master of Counselling",
            "category": [
                  "Arts & Sciences"
            ],
            "study_level": "Postgraduate"
      },
      {
            "href": "https://www.notredame.edu.au/programs/fremantle/school-of-arts-and-sciences/postgraduate/master-of-architecture",
            "innerText": "Master of Architecture",
            "category": [
                  "Arts & Sciences"
            ],
            "study_level": "Postgraduate"
      },
      {
            "href": "https://www.notredame.edu.au/programs/fremantle/school-of-arts-and-sciences/postgraduate/master-of-counselling",
            "innerText": "Master of Counselling",
            "category": [
                  "Arts & Sciences"
            ],
            "study_level": "Postgraduate"
      },
      {
            "href": "https://www.notredame.edu.au/programs/sydney/school-of-arts-and-sciences/postgraduate/doctor-of-philosophy",
            "innerText": "Doctor of Philosophy",
            "category": [
                  "Arts & Sciences"
            ],
            "study_level": "Postgraduate"
      },
      {
            "href": "https://www.notredame.edu.au/programs/fremantle/school-of-arts-and-sciences/postgraduate/doctor-of-counselling",
            "innerText": "Doctor of Counselling",
            "category": [
                  "Arts & Sciences"
            ],
            "study_level": "Postgraduate"
      },
      {
            "href": "https://www.notredame.edu.au/programs/sydney/school-of-business/postgraduate/graduate-certificate-in-business",
            "innerText": "Graduate Certificate in Business",
            "category": [
                  "Business"
            ],
            "study_level": "Postgraduate"
      },
      {
            "href": "https://www.notredame.edu.au/programs/sydney/school-of-business/postgraduate/graduate-diploma-of-business",
            "innerText": "Graduate Diploma of Business",
            "category": [
                  "Business"
            ],
            "study_level": "Postgraduate"
      },
      {
            "href": "https://www.notredame.edu.au/programs/sydney/school-of-business/postgraduate/master-of-business-administration",
            "innerText": "Master of Business Administration",
            "category": [
                  "Business"
            ],
            "study_level": "Postgraduate"
      },
      {
            "href": "https://www.notredame.edu.au/programs/fremantle/school-of-business/postgraduate/master-of-leadership",
            "innerText": "Master of Leadership",
            "category": [
                  "Business"
            ],
            "study_level": "Postgraduate"
      },
      {
            "href": "https://www.notredame.edu.au/programs/fremantle/school-of-business/postgraduate/doctor-of-business-administration",
            "innerText": "Doctor of Business Administration",
            "category": [
                  "Business"
            ],
            "study_level": "Postgraduate"
      },
      {
            "href": "https://www.notredame.edu.au/programs/sydney/school-of-business/postgraduate/doctor-of-business-administration",
            "innerText": "Doctor of Business Administration",
            "category": [
                  "Business"
            ],
            "study_level": "Postgraduate"
      },
      {
            "href": "https://www.notredame.edu.au/programs/fremantle/school-of-education/postgraduate/graduate-certificate-in-religious-education",
            "innerText": "Graduate Certificate in Religious Education",
            "category": [
                  "Education"
            ],
            "study_level": "Postgraduate"
      },
      {
            "href": "https://www.notredame.edu.au/programs/fremantle/school-of-education/postgraduate/master-of-teaching-primary-education",
            "innerText": "Master of Teaching (Primary Education)",
            "category": [
                  "Education"
            ],
            "study_level": "Postgraduate"
      },
      {
            "href": "https://www.notredame.edu.au/programs/fremantle/school-of-education/postgraduate/master-of-teaching-secondary-education",
            "innerText": "Master of Teaching (Secondary Education)",
            "category": [
                  "Education"
            ],
            "study_level": "Postgraduate"
      },
      {
            "href": "https://www.notredame.edu.au/programs/sydney/school-of-education/postgraduate/doctor-of-education",
            "innerText": "Doctor of Education ",
            "category": [
                  "Education"
            ],
            "study_level": "Postgraduate"
      },
      {
            "href": "https://www.notredame.edu.au/programs/fremantle/school-of-education/postgraduate/doctor-of-education",
            "innerText": "Doctor of Education",
            "category": [
                  "Education"
            ],
            "study_level": "Postgraduate"
      },
      {
            "href": "https://www.notredame.edu.au/programs/sydney/school-of-medicine/postgraduate/doctor-of-medicine",
            "innerText": "Doctor of Medicine",
            "category": [
                  "Medicine"
            ],
            "study_level": "Postgraduate"
      },
      {
            "href": "https://www.notredame.edu.au/programs/sydney/school-of-medicine/postgraduate/doctor-of-medical-science",
            "innerText": "Doctor of Medical Science",
            "category": [
                  "Medicine"
            ],
            "study_level": "Postgraduate"
      },
      {
            "href": "https://www.notredame.edu.au/programs/sydney/school-of-medicine/postgraduate/master-of-medicine-surgery",
            "innerText": "Master of Medicine/Surgery",
            "category": [
                  "Medicine"
            ],
            "study_level": "Postgraduate"
      },
      {
            "href": "https://www.notredame.edu.au/programs/fremantle/school-of-medicine/postgraduate/master-of-science-medicine",
            "innerText": "Master of Science (Medicine) ",
            "category": [
                  "Medicine"
            ],
            "study_level": "Postgraduate"
      },
      {
            "href": "https://www.notredame.edu.au/programs/sydney/school-of-medicine/postgraduate/master-of-science-medicine",
            "innerText": "Master of Science (Medicine) ",
            "category": [
                  "Medicine"
            ],
            "study_level": "Postgraduate"
      },
      {
            "href": "https://www.notredame.edu.au/programs/sydney/school-of-nursing-and-midwifery/postgraduate/graduate-certificate-in-contemporary-nursing",
            "innerText": "Graduate Certificate in Contemporary Nursing",
            "category": [
                  "Nursing & Midwifery"
            ],
            "study_level": "Postgraduate"
      },
      {
            "href": "https://www.notredame.edu.au/programs/fremantle/school-of-nursing-and-midwifery/postgraduate/graduate-diploma-of-midwifery",
            "innerText": "Graduate Diploma of Midwifery",
            "category": [
                  "Nursing & Midwifery"
            ],
            "study_level": "Postgraduate"
      },
      {
            "href": "https://www.notredame.edu.au/programs/fremantle/school-of-nursing-and-midwifery/postgraduate/master-of-nursing-research",
            "innerText": "Master of Nursing (Research)",
            "category": [
                  "Nursing & Midwifery"
            ],
            "study_level": "Postgraduate"
      },
      {
            "href": "https://www.notredame.edu.au/programs/fremantle/school-of-nursing-and-midwifery/postgraduate/doctor-of-nursing",
            "innerText": "Doctor of Nursing",
            "category": [
                  "Nursing & Midwifery"
            ],
            "study_level": "Postgraduate"
      },
      {
            "href": "https://www.notredame.edu.au/programs/sydney/school-of-nursing-and-midwifery/postgraduate/doctor-of-nursing",
            "innerText": "Doctor of Nursing",
            "category": [
                  "Nursing & Midwifery"
            ],
            "study_level": "Postgraduate"
      },
      {
            "href": "https://www.notredame.edu.au/programs/fremantle/school-of-philosophy-and-theology/postgraduate/graduate-diploma-of-theology",
            "innerText": "Graduate Diploma of Theology",
            "category": [
                  "Philosophy & Theology"
            ],
            "study_level": "Postgraduate"
      },
      {
            "href": "https://www.notredame.edu.au/programs/fremantle/school-of-philosophy-and-theology/postgraduate/master-of-arts-philosophy",
            "innerText": "Master of Arts (Philosophy)",
            "category": [
                  "Philosophy & Theology"
            ],
            "study_level": "Postgraduate"
      },
      {
            "href": "https://www.notredame.edu.au/programs/sydney/school-of-philosophy-and-theology/postgraduate/master-of-arts-philosophy",
            "innerText": "Master of Arts (Philosophy)",
            "category": [
                  "Philosophy & Theology"
            ],
            "study_level": "Postgraduate"
      },
      {
            "href": "https://www.notredame.edu.au/programs/fremantle/school-of-philosophy-and-theology/postgraduate/master-of-theology-research",
            "innerText": "Master of Theology (Research)",
            "category": [
                  "Philosophy & Theology"
            ],
            "study_level": "Postgraduate"
      },
      {
            "href": "https://www.notredame.edu.au/programs/fremantle/school-of-philosophy-and-theology/postgraduate/master-of-arts-theology",
            "innerText": "Master of Arts (Theology)",
            "category": [
                  "Philosophy & Theology"
            ],
            "study_level": "Postgraduate"
      },
      {
            "href": "https://www.notredame.edu.au/programs/sydney/school-of-philosophy-and-theology/postgraduate/master-of-arts-theology",
            "innerText": "Master of Arts (Theology)",
            "category": [
                  "Philosophy & Theology"
            ],
            "study_level": "Postgraduate"
      },
      {
            "href": "https://www.notredame.edu.au/programs/fremantle/school-of-philosophy-and-theology/postgraduate/doctor-of-philosophy",
            "innerText": "Doctor of Philosophy",
            "category": [
                  "Philosophy & Theology"
            ],
            "study_level": "Postgraduate"
      },
      {
            "href": "https://www.notredame.edu.au/programs/sydney/school-of-philosophy-and-theology/postgraduate/master-of-theology-research",
            "innerText": "Master of Theology (Research)",
            "category": [
                  "Philosophy & Theology"
            ],
            "study_level": "Postgraduate"
      },
      {
            "href": "https://www.notredame.edu.au/programs/fremantle/school-of-health-sciences/postgraduate/master-of-health-sciences",
            "innerText": "Master of Health Sciences",
            "category": [
                  "Health Sciences"
            ],
            "study_level": "Postgraduate Research"
      },
      {
            "href": "https://www.notredame.edu.au/programs/fremantle/school-of-health-sciences/postgraduate/master-of-philosophy-health-sciences",
            "innerText": "Master of Philosophy (Health Sciences)",
            "category": [
                  "Health Sciences"
            ],
            "study_level": "Postgraduate Research"
      },
      {
            "href": "https://www.notredame.edu.au/programs/fremantle/school-of-health-sciences/postgraduate/doctor-of-health-science",
            "innerText": "Doctor of Health Sciences",
            "category": [
                  "Health Sciences"
            ],
            "study_level": "Postgraduate Research"
      },
      {
            "href": "https://www.notredame.edu.au/programs/fremantle/school-of-health-sciences/postgraduate/doctor-of-philosophy",
            "innerText": "Doctor of Philosophy (Health Sciences)",
            "category": [
                  "Health Sciences"
            ],
            "study_level": "Postgraduate Research"
      },
      {
            "href": "https://www.notredame.edu.au/programs/fremantle/school-of-physiotherapy/postgraduate/doctor-of-physiotherapy-research",
            "innerText": "Doctor of Physiotherapy (Research)",
            "category": [
                  "Physiotherapy"
            ],
            "study_level": "Postgraduate Research"
      },
      {
            "href": "https://www.notredame.edu.au/programs/fremantle/school-of-physiotherapy/postgraduate/master-of-science-physiotherapy",
            "innerText": "Master of Science (Physiotherapy)",
            "category": [
                  "Physiotherapy"
            ],
            "study_level": "Postgraduate Research"
      }
] 