{
    "univ_id": "universityofthesunshinecoast",
    "course_title": "Bachelor Of Criminology And Justice",
    "course_campus_location": [
        {
            "name": "Sippy Downs",
            "code": "059490A"
        }
    ],
    "course_study_mode": "On campus",
    "course_discipline": [
        "Law and criminology"
    ],
    "course_study_level": "BACHELOR DEGREE",
    "course_url": "https://www.usc.edu.au/study/courses-and-programs/bachelor-degrees-undergraduate-programs/bachelor-of-criminology-and-justice",
    "program_code": "",
    "course_duration": "3 years",
    "course_duration_display": [
        {
            "unit": "years",
            "duration": "3",
            "display": "Full-Time",
            "filterduration": 3
        }
    ],
    "isfulltime": true,
    "isparttime": false,
    "course_admission_requirement": {
        "english": [
            {
                "name": "ielts academic",
                "description": "Overall score of 6.0 with minimum 5.5 in each subtest",
                "min": 0,
                "require": 6,
                "max": 9,
                "R": 0,
                "W": 0,
                "S": 0,
                "L": 0,
                "O": 0
            },
            {
                "name": "toefl ibt",
                "description": "Overall score of 76 with minimum score of 18 for writing",
                "min": 0,
                "require": 76,
                "max": 120,
                "R": 0,
                "W": 0,
                "S": 0,
                "L": 0,
                "O": 0
            },
            {
                "name": "toefl pbt",
                "description": "Overall score of 550 with minimum essay score of 4",
                "min": 310,
                "require": 550,
                "max": 677,
                "R": 0,
                "W": 0,
                "S": 0,
                "L": 0,
                "O": 0
            },
            {
                "name": "pte academic",
                "description": "Overall score of 50 with no subscore less than 50",
                "min": 0,
                "require": 50,
                "max": 90,
                "R": 0,
                "W": 0,
                "S": 0,
                "L": 0,
                "O": 0
            },
            {
                "name": "cae",
                "description": "Overall score of 169 or above with no less than 162 in each skill",
                "min": 80,
                "require": 169,
                "max": 230,
                "R": 0,
                "W": 0,
                "S": 0,
                "L": 0,
                "O": 0
            }
        ],
        "academic": [
            "To check the academic requirement for your degree program, please see this link https://www.usc.edu.au/study/international-students/how-to-apply/step-2-check-entry-requirements/undergraduate-program-admission-requirements"
        ],
        "entry_requirements_url": "https://www.usc.edu.au/learn/international-students/how-to-apply/step-2-check-entry-requirements",
        "academic_requirements_url": "https://www.usc.edu.au/learn/international-students/how-to-apply/step-2-check-entry-requirements/undergraduate-program-admission-requirements",
        "english_requirements_url": "https://www.usc.edu.au/learn/how-do-i-apply/english-language-requirements"
    },
    "course_tuition_fee": {
        "fees": [
            {
                "name": "Sippy Downs",
                "value": {
                    "international_student": {
                        "amount": 24000,
                        "duration": 1,
                        "unit": "Year",
                        "description": "A$24,000"
                    },
                    "fee_duration_years": "1",
                    "currency": "AUD"
                }
            }
        ]
    },
    "course_intake": {
        "intake": [
            {
                "name": "Sippy Downs",
                "value": [
                    {
                        "actualdate": "24 February,2020",
                        "month": "February"
                    },
                    {
                        "actualdate": "20 July,2020",
                        "month": "July"
                    }
                ]
            }
        ],
        "more_details": "https://www.usc.edu.au/learn/calendars-and-timetables/academic-calendars"
    },
    "course_career_outcome": [
        "Police or law enforcement officer",
        "Custodial corrections officer",
        "Community corrections officer",
        "Criminologist/crime researcher",
        "Security/intelligence analyst",
        "Youth justice officer",
        "Criminal justice policy officer"
    ],
    "course_country": "Australia",
    "course_outline": {
        "minors": [],
        "majors": [],
        "more_details": "https://www.usc.edu.au/study/courses-and-programs/bachelor-degrees-undergraduate-programs/bachelor-of-criminology-and-justice"
    },
    "application_fee": "",
    "course_id": "bachelorofcriminologyandjustice"
}