[
    {
        "href": "https://www.usc.edu.au/study/courses-and-programs/bachelor-degrees-undergraduate-programs/diploma-in-general-studies",
        "innerText": "Diploma in General Studies",
        "category": [
            "Arts and international studies"
        ],
        "study_level": "DIPLOMA"
    },
    {
        "href": "https://www.usc.edu.au/study/courses-and-programs/bachelor-degrees-undergraduate-programs/bachelor-of-international-studies",
        "innerText": "Bachelor of International Studies",
        "category": [
            "Arts and international studies"
        ],
        "study_level": "BACHELOR DEGREE"
    },
    {
        "href": "https://www.usc.edu.au/study/courses-and-programs/bachelor-degrees-undergraduate-programs/bachelor-of-arts-bachelor-of-business",
        "innerText": "Bachelor of Arts / Bachelor of Business",
        "category": [
            "Arts and international studies"
        ],
        "study_level": "COMBINED DEGREE"
    },
    {
        "href": "https://www.usc.edu.au/study/courses-and-programs/bachelor-degrees-undergraduate-programs/bachelor-of-arts-bachelor-of-science",
        "innerText": "Bachelor of Arts / Bachelor of Science",
        "category": [
            "Arts and international studies"
        ],
        "study_level": "COMBINED DEGREE"
    },
    {
        "href": "https://www.usc.edu.au/study/courses-and-programs/bachelor-degrees-undergraduate-programs/bachelor-of-education-secondary-bachelor-of-arts",
        "innerText": "Bachelor of Education (Secondary) / Bachelor of Arts",
        "category": [
            "Arts and international studies",
            "Education"
        ],
        "study_level": "COMBINED DEGREE"
    },
    {
        "href": "https://www.usc.edu.au/study/courses-and-programs/bachelor-degrees-undergraduate-programs/bachelor-of-laws-bachelor-of-arts",
        "innerText": "Bachelor of Laws / Bachelor of Arts",
        "category": [
            "Arts and international studies",
            "Law and criminology"
        ],
        "study_level": "COMBINED DEGREE"
    },
    {
        "href": "https://www.usc.edu.au/study/courses-and-programs/bachelor-degrees-undergraduate-programs/bachelor-of-arts-honours",
        "innerText": "Bachelor of Arts (Honours)",
        "category": [
            "Arts and international studies"
        ],
        "study_level": "HONOURS"
    },
    {
        "href": "https://www.usc.edu.au/study/courses-and-programs/postgraduate-degrees/master-of-business-administration-master-of-international-business",
        "innerText": "Master of Business Administration / Master of International Business",
        "category": [
            "Arts and international studies",
            "Business, IT, tourism and events"
        ],
        "study_level": "MASTER DEGREE"
    },
    {
        "href": "https://www.usc.edu.au/study/courses-and-programs/postgraduate-degrees/master-of-international-development",
        "innerText": "Master of International Development",
        "category": [
            "Arts and international studies"
        ],
        "study_level": "MASTER DEGREE"
    },
    {
        "href": "https://www.usc.edu.au/study/courses-and-programs/postgraduate-degrees/doctor-of-philosophy",
        "innerText": "Doctor of Philosophy",
        "category": [
            "Arts and international studies",
            "Business, IT, tourism and events",
            "Communication, design and creative industries",
            "Education",
            "Environmental studies",
            "Law and criminology",
            "Medical and health sciences",
            "Nursing, midwifery and paramedicine",
            "Psychology and social sciences",
            "Science and engineering",
            "Sport and exercise science"
        ],
        "study_level": "HIGHER DEGREE BY RESEARCH"
    },
    {
        "href": "https://www.usc.edu.au/study/courses-and-programs/postgraduate-degrees/master-of-arts",
        "innerText": "Master of Arts",
        "category": [
            "Arts and international studies"
        ],
        "study_level": "HIGHER DEGREE BY RESEARCH"
    },
    {
        "href": "https://www.usc.edu.au/study/courses-and-programs/postgraduate-degrees/master-of-creative-arts",
        "innerText": "Master of Creative Arts",
        "category": [
            "Arts and international studies",
            "Communication, design and creative industries"
        ],
        "study_level": "HIGHER DEGREE BY RESEARCH"
    },
    {
        "href": "https://www.usc.edu.au/study/courses-and-programs/bachelor-degrees-undergraduate-programs/diploma-in-business",
        "innerText": "Diploma in Business",
        "category": [
            "Business, IT, tourism and events"
        ],
        "study_level": "DIPLOMA"
    },
    {
        "href": "https://www.usc.edu.au/study/courses-and-programs/postgraduate-degrees/graduate-diploma-in-business-administration",
        "innerText": "Graduate Diploma in Business Administration",
        "category": [
            "Business, IT, tourism and events"
        ],
        "study_level": "DIPLOMA"
    },
    {
        "href": "https://www.usc.edu.au/study/courses-and-programs/bachelor-degrees-undergraduate-programs/associate-degree-in-business",
        "innerText": "Associate Degree in Business",
        "category": [
            "Business, IT, tourism and events"
        ],
        "study_level": "ASSOCIATE DEGREE"
    },
    {
        "href": "https://www.usc.edu.au/study/courses-and-programs/bachelor-degrees-undergraduate-programs/bachelor-of-business",
        "innerText": "Bachelor of Business",
        "category": [
            "Business, IT, tourism and events"
        ],
        "study_level": "BACHELOR DEGREE"
    },
    {
        "href": "https://www.usc.edu.au/study/courses-and-programs/bachelor-degrees-undergraduate-programs/bachelor-of-business-digital-futures",
        "innerText": "Bachelor of Business (Digital Futures)",
        "category": [
            "Business, IT, tourism and events"
        ],
        "study_level": "BACHELOR DEGREE"
    },
    {
        "href": "https://www.usc.edu.au/study/courses-and-programs/bachelor-degrees-undergraduate-programs/bachelor-of-business-human-resource-management",
        "innerText": "Bachelor of Business (Human Resource Management)",
        "category": [
            "Business, IT, tourism and events"
        ],
        "study_level": "BACHELOR DEGREE"
    },
    {
        "href": "https://www.usc.edu.au/study/courses-and-programs/bachelor-degrees-undergraduate-programs/bachelor-of-business-management",
        "innerText": "Bachelor of Business (Management)",
        "category": [
            "Business, IT, tourism and events"
        ],
        "study_level": "BACHELOR DEGREE"
    },
    {
        "href": "https://www.usc.edu.au/study/courses-and-programs/bachelor-degrees-undergraduate-programs/bachelor-of-business-marketing",
        "innerText": "Bachelor of Business (Marketing)",
        "category": [
            "Business, IT, tourism and events"
        ],
        "study_level": "BACHELOR DEGREE"
    },
    {
        "href": "https://www.usc.edu.au/study/courses-and-programs/bachelor-degrees-undergraduate-programs/bachelor-of-business-tourism-leisure-and-event-management",
        "innerText": "Bachelor of Business (Tourism, Leisure and Event Management)",
        "category": [
            "Business, IT, tourism and events"
        ],
        "study_level": "BACHELOR DEGREE"
    },
    {
        "href": "https://www.usc.edu.au/study/courses-and-programs/bachelor-degrees-undergraduate-programs/bachelor-of-commerce-accounting",
        "innerText": "Bachelor of Commerce (Accounting)",
        "category": [
            "Business, IT, tourism and events"
        ],
        "study_level": "BACHELOR DEGREE"
    },
    {
        "href": "https://www.usc.edu.au/study/courses-and-programs/bachelor-degrees-undergraduate-programs/bachelor-of-information-and-communications-technology",
        "innerText": "Bachelor of Information and Communications Technology",
        "category": [
            "Business, IT, tourism and events"
        ],
        "study_level": "BACHELOR DEGREE"
    },
    {
        "href": "https://www.usc.edu.au/study/courses-and-programs/bachelor-degrees-undergraduate-programs/bachelor-of-animal-ecology-bachelor-of-business-tourism-leisure-and-event-management",
        "innerText": "Bachelor of Animal Ecology/Bachelor of Business (Tourism, Leisure and Event Management)",
        "category": [
            "Business, IT, tourism and events",
            "Environmental studies"
        ],
        "study_level": "COMBINED DEGREE"
    },
    {
        "href": "https://www.usc.edu.au/study/courses-and-programs/bachelor-degrees-undergraduate-programs/bachelor-of-business-human-resource-management-bachelor-of-social-science-psychology",
        "innerText": "Bachelor of Business (Human Resource Management) / Bachelor of Social Science (Psychology)",
        "category": [
            "Business, IT, tourism and events",
            "Psychology and social sciences"
        ],
        "study_level": "COMBINED DEGREE"
    },
    {
        "href": "https://www.usc.edu.au/study/courses-and-programs/bachelor-degrees-undergraduate-programs/bachelor-of-business-bachelor-of-commerce-accounting",
        "innerText": "Bachelor of Business / Bachelor of Commerce (Accounting)",
        "category": [
            "Business, IT, tourism and events"
        ],
        "study_level": "COMBINED DEGREE"
    },
    {
        "href": "https://www.usc.edu.au/study/courses-and-programs/bachelor-degrees-undergraduate-programs/bachelor-of-business-bachelor-of-communication",
        "innerText": "Bachelor of Business / Bachelor of Communication",
        "category": [
            "Business, IT, tourism and events",
            "Communication, design and creative industries"
        ],
        "study_level": "COMBINED DEGREE"
    },
    {
        "href": "https://www.usc.edu.au/study/courses-and-programs/bachelor-degrees-undergraduate-programs/bachelor-of-business-bachelor-of-creative-industries",
        "innerText": "Bachelor of Business / Bachelor of Creative Industries",
        "category": [
            "Business, IT, tourism and events",
            "Communication, design and creative industries"
        ],
        "study_level": "COMBINED DEGREE"
    },
    {
        "href": "https://www.usc.edu.au/study/courses-and-programs/bachelor-degrees-undergraduate-programs/bachelor-of-business-bachelor-of-criminology-and-justice",
        "innerText": "Bachelor of Business / Bachelor of Criminology and Justice",
        "category": [
            "Business, IT, tourism and events",
            "Law and criminology"
        ],
        "study_level": "COMBINED DEGREE"
    },
    {
        "href": "https://www.usc.edu.au/study/courses-and-programs/bachelor-degrees-undergraduate-programs/bachelor-of-business-bachelor-of-design",
        "innerText": "Bachelor of Business / Bachelor of Design",
        "category": [
            "Business, IT, tourism and events",
            "Communication, design and creative industries"
        ],
        "study_level": "COMBINED DEGREE"
    },
    {
        "href": "https://www.usc.edu.au/study/courses-and-programs/bachelor-degrees-undergraduate-programs/bachelor-of-business-bachelor-of-science",
        "innerText": "Bachelor of Business / Bachelor of Science",
        "category": [
            "Business, IT, tourism and events",
            "Science and engineering"
        ],
        "study_level": "COMBINED DEGREE"
    },
    {
        "href": "https://www.usc.edu.au/study/courses-and-programs/bachelor-degrees-undergraduate-programs/bachelor-of-business-bachelor-of-social-science-psychology",
        "innerText": "Bachelor of Business / Bachelor of Social Science (Psychology)",
        "category": [
            "Business, IT, tourism and events",
            "Psychology and social sciences"
        ],
        "study_level": "COMBINED DEGREE"
    },
    {
        "href": "https://www.usc.edu.au/study/courses-and-programs/bachelor-degrees-undergraduate-programs/bachelor-of-laws-bachelor-of-business",
        "innerText": "Bachelor of Laws / Bachelor of Business",
        "category": [
            "Business, IT, tourism and events",
            "Law and criminology"
        ],
        "study_level": "COMBINED DEGREE"
    },
    {
        "href": "https://www.usc.edu.au/study/courses-and-programs/bachelor-degrees-undergraduate-programs/bachelor-of-laws-bachelor-of-commerce-accounting",
        "innerText": "Bachelor of Laws / Bachelor of Commerce (Accounting)",
        "category": [
            "Business, IT, tourism and events",
            "Law and criminology"
        ],
        "study_level": "COMBINED DEGREE"
    },
    {
        "href": "https://www.usc.edu.au/study/courses-and-programs/bachelor-degrees-undergraduate-programs/bachelor-of-business-honours",
        "innerText": "Bachelor of Business (Honours)",
        "category": [
            "Business, IT, tourism and events"
        ],
        "study_level": "HONOURS"
    },
    {
        "href": "https://www.usc.edu.au/study/courses-and-programs/bachelor-degrees-undergraduate-programs/bachelor-of-commerce-honours",
        "innerText": "Bachelor of Commerce (Honours)",
        "category": [
            "Business, IT, tourism and events"
        ],
        "study_level": "HONOURS"
    },
    {
        "href": "https://www.usc.edu.au/study/courses-and-programs/postgraduate-degrees/graduate-certificate-in-business-administration",
        "innerText": "Graduate Certificate in Business Administration",
        "category": [
            "Business, IT, tourism and events"
        ],
        "study_level": "GRADUATE CERTIFICATE"
    },
    {
        "href": "https://www.usc.edu.au/study/courses-and-programs/postgraduate-degrees/graduate-certificate-in-business-research",
        "innerText": "Graduate Certificate in Business Research",
        "category": [
            "Business, IT, tourism and events"
        ],
        "study_level": "GRADUATE CERTIFICATE"
    },
    {
        "href": "https://www.usc.edu.au/study/courses-and-programs/postgraduate-degrees/graduate-certificate-in-cyber-forensics",
        "innerText": "Graduate Certificate in Cyber Forensics",
        "category": [
            "Business, IT, tourism and events",
            "Law and criminology"
        ],
        "study_level": "GRADUATE CERTIFICATE"
    },
    {
        "href": "https://www.usc.edu.au/study/courses-and-programs/postgraduate-degrees/graduate-certificate-in-cyber-investigations",
        "innerText": "Graduate Certificate in Cyber Investigations",
        "category": [
            "Business, IT, tourism and events",
            "Science and engineering"
        ],
        "study_level": "GRADUATE CERTIFICATE"
    },
    {
        "href": "https://www.usc.edu.au/study/courses-and-programs/postgraduate-degrees/graduate-certificate-in-cyber-security",
        "innerText": "Graduate Certificate in Cyber Security",
        "category": [
            "Business, IT, tourism and events",
            "Science and engineering"
        ],
        "study_level": "GRADUATE CERTIFICATE"
    },
    {
        "href": "https://www.usc.edu.au/study/courses-and-programs/postgraduate-degrees/graduate-certificate-in-health-sector-leadership",
        "innerText": "Graduate Certificate in Health Sector Leadership",
        "category": [
            "Business, IT, tourism and events",
            "Medical and health sciences"
        ],
        "study_level": "GRADUATE CERTIFICATE"
    },
    {
        "href": "https://www.usc.edu.au/study/courses-and-programs/postgraduate-degrees/graduate-certificate-in-management",
        "innerText": "Graduate Certificate in Management",
        "category": [
            "Business, IT, tourism and events"
        ],
        "study_level": "GRADUATE CERTIFICATE"
    },
    {
        "href": "https://www.usc.edu.au/study/courses-and-programs/postgraduate-degrees/executive-master-of-business-administration",
        "innerText": "Executive Master of Business Administration",
        "category": [
            "Business, IT, tourism and events"
        ],
        "study_level": "MASTER DEGREE"
    },
    {
        "href": "https://www.usc.edu.au/study/courses-and-programs/postgraduate-degrees/master-of-business-administration-extended",
        "innerText": "Master of Business Administration (Extended)",
        "category": [
            "Business, IT, tourism and events"
        ],
        "study_level": "MASTER DEGREE"
    },
    {
        "href": "https://www.usc.edu.au/study/courses-and-programs/postgraduate-degrees/master-of-business-administration-mba",
        "innerText": "Master of Business Administration MBA",
        "category": [
            "Business, IT, tourism and events"
        ],
        "study_level": "MASTER DEGREE"
    },
    {
        "href": "https://www.usc.edu.au/study/courses-and-programs/postgraduate-degrees/master-of-cyber-investigations-and-forensics",
        "innerText": "Master of Cyber Investigations and Forensics",
        "category": [
            "Business, IT, tourism and events",
            "Science and engineering"
        ],
        "study_level": "MASTER DEGREE"
    },
    {
        "href": "https://www.usc.edu.au/study/courses-and-programs/postgraduate-degrees/master-of-information-and-communications-technology",
        "innerText": "Master of Information and Communications Technology",
        "category": [
            "Business, IT, tourism and events"
        ],
        "study_level": "MASTER DEGREE"
    },
    {
        "href": "https://www.usc.edu.au/study/courses-and-programs/postgraduate-degrees/master-of-international-business",
        "innerText": "Master of International Business",
        "category": [
            "Business, IT, tourism and events"
        ],
        "study_level": "MASTER DEGREE"
    },
    {
        "href": "https://www.usc.edu.au/study/courses-and-programs/postgraduate-degrees/master-of-management",
        "innerText": "Master of Management",
        "category": [
            "Business, IT, tourism and events"
        ],
        "study_level": "MASTER DEGREE"
    },
    {
        "href": "https://www.usc.edu.au/study/courses-and-programs/postgraduate-degrees/master-of-professional-accounting-mpa",
        "innerText": "Master of Professional Accounting MPA",
        "category": [
            "Business, IT, tourism and events"
        ],
        "study_level": "MASTER DEGREE"
    },
    {
        "href": "https://www.usc.edu.au/study/courses-and-programs/postgraduate-degrees/master-of-business-by-research",
        "innerText": "Master of Business by Research",
        "category": [
            "Business, IT, tourism and events"
        ],
        "study_level": "HIGHER DEGREE BY RESEARCH"
    },
    {
        "href": "https://www.usc.edu.au/study/courses-and-programs/bachelor-degrees-undergraduate-programs/diploma-in-communication",
        "innerText": "Diploma in Communication",
        "category": [
            "Communication, design and creative industries"
        ],
        "study_level": "DIPLOMA"
    },
    {
        "href": "https://www.usc.edu.au/study/courses-and-programs/bachelor-degrees-undergraduate-programs/bachelor-of-communication",
        "innerText": "Bachelor of Communication",
        "category": [
            "Communication, design and creative industries"
        ],
        "study_level": "BACHELOR DEGREE"
    },
    {
        "href": "https://www.usc.edu.au/study/courses-and-programs/bachelor-degrees-undergraduate-programs/bachelor-of-communication-journalism",
        "innerText": "Bachelor of Communication (Journalism)",
        "category": [
            "Communication, design and creative industries"
        ],
        "study_level": "BACHELOR DEGREE"
    },
    {
        "href": "https://www.usc.edu.au/study/courses-and-programs/bachelor-degrees-undergraduate-programs/bachelor-of-communication-professional-communication",
        "innerText": "Bachelor of Communication (Professional Communication)",
        "category": [
            "Communication, design and creative industries"
        ],
        "study_level": "BACHELOR DEGREE"
    },
    {
        "href": "https://www.usc.edu.au/study/courses-and-programs/bachelor-degrees-undergraduate-programs/bachelor-of-communication-social-media",
        "innerText": "Bachelor of Communication (Social Media)",
        "category": [
            "Communication, design and creative industries"
        ],
        "study_level": "BACHELOR DEGREE"
    },
    {
        "href": "https://www.usc.edu.au/study/courses-and-programs/bachelor-degrees-undergraduate-programs/bachelor-of-creative-industries",
        "innerText": "Bachelor of Creative Industries",
        "category": [
            "Communication, design and creative industries"
        ],
        "study_level": "BACHELOR DEGREE"
    },
    {
        "href": "https://www.usc.edu.au/study/courses-and-programs/bachelor-degrees-undergraduate-programs/bachelor-of-creative-industries-creative-writing-and-publishing",
        "innerText": "Bachelor of Creative Industries (Creative Writing and Publishing)",
        "category": [
            "Communication, design and creative industries"
        ],
        "study_level": "BACHELOR DEGREE"
    },
    {
        "href": "https://www.usc.edu.au/study/courses-and-programs/bachelor-degrees-undergraduate-programs/bachelor-of-creative-industries-screen-media",
        "innerText": "Bachelor of Creative Industries (Screen Media)",
        "category": [
            "Communication, design and creative industries"
        ],
        "study_level": "BACHELOR DEGREE"
    },
    {
        "href": "https://www.usc.edu.au/study/courses-and-programs/bachelor-degrees-undergraduate-programs/bachelor-of-creative-industries-theatre-and-performance",
        "innerText": "Bachelor of Creative Industries (Theatre and Performance)",
        "category": [
            "Communication, design and creative industries"
        ],
        "study_level": "BACHELOR DEGREE"
    },
    {
        "href": "https://www.usc.edu.au/study/courses-and-programs/bachelor-degrees-undergraduate-programs/bachelor-of-design",
        "innerText": "Bachelor of Design",
        "category": [
            "Communication, design and creative industries"
        ],
        "study_level": "BACHELOR DEGREE"
    },
    {
        "href": "https://www.usc.edu.au/study/courses-and-programs/bachelor-degrees-undergraduate-programs/bachelor-of-design-game-design",
        "innerText": "Bachelor of Design (Game Design)",
        "category": [
            "Communication, design and creative industries"
        ],
        "study_level": "BACHELOR DEGREE"
    },
    {
        "href": "https://www.usc.edu.au/study/courses-and-programs/bachelor-degrees-undergraduate-programs/bachelor-of-design-interactive-and-ux-design",
        "innerText": "Bachelor of Design (Interactive and UX Design)",
        "category": [
            "Communication, design and creative industries"
        ],
        "study_level": "BACHELOR DEGREE"
    },
    {
        "href": "https://www.usc.edu.au/study/courses-and-programs/bachelor-degrees-undergraduate-programs/bachelor-of-design-visual-communication",
        "innerText": "Bachelor of Design (Visual Communication)",
        "category": [
            "Communication, design and creative industries"
        ],
        "study_level": "BACHELOR DEGREE"
    },
    {
        "href": "https://www.usc.edu.au/study/courses-and-programs/bachelor-degrees-undergraduate-programs/bachelor-of-laws-bachelor-of-communication-journalism",
        "innerText": "Bachelor of Laws / Bachelor of Communication (Journalism)",
        "category": [
            "Communication, design and creative industries",
            "Law and criminology"
        ],
        "study_level": "COMBINED DEGREE"
    },
    {
        "href": "https://www.usc.edu.au/study/courses-and-programs/bachelor-degrees-undergraduate-programs/bachelor-of-laws-bachelor-of-creative-industries-creative-writing-and-publishing",
        "innerText": "Bachelor of Laws / Bachelor of Creative Industries (Creative Writing and Publishing)",
        "category": [
            "Communication, design and creative industries",
            "Law and criminology"
        ],
        "study_level": "COMBINED DEGREE"
    },
    {
        "href": "https://www.usc.edu.au/study/courses-and-programs/bachelor-degrees-undergraduate-programs/bachelor-of-communication-honours",
        "innerText": "Bachelor of Communication (Honours)",
        "category": [
            "Communication, design and creative industries"
        ],
        "study_level": "HONOURS"
    },
    {
        "href": "https://www.usc.edu.au/study/courses-and-programs/bachelor-degrees-undergraduate-programs/bachelor-of-creative-industries-honours",
        "innerText": "Bachelor of Creative Industries (Honours)",
        "category": [
            "Communication, design and creative industries"
        ],
        "study_level": "HONOURS"
    },
    {
        "href": "https://www.usc.edu.au/study/courses-and-programs/bachelor-degrees-undergraduate-programs/bachelor-of-education-early-childhood",
        "innerText": "Bachelor of Education (Early Childhood)",
        "category": [
            "Education"
        ],
        "study_level": "BACHELOR DEGREE"
    },
    {
        "href": "https://www.usc.edu.au/study/courses-and-programs/bachelor-degrees-undergraduate-programs/bachelor-of-primary-education",
        "innerText": "Bachelor of Primary Education",
        "category": [
            "Education"
        ],
        "study_level": "BACHELOR DEGREE"
    },
    {
        "href": "https://www.usc.edu.au/study/courses-and-programs/bachelor-degrees-undergraduate-programs/bachelor-of-education-secondary-bachelor-of-recreation-and-outdoor-environmental-studies",
        "innerText": "Bachelor of Education (Secondary) / Bachelor of Recreation and Outdoor Environmental Studies",
        "category": [
            "Education",
            "Environmental studies"
        ],
        "study_level": "COMBINED DEGREE"
    },
    {
        "href": "https://www.usc.edu.au/study/courses-and-programs/bachelor-degrees-undergraduate-programs/bachelor-of-education-secondary-bachelor-of-science",
        "innerText": "Bachelor of Education (Secondary) / Bachelor of Science",
        "category": [
            "Education",
            "Science and engineering"
        ],
        "study_level": "COMBINED DEGREE"
    },
    {
        "href": "https://www.usc.edu.au/study/courses-and-programs/postgraduate-degrees/graduate-certificate-in-education",
        "innerText": "Graduate Certificate in Education",
        "category": [
            "Education"
        ],
        "study_level": "GRADUATE CERTIFICATE"
    },
    {
        "href": "https://www.usc.edu.au/study/courses-and-programs/postgraduate-degrees/graduate-certificate-in-education-research",
        "innerText": "Graduate Certificate in Education Research",
        "category": [
            "Education"
        ],
        "study_level": "GRADUATE CERTIFICATE"
    },
    {
        "href": "https://www.usc.edu.au/study/courses-and-programs/postgraduate-degrees/graduate-certificate-in-steiner-education",
        "innerText": "Graduate Certificate in Steiner Education",
        "category": [
            "Education"
        ],
        "study_level": "GRADUATE CERTIFICATE"
    },
    {
        "href": "https://www.usc.edu.au/study/courses-and-programs/postgraduate-degrees/master-of-education",
        "innerText": "Master of Education",
        "category": [
            "Education"
        ],
        "study_level": "MASTER DEGREE"
    },
    {
        "href": "https://www.usc.edu.au/study/courses-and-programs/postgraduate-degrees/master-of-teaching-primary",
        "innerText": "Master of Teaching (Primary)",
        "category": [
            "Education"
        ],
        "study_level": "MASTER DEGREE"
    },
    {
        "href": "https://www.usc.edu.au/study/courses-and-programs/postgraduate-degrees/master-of-teaching-secondary",
        "innerText": "Master of Teaching (Secondary)",
        "category": [
            "Education"
        ],
        "study_level": "MASTER DEGREE"
    },
    {
        "href": "https://www.usc.edu.au/study/courses-and-programs/postgraduate-degrees/master-of-education-by-research",
        "innerText": "Master of Education by Research",
        "category": [
            "Education"
        ],
        "study_level": "HIGHER DEGREE BY RESEARCH"
    },
    {
        "href": "https://www.usc.edu.au/study/courses-and-programs/bachelor-degrees-undergraduate-programs/diploma-in-outdoor-environmental-studies",
        "innerText": "Diploma in Outdoor Environmental Studies",
        "category": [
            "Environmental studies"
        ],
        "study_level": "DIPLOMA"
    },
    {
        "href": "https://www.usc.edu.au/study/courses-and-programs/bachelor-degrees-undergraduate-programs/bachelor-of-animal-ecology",
        "innerText": "Bachelor of Animal Ecology",
        "category": [
            "Environmental studies"
        ],
        "study_level": "BACHELOR DEGREE"
    },
    {
        "href": "https://www.usc.edu.au/study/courses-and-programs/bachelor-degrees-undergraduate-programs/bachelor-of-environmental-management",
        "innerText": "Bachelor of Environmental Management",
        "category": [
            "Environmental studies"
        ],
        "study_level": "BACHELOR DEGREE"
    },
    {
        "href": "https://www.usc.edu.au/study/courses-and-programs/bachelor-degrees-undergraduate-programs/bachelor-of-environmental-science",
        "innerText": "Bachelor of Environmental Science",
        "category": [
            "Environmental studies",
            "Science and engineering"
        ],
        "study_level": "BACHELOR DEGREE"
    },
    {
        "href": "https://www.usc.edu.au/study/courses-and-programs/bachelor-degrees-undergraduate-programs/bachelor-of-recreation-and-outdoor-environmental-studies",
        "innerText": "Bachelor of Recreation and Outdoor Environmental Studies",
        "category": [
            "Environmental studies"
        ],
        "study_level": "BACHELOR DEGREE"
    },
    {
        "href": "https://www.usc.edu.au/study/courses-and-programs/bachelor-degrees-undergraduate-programs/bachelor-of-urban-design-and-town-planning-honours",
        "innerText": "Bachelor of Urban Design and Town Planning (Honours)",
        "category": [
            "Environmental studies"
        ],
        "study_level": "BACHELOR DEGREE"
    },
    {
        "href": "https://www.usc.edu.au/study/courses-and-programs/bachelor-degrees-undergraduate-programs/bachelor-of-engineering-civil-honours-bachelor-of-environmental-science",
        "innerText": "Bachelor of Engineering (Civil) (Honours) / Bachelor of Environmental Science",
        "category": [
            "Environmental studies",
            "Science and engineering"
        ],
        "study_level": "COMBINED DEGREE"
    },
    {
        "href": "https://www.usc.edu.au/study/courses-and-programs/bachelor-degrees-undergraduate-programs/bachelor-of-laws-bachelor-of-environmental-management",
        "innerText": "Bachelor of Laws / Bachelor of Environmental Management",
        "category": [
            "Environmental studies",
            "Law and criminology"
        ],
        "study_level": "COMBINED DEGREE"
    },
    {
        "href": "https://www.usc.edu.au/study/courses-and-programs/postgraduate-degrees/master-of-climate-change-adaptation-by-research",
        "innerText": "Master of Climate Change Adaptation by Research",
        "category": [
            "Environmental studies",
            "Science and engineering"
        ],
        "study_level": "HIGHER DEGREE BY RESEARCH"
    },
    {
        "href": "https://www.usc.edu.au/study/courses-and-programs/postgraduate-degrees/master-of-regional-planning-by-research",
        "innerText": "Master of Regional Planning by Research",
        "category": [
            "Environmental studies",
            "Psychology and social sciences"
        ],
        "study_level": "HIGHER DEGREE BY RESEARCH"
    },
    {
        "href": "https://www.usc.edu.au/study/courses-and-programs/bachelor-degrees-undergraduate-programs/diploma-in-criminology-and-justice",
        "innerText": "Diploma in Criminology and Justice",
        "category": [
            "Law and criminology"
        ],
        "study_level": "DIPLOMA"
    },
    {
        "href": "https://www.usc.edu.au/study/courses-and-programs/bachelor-degrees-undergraduate-programs/bachelor-of-criminology-and-justice",
        "innerText": "Bachelor of Criminology and Justice",
        "category": [
            "Law and criminology"
        ],
        "study_level": "BACHELOR DEGREE"
    },
    {
        "href": "https://www.usc.edu.au/study/courses-and-programs/bachelor-degrees-undergraduate-programs/bachelor-of-laws",
        "innerText": "Bachelor of Laws",
        "category": [
            "Law and criminology"
        ],
        "study_level": "BACHELOR DEGREE"
    },
    {
        "href": "https://www.usc.edu.au/study/courses-and-programs/bachelor-degrees-undergraduate-programs/bachelor-of-laws-graduate-entry",
        "innerText": "Bachelor of Laws (Graduate Entry)",
        "category": [
            "Law and criminology"
        ],
        "study_level": "BACHELOR DEGREE"
    },
    {
        "href": "https://www.usc.edu.au/study/courses-and-programs/bachelor-degrees-undergraduate-programs/bachelor-of-laws-bachelor-of-criminology-and-justice",
        "innerText": "Bachelor of Laws / Bachelor of Criminology and Justice",
        "category": [
            "Law and criminology"
        ],
        "study_level": "COMBINED DEGREE"
    },
    {
        "href": "https://www.usc.edu.au/study/courses-and-programs/bachelor-degrees-undergraduate-programs/bachelor-of-laws-bachelor-of-science",
        "innerText": "Bachelor of Laws / Bachelor of Science",
        "category": [
            "Law and criminology",
            "Science and engineering"
        ],
        "study_level": "COMBINED DEGREE"
    },
    {
        "href": "https://www.usc.edu.au/study/courses-and-programs/bachelor-degrees-undergraduate-programs/bachelor-of-social-science-psychology-bachelor-of-criminology-and-justice",
        "innerText": "Bachelor of Social Science (Psychology) / Bachelor of Criminology and Justice",
        "category": [
            "Law and criminology",
            "Psychology and social sciences"
        ],
        "study_level": "COMBINED DEGREE"
    },
    {
        "href": "https://www.usc.edu.au/study/courses-and-programs/bachelor-degrees-undergraduate-programs/bachelor-of-social-work-bachelor-of-criminology-and-justice",
        "innerText": "Bachelor of Social Work / Bachelor of Criminology and Justice",
        "category": [
            "Law and criminology",
            "Psychology and social sciences"
        ],
        "study_level": "COMBINED DEGREE"
    },
    {
        "href": "https://www.usc.edu.au/study/courses-and-programs/bachelor-degrees-undergraduate-programs/bachelor-of-criminology-and-justice-honours",
        "innerText": "Bachelor of Criminology and Justice (Honours)",
        "category": [
            "Law and criminology"
        ],
        "study_level": "HONOURS"
    },
    {
        "href": "https://www.usc.edu.au/study/courses-and-programs/bachelor-degrees-undergraduate-programs/associate-degree-in-medical-laboratory-science",
        "innerText": "Associate Degree in Medical Laboratory Science",
        "category": [
            "Medical and health sciences"
        ],
        "study_level": "ASSOCIATE DEGREE"
    },
    {
        "href": "https://www.usc.edu.au/study/courses-and-programs/bachelor-degrees-undergraduate-programs/bachelor-of-biomedical-science",
        "innerText": "Bachelor of Biomedical Science",
        "category": [
            "Medical and health sciences"
        ],
        "study_level": "BACHELOR DEGREE"
    },
    {
        "href": "https://www.usc.edu.au/study/courses-and-programs/bachelor-degrees-undergraduate-programs/bachelor-of-biomedical-science-accelerated",
        "innerText": "Bachelor of Biomedical Science (Accelerated)",
        "category": [
            "Medical and health sciences"
        ],
        "study_level": "BACHELOR DEGREE"
    },
    {
        "href": "https://www.usc.edu.au/study/courses-and-programs/bachelor-degrees-undergraduate-programs/bachelor-of-dietetics",
        "innerText": "Bachelor of Dietetics",
        "category": [
            "Medical and health sciences"
        ],
        "study_level": "BACHELOR DEGREE"
    },
    {
        "href": "https://www.usc.edu.au/study/courses-and-programs/bachelor-degrees-undergraduate-programs/bachelor-of-health-science",
        "innerText": "Bachelor of Health Science",
        "category": [
            "Medical and health sciences",
            "Science and engineering",
            "Sport and exercise science"
        ],
        "study_level": "BACHELOR DEGREE"
    },
    {
        "href": "https://www.usc.edu.au/study/courses-and-programs/bachelor-degrees-undergraduate-programs/bachelor-of-medical-science",
        "innerText": "Bachelor of Medical Science",
        "category": [
            "Medical and health sciences"
        ],
        "study_level": "BACHELOR DEGREE"
    },
    {
        "href": "https://www.usc.edu.au/study/courses-and-programs/bachelor-degrees-undergraduate-programs/bachelor-of-nutrition",
        "innerText": "Bachelor of Nutrition",
        "category": [
            "Medical and health sciences"
        ],
        "study_level": "BACHELOR DEGREE"
    },
    {
        "href": "https://www.usc.edu.au/study/courses-and-programs/bachelor-degrees-undergraduate-programs/bachelor-of-occupational-therapy-honours",
        "innerText": "Bachelor of Occupational Therapy (Honours)",
        "category": [
            "Medical and health sciences"
        ],
        "study_level": "BACHELOR DEGREE"
    },
    {
        "href": "https://www.usc.edu.au/study/courses-and-programs/postgraduate-degrees/graduate-certificate-in-mental-health-and-neuroscience",
        "innerText": "Graduate Certificate in Mental Health and Neuroscience",
        "category": [
            "Medical and health sciences"
        ],
        "study_level": "GRADUATE CERTIFICATE"
    },
    {
        "href": "https://www.usc.edu.au/study/courses-and-programs/postgraduate-degrees/graduate-diploma-in-health-promotion",
        "innerText": "Graduate Diploma in Health Promotion",
        "category": [
            "Medical and health sciences"
        ],
        "study_level": "GRADUATE CERTIFICATE"
    },
    {
        "href": "https://www.usc.edu.au/study/courses-and-programs/postgraduate-degrees/master-of-health-promotion",
        "innerText": "Master of Health Promotion",
        "category": [
            "Medical and health sciences"
        ],
        "study_level": "MASTER DEGREE"
    },
    {
        "href": "https://www.usc.edu.au/study/courses-and-programs/bachelor-degrees-undergraduate-programs/bachelor-of-midwifery",
        "innerText": "Bachelor of Midwifery",
        "category": [
            "Nursing, midwifery and paramedicine"
        ],
        "study_level": "BACHELOR DEGREE"
    },
    {
        "href": "https://www.usc.edu.au/study/courses-and-programs/bachelor-degrees-undergraduate-programs/bachelor-of-nursing-science",
        "innerText": "Bachelor of Nursing Science",
        "category": [
            "Nursing, midwifery and paramedicine"
        ],
        "study_level": "BACHELOR DEGREE"
    },
    {
        "href": "https://www.usc.edu.au/study/courses-and-programs/bachelor-degrees-undergraduate-programs/bachelor-of-nursing-science-graduate-entry",
        "innerText": "Bachelor of Nursing Science (Graduate Entry)",
        "category": [
            "Nursing, midwifery and paramedicine"
        ],
        "study_level": "BACHELOR DEGREE"
    },
    {
        "href": "https://www.usc.edu.au/study/courses-and-programs/bachelor-degrees-undergraduate-programs/bachelor-of-paramedic-science",
        "innerText": "Bachelor of Paramedic Science",
        "category": [
            "Nursing, midwifery and paramedicine"
        ],
        "study_level": "BACHELOR DEGREE"
    },
    {
        "href": "https://www.usc.edu.au/study/courses-and-programs/bachelor-degrees-undergraduate-programs/bachelor-of-midwifery-honours",
        "innerText": "Bachelor of Midwifery (Honours)",
        "category": [
            "Nursing, midwifery and paramedicine"
        ],
        "study_level": "HONOURS"
    },
    {
        "href": "https://www.usc.edu.au/study/courses-and-programs/bachelor-degrees-undergraduate-programs/bachelor-of-nursing-science-honours",
        "innerText": "Bachelor of Nursing Science (Honours)",
        "category": [
            "Nursing, midwifery and paramedicine"
        ],
        "study_level": "HONOURS"
    },
    {
        "href": "https://www.usc.edu.au/study/courses-and-programs/postgraduate-degrees/graduate-certificate-in-nursing",
        "innerText": "Graduate Certificate in Nursing",
        "category": [
            "Nursing, midwifery and paramedicine"
        ],
        "study_level": "GRADUATE CERTIFICATE"
    },
    {
        "href": "https://www.usc.edu.au/study/courses-and-programs/postgraduate-degrees/master-of-nursing-clinical-leadership",
        "innerText": "Master of Nursing (Clinical Leadership)",
        "category": [
            "Nursing, midwifery and paramedicine"
        ],
        "study_level": "MASTER DEGREE"
    },
    {
        "href": "https://www.usc.edu.au/study/courses-and-programs/bachelor-degrees-undergraduate-programs/diploma-in-social-science",
        "innerText": "Diploma in Social Science",
        "category": [
            "Psychology and social sciences"
        ],
        "study_level": "DIPLOMA"
    },
    {
        "href": "https://www.usc.edu.au/study/courses-and-programs/postgraduate-degrees/graduate-diploma-in-psychology",
        "innerText": "Graduate Diploma in Psychology",
        "category": [
            "Psychology and social sciences"
        ],
        "study_level": "DIPLOMA"
    },
    {
        "href": "https://www.usc.edu.au/study/courses-and-programs/bachelor-degrees-undergraduate-programs/bachelor-of-counselling",
        "innerText": "Bachelor of Counselling",
        "category": [
            "Psychology and social sciences"
        ],
        "study_level": "BACHELOR DEGREE"
    },
    {
        "href": "https://www.usc.edu.au/study/courses-and-programs/bachelor-degrees-undergraduate-programs/bachelor-of-human-services",
        "innerText": "Bachelor of Human Services",
        "category": [
            "Psychology and social sciences"
        ],
        "study_level": "BACHELOR DEGREE"
    },
    {
        "href": "https://www.usc.edu.au/study/courses-and-programs/bachelor-degrees-undergraduate-programs/bachelor-of-psychology-honours",
        "innerText": "Bachelor of Psychology (Honours)",
        "category": [
            "Psychology and social sciences"
        ],
        "study_level": "BACHELOR DEGREE"
    },
    {
        "href": "https://www.usc.edu.au/study/courses-and-programs/bachelor-degrees-undergraduate-programs/bachelor-of-social-science-psychology",
        "innerText": "Bachelor of Social Science (Psychology)",
        "category": [
            "Psychology and social sciences"
        ],
        "study_level": "BACHELOR DEGREE"
    },
    {
        "href": "https://www.usc.edu.au/study/courses-and-programs/bachelor-degrees-undergraduate-programs/bachelor-of-social-work",
        "innerText": "Bachelor of Social Work",
        "category": [
            "Psychology and social sciences"
        ],
        "study_level": "BACHELOR DEGREE"
    },
    {
        "href": "https://www.usc.edu.au/study/courses-and-programs/bachelor-degrees-undergraduate-programs/bachelor-of-counselling-bachelor-of-human-services",
        "innerText": "Bachelor of Counselling / Bachelor of Human Services",
        "category": [
            "Psychology and social sciences"
        ],
        "study_level": "COMBINED DEGREE"
    },
    {
        "href": "https://www.usc.edu.au/study/courses-and-programs/bachelor-degrees-undergraduate-programs/bachelor-of-social-science-psychology-bachelor-of-counselling",
        "innerText": "Bachelor of Social Science (Psychology) / Bachelor of Counselling",
        "category": [
            "Psychology and social sciences"
        ],
        "study_level": "COMBINED DEGREE"
    },
    {
        "href": "https://www.usc.edu.au/study/courses-and-programs/bachelor-degrees-undergraduate-programs/bachelor-of-social-science-psychology-honours",
        "innerText": "Bachelor of Social Science (Psychology) (Honours)",
        "category": [
            "Psychology and social sciences"
        ],
        "study_level": "HONOURS"
    },
    {
        "href": "https://www.usc.edu.au/study/courses-and-programs/postgraduate-degrees/master-of-counselling",
        "innerText": "Master of Counselling",
        "category": [
            "Psychology and social sciences"
        ],
        "study_level": "MASTER DEGREE"
    },
    {
        "href": "https://www.usc.edu.au/study/courses-and-programs/postgraduate-degrees/master-of-professional-psychology",
        "innerText": "Master of Professional Psychology",
        "category": [
            "Psychology and social sciences"
        ],
        "study_level": "MASTER DEGREE"
    },
    {
        "href": "https://www.usc.edu.au/study/courses-and-programs/postgraduate-degrees/master-of-psychology-clinical",
        "innerText": "Master of Psychology (Clinical)",
        "category": [
            "Psychology and social sciences"
        ],
        "study_level": "MASTER DEGREE"
    },
    {
        "href": "https://www.usc.edu.au/study/courses-and-programs/postgraduate-degrees/master-of-social-work-qualifying",
        "innerText": "Master of Social Work (Qualifying)",
        "category": [
            "Psychology and social sciences"
        ],
        "study_level": "MASTER DEGREE"
    },
    {
        "href": "https://www.usc.edu.au/study/courses-and-programs/postgraduate-degrees/master-of-social-work-by-research",
        "innerText": "Master of Social Work by Research",
        "category": [
            "Psychology and social sciences"
        ],
        "study_level": "HIGHER DEGREE BY RESEARCH"
    },
    {
        "href": "https://www.usc.edu.au/study/courses-and-programs/bachelor-degrees-undergraduate-programs/diploma-in-sport-and-fitness",
        "innerText": "Diploma in Sport and Fitness",
        "category": [
            "Science and engineering",
            "Sport and exercise science"
        ],
        "study_level": "DIPLOMA"
    },
    {
        "href": "https://www.usc.edu.au/study/courses-and-programs/bachelor-degrees-undergraduate-programs/associate-degree-in-science",
        "innerText": "Associate Degree in Science",
        "category": [
            "Science and engineering"
        ],
        "study_level": "ASSOCIATE DEGREE"
    },
    {
        "href": "https://www.usc.edu.au/study/courses-and-programs/bachelor-degrees-undergraduate-programs/bachelor-of-clinical-exercise-physiology",
        "innerText": "Bachelor of Clinical Exercise Physiology",
        "category": [
            "Science and engineering",
            "Sport and exercise science"
        ],
        "study_level": "BACHELOR DEGREE"
    },
    {
        "href": "https://www.usc.edu.au/study/courses-and-programs/bachelor-degrees-undergraduate-programs/bachelor-of-computer-science",
        "innerText": "Bachelor of Computer Science",
        "category": [
            "Science and engineering"
        ],
        "study_level": "BACHELOR DEGREE"
    },
    {
        "href": "https://www.usc.edu.au/study/courses-and-programs/bachelor-degrees-undergraduate-programs/bachelor-of-engineering-civil-honours",
        "innerText": "Bachelor of Engineering (Civil) (Honours)",
        "category": [
            "Science and engineering"
        ],
        "study_level": "BACHELOR DEGREE"
    },
    {
        "href": "https://www.usc.edu.au/study/courses-and-programs/bachelor-degrees-undergraduate-programs/bachelor-of-engineering-electrical-and-electronic-honours",
        "innerText": "Bachelor of Engineering (Electrical and Electronic) (Honours)",
        "category": [
            "Science and engineering"
        ],
        "study_level": "BACHELOR DEGREE"
    },
    {
        "href": "https://www.usc.edu.au/study/courses-and-programs/bachelor-degrees-undergraduate-programs/bachelor-of-engineering-mechanical-honours",
        "innerText": "Bachelor of Engineering (Mechanical) (Honours)",
        "category": [
            "Science and engineering"
        ],
        "study_level": "BACHELOR DEGREE"
    },
    {
        "href": "https://www.usc.edu.au/study/courses-and-programs/bachelor-degrees-undergraduate-programs/bachelor-of-engineering-mechatronic-honours",
        "innerText": "Bachelor of Engineering (Mechatronic) (Honours)",
        "category": [
            "Science and engineering"
        ],
        "study_level": "BACHELOR DEGREE"
    },
    {
        "href": "https://www.usc.edu.au/study/courses-and-programs/bachelor-degrees-undergraduate-programs/bachelor-of-science",
        "innerText": "Bachelor of Science",
        "category": [
            "Science and engineering"
        ],
        "study_level": "BACHELOR DEGREE"
    },
    {
        "href": "https://www.usc.edu.au/study/courses-and-programs/bachelor-degrees-undergraduate-programs/bachelor-of-sport-and-exercise-science",
        "innerText": "Bachelor of Sport and Exercise Science",
        "category": [
            "Science and engineering",
            "Sport and exercise science"
        ],
        "study_level": "BACHELOR DEGREE"
    },
    {
        "href": "https://www.usc.edu.au/study/courses-and-programs/bachelor-degrees-undergraduate-programs/bachelor-of-sports-studies",
        "innerText": "Bachelor of Sports Studies",
        "category": [
            "Science and engineering",
            "Sport and exercise science"
        ],
        "study_level": "BACHELOR DEGREE"
    },
    {
        "href": "https://www.usc.edu.au/study/courses-and-programs/bachelor-degrees-undergraduate-programs/bachelor-of-science-honours",
        "innerText": "Bachelor of Science (Honours)",
        "category": [
            "Science and engineering"
        ],
        "study_level": "HONOURS"
    },
    {
        "href": "https://www.usc.edu.au/study/courses-and-programs/postgraduate-degrees/master-of-science",
        "innerText": "Master of Science",
        "category": [
            "Science and engineering"
        ],
        "study_level": "HIGHER DEGREE BY RESEARCH"
    },
    {
        "href": "https://www.usc.edu.au/study/courses-and-programs/postgraduate-degrees/master-of-sport-and-exercise-science-by-research",
        "innerText": "Master of Sport and Exercise Science by Research",
        "category": [
            "Science and engineering",
            "Sport and exercise science"
        ],
        "study_level": "HIGHER DEGREE BY RESEARCH"
    },
    {
        "href": "https://www.usc.edu.au/study/courses-and-programs/postgraduate-degrees/master-of-sports-nutrition-by-research",
        "innerText": "Master of Sports Nutrition by Research",
        "category": [
            "Science and engineering",
            "Sport and exercise science"
        ],
        "study_level": "HIGHER DEGREE BY RESEARCH"
    }
]