{
    "univ_id": "centralmelbourneinstitute",
    "course_title": "Certificate Iv In Leadership And Management",
    "course_study_mode": "On campus",
    "course_discipline": [
        "Management and Commerce"
    ],
    "program_code": "BSB42015",
    "course_outline": {
        "majors": [],
        "minors": [],
        "more_details": "http://cmi.vic.edu.au/courses/certificate-iv-in-leadership-and-management-bsb42015-cricos-091875f/"
    },
    "application_fee": "",
    "course_admission_requirement": {
        "english": [
            {
                "name": "ielts academic",
                "description": "Entry in to this course requires IELTS band score of 5.5 or equivalent in line with DHA regulations",
                "min": 0,
                "require": 5.5,
                "max": 9,
                "R": 0,
                "W": 0,
                "S": 0,
                "L": 0,
                "O": 0
            }
        ],
        "academic": [
            "All students must of the age of 18 years or over at the time of applying for admission",
            "Satisfactory completion of studies in applicant’s home country equivalent to an Australian Year 12 qualification is required for entry into this course",
            "Mature age students will also be considered without the minimum education requirements but with relevant work experience within chosen area of study and a demonstrated capacity to meet course requirements. A minimum of 5 years supervision experience would normally be expected but each case will be reviewed individually with relevant work experience evidenced by work reference letter on company letterhead, work samples and curriculum vitae submitted will be considered."
        ],
        "english_requirements_url": "http://cmi.vic.edu.au/information-for-students/entry-requirements/",
        "entry_requirements_url": "http://cmi.vic.edu.au/information-for-students/entry-requirements/",
        "academic_requirements_url": "http://cmi.vic.edu.au/information-for-students/entry-requirements/"
    },
    "course_study_level": "Certificate IV",
    "course_url": "http://cmi.vic.edu.au/courses/certificate-iv-in-leadership-and-management-bsb42015-cricos-091875f/",
    "course_campus_location": [
        {
            "name": "Melbourne",
            "code": "091875F"
        }
    ],
    "course_duration": "52 Weeks",
    "course_duration_display": [
        {
            "unit": "weeks",
            "duration": "52",
            "display": "Full-Time",
            "filterduration": 0.9972594543072979
        }
    ],
    "isfulltime": true,
    "isparttime": false,
    "course_intake": {
        "intake": [
            {
                "name": "Melbourne",
                "value": [
                    {
                        "actualdate": "Monthly",
                        "month": ""
                    }
                ]
            }
        ],
        "more_details": ""
    },
    "course_overview": "",
    "course_career_outcome": [],
    "course_country": "Australia",
    "course_tuition_fee": {
        "fees": [
            {
                "name": "Melbourne",
                "value": {
                    "international_student": {
                        "amount": 9500,
                        "duration": 52,
                        "unit": "weeks",
                        "description": "9500"
                    },
                    "fee_duration_years": "1",
                    "currency": "AUD"
                }
            }
        ]
    },
    "course_id": "certificateivinleadershipandmanagement"
}