[
    {
        "innerText": "About University Arts and Sciences (UAS)",
        "href": "https://selkirk.ca/program/about-university-arts-and-sciences-uas"
    },
    {
        "innerText": "Academic Upgrading",
        "href": "https://selkirk.ca/program/academic-upgrading"
    },
    {
        "innerText": "Adult Special Education",
        "href": "https://selkirk.ca/program/ase"
    },
    {
        "innerText": "Advanced Interprofessional Diploma in Gerontology",
        "href": "https://selkirk.ca/program/gerontology"
    },
    {
        "innerText": "Anthropology",
        "href": "https://selkirk.ca/program/anthropology"
    },
    {
        "innerText": "BC Electrical Code",
        "href": "https://selkirk.ca/program/bc-electrical-code"
    },
    {
        "innerText": "BC Low Energy Code",
        "href": "https://selkirk.ca/program/bc-low-energy-code"
    },
    {
        "innerText": "Biochemistry",
        "href": "https://selkirk.ca/program/biochemistry"
    },
    {
        "innerText": "Biology",
        "href": "https://selkirk.ca/program/biology"
    },
    {
        "innerText": "Blacksmithing Studio",
        "href": "https://selkirk.ca/program/blacksmithing"
    },
    {
        "innerText": "Bronze Casting Studio",
        "href": "https://selkirk.ca/program/bronze-casting"
    },
    {
        "innerText": "Business Administration Advanced Diploma",
        "href": "https://selkirk.ca/program/business-administration-advanced-diploma"
    },
    {
        "innerText": "Business Administration Diploma",
        "href": "https://selkirk.ca/program/business-administration-diploma"
    },
    {
        "innerText": "Carpentry Apprenticeship",
        "href": "https://selkirk.ca/program/carpentry-apprenticeship"
    },
    {
        "innerText": "Carpentry Foundation",
        "href": "https://selkirk.ca/program/carpentry-foundation"
    },
    {
        "innerText": "Ceramics Studio",
        "href": "https://selkirk.ca/program/ceramics"
    },
    {
        "innerText": "Chemistry",
        "href": "https://selkirk.ca/program/chemistry"
    },
    {
        "innerText": "Commercial Kitchen Assistant",
        "href": "https://selkirk.ca/program/commercial-kitchen-assistant"
    },
    {
        "innerText": "Community Support Worker Associate Certificate",
        "href": "https://selkirk.ca/program/community-support-worker-associate-certificate"
    },
    {
        "innerText": "Computer Science",
        "href": "https://selkirk.ca/program/computer-science"
    },
    {
        "innerText": "Cook Training, Professional",
        "href": "https://selkirk.ca/program/cook"
    },
    {
        "innerText": "Creative Writing",
        "href": "https://selkirk.ca/program/creative-writing"
    },
    {
        "innerText": "Culinary Management",
        "href": "https://selkirk.ca/program/culinary"
    },
    {
        "innerText": "Customize Your Degree: Interdisciplinary Studies",
        "href": "https://selkirk.ca/program/customize-your-degree-interdisciplinary-studies"
    },
    {
        "innerText": "Digital Arts",
        "href": "https://selkirk.ca/program/danm"
    },
    {
        "innerText": "Digital Fabrication & Design",
        "href": "https://selkirk.ca/program/digital-fabrication-design"
    },
    {
        "innerText": "Early Childhood Care & Education",
        "href": "https://selkirk.ca/program/ecce"
    },
    {
        "innerText": "Economics",
        "href": "https://selkirk.ca/program/economics"
    },
    {
        "innerText": "Education Assistant & Community Support Worker Program",
        "href": "https://selkirk.ca/program/Education-Assistant-Community-Support-Worker-Program"
    },
    {
        "innerText": "Electrical Apprenticeship",
        "href": "https://selkirk.ca/program/electrical-apprenticeship"
    },
    {
        "innerText": "Electrical Foundation",
        "href": "https://selkirk.ca/program/electrical-foundation"
    },
    {
        "innerText": "Elementary Education",
        "href": "https://selkirk.ca/elementary-education"
    },
    {
        "innerText": "Engineering",
        "href": "https://selkirk.ca/program/engineering"
    },
    {
        "innerText": "English",
        "href": "https://selkirk.ca/program/english"
    },
    {
        "innerText": "English Language Program",
        "href": "https://selkirk.ca/english-language-program"
    },
    {
        "innerText": "Entry to Pharmacy",
        "href": "https://selkirk.ca/program/entry-pharmacy"
    },
    {
        "innerText": "Fine Woodworking",
        "href": "https://selkirk.ca/program/fine-woodworking"
    },
    {
        "innerText": "Forest Technology",
        "href": "https://selkirk.ca/program/forest-technology"
    },
    {
        "innerText": "General Associate of Arts Degree",
        "href": "https://selkirk.ca/program/general-associate-arts-degree"
    },
    {
        "innerText": "General Associate of Science Degree",
        "href": "https://selkirk.ca/program/general-associate-science-degree"
    },
    {
        "innerText": "Geographic Information Systems",
        "href": "https://selkirk.ca/program/geographic-information-systems"
    },
    {
        "innerText": "Geography",
        "href": "https://selkirk.ca/program/geography"
    },
    {
        "innerText": "Geology",
        "href": "https://selkirk.ca/program/geology"
    },
    {
        "innerText": "Golf Club Operations",
        "href": "https://selkirk.ca/program/golf"
    },
    {
        "innerText": "Hairstylist",
        "href": "https://selkirk.ca/program/hairstylist"
    },
    {
        "innerText": "Health Care Assistant",
        "href": "https://selkirk.ca/program/hca"
    },
    {
        "innerText": "Heavy Mechanical Foundation",
        "href": "https://selkirk.ca/program/heavy-mechanical-foundation"
    },
    {
        "innerText": "History",
        "href": "https://selkirk.ca/program/history"
    },
    {
        "innerText": "Human Services Diploma",
        "href": "https://selkirk.ca/program/human-services-diploma"
    },
    {
        "innerText": "Integrated Environmental Planning",
        "href": "https://selkirk.ca/program/iep"
    },
    {
        "innerText": "Jewelry Studio",
        "href": "https://selkirk.ca/program/jewel"
    },
    {
        "innerText": "Languages - French / Spanish",
        "href": "https://selkirk.ca/program/languages-french-spanish"
    },
    {
        "innerText": "Law and Justice Studies",
        "href": "https://selkirk.ca/program/law-and-justice-studies"
    },
    {
        "innerText": "Liberal Arts Diploma",
        "href": "https://selkirk.ca/program/liberal-arts-diploma"
    },
    {
        "innerText": "Math and Statistics",
        "href": "https://selkirk.ca/program/math-and-statistics"
    },
    {
        "innerText": "Mental Health & Addictions Associate Certificate",
        "href": "https://selkirk.ca/program/mental-health-addictions"
    },
    {
        "innerText": "Metal Fabricator Foundation",
        "href": "https://selkirk.ca/program/metal-fabricator-foundation"
    },
    {
        "innerText": "Millwright/Machinist",
        "href": "https://selkirk.ca/program/millwright-machinist"
    },
    {
        "innerText": "Music & Technology",
        "href": "https://selkirk.ca/program/music"
    },
    {
        "innerText": "Nursing",
        "href": "https://selkirk.ca/program/nursing"
    },
    {
        "innerText": "Nursing Unit Clerk",
        "href": "https://selkirk.ca/program/nucl"
    },
    {
        "innerText": "Office Administration & Technology Certificate",
        "href": "https://selkirk.ca/program/office-administration-technology-certificate"
    },
    {
        "innerText": "Peace and Justice Studies",
        "href": "https://selkirk.ca/program/peace-and-justice-studies"
    },
    {
        "innerText": "Pharmacy Technician",
        "href": "https://selkirk.ca/program/ptec"
    },
    {
        "innerText": "Pharmacy Technician - National Bridging Education Program / Programme Passerelle National de Formation de Technicien(ne) en Pharmacie",
        "href": "https://selkirk.ca/program/pharmacy-technician-bridging-national-education-program"
    },
    {
        "innerText": "Philosophy",
        "href": "https://selkirk.ca/program/philosophy"
    },
    {
        "innerText": "Plant Operator",
        "href": "https://selkirk.ca/program/plant-operator"
    },
    {
        "innerText": "Post Graduate Diploma in Culinary Management",
        "href": "https://selkirk.ca/program/post-graduate-diploma-culinary-management"
    },
    {
        "innerText": "Post-Graduate Accounting Diploma",
        "href": "https://selkirk.ca/program/post-graduate-accounting-diploma"
    },
    {
        "innerText": "Post-Graduate Business Management Diploma",
        "href": "https://selkirk.ca/program/post-graduate-business-management"
    },
    {
        "innerText": "Post-Graduate Diploma in Gerontological Nursing",
        "href": "https://selkirk.ca/post-graduate-diploma-gerontology"
    },
    {
        "innerText": "Post-Graduate Diploma in Hospitality Management",
        "href": "https://selkirk.ca/post-graduate-diploma-hospitality-management"
    },
    {
        "innerText": "Psychology",
        "href": "https://selkirk.ca/program/psychology"
    },
    {
        "innerText": "Recreation, Fish and Wildlife",
        "href": "https://selkirk.ca/program/rfw"
    },
    {
        "innerText": "Refrigeration Plant Operator",
        "href": "https://selkirk.ca/program/refrigeration-plant-operator"
    },
    {
        "innerText": "Resort and Hotel Management",
        "href": "https://selkirk.ca/program/rhm"
    },
    {
        "innerText": "Rural Pre-Medicine",
        "href": "https://selkirk.ca/program/rural-pre-medicine"
    },
    {
        "innerText": "Sculptural Metal Studio",
        "href": "https://selkirk.ca/program/sculptural-metal"
    },
    {
        "innerText": "Ski Resort Operations and Management",
        "href": "https://selkirk.ca/program/ski"
    },
    {
        "innerText": "Social Service Worker",
        "href": "https://selkirk.ca/program/ssw"
    },
    {
        "innerText": "Sociology",
        "href": "https://selkirk.ca/program/sociology"
    },
    {
        "innerText": "SPECTRUM: Lifespan Autism Resources & Training",
        "href": "https://selkirk.ca/SPECTRUM"
    },
    {
        "innerText": "Teaching English to Speakers of Other Languages (TESOL)",
        "href": "https://selkirk.ca/program/tesol"
    },
    {
        "innerText": "Textiles Studio",
        "href": "https://selkirk.ca/program/textiles"
    },
    {
        "innerText": "Trades Discovery Program for Adults",
        "href": "https://selkirk.ca/program/trades-discovery-program"
    },
    {
        "innerText": "Traditional Chinese Medicine",
        "href": "https://selkirk.ca/traditional-chinese-medicine"
    },
    {
        "innerText": "Unarmed Civilian Peacekeeping",
        "href": "https://selkirk.ca/program/unarmed-civilian-peacekeeping"
    },
    {
        "innerText": "University Studies - General",
        "href": "https://selkirk.ca/university-studies-general"
    },
    {
        "innerText": "Web Development",
        "href": "https://selkirk.ca/program/web-development"
    },
    {
        "innerText": "Welding",
        "href": "https://selkirk.ca/program/welding"
    },
    {
        "innerText": "Women's Studies",
        "href": "https://selkirk.ca/program/womens-studies"
    }
]