{
      "course_title": "Diploma Of Project Management",
      "univ_id": "kentinstitute",
      "course_url": "https://kent.edu.au/kent3/business-courses/diploma-of-project-management/",
      "course_study_mode": "On campus",
      "course_campus_location": [
            {
                  "name": "Sydney",
                  "code": "095635A"
            }
      ],
      "course_discipline": [
            "Business Courses"
      ],
      "program_code": "BSB51415",
      "course_study_level": "Diploma",
      "course_duration": "52 weeks (9 x study blocks of 4 weeks + breaks).",
      "course_duration_display": [
            {
                  "unit": "weeks",
                  "duration": "52",
                  "display": "Full-Time",
                  "filterduration": 0.9972594543072979
            }
      ],
      "isfulltime": true,
      "isparttime": false,
      "course_admission_requirement": {
            "english": [
                  {
                        "name": "ielts academic",
                        "description": "IELTS (Academic) 5.5 with no band less than 5.0 or equivalent.",
                        "min": 0,
                        "require": 5.5,
                        "max": 9,
                        "R": 5,
                        "W": 5,
                        "S": 5,
                        "L": 5,
                        "O": 5.5
                  }
            ],
            "academic": [
                  "Successful completion of Australian year 12 or equivalent; OR",
                  "Successful completion of AQF recognised Certificate IV in Business or other relevant qualification; OR",
                  "Relevant work experience in a related field."
            ],
            "entry_requirements_url": "",
            "english_requirements_url": "",
            "academic_requirements_url": ""
      },
      "course_intake": {
            "intake": [
                  {
                        "name": "Sydney",
                        "value": [
                              {
                                    "actualdate": "6 January 2020",
                                    "month": "January",
                                    "filterdate": "2020-01-06"
                              },
                              {
                                    "actualdate": "3 February 2020",
                                    "month": "February",
                                    "filterdate": "2020-02-03"
                              },
                              {
                                    "actualdate": "2 March 2020",
                                    "month": "March",
                                    "filterdate": "2020-03-02"
                              },
                              {
                                    "actualdate": "20 April 2020",
                                    "month": "April",
                                    "filterdate": "2020-04-20"
                              },
                              {
                                    "actualdate": "18 May 2020",
                                    "month": "May",
                                    "filterdate": "2020-05-18"
                              },
                              {
                                    "actualdate": "6 July 2020",
                                    "month": "July",
                                    "filterdate": "2020-07-06"
                              },
                              {
                                    "actualdate": "3 August 2020",
                                    "month": "August",
                                    "filterdate": "2020-08-03"
                              },
                              {
                                    "actualdate": "21 September 2020",
                                    "month": "September",
                                    "filterdate": "2020-09-21"
                              },
                              {
                                    "actualdate": "19 October 2020",
                                    "month": "October",
                                    "filterdate": "2020-10-19"
                              }
                        ]
                  }
            ],
            "more_details": "https://kent.edu.au/kent3/important-dates/"
      },
      "course_overview": "This course is designed for those seeking a career in project management through developing the skills and knowledge for managing projects in a variety of contexts, across a number of industry sectors.This course offers a practical understanding of project scope and professional development, project timing and costs, project integration, project governance, project quality, project human resources, project information and communication, project stakeholder engagement and project risk management.",
      "course_career_outcome": [],
      "course_country": "Australia",
      "course_tuition_fee": {
            "fees": [
                  {
                        "name": "Sydney",
                        "value": {
                              "international_student": {
                                    "amount": 6000,
                                    "duration": 52,
                                    "unit": "weeks",
                                    "description": "AUD $6,000"
                              },
                              "fee_duration_years": "1",
                              "currency": "AUD"
                        }
                  }
            ]
      },
      "course_outline": {
            "majors": [],
            "minors": [],
            "more_details": "https://kent.edu.au/kent3/business-courses/diploma-of-project-management/"
      },
      "application_fee": "",
      "course_id": "diplomaofprojectmanagement"
}