{
    "univ_id": "",
    "univ_url": "",
    "page_url": "https://www.canberra.edu.au",
    "univ_name": "",
    "univ_country": [
        {
            "url": "",
            "elements": [
                {
                    "elementType": "readfromfile",
                    "value": "./selectors/university_hard_coded_data.json",
                    "selectors": [
                        "univ_country"
                    ]
                }
            ]
        }
    ],
    "univ_about": [
        {
            "url": "https://www.canberra.edu.au/about-uc",
            "elements": [
                {
                    "elementType": "div",
                    "selectors": [
                        "#main > div.main-inner > div.center-col.content > p:nth-child(3)",
                        "#main > div.main-inner > div.center-col.content > p:nth-child(4)",
                        "#main > div.main-inner > div.center-col.content > p:nth-child(5)",
                        "#main > div.main-inner > div.center-col.content > p:nth-child(6)"
                    ]
                }
            ]
        }
    ],
    "univ_logo": [
        {
            "url": "",
            "elements": [
                {
                    "elementType": "readfromfile",
                    "value": "./selectors/university_hard_coded_data.json",
                    "selectors": [
                        "univ_logo"
                    ]
                }
            ]
        }
    ],
    "university_type": [
        {
            "url": "",
            "elements": [
                {
                    "elementType": "readfromfile",
                    "value": "./selectors/university_hard_coded_data.json",
                    "selectors": [
                        "university_type"
                    ]
                }
            ]
        }
    ],
    "univ_accomodation": [
        {
            "url": "",
            "elements": [
                {
                    "elementType": "readfromfile",
                    "value": "./selectors/university_hard_coded_data.json",
                    "selectors": [
                        "univ_accomodation"
                    ]
                }
            ]
        }
    ],
    "univ_rankings": [
        {
            "url": "",
            "elements": [
                {
                    "elementType": "readfromfile",
                    "value": "./selectors/university_hard_coded_data.json",
                    "selectors": [
                        "univ_rankings"
                    ]
                }
            ]
        }
    ],
    "apply_url": [
        {
            "url": "https://www.canberra.edu.au/future-students/apply-now",
            "elements": [
                {
                    "elementType": "readfromfile",
                    "value": "./selectors/university_hard_coded_data.json",
                    "selectors": [
                        "apply_url"
                    ]
                }
            ]
        }
    ],
    "placement_url": [
        {
            "url": "http://uctalent.canberra.edu.au/cw/en/listing",
            "elements": [
                {
                    "elementType": "readfromfile",
                    "value": "./selectors/university_hard_coded_data.json",
                    "selectors": [
                        "placement_url"
                    ]
                }
            ]
        }
    ],
    "brochure_path": [
        {
            "url": "",
            "elements": [
                {
                    "elementType": "readfromfile",
                    "value": "./selectors/university_hard_coded_data.json",
                    "selectors": [
                        "brochure_path"
                    ]
                }
            ]
        }
    ],
    "application_fee": [
        {
            "url": "",
            "elements": [
                {
                    "elementType": "readfromfile",
                    "value": "./selectors/university_hard_coded_data.json",
                    "selectors": [
                        "application_fee"
                    ]
                }
            ]
        }
    ],
    "facebook_page_name": [
        {
            "url": "",
            "elements": [
                {
                    "elementType": "readfromfile",
                    "value": "./selectors/university_hard_coded_data.json",
                    "selectors": [
                        "facebook_page_name"
                    ]
                }
            ]
        }
    ],
    "twitter_page_name": [
        {
            "url": "",
            "elements": [
                {
                    "elementType": "readfromfile",
                    "value": "./selectors/university_hard_coded_data.json",
                    "selectors": [
                        "twitter_page_name"
                    ]
                }
            ]
        }
    ],
    "youtube_page_name": [
        {
            "url": "",
            "elements": [
                {
                    "elementType": "readfromfile",
                    "value": "./selectors/university_hard_coded_data.json",
                    "selectors": [
                        "youtube_page_name"
                    ]
                }
            ]
        }
    ],
    "abbreviation": [
        {
            "url": "",
            "elements": [
                {
                    "elementType": "readfromfile",
                    "value": "./selectors/university_hard_coded_data.json",
                    "selectors": [
                        "abbreviation"
                    ]
                }
            ]
        }
    ],
    "contactInformation": [
        {
            "url": "",
            "elements": [
                {
                    "elementType": "readfromfile",
                    "value": "./selectors/university_hard_coded_data.json",
                    "selectors": [
                        "contactInformation"
                    ]
                }
            ]
        }
    ]
}