[
  {
    "univ_country": "Australia",
    "univ_rankings": {
      "rankings": []
    },
    "univ_name": "St Peters Institute",
    "univ_accomodation": {
      "applicant": 20290,
      "partner": 7100,
      "child": 3040,
      "currency": "AUD",
      "more_details_univ_website": "",
      "more_details": "https://www.studyinaustralia.gov.au/english/live-in-australia/living-costs"
    },
    "academic_requirements_url": "",
    "entry_requirements_url": "",
    "univ_logo": "univ_stpet/univ_logo.png",
    "university_type": "Private",
    "course_tuition_fees_currency": "AUD",
    "course_tuition_fee_duration_years": "1",
    "course_admission_english_more_details": "",
    "intake_url": "",
    "program_code": "",
    "apply_url": "",
    "placement_url": "",
    "brochure_path": [
      {
        "name": "univ_stpet/stpet_1.pdf",
        "text": "brochure for International Course Guide 2019"
      }
    ],
    "location": "Melbourne",
    "application_fee": "",
    "facebook_page_name": "StPeterInstitute",
    "twitter_page_name": "spiherindiass",
    "youtube_page_name": "",
    "abbreviation": "",
    "contactInformation": [
      {
        "name": "Melbourne",
        "address": "St Peter Institute, Bourke Street, Melbourne VIC, Australia",
        "inquiry_no": [
          "+61390778276"
        ],
        "place_id": "ChIJpZHp8rVC1moRmevNRNhkOh4",
        "contact_info": [
          {
            "name": "",
            "phone_no": "",
            "fax": "",
            "email_address": "",
            "description": ""
          }
        ],
        "type": "University",
        "cricos_provider_code": "03167G",
        "vtour_url": "https://www.google.com/maps/embed?pb=!4v1585303302443!6m8!1m7!1sSDy-kf0P1d-1ZWyKJ6Ks9g!2m2!1d-37.81357990236275!2d144.9655176230141!3f35.35137924288448!4f8.517070612304124!5f2.8194602832438633"
      }
    ]
  }
]