{
      "univ_id": "rmituniversity",
      "course_title": "Bachelor Of Applied Science (Aviation)",
      "program_code": "BP070",
      "course_campus_location": [
            {
                  "name": "Melbourne",
                  "code": "022041J"
            }
      ],
      "course_study_mode": "On campus",
      "course_discipline": [
            "Engineering"
      ],
      "course_study_level": "Undergraduate degree",
      "course_url": "https://www.rmit.edu.au/study-with-us/levels-of-study/undergraduate-study/bachelor-degrees/bachelor-of-applied-science-aviation-bp070",
      "course_duration": "Full-time 3 years",
      "course_duration_display": [
            {
                  "unit": "years",
                  "duration": "3",
                  "display": "Full-Time",
                  "filterduration": 3
            }
      ],
      "isfulltime": true,
      "isparttime": false,
      "course_admission_requirement": {
            "english": [
                  {
                        "name": "ielts academic",
                        "description": "IELTS (Academic): minimum overall band of 6.5 (with no individual band below 6.0)",
                        "min": 0,
                        "require": 6.5,
                        "max": 9,
                        "R": 0,
                        "W": 0,
                        "S": 0,
                        "L": 0,
                        "O": 0
                  },
                  {
                        "name": "toefl ibt",
                        "description": "TOEFL (Internet Based Test - IBT): minimum overall score of 79 (with minimum of 13 in Reading, 12 in Listening, 18 in Speaking and 21 in Writing)",
                        "min": 0,
                        "require": 79,
                        "max": 120,
                        "R": 0,
                        "W": 0,
                        "S": 0,
                        "L": 0,
                        "O": 0
                  },
                  {
                        "name": "pte academic",
                        "description": "Pearson Test of English (Academic) (PTE (A)): minimum score of 58 (with no communication band less than 50)",
                        "min": 0,
                        "require": 58,
                        "max": 90,
                        "R": 0,
                        "W": 0,
                        "S": 0,
                        "L": 0,
                        "O": 0
                  },
                  {
                        "name": "cae",
                        "description": "Cambridge English: Advanced (CAE): minimum of 176 with no less than 169 in any component.",
                        "min": 80,
                        "require": 176,
                        "max": 230,
                        "R": 0,
                        "W": 0,
                        "S": 0,
                        "L": 0,
                        "O": 0
                  }
            ],
            "academic": [
                  "You must have successfully completed an Australian Year 12 or equivalent with a minimum 65% average (check calculator below).",
                  "Equivalent qualifications may also include completion of the RMIT Foundation Studies program or a recognised post secondary diploma in the relevant discipline with the required grades.",
                  "Meeting the minimum academic requirements does not guarantee entry. Your application will still need to be assessed and accepted.",
                  "If you don't meet the entry requirements, there may be other RMIT programs you are eligible for that can lead you to your preferred program. Explore pathway options."
            ],
            "entry_requirements_url": "https://www.rmit.edu.au/study-with-us/international-students/apply-to-rmit-international-students",
            "english_requirements_url": "https://www.rmit.edu.au/study-with-us/international-students/apply-to-rmit-international-students/entry-requirements/english-requirements",
            "academic_requirements_url": ""
      },
      "course_outline": {
            "majors": [],
            "minors": [],
            "more_details": "https://www.rmit.edu.au/study-with-us/levels-of-study/undergraduate-study/bachelor-degrees/bachelor-of-applied-science-aviation-bp070"
      },
      "application_fee": "",
      "course_intake": {
            "intake": [
                  {
                        "name": "Melbourne",
                        "value": [
                              {
                                    "actualdate": "February",
                                    "month": "February"
                              },
                              {
                                    "actualdate": "July",
                                    "month": "July"
                              }
                        ]
                  }
            ],
            "more_details": "https://www.rmit.edu.au/study-with-us/international-students/academic-calendar"
      },
      "course_overview": "Are you ready to work across operational, management and planning roles in the dynamic and vibrant aviation industry?\n\nWith RMIT, you'll gain a broad awareness of the aviation industry and a range of analytical skills, giving you a comprehensive appreciation of the aviation operating environment. You'll develop breadth and depth of thinking, and the ability to solve problems relevant to the aviation industry.\n\nThe degree contains two specialised streams:\n\nThe Aviation Operations and Management stream focuses on developing a breadth of skills and knowledge across the aviation industry. This includes operational and management aspects of airlines and airports, ground handling and safety.\n\nThe Piloting stream is where you'll gain the skills to become a commercial pilot, while also learning about the aviation industry. Flight training can be taken in conjunction with RMIT Flight Training at Point Cook or with any other government-approved provider.\n\nYou’ll also be able to tailor the degree to suit your interests and desired career path, through many general, business and aviation electives.",
      "course_career_outcome": [
            "Professionals in the aviation industry are in demand, not only in Australia, but across the globe. With a rapidly growing population that seeks to travel internationally, the need for well-planned and managed airlines, airports and related organisations will become even more important.",
            "The Bachelor of Applied Science (Aviation) will prepare you to play an important role in meeting the needs of the aviation industry, and RMIT graduates continue to be highly employable.",
            "Graduates may choose to embark on professional careers in the following areas:",
            "airline management",
            "airline operations",
            "airport management",
            "airport operations",
            "airport planning",
            "aviation charter business",
            "aviation consulting",
            "aviation regulation and safety",
            "commercial pilot",
            "Graduates have gone on to work at a range of organisations including:",
            "Jetstar Group",
            "Qantas Airways",
            "Australian Defence Force",
            "Airservices Australia",
            "Virgin Australia Airlines Pty Ltd",
            "Regional Express"
      ],
      "course_country": "Australia",
      "course_tuition_fee": {
            "fees": [
                  {
                        "name": "Melbourne",
                        "value": {
                              "international_student": {
                                    "amount": 37440,
                                    "duration": "1",
                                    "unit": "year",
                                    "description": "AU$37,440 (2020 annual)"
                              },
                              "fee_duration_years": "1",
                              "currency": "AUD"
                        }
                  }
            ]
      },
      "course_id": "bachelorofappliedscience(aviation)"
}