{
    "univ_id": "theuniversityofnewcastle",
    "course_url": "https://www.newcastle.edu.au/degrees/graduate-certificate-creative-industries/handbook",
    "course_title": "Graduate Certificate In Creative Industries",
    "course_campus_location": [
        {
            "name": "Newcastle",
            "code": "096165G"
        }
    ],
    "course_discipline": [
        "Communication and Creative Industries"
    ],
    "course_study_level": "Graduate Certificate",
    "program_code": "40131",
    "course_duration": "0.5 years full-time.",
    "course_duration_display": [
        {
            "unit": "years",
            "duration": "0.5",
            "display": "Full-Time",
            "filterduration": 0.5
        }
    ],
    "isfulltime": true,
    "isparttime": false,
    "course_intake": {
        "intake": [
            {
                "name": "Newcastle",
                "value": [
                    {
                        "actualdate": "28 Jan 2020",
                        "month": "January"
                    }
                ]
            }
        ],
        "more_details": "https://www.newcastle.edu.au/dates#filter=audience_research"
    },
    "course_outline": {
        "majors": [],
        "minors": [],
        "more_details": "https://www.newcastle.edu.au/degrees/graduate-certificate-creative-industries/handbook"
    },
    "application_fee": "",
    "course_overview": "The Graduate Certificate in Creative Industries is a 40-unit coursework program designed for students who wish to obtain an understanding of the production and research skills required to work professionally in the creative industries. The program allows individuals to choose courses according to their needs and background.This innovative program explores pathways into a range of careers in Design, Screen Production, Creative Writing, Visual Arts, Performing Arts, Music Production, Communication, Information Technology and Marketing. Also, the program can provide a pathway to further study in the Master of Creative Industries.This innovative program explores pathways into a range of careers in Design, Screen Production, Creative Writing, Visual Arts, Performing Arts, Music Production, Communication, Information Technology and Marketing. Also, the program can provide a pathway to further study in the Master of Creative Industries.",
    "course_country": "Australia",
    "course_study_mode": "On campus",
    "course_admission_requirement": {
        "english": [
            {
                "name": "ielts academic",
                "description": "IELTS overall minimum - 6.5, IELTS section minimum - 6.0",
                "min": 0,
                "require": 6.5,
                "max": 9,
                "R": 0,
                "W": 0,
                "S": 0,
                "L": 0,
                "O": 0
            },
            {
                "name": "toefl ibt",
                "description": "TOEFL (iBT) overall 79  (Reading 19-23, Writing 24-26, Speaking 20-22 & Listening 20-23)",
                "min": 0,
                "require": 79,
                "max": 120,
                "R": 0,
                "W": 0,
                "S": 0,
                "L": 0,
                "O": 0
            },
            {
                "name": "pte academic",
                "description": "PTE Academic overall 61 (Each section 61)",
                "min": 0,
                "require": 61,
                "max": 90,
                "R": 0,
                "W": 0,
                "S": 0,
                "L": 0,
                "O": 0
            }
        ],
        "academic": [
            "To check the admission requirement in the degree program, please see the below link."
        ],
        "entry_requirements_url": "",
        "english_requirements_url": "https://www.newcastle.edu.au/study/postgraduate/apply/english-language-proficiency",
        "academic_requirements_url": "https://www.newcastle.edu.au/international/study-with-us/what-can-i-study"
    },
    "course_tuition_fee": {
        "fees": [
            {
                "name": "Newcastle",
                "value": {
                    "international_student": {
                        "amount": 17755,
                        "duration": 1,
                        "unit": "Year",
                        "description": "AUD17,755 (indicative annual fee, 2020)\n Indicative annual fees are based on a full year full time load (80 units) Find out more about fees"
                    },
                    "fee_duration_years": "1",
                    "currency": "AUD"
                }
            }
        ]
    },
    "course_career_outcome": [
        "advertising and marketing",
        "creative writing and publishing",
        "architecture and interior design",
        "graphic and electronic design",
        "visual arts, film and cinematics",
        "TV, print and radio production",
        "music and performing arts",
        "digital content and software"
    ],
    "course_id": "graduatecertificateincreativeindustries"
}