{
    "univ_id": "theuniversityofnewcastle",
    "course_url": "https://www.newcastle.edu.au/degrees/bachelor-of-music-arts",
    "course_title": "Bachelor Of Music / Bachelor Of Arts",
    "course_campus_location": [
        {
            "name": "Newcastle",
            "code": "0100762"
        },
        {
            "name": "Newcastle",
            "code": "0100762"
        }
    ],
    "course_discipline": [
        "Communication and Creative Industries",
        "Society and Culture"
    ],
    "course_study_level": "Bachelor Degree",
    "program_code": "40207",
    "course_duration": "4 years full-time.",
    "course_duration_display": [
        {
            "unit": "years",
            "duration": "4",
            "display": "Full-Time",
            "filterduration": 4
        }
    ],
    "isfulltime": true,
    "isparttime": false,
    "course_intake": {
        "intake": [
            {
                "name": "Newcastle",
                "value": [
                    {
                        "actualdate": "24 Feb 2020",
                        "month": "February"
                    },
                    {
                        "actualdate": "3 August 2020",
                        "month": "August"
                    }
                ]
            },
            {
                "name": "Newcastle",
                "value": [
                    {
                        "actualdate": "24 Feb 2020",
                        "month": "February"
                    },
                    {
                        "actualdate": "3 August 2020",
                        "month": "August"
                    }
                ]
            }
        ],
        "more_details": "https://www.newcastle.edu.au/dates#filter=audience_research"
    },
    "course_outline": {
        "majors": [],
        "minors": [],
        "more_details": "https://www.newcastle.edu.au/degrees/bachelor-of-music-arts"
    },
    "application_fee": "",
    "course_overview": "This combined degree program provides scope for study in both Music and the Arts. Students complete two degree awards over four years of full time study (or part time equivalent).The flexibility of this combined degree allows you:to develop skills in Music theory, technology, industry and collaboration as well as choosing to develop your creative passion and technical skills in areas of focus such as; Performance or Songwriting and Production, and to gather skills that will prepare you for the work place and a wide variety of careers, with the flexibility to choose from a broad range of Arts majors and minors, to match your specific interests, including pursuing themes and disciplines, gaining work experience, engaging with industry, and completing research projects.Students will complete a major in Music and a major in Arts, with the option to complete an Arts minor or complement their degree with elective choices.",
    "course_country": "Australia",
    "course_study_mode": "On campus",
    "course_admission_requirement": {
        "english": [
            {
                "name": "ielts academic",
                "description": "IELTS overall minimum - 6.0, IELTS section minimum - 6.0",
                "min": 0,
                "require": 6,
                "max": 9,
                "R": 0,
                "W": 0,
                "S": 0,
                "L": 0,
                "O": 0
            },
            {
                "name": "toefl ibt",
                "description": "TOEFL (iBT) overall 60 (Reading 13-18, Writing 21-23, Speaking 18-19 & Listening 12-19)",
                "min": 0,
                "require": 60,
                "max": 120,
                "R": 0,
                "W": 0,
                "S": 0,
                "L": 0,
                "O": 0
            },
            {
                "name": "pte academic",
                "description": "PTE Academic overall 54 (Each section 54)",
                "min": 0,
                "require": 54,
                "max": 90,
                "R": 0,
                "W": 0,
                "S": 0,
                "L": 0,
                "O": 0
            }
        ],
        "academic": [
            "To check the admission requirement in the degree program, please see the below link."
        ],
        "entry_requirements_url": "",
        "english_requirements_url": "https://www.newcastle.edu.au/study/postgraduate/apply/english-language-proficiency",
        "academic_requirements_url": "https://www.newcastle.edu.au/international/study-with-us/what-can-i-study"
    },
    "course_tuition_fee": {
        "fees": [
            {
                "name": "Newcastle",
                "value": {
                    "international_student": {
                        "amount": 32775,
                        "duration": 1,
                        "unit": "Year",
                        "description": "AUD32,775 (indicative annual fee, 2020)\n Indicative annual fees are based on a full year full time load (80 units) Find out more about fees"
                    },
                    "fee_duration_years": "1",
                    "currency": "AUD"
                }
            },
            {
                "name": "Newcastle",
                "value": {
                    "international_student": {
                        "amount": 32775,
                        "duration": 1,
                        "unit": "Year",
                        "description": "AUD32,775 (indicative annual fee, 2020)\n Indicative annual fees are based on a full year full time load (80 units) Find out more about fees"
                    },
                    "fee_duration_years": "1",
                    "currency": "AUD"
                }
            }
        ]
    },
    "course_career_outcome": [
        "The following link provides information about the jobs opportunities available after completing this course."
    ],
    "course_id": "bachelorofmusicbachelorofarts"
}