{
    "univ_id": "theuniversityofnewcastle",
    "course_url": "https://www.newcastle.edu.au/degrees/bachelor-of-development-studies-laws-honours",
    "course_title": "Bachelor Of Development Studies / Bachelor Of Laws (honours)",
    "course_campus_location": [
        {
            "name": "Newcastle",
            "code": "095146G"
        }
    ],
    "course_discipline": [
        "Community Services",
        "Law",
        "Science and the Environment",
        "Society and Culture"
    ],
    "course_study_level": "Bachelor Honours Degree",
    "program_code": "40130",
    "course_duration": "5 years full-time.",
    "course_duration_display": [
        {
            "unit": "years",
            "duration": "5",
            "display": "Full-Time",
            "filterduration": 5
        }
    ],
    "isfulltime": true,
    "isparttime": false,
    "course_intake": {
        "intake": [
            {
                "name": "Newcastle",
                "value": [
                    {
                        "actualdate": "24 Feb 2020",
                        "month": "February"
                    }
                ]
            }
        ],
        "more_details": "https://www.newcastle.edu.au/dates#filter=audience_research"
    },
    "course_outline": {
        "majors": [],
        "minors": [],
        "more_details": "https://www.newcastle.edu.au/degrees/bachelor-of-development-studies-laws-honours"
    },
    "application_fee": "",
    "course_overview": "The need for environmentally sustainable and equitable development is one of the most serious issues facing the contemporary world. The Bachelor of Development Studies/Bachelor of Laws (Honours) program provides opportunities to study the causes and consequences of unequal development and assess policy options for a more equitable and sustainable future, while studying the complementary skills in Law. The Bachelor of Development Studies comprises 4 interdisciplinary majors, Cultures and Citizenship, Environmental Sustainability, Globalisation and Economic Development and Urban and Regional Development. These majors are comprised mostly of courses from the disciplines of Aboriginal Studies, Economics, Environmental Studies, Geography, Politics and Sociology and Anthropology (as is reflected in the core and program directed in Development Studies). Students in the combined program would be able to add to this a study of Law, commencing in Year 1, and becoming the focus of study in years 4 and 5.",
    "course_country": "Australia",
    "course_study_mode": "On campus",
    "course_admission_requirement": {
        "english": [
            {
                "name": "ielts academic",
                "description": "IELTS overall minimum - 6.0, IELTS section minimum - 6.0",
                "min": 0,
                "require": 6,
                "max": 9,
                "R": 0,
                "W": 0,
                "S": 0,
                "L": 0,
                "O": 0
            },
            {
                "name": "toefl ibt",
                "description": "TOEFL (iBT) overall 60 (Reading 13-18, Writing 21-23, Speaking 18-19 & Listening 12-19)",
                "min": 0,
                "require": 60,
                "max": 120,
                "R": 0,
                "W": 0,
                "S": 0,
                "L": 0,
                "O": 0
            },
            {
                "name": "pte academic",
                "description": "PTE Academic overall 54 (Each section 54)",
                "min": 0,
                "require": 54,
                "max": 90,
                "R": 0,
                "W": 0,
                "S": 0,
                "L": 0,
                "O": 0
            }
        ],
        "academic": [
            "To check the admission requirement in the degree program, please see the below link."
        ],
        "entry_requirements_url": "",
        "english_requirements_url": "https://www.newcastle.edu.au/study/postgraduate/apply/english-language-proficiency",
        "academic_requirements_url": "https://www.newcastle.edu.au/international/study-with-us/what-can-i-study"
    },
    "course_tuition_fee": {
        "fees": [
            {
                "name": "Newcastle",
                "value": {
                    "international_student": {
                        "amount": 31105,
                        "duration": 1,
                        "unit": "Year",
                        "description": "AUD31,105 (indicative annual fee, 2020)\n Indicative annual fees are based on a full year full time load (80 units) Find out more about fees"
                    },
                    "fee_duration_years": "1",
                    "currency": "AUD"
                }
            }
        ]
    },
    "course_career_outcome": [
        "The following link provides information about the jobs opportunities available after completing this course."
    ],
    "course_id": "bachelorofdevelopmentstudiesbacheloroflaws(honours)"
}