{
    "univ_id": "theuniversityofnewcastle",
    "course_url": "https://www.newcastle.edu.au/degrees/bachelor-of-chemical-engineering-honours-business/handbook",
    "course_title": "Bachelor Of Chemical Engineering (honours) / Bachelor Of Business",
    "course_campus_location": [
        {
            "name": "Newcastle",
            "code": "093505E"
        }
    ],
    "course_discipline": [
        "Business and Entrepreneurship",
        "Engineering"
    ],
    "course_study_level": "Bachelor Honours Degree",
    "program_code": "40078",
    "course_duration": "5 years full-time.",
    "course_duration_display": [
        {
            "unit": "years",
            "duration": "5",
            "display": "Full-Time",
            "filterduration": 5
        }
    ],
    "isfulltime": true,
    "isparttime": false,
    "course_intake": {
        "intake": [
            {
                "name": "Newcastle",
                "value": [
                    {
                        "actualdate": "24 Feb 2020",
                        "month": "February"
                    }
                ]
            }
        ],
        "more_details": "https://www.newcastle.edu.au/dates#filter=audience_research"
    },
    "course_outline": {
        "majors": [],
        "minors": [],
        "more_details": "https://www.newcastle.edu.au/degrees/bachelor-of-chemical-engineering-honours-business/handbook"
    },
    "application_fee": "",
    "course_overview": "The Bachelor of Chemical Engineering (Honours)/Bachelor of Business combined degree program provides students with an opportunity to undertake concurrent study and complete two awards. In general, the combined degree program offers greater breadth of learning, enhancing the academic and professional qualities gained in each degree. At the same time, it recognises the increasing need for students to graduate with multidisciplinary skills.",
    "course_country": "Australia",
    "course_study_mode": "On campus",
    "course_admission_requirement": {
        "english": [
            {
                "name": "ielts academic",
                "description": "IELTS overall minimum - 6.0, IELTS section minimum - 6.0",
                "min": 0,
                "require": 6,
                "max": 9,
                "R": 0,
                "W": 0,
                "S": 0,
                "L": 0,
                "O": 0
            },
            {
                "name": "toefl ibt",
                "description": "TOEFL (iBT) overall 60 (Reading 13-18, Writing 21-23, Speaking 18-19 & Listening 12-19)",
                "min": 0,
                "require": 60,
                "max": 120,
                "R": 0,
                "W": 0,
                "S": 0,
                "L": 0,
                "O": 0
            },
            {
                "name": "pte academic",
                "description": "PTE Academic overall 54 (Each section 54)",
                "min": 0,
                "require": 54,
                "max": 90,
                "R": 0,
                "W": 0,
                "S": 0,
                "L": 0,
                "O": 0
            }
        ],
        "academic": [
            "To check the admission requirement in the degree program, please see the below link."
        ],
        "entry_requirements_url": "",
        "english_requirements_url": "https://www.newcastle.edu.au/study/postgraduate/apply/english-language-proficiency",
        "academic_requirements_url": "https://www.newcastle.edu.au/international/study-with-us/what-can-i-study"
    },
    "course_tuition_fee": {
        "fees": [
            {
                "name": "Newcastle",
                "value": {
                    "international_student": {
                        "amount": 34270,
                        "duration": 1,
                        "unit": "Year",
                        "description": "AUD34,270 (indicative annual fee, 2020)\n Indicative annual fees are based on a full year full time load (80 units) Find out more about fees"
                    },
                    "fee_duration_years": "1",
                    "currency": "AUD"
                }
            }
        ]
    },
    "course_career_outcome": [
        "biotechnology engineer",
        "nuclear engineer",
        "chemical safety manager",
        "water treatment designer",
        "mineral processing engineer",
        "environmental remediation engineer"
    ],
    "course_id": "bachelorofchemicalengineering(honours)bachelorofbusiness"
}