{
    "univ_id": "theuniversityofnewcastle",
    "course_url": "https://www.newcastle.edu.au/degrees/bachelor-of-development-studies-honours",
    "course_title": "Bachelor Of Development Studies (honours)",
    "course_campus_location": [
        {
            "name": "Newcastle",
            "code": "050541A"
        }
    ],
    "course_discipline": [
        "Community Services",
        "Science and the Environment"
    ],
    "course_study_level": "Bachelor Honours Degree",
    "program_code": "11547",
    "course_duration": "1 year full-time.",
    "course_duration_display": [
        {
            "unit": "year",
            "duration": "1",
            "display": "Full-Time",
            "filterduration": 1
        }
    ],
    "isfulltime": true,
    "isparttime": false,
    "course_intake": {
        "intake": [
            {
                "name": "Newcastle",
                "value": [
                    {
                        "actualdate": "24 Feb 2020",
                        "month": "February"
                    }
                ]
            }
        ],
        "more_details": "https://www.newcastle.edu.au/dates#filter=audience_research"
    },
    "course_outline": {
        "majors": [],
        "minors": [],
        "more_details": "https://www.newcastle.edu.au/degrees/bachelor-of-development-studies-honours"
    },
    "application_fee": "",
    "course_overview": "The Bachelor of Development Studies (Honours) degree examines globalisation processes from a variety of approaches, with a focus on urban and regional impacts, sustainable development and cultural diversity. It is a one year full-time (or equivalent part-time) program designed to allow students to develop their interests and expertise. The program consists of advanced theory, higher level learning and research and is considered to be a pathway into Research Higher degree study.",
    "course_country": "Australia",
    "course_study_mode": "On campus",
    "course_admission_requirement": {
        "english": [
            {
                "name": "ielts academic",
                "description": "IELTS overall minimum - 6.0, IELTS section minimum - 6.0",
                "min": 0,
                "require": 6,
                "max": 9,
                "R": 0,
                "W": 0,
                "S": 0,
                "L": 0,
                "O": 0
            },
            {
                "name": "toefl ibt",
                "description": "TOEFL (iBT) overall 60 (Reading 13-18, Writing 21-23, Speaking 18-19 & Listening 12-19)",
                "min": 0,
                "require": 60,
                "max": 120,
                "R": 0,
                "W": 0,
                "S": 0,
                "L": 0,
                "O": 0
            },
            {
                "name": "pte academic",
                "description": "PTE Academic overall 54 (Each section 54)",
                "min": 0,
                "require": 54,
                "max": 90,
                "R": 0,
                "W": 0,
                "S": 0,
                "L": 0,
                "O": 0
            }
        ],
        "academic": [
            "To check the admission requirement in the degree program, please see the below link."
        ],
        "entry_requirements_url": "",
        "english_requirements_url": "https://www.newcastle.edu.au/study/postgraduate/apply/english-language-proficiency",
        "academic_requirements_url": "https://www.newcastle.edu.au/international/study-with-us/what-can-i-study"
    },
    "course_tuition_fee": {
        "fees": [
            {
                "name": "Newcastle",
                "value": {
                    "international_student": {
                        "amount": 36790,
                        "duration": 1,
                        "unit": "Year",
                        "description": "AUD36,790 (indicative annual fee, 2020)\n Indicative annual fees are based on a full year full time load (80 units) Find out more about fees"
                    },
                    "fee_duration_years": "1",
                    "currency": "AUD"
                }
            }
        ]
    },
    "course_career_outcome": [
        "The following link provides information about the jobs opportunities available after completing this course."
    ],
    "course_id": "bachelorofdevelopmentstudies(honours)"
}