{
    "univ_id": "theuniversityofnewcastle",
    "course_url": "https://www.newcastle.edu.au/degrees/master-professional-engineering-civil/handbook",
    "course_title": "Master Of Professional Engineering (civil)",
    "course_campus_location": [
        {
            "name": "Newcastle",
            "code": "098283G"
        }
    ],
    "course_discipline": [
        "Engineering"
    ],
    "course_study_level": "Masters Degree (Extended)",
    "program_code": "40183",
    "course_duration": "3 years full-time.",
    "course_duration_display": [
        {
            "unit": "years",
            "duration": "3",
            "display": "Full-Time",
            "filterduration": 3
        }
    ],
    "isfulltime": true,
    "isparttime": false,
    "course_intake": {
        "intake": [
            {
                "name": "Newcastle",
                "value": [
                    {
                        "actualdate": "24 Feb 2020",
                        "month": "February"
                    },
                    {
                        "actualdate": "3 August 2020",
                        "month": "August"
                    }
                ]
            }
        ],
        "more_details": "https://www.newcastle.edu.au/dates#filter=audience_research"
    },
    "course_outline": {
        "majors": [],
        "minors": [],
        "more_details": "https://www.newcastle.edu.au/degrees/master-professional-engineering-civil/handbook"
    },
    "application_fee": "",
    "course_overview": "The Master of Professional Engineering (Civil) is designed to facilitate a broader and deeper approach to civil engineering which leads to a formal qualification at the Masters level. The program duration is between 1-3 years full time depending on the student’s prior qualification/s. The program offers students the opportunity to broaden their technical competence either in another discipline (such as disaster management, business, sustainability, construction management, safety and risk), or to deepen their competence in the civil engineering discipline. It may also be used to strengthen a student's technical capacity based on any gaps in their prior knowledge and to expose students to Australian design, construction and management practices.The program focuses on:Fundamental background knowledge to successfully study civil engineering at an advanced level.Advanced engineering skills and knowledge required by a practicing civil engineer.Capstone courses in civil engineering while also completing an advanced level research program.",
    "course_country": "Australia",
    "course_study_mode": "On campus",
    "course_admission_requirement": {
        "english": [
            {
                "name": "ielts academic",
                "description": "IELTS overall minimum - 6.5, IELTS section minimum - 6.0",
                "min": 0,
                "require": 6.5,
                "max": 9,
                "R": 0,
                "W": 0,
                "S": 0,
                "L": 0,
                "O": 0
            },
            {
                "name": "toefl ibt",
                "description": "TOEFL (iBT) overall 79  (Reading 19-23, Writing 24-26, Speaking 20-22 & Listening 20-23)",
                "min": 0,
                "require": 79,
                "max": 120,
                "R": 0,
                "W": 0,
                "S": 0,
                "L": 0,
                "O": 0
            },
            {
                "name": "pte academic",
                "description": "PTE Academic overall 61 (Each section 61)",
                "min": 0,
                "require": 61,
                "max": 90,
                "R": 0,
                "W": 0,
                "S": 0,
                "L": 0,
                "O": 0
            }
        ],
        "academic": [
            "To check the admission requirement in the degree program, please see the below link."
        ],
        "entry_requirements_url": "",
        "english_requirements_url": "https://www.newcastle.edu.au/study/postgraduate/apply/english-language-proficiency",
        "academic_requirements_url": "https://www.newcastle.edu.au/international/study-with-us/what-can-i-study"
    },
    "course_tuition_fee": {
        "fees": [
            {
                "name": "Newcastle",
                "value": {
                    "international_student": {
                        "amount": 38670,
                        "duration": 1,
                        "unit": "Year",
                        "description": "AUD38,670 (indicative annual fee, 2020)\n Indicative annual fees are based on a full year full time load (80 units) Find out more about fees"
                    },
                    "fee_duration_years": "1",
                    "currency": "AUD"
                }
            }
        ]
    },
    "course_career_outcome": [
        "Salaries: As an engineer you’ll be valued and well rewarded. Starting salaries average around $80,000p.a. In 2015, 85% of our engineers had jobs when they graduated - making the University of Newcastle one of the top 2 universities in NSW for graduate employment rates.",
        "Flexibility: Some engineers work 9-5 in an office, others fly-in-fly out from a project site. You might prefer hands-on fieldwork, design and development, or managing people and projects.",
        "Global opportunities: As a qualified engineer you can travel the world and work almost anywhere you choose. Professional recognition through Engineers Australia lets you work in places such as Canada, Hong Kong, India, Ireland, Japan, Korea, Malaysia, New Zealand, Russia, Turkey, the UK and the USA."
    ],
    "course_id": "masterofprofessionalengineering(civil)"
}