{
    "univ_id": "theuniversityofnewcastle",
    "course_url": "https://www.newcastle.edu.au/degrees/master-materials-science-engineering/handbook",
    "course_title": "Master Of Materials Science And Engineering",
    "course_campus_location": [
        {
            "name": "Newcastle",
            "code": "0100265"
        }
    ],
    "course_discipline": [
        "Engineering"
    ],
    "course_study_level": "Masters Degree",
    "program_code": "40203",
    "course_duration": "2 years full-time.",
    "course_duration_display": [
        {
            "unit": "years",
            "duration": "2",
            "display": "Full-Time",
            "filterduration": 2
        }
    ],
    "isfulltime": true,
    "isparttime": false,
    "course_intake": {
        "intake": [
            {
                "name": "Newcastle",
                "value": [
                    {
                        "actualdate": "24 Feb 2020",
                        "month": "February"
                    },
                    {
                        "actualdate": "3 August 2020",
                        "month": "August"
                    }
                ]
            }
        ],
        "more_details": "https://www.newcastle.edu.au/dates#filter=audience_research"
    },
    "course_outline": {
        "majors": [],
        "minors": [],
        "more_details": "https://www.newcastle.edu.au/degrees/master-materials-science-engineering/handbook"
    },
    "application_fee": "",
    "course_overview": "The University of Newcastle’s Master of Materials Science and Engineering program provides students the opportunity to broaden and/or deepen their Materials Engineering technical competency in one of several specialised areas including materials synthesis, materials characterisation techniques, material applications in specific environments, as well as applications of Materials Science in energy, electronics, environment, life science and biology. Students are exposed to capstone level courses in advanced materials and engineering and complete a master’s level research thesis.This program produces graduates with the knowledge, technical and professional attributes to provide innovative materials science solutions to society’s needs both now and into the future.",
    "course_country": "Australia",
    "course_study_mode": "On campus",
    "course_admission_requirement": {
        "english": [
            {
                "name": "ielts academic",
                "description": "IELTS overall minimum - 6.5, IELTS section minimum - 6.0",
                "min": 0,
                "require": 6.5,
                "max": 9,
                "R": 0,
                "W": 0,
                "S": 0,
                "L": 0,
                "O": 0
            },
            {
                "name": "toefl ibt",
                "description": "TOEFL (iBT) overall 79  (Reading 19-23, Writing 24-26, Speaking 20-22 & Listening 20-23)",
                "min": 0,
                "require": 79,
                "max": 120,
                "R": 0,
                "W": 0,
                "S": 0,
                "L": 0,
                "O": 0
            },
            {
                "name": "pte academic",
                "description": "PTE Academic overall 61 (Each section 61)",
                "min": 0,
                "require": 61,
                "max": 90,
                "R": 0,
                "W": 0,
                "S": 0,
                "L": 0,
                "O": 0
            }
        ],
        "academic": [
            "To check the admission requirement in the degree program, please see the below link."
        ],
        "entry_requirements_url": "",
        "english_requirements_url": "https://www.newcastle.edu.au/study/postgraduate/apply/english-language-proficiency",
        "academic_requirements_url": "https://www.newcastle.edu.au/international/study-with-us/what-can-i-study"
    },
    "course_tuition_fee": {
        "fees": [
            {
                "name": "Newcastle",
                "value": {
                    "international_student": {
                        "amount": 39995,
                        "duration": 1,
                        "unit": "Year",
                        "description": "AUD39,995 (indicative annual fee, 2020)\n Indicative annual fees are based on a full year full time load (80 units) Find out more about fees"
                    },
                    "fee_duration_years": "1",
                    "currency": "AUD"
                }
            }
        ]
    },
    "course_career_outcome": [
        "The following link provides information about the jobs opportunities available after completing this course."
    ],
    "course_id": "masterofmaterialsscienceandengineering"
}