{
    "univ_id": "boxhillinstitute",
    "course_title": "Diploma of Beauty Therapy (Specialising in Spa and Wellness)",
    "course_discipline": [
        "Beauty"
    ],
    "course_study_level": "Diploma",
    "program_code": "SHB41",
    "course_url": "https://www.boxhill.edu.au/courses/diploma-of-beauty-therapy-specialising-in-spa-and-wellness-shb41-i/",
    "course_campus_location": [
        {
            "name": "Elgar",
            "code": " 089047E"
        },
        {
            "name": "Lilydale",
            "code": " 089047E"
        }
    ],
    "course_study_mode": "On Campus",
    "course_duration": "Full time : 12 months",
    "course_duration_display": [
        {
            "unit": "months",
            "duration": "12",
            "display": "Full-Time",
            "filterduration": 1
        }
    ],
    "isfulltime": true,
    "isparttime": false,
    "course_admission_requirement": {
        "english": [
            {
                "name": "ielts academic",
                "description": "5.5",
                "R": "5.5",
                "W": "5.5",
                "S": "5.5",
                "L": "5.5",
                "O": "5.5",
                "min": 0,
                "require": 5.5,
                "max": 9
            },
            {
                "name": "toefl ibt",
                "description": "71",
                "R": "71",
                "W": "71",
                "S": "71",
                "L": "71",
                "O": "71",
                "min": 0,
                "require": 71,
                "max": 120
            },
            {
                "name": "pte academic",
                "description": "46 (with no communicative skill score less than 42)",
                "R": "42",
                "W": "42",
                "S": "42",
                "L": "42",
                "O": "46",
                "min": 0,
                "require": 46,
                "max": 90
            },
            {
                "name": "cae",
                "description": "162-168",
                "R": "162",
                "W": "162",
                "S": "162",
                "L": "162",
                "O": "162",
                "min": 80,
                "require": 162,
                "max": 230
            }
        ],
        "academic": [
            "International students must have completed an Australian Year 11 or international equivalent with a pass."
        ],
        "english_requirements_url": "https://www.boxhill.edu.au/international/how-to-apply/",
        "entry_requirements_url": "",
        "academic_requirements_url": ""
    },
    "course_intake": {
        "intake": [
            {
                "name": "Elgar",
                "value": [
                    {
                        "actualdate": "January (Elgar),2020",
                        "month": "January",
                        "filterdate": "2020-01-01"
                    },
                    {
                        "actualdate": "July (Lilydale,2020",
                        "month": "July",
                        "filterdate": "2020-07-01"
                    }
                ]
            },
            {
                "name": "Lilydale",
                "value": [
                    {
                        "actualdate": "January (Elgar),2020",
                        "month": "January",
                        "filterdate": "2020-01-01"
                    },
                    {
                        "actualdate": "July (Lilydale,2020",
                        "month": "July",
                        "filterdate": "2020-07-01"
                    }
                ]
            }
        ],
        "more_details": "https://www.boxhill.edu.au/academic-calendars/"
    },
    "course_overview": "Our beauty therapy course will prepare you for work in a 5-star resort, day spa or beauty salon. You’ll gain current beauty treatment knowledge and be guided to find your own beauty speciality. While learning how to practice the ancient healing methods of hydrotherapy, aromatherapy and massage, you'll advance your skills in performing traditional beauty therapy treatments incorporating a holistic approach, using a range of professional products and environmentally sustainable practices. As part of our beauty therapy course, with guidance from our industry professional trainers, you'll improve your confidence gaining practical experience in our day spa environment.",
    "course_career_outcome": [
        "After successful completion, you may wish to apply for employment opportunities in beauty salons, spa retreats, resorts and day spas"
    ],
    "course_country": "Australia",
    "course_tuition_fee": {
        "fees": [
            {
                "name": "Elgar",
                "value": {
                    "international_student": {
                        "amount": 19640,
                        "duration": 1,
                        "unit": "Year",
                        "description": "$19,640"
                    },
                    "fee_duration_years": "1",
                    "currency": "AUD"
                }
            },
            {
                "name": "Lilydale",
                "value": {
                    "international_student": {
                        "amount": 19640,
                        "duration": 1,
                        "unit": "Year",
                        "description": "$19,640"
                    },
                    "fee_duration_years": "1",
                    "currency": "AUD"
                }
            }
        ]
    },
    "course_outline": {
        "minors": [],
        "majors": [],
        "more_details": ""
    },
    "application_fee": "50",
    "course_id": "diplomaofbeautytherapy(specialisinginspaandwellness)"
}