{
    "univ_id": "boxhillinstitute",
    "course_title": "Certificate III in Patisserie",
    "course_discipline": [
        "Culinary Arts & Hospitality"
    ],
    "course_study_level": "Certificate III",
    "program_code": "HOPA3",
    "course_url": "https://www.boxhill.edu.au/courses/certificate-iii-in-patisserie-hopa3-i/",
    "course_campus_location": [
        {
            "name": "Elgar",
            "code": " 092302B"
        }
    ],
    "course_study_mode": "On Campus",
    "course_duration": "Full time  12 months",
    "course_duration_display": [
        {
            "unit": "months",
            "duration": "12",
            "display": "Full-Time",
            "filterduration": 1
        }
    ],
    "isfulltime": true,
    "isparttime": false,
    "course_admission_requirement": {
        "english": [
            {
                "name": "ielts academic",
                "description": "5.5",
                "R": "5.5",
                "W": "5.5",
                "S": "5.5",
                "L": "5.5",
                "O": "5.5",
                "min": 0,
                "require": 5.5,
                "max": 9
            },
            {
                "name": "toefl ibt",
                "description": "71",
                "R": "71",
                "W": "71",
                "S": "71",
                "L": "71",
                "O": "71",
                "min": 0,
                "require": 71,
                "max": 120
            },
            {
                "name": "pte academic",
                "description": "46 (with no communicative skill score less than 42)",
                "R": "42",
                "W": "42",
                "S": "42",
                "L": "42",
                "O": "46",
                "min": 0,
                "require": 46,
                "max": 90
            },
            {
                "name": "cae",
                "description": "162-168",
                "R": "162",
                "W": "162",
                "S": "162",
                "L": "162",
                "O": "162",
                "min": 80,
                "require": 162,
                "max": 230
            }
        ],
        "academic": [
            "International students must have completed an Australian Year 11 or international equivalent with a pass."
        ],
        "english_requirements_url": "https://www.boxhill.edu.au/international/how-to-apply/",
        "entry_requirements_url": "",
        "academic_requirements_url": ""
    },
    "course_intake": {
        "intake": [
            {
                "name": "Elgar",
                "value": [
                    {
                        "actualdate": "January,2020",
                        "month": "January",
                        "filterdate": "2020-01-01"
                    },
                    {
                        "actualdate": "July,2020",
                        "month": "July",
                        "filterdate": "2020-07-01"
                    }
                ]
            }
        ],
        "more_details": "https://www.boxhill.edu.au/academic-calendars/"
    },
    "course_overview": "Our patisserie course provides comprehensive training in all aspects of the trade. With your new pastry skills you’ll be ready for employment in restaurants, hotels, bakeries, pastry kitchens and confectioners' shops.",
    "course_career_outcome": [
        "After successful completion, you may wish to apply for positions as a pastry chef or patissier."
    ],
    "course_country": "Australia",
    "course_tuition_fee": {
        "fees": [
            {
                "name": "Elgar",
                "value": {
                    "international_student": {
                        "amount": 16038,
                        "duration": 1,
                        "unit": "Year",
                        "description": "$16,038"
                    },
                    "fee_duration_years": "1",
                    "currency": "AUD"
                }
            }
        ]
    },
    "course_outline": {
        "minors": [],
        "majors": [],
        "more_details": ""
    },
    "application_fee": "50",
    "course_id": "certificateiiiinpatisserie"
}