{
    "univ_id": "boxhillinstitute",
    "course_title": "Diploma of Nursing",
    "course_discipline": [
        "Health & Nursing"
    ],
    "course_study_level": "Diploma",
    "program_code": "HC543",
    "course_url": "https://www.boxhill.edu.au/courses/diploma-of-nursing-hc543-i/",
    "course_campus_location": [
        {
            "name": "Elgar",
            "code": " 092870C"
        },
        {
            "name": "Lilydale",
            "code": " 092870C"
        }
    ],
    "course_study_mode": "On Campus",
    "course_duration": "Full time  2 Years 3 days per week  ",
    "course_duration_display": [
        {
            "unit": "years",
            "duration": "2",
            "display": "Full-Time",
            "filterduration": 2
        }
    ],
    "isfulltime": true,
    "isparttime": false,
    "course_admission_requirement": {
        "english": [
            {
                "name": "ielts academic",
                "description": "you achieve a minimum score of 7 in each component across the two sittings, and no score in any component of the test is below 6.5",
                "R": "6.5",
                "W": "6.5",
                "S": "6.5",
                "L": "6.5",
                "O": "7",
                "min": 0,
                "require": 7,
                "max": 9
            },
            {
                "name": "toefl ibt",
                "description": "a minimum total score of 94 is achieved in each sitting and you achieve a minimum score of 24 for listening, 24 for reading, 27 for writing and 23 for speaking across the 2 sittings",
                "R": "24",
                "W": "27",
                "S": "23",
                "L": "24",
                "O": "94",
                "min": 0,
                "require": 94,
                "max": 120
            },
            {
                "name": "pte academic",
                "description": "you achieve a minimum score of 65 in each of the communicative skills across the 2 sittings, and no score in any of the communicative skills is below 58",
                "R": "58",
                "W": "58",
                "S": "58",
                "L": "58",
                "O": "65",
                "min": 0,
                "require": 65,
                "max": 90
            }
        ],
        "academic": [
            "International students must have completed Year 12 (including science and mathematics) or international equivalent."
        ],
        "english_requirements_url": "https://www.boxhill.edu.au/international/how-to-apply/",
        "entry_requirements_url": "",
        "academic_requirements_url": ""
    },
    "course_intake": {
        "intake": [
            {
                "name": "Elgar",
                "value": [
                    {
                        "actualdate": "January,2020",
                        "month": "January",
                        "filterdate": "2020-01-01"
                    },
                    {
                        "actualdate": "July,2020",
                        "month": "July",
                        "filterdate": "2020-07-01"
                    }
                ]
            },
            {
                "name": "Lilydale",
                "value": [
                    {
                        "actualdate": "January,2020",
                        "month": "January",
                        "filterdate": "2020-01-01"
                    },
                    {
                        "actualdate": "July,2020",
                        "month": "July",
                        "filterdate": "2020-07-01"
                    }
                ]
            }
        ],
        "more_details": "https://www.boxhill.edu.au/academic-calendars/"
    },
    "course_overview": "Gain the essential skills and knowledge to work as an enrolled nurse in a variety of healthcare settings with our nursing course. In this rewarding career, enrolled nurses care for patients under the direction and supervision of a registered nurse. During this health course, you'll learn how to implement general nursing care, assess client's health and analyse health-related information. You’ll also learn how to administer and monitor medications and attend to the needs of a range of healthcare clients, including older clients, acute care clients and people with mental health conditions. The course will assist you to develop effective communication skills and understand how to work within legal and ethical parameters in nursing. You will complete a minimum of 400 hours of mandatory clinical placement in a range of healthcare settings across metropolitan, regional and rural areas. Please note, if you choose to study at CAE City Campus you will be required to attend some practical sessions at Box Hill Institute's Elgar Road campus in Box Hill.",
    "course_career_outcome": [
        "acute care",
        "chronic care",
        "aged care",
        "rehabilitation",
        "community",
        "mental health"
    ],
    "course_country": "Australia",
    "course_tuition_fee": {
        "fees": [
            {
                "name": "Elgar",
                "value": {
                    "international_student": {
                        "amount": 18230,
                        "duration": 1,
                        "unit": "Year",
                        "description": "$18,230"
                    },
                    "fee_duration_years": "1",
                    "currency": "AUD"
                }
            },
            {
                "name": "Lilydale",
                "value": {
                    "international_student": {
                        "amount": 18230,
                        "duration": 1,
                        "unit": "Year",
                        "description": "$18,230"
                    },
                    "fee_duration_years": "1",
                    "currency": "AUD"
                }
            }
        ]
    },
    "course_outline": {
        "minors": [],
        "majors": [],
        "more_details": ""
    },
    "application_fee": "50",
    "course_id": "diplomaofnursing"
}