{
    "univ_id": "boxhillinstitute",
    "course_title": "Advanced Diploma of Graphic Design",
    "course_discipline": [
        "Art & Design"
    ],
    "course_study_level": "Advanced Diploma",
    "program_code": "CA635",
    "course_url": "https://www.boxhill.edu.au/courses/advanced-diploma-of-graphic-design-ca635-i/",
    "course_campus_location": [
        {
            "name": "Nelson",
            "code": " 093400C"
        }
    ],
    "course_study_mode": "On Campus",
    "course_duration": "Full time  1 year",
    "course_duration_display": [
        {
            "unit": "year",
            "duration": "1",
            "display": "Full-Time",
            "filterduration": 1
        }
    ],
    "isfulltime": true,
    "isparttime": false,
    "course_admission_requirement": {
        "english": [
            {
                "name": "ielts academic",
                "description": "5.5",
                "R": "5.5",
                "W": "5.5",
                "S": "5.5",
                "L": "5.5",
                "O": "5.5",
                "min": 0,
                "require": 5.5,
                "max": 9
            },
            {
                "name": "toefl ibt",
                "description": "71",
                "R": "71",
                "W": "71",
                "S": "71",
                "L": "71",
                "O": "71",
                "min": 0,
                "require": 71,
                "max": 120
            },
            {
                "name": "pte academic",
                "description": "46 (with no communicative skill score less than 42)",
                "R": "42",
                "W": "42",
                "S": "42",
                "L": "42",
                "O": "46",
                "min": 0,
                "require": 46,
                "max": 90
            },
            {
                "name": "cae",
                "description": "162-168",
                "R": "162",
                "W": "162",
                "S": "162",
                "L": "162",
                "O": "162",
                "min": 80,
                "require": 162,
                "max": 230
            }
        ],
        "academic": [
            "International students must have successfully completed the Diploma of Graphic Design or equivalent, or demonstrate relevant industry experience. A folio review and interview may be requested."
        ],
        "english_requirements_url": "https://www.boxhill.edu.au/international/how-to-apply/",
        "entry_requirements_url": "",
        "academic_requirements_url": ""
    },
    "course_intake": {
        "intake": [
            {
                "name": "Nelson",
                "value": [
                    {
                        "actualdate": "February,2020",
                        "month": "February",
                        "filterdate": "2020-02-01"
                    },
                    {
                        "actualdate": "July,2020",
                        "month": "July",
                        "filterdate": "2020-07-01"
                    }
                ]
            }
        ],
        "more_details": "https://www.boxhill.edu.au/academic-calendars/"
    },
    "course_overview": "Start an exciting career in graphic design at Box Hill Institute. Our graphic design course allows you to pursue your creativity by deepening your understanding of colour, print, digital media, branding, instructional design, typography, web design, packaging and advertising.",
    "course_career_outcome": [
        "After successful completion of the course, you'll have a strong portfolio of work that will assist you to gain employment in fields such as: ",
        "digital media",
        "branding",
        "marketing",
        "packaging",
        "advertising",
        "magazine design",
        "web design",
        "instructional design"
    ],
    "course_country": "Australia",
    "course_tuition_fee": {
        "fees": [
            {
                "name": "Nelson",
                "value": {
                    "international_student": {
                        "amount": 14914,
                        "duration": 1,
                        "unit": "Year",
                        "description": "$14,914"
                    },
                    "fee_duration_years": "1",
                    "currency": "AUD"
                }
            }
        ]
    },
    "course_outline": {
        "minors": [],
        "majors": [],
        "more_details": ""
    },
    "application_fee": "50",
    "course_id": "advanceddiplomaofgraphicdesign"
}