{
      "univ_id": "theuniversityofqueensland",
      "course_url": "https://future-students.uq.edu.au/study/programs/master-environmental-health-sciences-5704",
      "course_title": "Master Of Environmental Health Sciences",
      "course_campus_location": [
            {
                  "name": "Gatton",
                  "code": "098321F"
            },
            {
                  "name": "Herston",
                  "code": "098321F"
            },
            {
                  "name": "St Lucia",
                  "code": "098321F"
            }
      ],
      "course_study_mode": "On campus",
      "course_discipline": [
            "Health"
      ],
      "program_code": "5704",
      "course_study_level": "Masters Degree (Coursework)",
      "course_duration": "2 Years full-time (or part time equivalent)",
      "course_duration_display": [
            {
                  "unit": "years",
                  "duration": "2",
                  "display": "Full-Time",
                  "filterduration": 2
            },
            {
                  "unit": "years",
                  "duration": "4",
                  "display": "Part-Time",
                  "filterduration": 4
            }
      ],
      "isfulltime": true,
      "isparttime": true,
      "course_admission_requirement": {
            "english": [
                  {
                        "name": "ielts academic",
                        "description": "IELTS overall 6.5; reading 6; writing 6; speaking 6; listening 6. For other English Language Proficiency Tests and Scores approved for UQ",
                        "min": 0,
                        "require": 6.5,
                        "max": 9,
                        "R": 0,
                        "W": 0,
                        "S": 0,
                        "L": 0,
                        "O": 0
                  },
                  {
                        "name": "toefl pbt",
                        "description": "TOEFL PB - Overall 570, listening 54, reading 54, writing 59/5.",
                        "min": 310,
                        "require": 570,
                        "max": 677,
                        "R": 0,
                        "W": 0,
                        "S": 0,
                        "L": 0,
                        "O": 0
                  },
                  {
                        "name": "toefl ibt",
                        "description": "TOEFL IBT - Overall 87, listening 19, reading 19, writing 21 and speaking 19.",
                        "min": 0,
                        "require": 87,
                        "max": 120,
                        "R": 0,
                        "W": 0,
                        "S": 0,
                        "L": 0,
                        "O": 0
                  }
            ],
            "academic": [],
            "entry_requirements_url": "",
            "academic_requirements_url": "",
            "english_requirements_url": "https://my.uq.edu.au/files/5696/PPL34014d3-Table3.pdf"
      },
      "course_tuition_fee": {
            "fees": [
                  {
                        "name": "Gatton",
                        "value": {
                              "international_student": {
                                    "amount": 34768,
                                    "duration": 1,
                                    "unit": "Year",
                                    "description": "A$34768 (indicative per year) Indicative annual fee 2020"
                              },
                              "fee_duration_years": "1",
                              "currency": "AUD"
                        }
                  },
                  {
                        "name": "Herston",
                        "value": {
                              "international_student": {
                                    "amount": 34768,
                                    "duration": 1,
                                    "unit": "Year",
                                    "description": "A$34768 (indicative per year) Indicative annual fee 2020"
                              },
                              "fee_duration_years": "1",
                              "currency": "AUD"
                        }
                  },
                  {
                        "name": "St Lucia",
                        "value": {
                              "international_student": {
                                    "amount": 34768,
                                    "duration": 1,
                                    "unit": "Year",
                                    "description": "A$34768 (indicative per year) Indicative annual fee 2020"
                              },
                              "fee_duration_years": "1",
                              "currency": "AUD"
                        }
                  }
            ]
      },
      "course_intake": {
            "intake": [
                  {
                        "name": "Gatton",
                        "value": [
                              {
                                    "actualdate": "Semester 1 24 Feb, 2020",
                                    "month": "February"
                              },
                              {
                                    "actualdate": "Semester 2 ,3 Aug, 2020",
                                    "month": "August"
                              }
                        ]
                  },
                  {
                        "name": "Herston",
                        "value": [
                              {
                                    "actualdate": "Semester 1 24 Feb, 2020",
                                    "month": "February"
                              },
                              {
                                    "actualdate": "Semester 2 ,3 Aug, 2020",
                                    "month": "August"
                              }
                        ]
                  },
                  {
                        "name": "St Lucia",
                        "value": [
                              {
                                    "actualdate": "Semester 1 24 Feb, 2020",
                                    "month": "February"
                              },
                              {
                                    "actualdate": "Semester 2 ,3 Aug, 2020",
                                    "month": "August"
                              }
                        ]
                  }
            ],
            "more_details": "https://my.uq.edu.au/graduation/future-graduation-ceremonies"
      },
      "course_country": "Australia",
      "course_outline": {
            "majors": [],
            "minors": [],
            "more_details": "https://future-students.uq.edu.au/study/programs/master-environmental-health-sciences-5704"
      },
      "application_fee": "100",
      "course_career_outcome": [
            "Postgraduate study can take you anywhere. Here are some of the careers you could be on your way to:",
            "Environmental systems specialist",
            "Environmental scientist",
            "Senior research technician",
            "Environment reporting and analysis specialist",
            "Environment consultant",
            "Sustainability manager",
            "Sustainability adviser",
            "Community and sustainability manager",
            "Regulatory affairs associate",
            "Principal environmental officer"
      ],
      "course_overview": "Prepare yourself for a wide variety of roles and responsibilities across a number of employment sectors.,Learn from a broad range of UQ experts while undertaking courses tailored to your specific needs.,Choose the flexible delivery option that suits you best, including full-time, part-time or online.",
      "course_id": "masterofenvironmentalhealthsciences_5704"
}