{
	"univ_id": "macallancollege",
	"course_title": "Bsb51918 Diploma Of Leadership And Management (Not Available In Nsw)",
	"course_url": "https://macallan.edu.au/bsb51918-diploma-leadership-and-management-not-available-in-nsw/",
	"course_admission_requirement": {
		"english": [{
				"name": "ielts academic",
				"description": "» Where required, the minimum requirement for evidence of English test scores are 5.5 IELTS or Equivalent in a recognised English assessment.",
				"min": 0,
				"require": 5.5,
				"max": 9,
				"R": 5.5,
				"W": 5.5,
				"S": 5.5,
				"L": 5.5,
				"O": 5.5
			}
		],
		"academic": ["This qualification reflects the role of individuals who apply knowledge, practical skills and experience in leadership and management across a range of enterprise and industry contexts.,Individuals at this level display initiative and judgement in planning, organising, implementing and monitoring their own workload and the workload of others. They use communication skills to support individuals and teams to meet organisational or enterprise requirements.,They plan, design, apply and evaluate solutions to unpredictable problems, and identify, analyse and synthesise information from a variety of sources."],
		"english_requirements_url": "",
		"academic_requirements_url": "",
		"entry_requirements_url": ""
	},
	"course_overview": "This qualification reflects the role of individuals who apply knowledge, practical skills and experience in leadership and management across a range of enterprise and industry contexts. Individuals at this level display initiative and judgement in planning, organising, implementing and monitoring their own workload and the workload of others. They use communication skills to support individuals and teams to meet organisational or enterprise requirements. They plan, design, apply and evaluate solutions to unpredictable problems, and identify, analyse and synthesise information from a variety of sources.",
	"course_discipline": ["LEADERSHIP AND MANAGEMENT"],
	"program_code": "BSB51918",
	"course_study_level": "Diploma",
	"course_campus_location": [{
			"name": "Perth",
			"code": "098843B"
		}, {
			"name": "Brisbane",
			"code": "098843B"
		}
	],
	"course_study_mode": "On campus",
	"course_duration": "The time to complete the course is up to 52 Weeks",
	"course_duration_display": [{
			"unit": "weeks",
			"duration": "52",
			"display": "Full-Time",
			"filterduration": 0.9972594543072979
		}
	],
	"isfulltime": true,
	"isparttime": false,
	"course_intake": {
		"intake": [{
				"name": "Perth",
				"value": [{
						"actualdate": "February",
						"month": "February"
					}, {
						"actualdate": "March",
						"month": "March"
					}, {
						"actualdate": "April",
						"month": "April"
					}, {
						"actualdate": "May",
						"month": "May"
					}, {
						"actualdate": "June",
						"month": "June"
					}, {
						"actualdate": "July",
						"month": "July"
					}, {
						"actualdate": "August",
						"month": "August"
					}, {
						"actualdate": "September",
						"month": "September"
					}, {
						"actualdate": "October",
						"month": "October"
					}, {
						"actualdate": "November",
						"month": "November"
					}, {
						"actualdate": "December",
						"month": "December"
					}
				]
			}, {
				"name": "Brisbane",
				"value": [{
						"actualdate": "February",
						"month": "February"
					}, {
						"actualdate": "March",
						"month": "March"
					}, {
						"actualdate": "April",
						"month": "April"
					}, {
						"actualdate": "May",
						"month": "May"
					}, {
						"actualdate": "June",
						"month": "June"
					}, {
						"actualdate": "July",
						"month": "July"
					}, {
						"actualdate": "August",
						"month": "August"
					}, {
						"actualdate": "September",
						"month": "September"
					}, {
						"actualdate": "October",
						"month": "October"
					}, {
						"actualdate": "November",
						"month": "November"
					}, {
						"actualdate": "December",
						"month": "December"
					}
				]
			}
		],
		"more_details": ""
	},
	"course_outline": {
		"majors": [],
		"minors": [],
		"more_details": ""
	},
	"application_fee": "",
	"course_career_outcome": [],
	"course_country": "Australia",
	"course_tuition_fee": {
		"fees": [{
				"name": "Perth",
				"value": {
					"international_student": {
						"amount": 10250,
						"duration": 52,
						"unit": "weeks",
						"description": "$AU 10,250  "
					},
					"fee_duration_years": "1",
					"currency": "AUD"
				}
			}, {
				"name": "Brisbane",
				"value": {
					"international_student": {
						"amount": 10250,
						"duration": 52,
						"unit": "weeks",
						"description": "$AU 10,250  "
					},
					"fee_duration_years": "1",
					"currency": "AUD"
				}
			}
		]
	},
	"course_id": "bsb51918diplomaofleadershipandmanagement(notavailableinnsw)"
}
