[
    {
        "univ_id": "westernsydneyuniversity",
        "univ_url": "https://www.westernsydney.edu.au/",
        "univ_name": "Western Sydney University",
        "univ_country": "Australia",
        "course_current_year": "2019",
        "univ_about": "The University of Western Sydney (UWS) began operation on 1st January 1989, under the terms of the University of Western Sydney Act, 1988 which had been passed by the New South Wales Parliament in December 1988. However, the predecessors of the University date back as far as 1891 with the establishment of the Hawkesbury Agricultural College.\n\nThe Act created a federated network university, based on two existing Colleges of Advanced Education - Hawkesbury Agricultural College and Nepean College of Advanced Education.\n\nFollowing incorporation into the University, the foundation network members were known as the 'University of Western Sydney, Hawkesbury' (UWS Hawkesbury) and the 'University of Western Sydney, Nepean' (UWS Nepean).\n\nThe Act was amended by the University of Western Sydney (Amendment) Act, 1989 (Act No. 128, 1989) and the Macarthur Institute of Higher Education became the third University member on 1 November 1989. The new campus was known as the 'University of Western Sydney, Macarthur' (UWS Macarthur).\n\nIn 1995 a review of the structure of UWS was undertaken. The Report of the Committee to Review the Structure of the University of Western Sydney (the Rogers Report) recommended restructuring the institution and a new federated University system emerged. The University of Western became a federated university system comprising four co-operative and interrelated elements: Office of the Vice-Chancellor, UWS Hawkesbury, UWS Macarthur, UWS Nepean.\n\nThis federated system ensured the University was represented at a national and international level as a single institution with common objectives and values, while giving each of its Members the autonomy needed to react quickly and flexibly to the demands and needs of its local communities. The principal advantage of the federated network structure was the opportunity to build on the individual strengths of each member university, and through the University as a whole to define and achieve objectives that the individual members might have found unattainable. Each member was largely autonomous and responsible for: the development and conduct of courses; the admission of students; the initiation and supervision of research programs; staffing; the development of consultancy and entrepreneurial activities; and the development and maintenance of campus facilities and properties.\n\nOn 26 November 1997, the University of Western Sydney Act, 1997 (Act No. 116, 1997) was passed by the State Parliament. This Act which replaced the original Act came into force on 1 January 1998.\n\nFollowing consultation across UWS the Vice Chancellor put proposals before the UWS Board of Trustees at the end of 1999 for a major restructure of the University. The Board approved the principles of the restructure, and the consequent detailed work to be undertaken to develop the new structure. From the beginning of 2001 the University of Western Sydney operated as a single multi-campus university rather than as a federation.\n\nThe new structure of the university was outlined in the 2001 Calendar with revisions and changes outlined in the 2002 Calendar.\n\nThe single multi-campus University of Western Sydney has six campuses: Bankstown, Blacktown, Campbelltown, Hawkesbury, Parramatta, and Penrith.",
        "univ_logo": "univ_wsu/univ_logo.png",
        "univ_accomodation": {
            "applicant": 20290,
            "partner": 7100,
            "child": 3040,
            "currency": "AUD",
            "more_details_univ_website": "https://www.westernsydney.edu.au/future/student-life/accommodation.html",
            "more_details": "https://www.studyinaustralia.gov.au/english/live-in-australia/living-costs"
        },
        "university_type": "Government",
        "univ_rankings": {
            "rankings": [
                {
                    "name": "QS World University Rankings",
                    "level": [
                        {
                            "name": "Australia",
                            "value": "25"
                        },
                        {
                            "name": "World",
                            "value": "498"
                        }
                    ]
                },
                {
                    "name": "Times Higher Education World University Rankings",
                    "level": [
                        {
                            "name": "Australia",
                            "value": "22"
                        },
                        {
                            "name": "World",
                            "value": "351-400"
                        }
                    ]
                },
                {
                    "name": "Academic Ranking of World Universities 2018",
                    "level": [
                        {
                            "name": "Australia",
                            "value": "22-23"
                        },
                        {
                            "name": "World",
                            "value": "401-500"
                        }
                    ]
                }
            ]
        },
        "univ_scholarship": {
            "scholarship": "Western Sydney University has a range of scholarships available for international students seeking admission to undergraduate programs. Scholarships valued at $7,500, $5,000 or 50% of tuition fees are awarded on academic merit.",
            "more_details": "https://www.westernsydney.edu.au/international/home/apply/admissions/scholarships"
        },
        "contactInformation": {
            "university": {
                "address": "Western Sydney University, Bankstown, Bullecourt Avenue, Milperra NSW, Australia",
                "inquiry_no": [],
                "place_id": "ChIJdzg4mVy-EmsR4XQzL9TjmMQ",
                "contact_info": [
                    {
                        "name": "",
                        "phone_no": "1300897669",
                        "fax": "",
                        "email_address": "study@westernsydney.edu.au",
                        "description": ""
                    },
                    {
                        "name": "",
                        "phone_no": "+61298525222",
                        "email_address": "",
                        "fax": "",
                        "description": ""
                    }
                ]
            },
            "campus": [
                {
                    "name": "Bankstown",
                    "overview": "Our Bankstown campus offers you state-of-the-art computer labs and study areas, great cafés and on-campus activities, plus a full range of student services.",
                    "additional_info": "",
                    "address": "Bankstown Campus Oval, Bullecourt Avenue, Milperra NSW, Australia",
                    "inquiry_no": [],
                    "place_id": "ChIJSZ4rFlu-EmsRP4NYpb2KJ-E",
                    "contact_info": [
                        {
                            "name": "",
                            "phone_no": "0298525222",
                            "email_address": "",
                            "fax": "",
                            "description": ""
                        }
                    ]
                },
                {
                    "name": "Campbelltown",
                    "overview": "Western is a university of the people. That means being where the people are. Campbelltown campus is close to everything that’s great about Western Sydney fantastic cafes and world-class facilities.",
                    "additional_info": "",
                    "address": "Western Sydney University Campbelltown Campus, Campbelltown NSW, Australia",
                    "inquiry_no": [],
                    "place_id": "ChIJvUe6GbXvEmsROk5-dGQddis",
                    "contact_info": [
                        {
                            "name": "",
                            "phone_no": "0298525222",
                            "email_address": "",
                            "fax": "",
                            "description": ""
                        }
                    ]
                },
                {
                    "name": "Hawkesbury",
                    "overview": "Hawkesbury campus gives you access to cutting-edge facilities. Allows you to enrich your mind and get your hands dirty. Prepares you to take on the world of tomorrow.",
                    "additional_info": "",
                    "address": "Hawkesbury Campus - Student Central, Richmond NSW, Australia",
                    "inquiry_no": [],
                    "place_id": "ChIJUdkGvaOCEmsRyjiL3Cev9Vw",
                    "contact_info": [
                        {
                            "name": "",
                            "phone_no": "0298525222",
                            "email_address": "",
                            "fax": "",
                            "description": ""
                        }
                    ]
                },
                {
                    "name": "Liverpool City",
                    "overview": "The Ngara Ngura Building in Liverpool City is our brand new, state-of-the-art campus. Its facilities, transport options, and student activities are just as impressive. Get ready to reach your unlimited potential. Expand your mind. And thrive in the big, wide world.",
                    "additional_info": "",
                    "address": "Liverpool Campus, Macquarie Street, Liverpool NSW, Australia",
                    "inquiry_no": [],
                    "place_id": "ChIJWeZ-ybiVEmsRgxBauetvRsc",
                    "contact_info": [
                        {
                            "name": "",
                            "phone_no": "0298525222",
                            "email_address": "",
                            "fax": "",
                            "description": ""
                        }
                    ]
                },
                {
                    "name": "Nirimba",
                    "overview": "Nirimba is a leafy green campus combining modern architecture with rolling hills, blue skies and landscaped gardens.",
                    "additional_info": "",
                    "address": " Nirimba, Eastern Road, Quakers Hill NSW, Australia",
                    "inquiry_no": [],
                    "place_id": "ChIJNwnsT0yZEmsRikn8xg7LfVQ",
                    "contact_info": [
                        {
                            "name": "",
                            "phone_no": "0298525222",
                            "email_address": "",
                            "fax": "",
                            "description": ""
                        }
                    ]
                },
                {
                    "name": "Parramatta City",
                    "overview": "Our Parramatta City campus is home to state-of-the-art learning facilities and unique study spaces. Gives you access to leaders in industry, community and government. Plus, you’re just metres from hundreds of speciality shops, great cafés, and places to chill with friends.",
                    "additional_info": "",
                    "address": "Parramatta Campus, Parramatta NSW, Australia",
                    "inquiry_no": [],
                    "place_id": "ChIJIXMmjnujEmsRmXdN6F5dAUI",
                    "contact_info": [
                        {
                            "name": "",
                            "phone_no": "0298525222",
                            "email_address": "",
                            "fax": "",
                            "description": ""
                        }
                    ]
                },
                {
                    "name": "Parramatta South",
                    "overview": "Parramatta is rapidly becoming the heart of Sydney’s business, creative and cultural landscape. Western’s Parramatta campus offers cutting-edge facilities and technology. Gives you access to world-class academics. Connects you to the epicentre of a future yet to be imagined.",
                    "additional_info": "",
                    "address": "Parramatta South Campus Student Central, Building, Parramatta NSW, Australia",
                    "inquiry_no": [],
                    "place_id": "ChIJfar9XG2jEmsR5JOSRaBklvE",
                    "contact_info": [
                        {
                            "name": "",
                            "phone_no": "0298525222",
                            "email_address": "",
                            "fax": "",
                            "description": ""
                        }
                    ]
                },
                {
                    "name": "Penrith",
                    "overview": "Get ready to reach your unlimited potential. Expand your mind. And thrive in the big, wide world with facilities, transport options, and student activities.",
                    "additional_info": "",
                    "address": " Penrith Campus, Second Ave, Kingswood NSW, Australia",
                    "inquiry_no": [],
                    "place_id": "ChIJbwMFu32FEmsR-kJxQYH-dPg",
                    "contact_info": [
                        {
                            "name": "",
                            "phone_no": "0298525222",
                            "email_address": "",
                            "fax": "",
                            "description": ""
                        }
                    ]
                },
                {
                    "name": "Sydney City",
                    "overview": "Our brand new Sydney City Campus brings the same Western Sydney University experience to the heart of Sydney city. The campus is within walking distance of the iconic Sydney Opera House and Harbour Bridge.",
                    "additional_info": "",
                    "address": "Sydney Campus, Elizabeth Street, Sydney NSW, Australia",
                    "inquiry_no": [],
                    "place_id": "ChIJEbnHkD2uEmsRI_j-lau-Ep4",
                    "contact_info": [
                        {
                            "name": "",
                            "phone_no": "0298525222",
                            "email_address": "",
                            "fax": "",
                            "description": ""
                        }
                    ]
                },
                {
                    "name": "Sydney Olympic Park",
                    "overview": "Sydney Olympic Park campus is in the heart of Sydney's famous Olympic precinct, with a bustling cafe and restaurant district, renowned stadiums and sporting facilities, entertainment venues, parks, medical centres, banks, retail shops and open spaces.",
                    "additional_info": "",
                    "address": " Sydney Olympic Park Campus Student Central, Australia Avenue, Sydney Olympic Park NSW, Australia",
                    "inquiry_no": [],
                    "place_id": "ChIJhadYI8ikEmsRnMCUJV1gNMs",
                    "contact_info": [
                        {
                            "name": "",
                            "phone_no": "0298525222",
                            "email_address": "",
                            "fax": "",
                            "description": ""
                        }
                    ]
                }
            ]
        },
        "apply_url": "https://www.westernsydney.edu.au/international/home/apply/admissions",
        "placement_url": "https://www.westernsydney.edu.au/careers/home",
        "brochure_path": [
            {
                "name": "univ_wsu/westernsydneyuniversity_1.pdf",
                "text": "International Student Course Guide 2019"
            }
        ],
        "application_fee": "",
        "facebook_page_name": "westernsydneyu",
        "twitter_page_name": "westernsydneyu",
        "youtube_page_name": "UCcS3GwkIaSyxZlpxrtfpTmA",
        "abbreviation": "wsu",
        "category": [
            "Arts",
            "Business",
            "Creative Industries",
            "Engineering",
            "Health and Sport Sciences",
            "Information Technology",
            "Law",
            "Medicine",
            "Nursing and Midwifery",
            "Criminology and Policing",
            "Psychology",
            "Science",
            "Social Science",
            "Teaching and Education",
            "Tourism and Urban Planning",
            "Higher Degree Research",
            "Investigate The Mind"
        ]
    }
]