[
  {
    "univ_country": "Australia",
    "univ_rankings": {
      "rankings": [
        {
          "name": "QS World University Rankings",
          "level": [
            {
              "name": "World",
              "value": "651-700"
            }
          ]
        },
        {
          "name": "Times Higher Education World University Rankings 2018",
          "level": [
            {
              "name": "World",
              "value": "101-150"
            }
          ]
        }
      ]
    },
    "university_type": "Government",
    "univ_name": "Edith Cowan University",
    "univ_accomodation": {
      "applicant": 20290,
      "partner": 7100,
      "child": 3040,
      "currency": "AUD",
      "more_details_univ_website": "https://intranet.ecu.edu.au/student/campus-life/campus-facilities/accommodation",
      "more_details": "https://www.studyinaustralia.gov.au/english/live-in-australia/living-costs"
    },
    "logo_url": "univ_ecu/univ_logo.png",
    "course_intake": [
      "January 21",
      "May 27"
    ],
    "ielts_mapping": [
      {
        "courses": "Bachelor of Education (Early Childhood Studies)",
        "ielts": "Students must attain an Academic IELTS with an average level of 7.5 or more, across the four components of listening, speaking, reading and writing; no score below level 7.0 in any of these components; and, a score of 8.0 or more in the components of speaking and listening."
      },
      {
        "courses": "Bachelor of Education (Primary)",
        "ielts": "Students must attain an Academic IELTS with an average level of 7.5 or more, across the four components of listening, speaking, reading and writing; no score below level 7.0 in any of these components; and, a score of 8.0 or more in the components of speaking and listening."
      },
      {
        "courses": "Bachelor of Education (Secondary)",
        "ielts": "Students must attain an Academic IELTS with an average level of 7.5 or more, across the four components of listening, speaking, reading and writing; no score below level 7.0 in any of these components; and, a score of 8.0 or more in the components of speaking and listening."
      },
      {
        "courses": "Bachelor of Science (Nursing)",
        "ielts": "IELTS Academic with a minimum overall score of 7.0 and a minimum score of 7.0 in each of the four components (listening, reading, writing and speaking)"
      },
      {
        "courses": "Bachelor of Science (Nursing)/Bachelor of Science (Midwifery)",
        "ielts": "IELTS Academic with a minimum overall score of 7.0 and a minimum score of 7.0 in each of the four components (listening, reading, writing and speaking)"
      },
      {
        "courses": "Bachelor of Science (Occupational Therapy)",
        "ielts": "International students are required to provide an IELTS Academic with an overall minimum score of 7.5 (no individual band less than 7.0)."
      },
      {
        "courses": "Bachelor of Science (Occupational Therapy) Honours",
        "ielts": "International students are required to provide an IELTS Academic with an overall minimum score of 7.5 (no individual band less than 7.0)."
      },
      {
        "courses": "Bachelor of Speech Pathology",
        "ielts": "International students are required to provide an English language test approved by ECU with a score equivalent to an IELTS Academic overall minimum score of 7.5 (no individual band less than 7.0)"
      },
      {
        "courses": "Bachelor of Speech Pathology Honours",
        "ielts": "International students are required to provide an English language test approved by ECU with a score equivalent to an IELTS Academic overall minimum score of 7.5 (no individual band less than 7.0)"
      },
      {
        "courses": "Doctor of Philosophy",
        "ielts":"a score equivalent to an IELTS Academic overall minimum score of 7.0 (no individual band less than 7.0). Internationally schooled applicants may also be required to meet this requirement or we may require additional information to confirm that requirements have been satisfied"
      },
      {
        "courses": "Doctor of Philosophy (Integrated)",
        "ielts":"a score equivalent to an IELTS Academic overall minimum score of 7.0 (no individual band less than 7.0). Internationally schooled applicants may also be required to meet this requirement or we may require additional information to confirm that requirements have been satisfied"
      },
      {
        "courses": "Graduate Certificate of Education (Early Childhood Studies)",
        "ielts":"Students must attain an IELTS Academic with an average level of 7.0 or more, across the four components of listening, speaking, reading and writing; no score below level 7.0 in any of these components."
      },
      {
        "courses": "Master of Midwifery (Research)",
        "ielts":"International students are required to provide an IELTS Academic with an overall minimum score of 7.0 (no individual band less than 7.0) or any other equivalent test approved by AHPRA"
      },
      {
        "courses": "Master of Nursing (Graduate Entry)",
        "ielts": "IELTS Academic with a minimum overall score of 7.0 and a minimum score of 7.0 in each of the four components (listening, reading, writing and speaking)"
      },
      {
        "courses": "Master of Nursing (Research)",
        "ielts": "a score equivalent to an IELTS Academic overall minimum score of 7.0 (no individual band less than 7.0). Internationally schooled applicants may also be required to meet this requirement or we may require additional information to confirm that requirements have been satisfied."
      },
      {
        "courses": "Master of Nutrition and Dietetics",
        "ielts": "International students are required to provide an IELTS Academic with an overall minimum score of 7.0 (no individual band less than 6.5)."
      },
      {
        "courses": "Master of Psychology",
        "ielts": "International students are required to provide an IELTS Academic with an overall minimum score of 7.0 (no individual band less than 6.5)"
      },
      {
        "courses": "Master of Teaching (Early Childhood)",
        "ielts": "Students must attain an IELTS Academic with an average level of 7.5 or more, across the four components of listening, speaking, reading and writing; no score below level 7.0 in any of these components; and, a score of 8.0 or more in the components of speaking and listening"
      },
      {
        "courses": "Master of Teaching (Primary)",
        "ielts": "Students must attain an IELTS Academic with an average level of 7.5 or more, across the four components of listening, speaking, reading and writing; no score below level 7.0 in any of these components; and, a score of 8.0 or more in the components of speaking and listening"
      },
      {
        "courses": "Master of Teaching (Secondary)",
        "ielts": "Students must attain an IELTS Academic with an average level of 7.5 or more, across the four components of listening, speaking, reading and writing; no score below level 7.0 in any of these components; and, a score of 8.0 or more in the components of speaking and listening"
      }
    ],
    "ielts_mapping_default": [
      {
        "level": "ug",
        "ielts": "An overall band score of 6.0, with no individual band less than 6.0",
        "toefl": "Minimum score of 550, including Test of Written English of 5 or better",
        "ibt": "Minimum score of 70, with no individual score less than 17",
        "pte": "PTE Academic 52, with no scores less than 50 for courses with a current requirement of Academic IELTS 6.0"
        
      },
      {
        "level": "pg",
        "ielts": "An overall band score of 6.5, with no individual band less than 6.0",
        "toefl": "Minimum score of 573, including Test of Written English of 5.0 or better",
        "ibt": "Minimum score of 84, with no individual score less than 17",
        "pte": "PTE Academic 58, with no score less than 50 for postgraduate standard entry courses"
       
      }
    ],
    
    "course_tuition_fees_currency": "AUD",
    "course_tuition_fee_duration_years": "1",
    "english_more": "https://www.ecu.edu.au/future-students/course-entry/english-competency",
    "course_admission_english_more_details": "https://www.ecu.edu.au/future-students/course-entry",
    "Semester1": "24 Feb,2020",
    "Semester2": "27 Jul,2020",
    "intake_url": "https://intranet.ecu.edu.au/__data/assets/pdf_file/0010/651970/2020-Academic-Calendar.pdf",
    "program_code": [],
    "campuses": [
      "South West",
      "Mount Lawley",
      "Joondalup"
    ],
    "contactInformation": [
      {
          "name": "Joondalup",
          "address": "270 Joondalup Dr, Joondalup WA 6027, Australia",
          "inquiry_no": [],
          "place_id": "ChIJIWUQjU9TzSsR9EEzL8SbRQ0",
          "contact_info": [
              {
                  "name": "",
                  "phone_no": "+61134328",
                  "fax": "",
                  "email_address": "",
                  "description": ""
              }
          ],
          "cricos_provider_code": "00279B",
          "vtour_url": "https://www.google.com/maps/embed?pb=!4v1575264952878!6m8!1m7!1sCAoSLEFGMVFpcE9UdXFZVm5raG1zSmdaMGF5VWVlS3lGbU5XTzFXeHJDVEs0TW5J!2m2!1d-31.7526674!2d115.7728653!3f176.87452802418613!4f9.384604730227537!5f0.7820865974627469",
          "type": "University"
      },
      {
          "name": "Mount Lawley",
          "overview": "Our Mount Lawley Campus is only minutes from Perth CBD and the Beaufort Street cafe strip. It is equipped with extensive teaching resources, first-rate IT and performing arts facilities, a sport and fitness centre and on-campus accommodation. The campus is also home to the Western Australian Academy of Performing Arts (WAAPA).",
          "additional_info": "",
          "address": "Edith Cowan University,2 Bradford Street,Mount Lawley WA 6050,Australia",
          "inquiry_no": [],
          "place_id": "ChIJATcZ3aS6MioR3CEUev6zPwY",
          "contact_info": [
              {
                  "name": "",
                  "phone_no": "61863040000",
                  "email_address": "",
                  "fax": "",
                  "description": ""
              }
          ],
          "cricos_provider_code": "00279B",
          "vtour_url": "https://www.google.com/maps/embed?pb=!4v1575366738197!6m8!1m7!1sXxAMbEroqzLmwjK-mYGJJA!2m2!1d-31.91919630578089!2d115.8702904163221!3f90.17482311774525!4f-33.804206458269995!5f0.7820865974627469",
          "type": "Campus"
      },
      {
          "name": "South West",
          "overview": "Located two hours' drive south of Perth, our South West Campus (Bunbury) is within easy reach of the world-famous Margaret River region. The Campus is the largest university campus outside the metropolitan area and features modern facilities, small class sizes, a comprehensive range of courses and on-campus accommodation.",
          "additional_info": "",
          "address": "Edith Cowan University,585 Robertson Drive,Bunbury WA 6230,Australia",
          "inquiry_no": [],
          "place_id": "ChIJP6hT_6QdLioRNvSuIV_OQsA",
          "contact_info": [
              {
                  "name": "",
                  "phone_no": "61863040000",
                  "email_address": "",
                  "fax": "",
                  "description": ""
              }
          ],
          "cricos_provider_code": "00279B",
          "vtour_url": "https://www.google.com/maps/embed?pb=!4v1575265097137!6m8!1m7!1sCAoSLEFGMVFpcE9NejE2SVk2MGJsTTQwT0cyc25KemNvQmEwN1Q0M3lDQzFzdnly!2m2!1d-33.36691028672529!2d115.6532437708423!3f160.1653314305005!4f-19.58036951709262!5f0.7820865974627469",
          "type": "Campus"
      }
  ],
    "apply_url": "https://www.ecu.edu.au/future-students/applying",
    "placement_url": "https://www.ecu.edu.au/schools/arts-and-humanities/courses/professional-placement",
    "brochure_path": [
      {
        "name": "univ_ecu/edithcowanuniversity_1.pdf",
        "text": "Postgraduate Course Guide"
      },
      {
        "name": "univ_ecu/edithcowanuniversity_2.pdf",
        "text": "International Counselling Guide"
      }
    ],
    "application_fee": "75",
    "facebook_page_name": "ECUjourney",
    "twitter_page_name": "edithcowanuni",
    "youtube_page_name": "EdithCowanUniversity",
    "abbreviation": "ecu"
    
  }
]