{
      "univ_id": "universityoftasmania",
      "course_title": "Bachelor Of Agricultural Science With Honours (s4a)",
      "course_discipline": [
            "Agriculture"
      ],
      "course_study_level": "Undergraduate",
      "course_admission_requirement": {
            "english": [
                  {
                        "name": "ielts academic",
                        "description": "6.0 (no individual band less than 5.5)",
                        "min": 0,
                        "require": 6,
                        "max": 9,
                        "R": 0,
                        "W": 0,
                        "S": 0,
                        "L": 0,
                        "O": 0
                  },
                  {
                        "name": "toefl ibt",
                        "description": "72 (no skill below: Reading 10; Listening 9; Speaking 16; Writing 19)",
                        "min": 0,
                        "require": 72,
                        "max": 9,
                        "R": 0,
                        "W": 0,
                        "S": 0,
                        "L": 0,
                        "O": 0
                  },
                  {
                        "name": "pte academic",
                        "description": "50 with no score lower than 42",
                        "min": 0,
                        "require": 50,
                        "max": 9,
                        "R": 0,
                        "W": 0,
                        "S": 0,
                        "L": 0,
                        "O": 0
                  }
            ],
            "academic": [
                  "Prospective Honours students must gain a minimum 65% credit average in Year 3 of the BAgrSc course. Eligible students will be notified of their acceptance following publication of Year-3 results."
            ],
            "academic_requirements_url": "https://www.utas.edu.au/international/applying/entry-requirements/equivalent-undergraduate-entry-requirements-by-country",
            "english_requirements_url": "http://www.utas.edu.au/international/applying/entry-requirements/english-language-requirements",
            "entry_requirements_url": ""
      },
      "course_url": "https://www.utas.edu.au/courses/cse/courses/s4a-bachelor-of-agricultural-science-with-honours",
      "program_code": "",
      "course_campus_location": [
            {
                  "name": "Hobart",
                  "city": "",
                  "state": "",
                  "country": "",
                  "iscurrent": true
            }
      ],
      "course_study_mode": "On campus",
      "course_cricos_code": [
            {
                  "location": "Hobart",
                  "code": "094552A",
                  "iscurrent": true
            }
      ],
      "course_duration": [
            {
                  "duration_full_time": "minimum 4 years"
            }
      ],
      "course_duration_display": [
            {
                  "unit": "years",
                  "duration": "4",
                  "display": "Full-Time",
                  "filterduration": 4
            }
      ],
      "isfulltime": true,
      "isparttime": false,
      "course_tuition_fee": {
            "fees": [
                  {
                        "name": "Hobart",
                        "value": {
                              "international_student": [
                                    {
                                          "amount": 35950,
                                          "duration": 1,
                                          "unit": "Year",
                                          "isfulltime": true,
                                          "description": "Course cost based on a rate of $35,950 AUD per standard, full-time year of study (100 credit points).",
                                          "type": ""
                                    }
                              ],
                              "fee_duration_years": "1",
                              "currency": "AUD",
                              "international_student_all_fees": [
                                    "2020 Total Course Fee (international students): $151,527 AUD*."
                              ]
                        },
                        "iscurrent": true
                  }
            ]
      },
      "course_intake": {
            "intake": [
                  {
                        "name": "Hobart",
                        "value": [
                              {
                                    "actualdate": "24 February 2020",
                                    "month": "February",
                                    "intake": "Summer",
                                    "filterdate": "2020-02-24"
                              }
                        ],
                        "iscurrent": true
                  }
            ],
            "more_details": "https://www.utas.edu.au/key-dates/key-university-dates-2020"
      },
      "course_overview": "Bachelor of Agricultural Science (73M) students who have completed their third-year of study with sufficient merit will be invited by the head of discipline to undertake Honours (embedded) as part of their fourth year of study.  Students will transfer to S4A in their final year of study.\n\nBy undertaking Honours student will gain knowledge, skills, competencies and awareness in preparation for employment in agricultural research organisations and businesses as well as for higher degree research.",
      "course_career_outcome": [
            "Students are well prepared for employment in research and other positions with industry, government and business organisations. An Honours degree also enables graduates to apply to undertake a Masters or PhD degree. Graduates of the course are eligible for membership of the Australian Institute of Agricultural Science and Technology (AIAST)"
      ],
      "course_country": "Australia",
      "course_id": "bachelorofagriculturalsciencewithhonours(s4a)",
      "basecourseid": "bachelorofagriculturalsciencewithhonours(s4a)"
}