{
<<<<<<< HEAD
      "univ_id": "ihnainstituteofhealthandnursing",
      "course_title": "Diploma Of Leadership And Management",
      "course_url": "https://ihna.edu.au/courses/diploma-leadership-management-int/",
      "course_study_mode": "On campus",
      "course_campus_location": [
            {
                  "name": "Melbourne (Heidelberg)",
                  "code": "099947G"
            },
            {
                  "name": "Sydney (Parramatta)",
                  "code": "099947G"
            },
            {
                  "name": "Perth (SGT)",
                  "code": "099947G"
            }
      ],
      "course_discipline": [
            "Management and Commerce"
      ],
      "program_code": "BSB51918",
      "course_study_level": "Diploma",
      "course_duration": "Duration  : 1 year",
      "course_duration_display": [
            {
                  "unit": "year",
                  "duration": "1",
                  "display": "Full-Time",
                  "filterduration": 1
            }
      ],
      "isfulltime": true,
      "isparttime": false,
      "course_admission_requirement": {
            "english": [
                  {
                        "name": "ielts academic",
                        "description": "International English Language Testing System (IELTS) examination (Academic) with a minimum total band score of 5.5 and minimum score of 5.0 in each of the four components of listening, reading, writing and speaking or meets equivalent English language proficiency requirements",
                        "min": 0,
                        "require": 5.5,
                        "max": 9,
                        "R": 0,
                        "W": 0,
                        "S": 0,
                        "L": 0,
                        "O": 0
                  }
            ],
            "academic": [],
            "entry_requirements_url": "",
            "english_requirements_url": "",
            "academic_requirements_url": ""
      },
      "course_intake": {
            "intake": [
                  {
                        "name": "Melbourne (Heidelberg)",
                        "value": [
                              {
                                    "actualdate": "Apr 6, 2020",
                                    "month": "April"
                              },
                              {
                                    "actualdate": "Jul 6, 2020",
                                    "month": "July"
                              }
                        ]
                  },
                  {
                        "name": "Sydney (Parramatta)",
                        "value": [
                              {
                                    "actualdate": "Jul 6, 2020",
                                    "month": "July"
                              },
                              {
                                    "actualdate": "Apr 7, 2021",
                                    "month": "April"
                              }
                        ]
                  },
                  {
                        "name": "Perth (SGT)",
                        "value": [
                              {
                                    "actualdate": "Apr 20, 2020",
                                    "month": "April"
                              }
                        ]
                  }
            ],
            "more_details": "https://ihna.edu.au/students/course-calendar/?stud_type=1"
      },
      "course_overview": "This qualification reflects the role of individuals who apply knowledge, practical skills and experience in leadership and management across a range of enterprise and industry contexts.",
      "course_career_outcome": [
            "Formal learning – which takes place within an institution, such as in a school system, college or at TAFE, and is formally recognised with grades, diplomas or certificates;,Informal learning – occurs in a variety of places, such as at home, work, and through daily interactions and relationships with members of society;,Non-formal learning – you had a formal learning environment, but is not formally recognised within a curriculum or syllabus framework (e.g. from workshops, short courses, seminars, community or interest-based courses, conferences);,A mix of the above."
      ],
      "course_country": "Australia",
      "course_tuition_fee": {
            "fees": [
                  {
                        "name": "Melbourne (Heidelberg)",
                        "value": {
                              "international_student": {
                                    "amount": 8000,
                                    "duration": 1,
                                    "unit": "year",
                                    "description": "Total tuition cost for BSB51918 – Diploma of Leadership and Management course is AUD $8,000 for international students."
                              },
                              "fee_duration_years": "1",
                              "currency": "AUD"
                        }
                  },
                  {
                        "name": "Sydney (Parramatta)",
                        "value": {
                              "international_student": {
                                    "amount": 8000,
                                    "duration": 1,
                                    "unit": "year",
                                    "description": "Total tuition cost for BSB51918 – Diploma of Leadership and Management course is AUD $8,000 for international students."
                              },
                              "fee_duration_years": "1",
                              "currency": "AUD"
                        }
                  },
                  {
                        "name": "Perth (SGT)",
                        "value": {
                              "international_student": {
                                    "amount": 8000,
                                    "duration": 1,
                                    "unit": "year",
                                    "description": "Total tuition cost for BSB51918 – Diploma of Leadership and Management course is AUD $8,000 for international students."
                              },
                              "fee_duration_years": "1",
                              "currency": "AUD"
                        }
                  }
            ]
      },
      "course_outline": {
            "majors": [],
            "minors": [],
            "more_details": ""
      },
      "application_fee": "",
      "course_id": "diplomaofleadershipandmanagement"
=======
    "univ_id": "ihnainstituteofhealthandnursing",
    "course_title": "Diploma Of Leadership And Management",
    "course_url": "https://ihna.edu.au/courses/diploma-leadership-management-int/",
    "course_study_mode": "On campus",
    "course_campus_location": [
        {
            "name": "Melbourne (Heidelberg)",
            "code": "099947G"
        },
        {
            "name": "Perth",
            "code": "099947G"
        },
        {
            "name": "Sydney",
            "code": "099947G"
        }
    ],
    "course_discipline": [
        "Management and Commerce"
    ],
    "program_code": "BSB51918",
    "course_study_level": "Diploma",
    "course_duration": "1 year",
    "course_duration_display": [
        {
            "unit": "year",
            "duration": "1",
            "display": "Full-Time",
            "filterduration": 1
        }
    ],
    "isfulltime": true,
    "isparttime": false,
    "course_admission_requirement": {
        "english": [
            {
                "name": "ielts academic",
                "description": "International English Language Testing System (IELTS) examination (Academic) with a minimum total band score of 5.5 and minimum score of 5.0 in each of the four components of listening, reading, writing and speaking or meets equivalent English language proficiency requirements",
                "min": 0,
                "require": 5.5,
                "max": 9,
                "R": 0,
                "W": 0,
                "S": 0,
                "L": 0,
                "O": 0
            }
        ],
        "academic": [],
        "entry_requirements_url": "",
        "english_requirements_url": "",
        "academic_requirements_url": ""
    },
    "course_intake": {
        "intake": [
            {
                "name": "Melbourne (Heidelberg)",
                "value": [
                    {
                        "actualdate": "Apr 6, 2020",
                        "month": "April"
                    },
                    {
                        "actualdate": "Jul 6, 2020",
                        "month": "July"
                    }
                ]
            },
            {
                "name": "Sydney",
                "value": [
                    {
                        "actualdate": "Jul 6, 2020",
                        "month": "July"
                    },
                    {
                        "actualdate": "Apr 7, 2021",
                        "month": "July"
                    }
                ]
            },
            {
                "name": "Perth",
                "value": [
                    {
                        "actualdate": "Apr 20, 2020",
                        "month": "July"
                    }
                ]
            }
        ],
        "more_details": "https://ihna.edu.au/students/course-calendar/?stud_type=1"
    },
    "course_overview": [
        "This qualification reflects the role of individuals who apply knowledge, practical skills and experience in leadership and management across a range of enterprise and industry contexts."
    ],
    "course_career_outcome": [
        "Formal learning – which takes place within an institution, such as in a school system, college or at TAFE, and is formally recognised with grades, diplomas or certificates;",
        "Informal learning – occurs in a variety of places, such as at home, work, and through daily interactions and relationships with members of society;",
        "Non-formal learning – you had a formal learning environment, but is not formally recognised within a curriculum or syllabus framework (e.g. from workshops, short courses, seminars, community or interest-based courses, conferences);",
        "A mix of the above."
    ],
    "course_country": "Australia",
    "course_tuition_fee": {
        "fees": [
            {
                "name": "Melbourne (Heidelberg)",
                "value": {
                    "international_student": {
                        "amount": 8000,
                        "duration": 1,
                        "unit": "year",
                        "description": "Total tuition cost for BSB51918 – Diploma of Leadership and Management course is AUD $8,000 for international students."
                    },
                    "fee_duration_years": "1",
                    "currency": "AUD"
                }
            },
            {
                "name": "Perth",
                "value": {
                    "international_student": {
                        "amount": 8000,
                        "duration": 1,
                        "unit": "year",
                        "description": "Total tuition cost for BSB51918 – Diploma of Leadership and Management course is AUD $8,000 for international students."
                    },
                    "fee_duration_years": "1",
                    "currency": "AUD"
                }
            },
            {
                "name": "Sydney",
                "value": {
                    "international_student": {
                        "amount": 8000,
                        "duration": 1,
                        "unit": "year",
                        "description": "Total tuition cost for BSB51918 – Diploma of Leadership and Management course is AUD $8,000 for international students."
                    },
                    "fee_duration_years": "1",
                    "currency": "AUD"
                }
            }
        ]
    },
    "course_outline": {
        "majors": [],
        "minors": [],
        "more_details": ""
    },
    "application_fee": "",
    "course_id": "diplomaofleadershipandmanagement"
>>>>>>> e15c772eb3a767278f598d9ed85e1d7eab529a42
}